Distances between atoms, up to dmax=  6.00 A   (* = with lattice translation)
  #1  #2   bond       d
  17  26  Te-Zr    2.80529 A *
   8  24  Te-Zr    2.80533 A  
  14  25  Te-Zr    2.80535 A *
  19  23  Te-Zr    2.80539 A *
   5   8  Sc-Te    2.81709 A  
   6  14  Sc-Te    2.81710 A  
   4  14  Sc-Te    2.81711 A *
   5  19  Sc-Te    2.81711 A  
   3   8  Sc-Te    2.81712 A  
   6  17  Sc-Te    2.81713 A  
   3  19  Sc-Te    2.81713 A *
   4  17  Sc-Te    2.81716 A  
  16  26  Te-Zr    2.87157 A *
  20  26  Te-Zr    2.87157 A *
  13  24  Te-Zr    2.87158 A *
   9  24  Te-Zr    2.87159 A  
  18  23  Te-Zr    2.87166 A *
  11  25  Te-Zr    2.87167 A  
  22  23  Te-Zr    2.87167 A *
   7  25  Te-Zr    2.87167 A  
   6  22  Sc-Te    2.88293 A  
   4  18  Sc-Te    2.88293 A  
   5   7  Sc-Te    2.88296 A  
   3  11  Sc-Te    2.88296 A *
   5  20  Sc-Te    2.88300 A  
   6   9  Sc-Te    2.88301 A  
   3  16  Sc-Te    2.88302 A  
   4  13  Sc-Te    2.88303 A *
  17  30  Te-Zr    2.88499 A  
   8  30  Te-Zr    2.88500 A  
  17  28  Te-Zr    2.88500 A  
   8  28  Te-Zr    2.88501 A  
  14  29  Te-Zr    2.88505 A *
  14  27  Te-Zr    2.88507 A *
  19  29  Te-Zr    2.88507 A  
  19  27  Te-Zr    2.88508 A *
   2  11  Sc-Te    2.93245 A  
   2   7  Sc-Te    2.93246 A  
   1  22  Sc-Te    2.93249 A *
   1  18  Sc-Te    2.93249 A *
   1  13  Sc-Te    2.93258 A *
   2  16  Sc-Te    2.93258 A *
   1   9  Sc-Te    2.93258 A  
   2  20  Sc-Te    2.93259 A *
  20  30  Te-Zr    2.97918 A  
  16  28  Te-Zr    2.97918 A  
   9  30  Te-Zr    2.97919 A  
  13  28  Te-Zr    2.97920 A *
   7  29  Te-Zr    2.97928 A  
  22  29  Te-Zr    2.97928 A *
  11  27  Te-Zr    2.97928 A *
  18  27  Te-Zr    2.97929 A *
   2  15  Sc-Te    2.98602 A *
   1  10  Sc-Te    2.98608 A  
   1  21  Sc-Te    2.98616 A *
   2  12  Sc-Te    2.98617 A  
   6  10  Sc-Te    2.98666 A  
   4  10  Sc-Te    2.98666 A  
   5  15  Sc-Te    2.98668 A  
   3  15  Sc-Te    2.98669 A  
   5  12  Sc-Te    2.98678 A  
   6  21  Sc-Te    2.98679 A  
   3  12  Sc-Te    2.98681 A *
   4  21  Sc-Te    2.98681 A *
  13  26  Te-Zr    3.00373 A  
   9  26  Te-Zr    3.00374 A  
  16  24  Te-Zr    3.00375 A *
  20  24  Te-Zr    3.00376 A *
  18  25  Te-Zr    3.00379 A *
  11  23  Te-Zr    3.00380 A *
  22  25  Te-Zr    3.00380 A *
   7  23  Te-Zr    3.00381 A  
  21  24  Te-Zr    3.01078 A *
  12  26  Te-Zr    3.01079 A  
  15  25  Te-Zr    3.01087 A *
  10  23  Te-Zr    3.01088 A *
  21  30  Te-Zr    3.12429 A  
  12  30  Te-Zr    3.12430 A  
  12  28  Te-Zr    3.12431 A *
  21  28  Te-Zr    3.12432 A *
  15  29  Te-Zr    3.12437 A  
  10  29  Te-Zr    3.12437 A *
  15  27  Te-Zr    3.12439 A  
  10  27  Te-Zr    3.12440 A *
  27  29  Zr-Zr    3.21749 A *
  28  30  Zr-Zr    3.21756 A  
   2  25  Sc-Zr    3.42933 A  
   1  24  Sc-Zr    3.42934 A  
   1  23  Sc-Zr    3.42938 A *
   2  26  Sc-Zr    3.42943 A  
   5  30  Sc-Zr    3.48805 A  
   3  28  Sc-Zr    3.48806 A  
   4  27  Sc-Zr    3.48809 A *
   6  29  Sc-Zr    3.48809 A *
   3  27  Sc-Zr    3.48811 A  
   6  30  Sc-Zr    3.48812 A  
   5  29  Sc-Zr    3.48813 A  
   4  28  Sc-Zr    3.48815 A  
  26  30  Zr-Zr    3.61411 A *
  26  28  Zr-Zr    3.61411 A *
  23  27  Zr-Zr    3.61412 A *
  23  29  Zr-Zr    3.61412 A *
  24  28  Zr-Zr    3.61414 A  
  24  30  Zr-Zr    3.61414 A  
  25  29  Zr-Zr    3.61414 A  
  25  27  Zr-Zr    3.61414 A *
   7   8  Te-Te    3.82993 A  
  19  20  Te-Te    3.82993 A  
  17  22  Te-Te    3.82994 A  
   9  14  Te-Te    3.82996 A  
   8  11  Te-Te    3.82996 A *
  16  19  Te-Te    3.82996 A *
  17  18  Te-Te    3.82997 A  
  13  14  Te-Te    3.82998 A  
  11  19  Te-Te    3.85260 A *
  14  18  Te-Te    3.85260 A *
   8  16  Te-Te    3.85262 A *
  14  22  Te-Te    3.85262 A *
   7  19  Te-Te    3.85263 A *
   8  20  Te-Te    3.85265 A *
  13  17  Te-Te    3.85265 A *
   9  17  Te-Te    3.85266 A *
   9  13  Te-Te    3.85332 A  
  18  22  Te-Te    3.85337 A  
   7  11  Te-Te    3.85338 A *
  16  20  Te-Te    3.85338 A *
  12  21  Te-Te    3.94595 A  
  10  15  Te-Te    3.94611 A *
   9  21  Te-Te    4.00119 A  
  10  22  Te-Te    4.00120 A  
  13  21  Te-Te    4.00121 A  
   7  15  Te-Te    4.00122 A  
  10  18  Te-Te    4.00122 A  
  11  15  Te-Te    4.00124 A *
  12  20  Te-Te    4.00126 A  
  12  16  Te-Te    4.00128 A *
   3   5  Sc-Sc    4.03124 A  
   2   3  Sc-Sc    4.03128 A *
   2   5  Sc-Sc    4.03128 A *
   4   6  Sc-Sc    4.03128 A  
   1   6  Sc-Sc    4.03128 A  
   1   4  Sc-Sc    4.03128 A  
   1   4  Sc-Sc    4.03133 A *
   1   6  Sc-Sc    4.03134 A *
   4   6  Sc-Sc    4.03134 A *
   2   5  Sc-Sc    4.03134 A  
   2   3  Sc-Sc    4.03134 A *
   3   5  Sc-Sc    4.03137 A *
   8  12  Te-Te    4.05471 A  
  15  19  Te-Te    4.05471 A  
  10  14  Te-Te    4.05472 A  
  17  21  Te-Te    4.05472 A  
  17  21  Te-Te    4.05476 A *
  10  14  Te-Te    4.05476 A *
   8  12  Te-Te    4.05477 A *
  15  19  Te-Te    4.05477 A *
   9  12  Te-Te    4.05694 A  
  12  13  Te-Te    4.05695 A  
  20  21  Te-Te    4.05697 A  
  16  21  Te-Te    4.05698 A *
   7  10  Te-Te    4.05719 A *
  15  22  Te-Te    4.05720 A *
  10  11  Te-Te    4.05720 A *
  15  18  Te-Te    4.05720 A *
  23  25  Zr-Zr    4.06445 A  
  23  25  Zr-Zr    4.06446 A *
  24  26  Zr-Zr    4.06446 A *
  24  26  Zr-Zr    4.06447 A  
  12  16  Te-Te    4.07163 A *
  12  20  Te-Te    4.07165 A *
  11  15  Te-Te    4.07167 A *
  10  18  Te-Te    4.07169 A *
   7  15  Te-Te    4.07169 A *
  13  21  Te-Te    4.07170 A *
  10  22  Te-Te    4.07170 A *
   9  21  Te-Te    4.07171 A *
   7  16  Te-Te    4.08424 A *
  11  20  Te-Te    4.08424 A *
  13  22  Te-Te    4.08425 A *
   9  18  Te-Te    4.08425 A *
  10  17  Te-Te    4.15600 A  
   8  15  Te-Te    4.15600 A  
  12  19  Te-Te    4.15605 A  
  14  21  Te-Te    4.15606 A  
  16  20  Te-Te    4.20923 A  
   7  11  Te-Te    4.20923 A  
  18  22  Te-Te    4.20925 A *
   9  13  Te-Te    4.20929 A *
   9  17  Te-Te    4.22216 A  
  13  17  Te-Te    4.22218 A *
   8  20  Te-Te    4.22218 A  
  14  22  Te-Te    4.22220 A  
   7  19  Te-Te    4.22220 A  
   8  16  Te-Te    4.22221 A  
  14  18  Te-Te    4.22222 A *
  11  19  Te-Te    4.22222 A  
  13  20  Te-Te    4.24465 A *
   9  16  Te-Te    4.24465 A *
   7  18  Te-Te    4.24486 A *
  11  22  Te-Te    4.24486 A *
   7  12  Te-Te    4.29585 A  
  21  22  Te-Te    4.29586 A  
  15  20  Te-Te    4.29586 A  
  11  12  Te-Te    4.29587 A  
  18  21  Te-Te    4.29588 A *
  15  16  Te-Te    4.29588 A  
   9  10  Te-Te    4.29588 A  
  10  13  Te-Te    4.29590 A *
  17  20  Te-Te    4.44539 A  
  16  17  Te-Te    4.44540 A  
   8   9  Te-Te    4.44541 A  
   8  13  Te-Te    4.44542 A *
   7  14  Te-Te    4.44557 A *
  11  14  Te-Te    4.44558 A *
  19  22  Te-Te    4.44562 A *
  18  19  Te-Te    4.44563 A *
  25  27  Zr-Zr    4.46163 A *
  24  30  Zr-Zr    4.46163 A *
  25  29  Zr-Zr    4.46164 A *
  24  28  Zr-Zr    4.46164 A *
  23  29  Zr-Zr    4.46165 A  
  23  27  Zr-Zr    4.46166 A  
  26  28  Zr-Zr    4.46166 A *
  26  30  Zr-Zr    4.46166 A  
  20  28  Te-Zr    4.73486 A  
  16  30  Te-Zr    4.73487 A  
   9  28  Te-Zr    4.73489 A  
   7  27  Te-Zr    4.73490 A *
  13  30  Te-Zr    4.73490 A *
  11  29  Te-Zr    4.73491 A  
  22  27  Te-Zr    4.73491 A *
  18  29  Te-Zr    4.73491 A *
   8  17  Te-Te    4.78959 A  
  14  19  Te-Te    4.78980 A *
   2  19  Sc-Te    4.80874 A *
   2  19  Sc-Te    4.80877 A *
   1  14  Sc-Te    4.80878 A  
   1  14  Sc-Te    4.80881 A *
   2   8  Sc-Te    4.80884 A  
   1  17  Sc-Te    4.80884 A *
   1  17  Sc-Te    4.80887 A *
   2   8  Sc-Te    4.80887 A *
  21  26  Te-Zr    4.81912 A *
  12  24  Te-Zr    4.81912 A  
  21  26  Te-Zr    4.81914 A *
  12  24  Te-Zr    4.81914 A *
  10  25  Te-Zr    4.81918 A *
  15  23  Te-Zr    4.81918 A *
  15  23  Te-Zr    4.81920 A *
  10  25  Te-Zr    4.81920 A *
  28  30  Zr-Zr    4.84506 A *
  27  29  Zr-Zr    4.84513 A  
   4  22  Sc-Te    4.88316 A  
   3   7  Sc-Te    4.88316 A  
   6  18  Sc-Te    4.88317 A  
   5  11  Sc-Te    4.88318 A *
   4   9  Sc-Te    4.88322 A *
   6  13  Sc-Te    4.88322 A  
   3  20  Sc-Te    4.88325 A *
   5  16  Sc-Te    4.88326 A *
   4  22  Sc-Te    4.94181 A *
   6  18  Sc-Te    4.94182 A *
   5  11  Sc-Te    4.94184 A *
   3   7  Sc-Te    4.94184 A *
   5  16  Sc-Te    4.94186 A *
   3  20  Sc-Te    4.94187 A *
   6  13  Sc-Te    4.94190 A *
   4   9  Sc-Te    4.94191 A *
  17  24  Te-Zr    4.95456 A  
   8  26  Te-Zr    4.95459 A *
  14  23  Te-Zr    4.95465 A *
  19  25  Te-Zr    4.95469 A  
  16  30  Te-Zr    4.98408 A *
  20  28  Te-Zr    4.98409 A *
  13  30  Te-Zr    4.98410 A *
   9  28  Te-Zr    4.98411 A *
  11  29  Te-Zr    4.98412 A *
   7  27  Te-Zr    4.98413 A *
  18  29  Te-Zr    4.98414 A *
  22  27  Te-Zr    4.98416 A *
   5  28  Sc-Zr    5.01370 A  
   3  30  Sc-Zr    5.01372 A  
   4  29  Sc-Zr    5.01373 A *
   6  27  Sc-Zr    5.01374 A *
   5  27  Sc-Zr    5.01377 A *
   6  28  Sc-Zr    5.01377 A  
   3  29  Sc-Zr    5.01377 A *
   4  30  Sc-Zr    5.01378 A  
   1  17  Sc-Te    5.02496 A  
   2  19  Sc-Te    5.02498 A  
   2   8  Sc-Te    5.02499 A *
   1  14  Sc-Te    5.02501 A *
   4  22  Sc-Te    5.02793 A *
   5  16  Sc-Te    5.02794 A  
   3  20  Sc-Te    5.02794 A  
   6  18  Sc-Te    5.02795 A *
   3   7  Sc-Te    5.02796 A *
   5  11  Sc-Te    5.02797 A  
   6  13  Sc-Te    5.02798 A *
   4   9  Sc-Te    5.02799 A  
  17  24  Te-Zr    5.09764 A *
   8  26  Te-Zr    5.09766 A  
  17  24  Te-Zr    5.09766 A *
  14  23  Te-Zr    5.09766 A *
   8  26  Te-Zr    5.09768 A *
  14  23  Te-Zr    5.09768 A *
  19  25  Te-Zr    5.09768 A *
  19  25  Te-Zr    5.09770 A *
   5  26  Sc-Zr    5.12149 A *
   3  26  Sc-Zr    5.12151 A *
   6  24  Sc-Zr    5.12152 A  
   4  23  Sc-Zr    5.12153 A *
   4  24  Sc-Zr    5.12153 A  
   6  23  Sc-Zr    5.12154 A *
   3  25  Sc-Zr    5.12159 A *
   5  25  Sc-Zr    5.12159 A  
   2  27  Sc-Zr    5.17471 A *
   2  29  Sc-Zr    5.17472 A  
   1  30  Sc-Zr    5.17475 A  
   1  28  Sc-Zr    5.17475 A  
   1  29  Sc-Zr    5.17476 A *
   2  28  Sc-Zr    5.17476 A *
   1  27  Sc-Zr    5.17476 A *
   2  30  Sc-Zr    5.17476 A *
  10  25  Te-Zr    5.17642 A *
  15  23  Te-Zr    5.17644 A  
  21  26  Te-Zr    5.17644 A  
  12  24  Te-Zr    5.17647 A *
   4  25  Sc-Zr    5.18127 A *
   5  24  Sc-Zr    5.18127 A  
   6  26  Sc-Zr    5.18128 A *
   6  25  Sc-Zr    5.18128 A *
   3  24  Sc-Zr    5.18128 A  
   4  26  Sc-Zr    5.18129 A *
   3  23  Sc-Zr    5.18132 A *
   5  23  Sc-Zr    5.18133 A *
   8  19  Te-Te    5.24336 A *
  14  17  Te-Te    5.24342 A *
  13  30  Te-Zr    5.24835 A  
   9  28  Te-Zr    5.24835 A *
  20  28  Te-Zr    5.24837 A *
  16  30  Te-Zr    5.24837 A *
  18  29  Te-Zr    5.24844 A *
   7  27  Te-Zr    5.24845 A  
  22  27  Te-Zr    5.24845 A *
  11  29  Te-Zr    5.24845 A *
   2  23  Sc-Zr    5.35044 A *
   2  23  Sc-Zr    5.35044 A  
   1  25  Sc-Zr    5.35046 A *
   1  26  Sc-Zr    5.35047 A *
   1  25  Sc-Zr    5.35047 A *
   1  26  Sc-Zr    5.35048 A  
   2  24  Sc-Zr    5.35053 A  
   2  24  Sc-Zr    5.35054 A *
   4  23  Sc-Zr    5.45834 A *
   6  23  Sc-Zr    5.45836 A *
   3  25  Sc-Zr    5.45838 A *
   6  24  Sc-Zr    5.45838 A *
   5  26  Sc-Zr    5.45839 A  
   4  24  Sc-Zr    5.45839 A *
   3  26  Sc-Zr    5.45839 A *
   5  25  Sc-Zr    5.45839 A *
   2  27  Sc-Zr    5.48252 A *
   2  29  Sc-Zr    5.48252 A *
   1  30  Sc-Zr    5.48258 A *
   1  29  Sc-Zr    5.48258 A *
   1  28  Sc-Zr    5.48259 A *
   1  27  Sc-Zr    5.48259 A *
   2  28  Sc-Zr    5.48261 A *
   2  30  Sc-Zr    5.48261 A  
   4  25  Sc-Zr    5.51443 A *
   6  25  Sc-Zr    5.51445 A *
   3  23  Sc-Zr    5.51447 A  
   5  23  Sc-Zr    5.51448 A  
   5  24  Sc-Zr    5.51450 A *
   3  24  Sc-Zr    5.51450 A *
   6  26  Sc-Zr    5.51451 A  
   4  26  Sc-Zr    5.51452 A *
  19  24  Te-Zr    5.53430 A *
  14  26  Te-Zr    5.53432 A  
   8  23  Te-Zr    5.53438 A  
  17  25  Te-Zr    5.53439 A *
   5  21  Sc-Te    5.56708 A  
   3  21  Sc-Te    5.56710 A *
   6  12  Sc-Te    5.56713 A  
   4  12  Sc-Te    5.56715 A *
   4  15  Sc-Te    5.56719 A *
   6  15  Sc-Te    5.56720 A *
   3  10  Sc-Te    5.56722 A *
   5  10  Sc-Te    5.56722 A *
  22  26  Te-Zr    5.61191 A *
  18  26  Te-Zr    5.61192 A *
   7  24  Te-Zr    5.61196 A  
  11  24  Te-Zr    5.61196 A *
   9  25  Te-Zr    5.61203 A *
  13  25  Te-Zr    5.61204 A *
  20  23  Te-Zr    5.61205 A *
  16  23  Te-Zr    5.61206 A *
   9  22  Te-Te    5.61510 A *
  13  18  Te-Te    5.61511 A *
   7  20  Te-Te    5.61512 A *
  11  16  Te-Te    5.61512 A *
   4  29  Sc-Zr    5.63016 A *
   5  28  Sc-Zr    5.63016 A *
   3  30  Sc-Zr    5.63017 A *
   3  29  Sc-Zr    5.63017 A  
   5  27  Sc-Zr    5.63018 A  
   6  27  Sc-Zr    5.63018 A *
   4  30  Sc-Zr    5.63020 A *
   6  28  Sc-Zr    5.63020 A *
   8  19  Te-Te    5.63420 A  
  14  17  Te-Te    5.63423 A  
   8  19  Te-Te    5.63425 A *
  14  17  Te-Te    5.63427 A *
  19  30  Te-Zr    5.64638 A  
  19  28  Te-Zr    5.64639 A *
  14  30  Te-Zr    5.64644 A  
  14  28  Te-Zr    5.64646 A *
   8  29  Te-Zr    5.64650 A  
   8  27  Te-Zr    5.64651 A  
  17  29  Te-Zr    5.64652 A *
  17  27  Te-Zr    5.64654 A *
   7  30  Te-Zr    5.66394 A  
  11  28  Te-Zr    5.66394 A *
  22  30  Te-Zr    5.66395 A  
  18  28  Te-Zr    5.66397 A  
  20  29  Te-Zr    5.66406 A  
  16  27  Te-Zr    5.66406 A  
   9  29  Te-Zr    5.66407 A *
  13  27  Te-Zr    5.66409 A *
  10  24  Te-Zr    5.68233 A  
  15  26  Te-Zr    5.68235 A *
  21  23  Te-Zr    5.68247 A *
  12  25  Te-Zr    5.68248 A  
  15  28  Te-Zr    5.69320 A  
  15  30  Te-Zr    5.69320 A  
  10  30  Te-Zr    5.69323 A  
  10  28  Te-Zr    5.69324 A  
  12  27  Te-Zr    5.69333 A *
  12  29  Te-Zr    5.69333 A  
  21  29  Te-Zr    5.69333 A *
  21  27  Te-Zr    5.69334 A *
  22  24  Te-Zr    5.69854 A *
  18  24  Te-Zr    5.69854 A *
  11  26  Te-Zr    5.69857 A  
   7  26  Te-Zr    5.69858 A  
  16  25  Te-Zr    5.69869 A *
  20  25  Te-Zr    5.69870 A *
   9  23  Te-Zr    5.69870 A *
  13  23  Te-Zr    5.69870 A *
   1  16  Sc-Te    5.70411 A *
   1  20  Sc-Te    5.70411 A *
   2  13  Sc-Te    5.70416 A  
   2   9  Sc-Te    5.70416 A  
   2  18  Sc-Te    5.70417 A *
   2  22  Sc-Te    5.70418 A *
   1  11  Sc-Te    5.70423 A *
   1   7  Sc-Te    5.70424 A *
   5   9  Sc-Te    5.74157 A  
   3  13  Sc-Te    5.74158 A *
   6  20  Sc-Te    5.74162 A  
   4  16  Sc-Te    5.74164 A  
   4  11  Sc-Te    5.74170 A *
   6   7  Sc-Te    5.74172 A *
   3  18  Sc-Te    5.74175 A *
   5  22  Sc-Te    5.74177 A *
  12  17  Te-Te    5.76054 A *
   8  21  Te-Te    5.76056 A *
  14  15  Te-Te    5.76069 A *
  10  19  Te-Te    5.76072 A *
   9  22  Te-Te    5.76594 A  
   7  20  Te-Te    5.76596 A  
  13  18  Te-Te    5.76596 A *
  11  16  Te-Te    5.76598 A *
  13  16  Te-Te    5.85119 A *
   9  20  Te-Te    5.85121 A *
  13  16  Te-Te    5.85124 A *
   9  20  Te-Te    5.85125 A *
  11  18  Te-Te    5.85136 A *
  11  18  Te-Te    5.85137 A *
   7  22  Te-Te    5.85138 A *
   7  22  Te-Te    5.85139 A *
  11  16  Te-Te    5.86503 A *
   7  20  Te-Te    5.86504 A *
  13  18  Te-Te    5.86507 A *
   9  22  Te-Te    5.86507 A *
   9  20  Te-Te    5.87526 A  
  13  16  Te-Te    5.87527 A *
   7  22  Te-Te    5.87545 A *
  11  18  Te-Te    5.87546 A *
   1   8  Sc-Te    5.88211 A  
   2  14  Sc-Te    5.88214 A *
   2  17  Sc-Te    5.88216 A *
   1  19  Sc-Te    5.88224 A *
  12  17  Te-Te    5.94282 A  
   8  21  Te-Te    5.94282 A  
  12  17  Te-Te    5.94285 A *
   8  21  Te-Te    5.94286 A *
  14  15  Te-Te    5.94294 A *
  10  19  Te-Te    5.94297 A *
  14  15  Te-Te    5.94298 A *
  10  19  Te-Te    5.94300 A *
   5  17  Sc-Te    5.97172 A  
   3  17  Sc-Te    5.97175 A  
   6   8  Sc-Te    5.97179 A  
   4   8  Sc-Te    5.97182 A  
   4  19  Sc-Te    5.97188 A *
   3  14  Sc-Te    5.97189 A *
   6  19  Sc-Te    5.97189 A *
   5  14  Sc-Te    5.97189 A *
  12  15  Te-Te    5.97219 A *
  10  21  Te-Te    5.97223 A *
  10  21  Te-Te    5.97345 A  
  12  15  Te-Te    5.97347 A  
  10  21  Te-Te    5.97348 A *
  12  15  Te-Te    5.97349 A *
  15  27  Te-Zr    5.97519 A *
  12  28  Te-Zr    5.97520 A  
  10  27  Te-Zr    5.97520 A *
  21  28  Te-Zr    5.97520 A  
  10  29  Te-Zr    5.97522 A *
  15  29  Te-Zr    5.97522 A *
  21  30  Te-Zr    5.97522 A *
  12  30  Te-Zr    5.97523 A *

Nearest neighbors for each atom (up to 4)

 atom   1 species Sc : neighbors at    2.932   2.932   2.933   2.933 A
         d(center):10.393 A  angles  :    91.7    88.3   180.0   180.0    88.3    91.7
 atom   2 species Sc : neighbors at    2.932   2.932   2.933   2.933 A
         d(center): 5.315 A  angles  :    91.7   180.0    88.3    88.3   180.0    91.7
 atom   3 species Sc : neighbors at    2.817   2.817   2.883   2.883 A
         d(center): 5.315 A  angles  :   180.0    84.4    95.6    95.6    84.4   180.0
 atom   4 species Sc : neighbors at    2.817   2.817   2.883   2.883 A
         d(center):11.147 A  angles  :   180.0    95.6    84.4    84.4    95.6   180.0
 atom   5 species Sc : neighbors at    2.817   2.817   2.883   2.883 A
         d(center): 5.315 A  angles  :   180.0    84.4    95.6    95.6    84.4   180.0
 atom   6 species Sc : neighbors at    2.817   2.817   2.883   2.883 A
         d(center):11.147 A  angles  :   180.0    95.6    84.4    84.4    95.6   180.0
 atom   7 species Te : neighbors at    2.872   2.883   2.932   2.979 A
         d(center): 2.865 A  angles  :   125.7    72.4    76.3    87.8    73.0   122.2
 atom   8 species Te : neighbors at    2.805   2.817   2.817   2.885 A
         d(center): 5.386 A  angles  :   134.3   134.3    78.8    91.4    75.4   123.1
 atom   9 species Te : neighbors at    2.872   2.883   2.933   2.979 A
         d(center): 9.032 A  angles  :   125.7    72.4    76.3    87.8    73.0   122.2
 atom  10 species Te : neighbors at    2.986   2.987   2.987   3.011 A
         d(center):12.483 A  angles  :    84.9    84.9    69.8    84.9   131.0   131.0
 atom  11 species Te : neighbors at    2.872   2.883   2.932   2.979 A
         d(center): 6.492 A  angles  :   125.7    72.4    76.3    87.8    73.0   122.2
 atom  12 species Te : neighbors at    2.986   2.987   2.987   3.011 A
         d(center): 7.081 A  angles  :    84.9    84.9    69.8    84.9   131.0   131.0
 atom  13 species Te : neighbors at    2.872   2.883   2.933   2.979 A
         d(center):10.614 A  angles  :   125.7    72.4    76.3    87.8    73.0   122.2
 atom  14 species Te : neighbors at    2.805   2.817   2.817   2.885 A
         d(center):12.710 A  angles  :   134.3   134.3    78.8    91.4    75.4   123.1
 atom  15 species Te : neighbors at    2.986   2.987   2.987   3.011 A
         d(center): 4.920 A  angles  :    84.9    84.9    69.8    84.9   131.0   131.0
 atom  16 species Te : neighbors at    2.872   2.883   2.933   2.979 A
         d(center): 8.057 A  angles  :   125.7    72.4    76.3    87.8    73.0   122.2
 atom  17 species Te : neighbors at    2.805   2.817   2.817   2.885 A
         d(center):10.141 A  angles  :   134.3   134.3    78.8    91.4    75.4   123.1
 atom  18 species Te : neighbors at    2.872   2.883   2.932   2.979 A
         d(center):13.548 A  angles  :   125.7    72.4    76.3    87.8    73.0   122.2
 atom  19 species Te : neighbors at    2.805   2.817   2.817   2.885 A
         d(center): 6.585 A  angles  :   134.3   134.3    78.8    91.4    75.4   123.1
 atom  20 species Te : neighbors at    2.872   2.883   2.933   2.979 A
         d(center): 8.057 A  angles  :   125.7    72.4    76.3    87.8    73.0   122.2
 atom  21 species Te : neighbors at    2.986   2.987   2.987   3.011 A
         d(center):10.514 A  angles  :    84.9    84.9    69.8    84.9   131.0   131.0
 atom  22 species Te : neighbors at    2.872   2.883   2.932   2.979 A
         d(center):13.548 A  angles  :   125.7    72.4    76.3    87.8    73.0   122.2
 atom  23 species Zr : neighbors at    2.805   2.872   2.872   3.004 A
         d(center): 0.259 A  angles  :   103.1   103.1    83.0    94.3   169.6    92.5
 atom  24 species Zr : neighbors at    2.805   2.872   2.872   3.004 A
         d(center): 6.978 A  angles  :   103.1   103.1    83.0    94.3   169.6    92.5
 atom  25 species Zr : neighbors at    2.805   2.872   2.872   3.004 A
         d(center): 4.040 A  angles  :   103.1   103.1    83.0    94.3   169.6    92.5
 atom  26 species Zr : neighbors at    2.805   2.872   2.872   3.004 A
         d(center): 7.982 A  angles  :   103.1   103.1    83.0    94.3   169.6    92.5
 atom  27 species Zr : neighbors at    2.885   2.885   2.979   2.979 A
         d(center): 4.249 A  angles  :   112.2    98.6    92.1    92.1    98.6   160.8
 atom  28 species Zr : neighbors at    2.885   2.885   2.979   2.979 A
         d(center): 7.923 A  angles  :   112.2    98.6    92.1    92.1    98.6   160.8
 atom  29 species Zr : neighbors at    2.885   2.885   2.979   2.979 A
         d(center): 4.249 A  angles  :   112.2    98.6    92.1    92.1    98.6   160.8
 atom  30 species Zr : neighbors at    2.885   2.885   2.979   2.979 A
         d(center): 7.923 A  angles  :   112.2    98.6    92.1    92.1    98.6   160.8
