Distances between atoms, up to dmax=  6.00 A   (* = with lattice translation)
  #1  #2   bond       d
   4   9   V-Te    2.69314 A  
   4  20   V-Te    2.69314 A *
   2   8   V-Te    2.69314 A  
   2  21   V-Te    2.69314 A *
   6   8   V-Te    2.69315 A  
   6  21   V-Te    2.69315 A  
   6   9   V-Te    2.69315 A  
   6  20   V-Te    2.69315 A  
   4  12   V-Te    2.69315 A *
   4  17   V-Te    2.69315 A  
   2  12   V-Te    2.69315 A  
   2  17   V-Te    2.69315 A *
   3  18   V-Te    2.69951 A *
   3  15   V-Te    2.69951 A  
   5  18   V-Te    2.69951 A  
   5  15   V-Te    2.69951 A *
   7  18   V-Te    2.69952 A  
   7  15   V-Te    2.69952 A  
   3  10   V-Te    2.72324 A  
   5  22   V-Te    2.72324 A *
   3  23   V-Te    2.72324 A *
   5  11   V-Te    2.72324 A  
   5  14   V-Te    2.72325 A *
   5  19   V-Te    2.72325 A  
   3  14   V-Te    2.72325 A  
   3  19   V-Te    2.72325 A *
   7  10   V-Te    2.72325 A  
   7  23   V-Te    2.72325 A  
   7  22   V-Te    2.72325 A  
   7  11   V-Te    2.72325 A  
   2  16   V-Te    2.72724 A *
   2  13   V-Te    2.72724 A  
   4  13   V-Te    2.72724 A *
   4  16   V-Te    2.72724 A  
   6  13   V-Te    2.72725 A  
   6  16   V-Te    2.72725 A  
   1  22   V-Te    2.72972 A *
   1  11   V-Te    2.72972 A  
   1  10   V-Te    2.72972 A  
   1  23   V-Te    2.72972 A *
   1  14   V-Te    2.72972 A *
   1  19   V-Te    2.72972 A *
  17  25  Te-Zr    2.87733 A *
  12  24  Te-Zr    2.87733 A *
   9  25  Te-Zr    2.87734 A  
  20  24  Te-Zr    2.87734 A *
  21  25  Te-Zr    2.87734 A *
   8  24  Te-Zr    2.87734 A  
  15  26  Te-Zr    2.88848 A *
  18  27  Te-Zr    2.88848 A *
  18  29  Te-Zr    2.88848 A  
  15  28  Te-Zr    2.88848 A *
  15  30  Te-Zr    2.88849 A *
  18  31  Te-Zr    2.88849 A  
  13  27  Te-Zr    2.90647 A  
  16  26  Te-Zr    2.90647 A *
  13  29  Te-Zr    2.90647 A *
  16  28  Te-Zr    2.90647 A  
  13  31  Te-Zr    2.90647 A  
  16  30  Te-Zr    2.90647 A  
  17  29  Te-Zr    2.90970 A  
  12  28  Te-Zr    2.90970 A *
  12  26  Te-Zr    2.90970 A  
  17  27  Te-Zr    2.90970 A *
   9  29  Te-Zr    2.90971 A  
  20  28  Te-Zr    2.90971 A *
   8  26  Te-Zr    2.90971 A  
  21  27  Te-Zr    2.90971 A *
   8  30  Te-Zr    2.90972 A  
  21  31  Te-Zr    2.90972 A  
   9  31  Te-Zr    2.90972 A  
  20  30  Te-Zr    2.90972 A  
  19  24  Te-Zr    2.91524 A *
  14  25  Te-Zr    2.91524 A *
  11  24  Te-Zr    2.91525 A *
  22  25  Te-Zr    2.91525 A *
  23  24  Te-Zr    2.91525 A *
  10  25  Te-Zr    2.91525 A  
  14  29  Te-Zr    2.93095 A *
  19  28  Te-Zr    2.93095 A *
  19  26  Te-Zr    2.93095 A *
  14  27  Te-Zr    2.93095 A  
  23  26  Te-Zr    2.93095 A *
  10  27  Te-Zr    2.93095 A  
  22  29  Te-Zr    2.93095 A *
  11  28  Te-Zr    2.93095 A *
  23  30  Te-Zr    2.93096 A *
  10  31  Te-Zr    2.93096 A  
  11  30  Te-Zr    2.93096 A *
  22  31  Te-Zr    2.93096 A  
   6  30   V-Zr    3.52781 A  
   6  31   V-Zr    3.52781 A  
   2  26   V-Zr    3.52781 A  
   4  28   V-Zr    3.52781 A  
   2  27   V-Zr    3.52781 A  
   4  29   V-Zr    3.52781 A  
   3  27   V-Zr    3.60265 A  
   5  29   V-Zr    3.60265 A  
   3  26   V-Zr    3.60265 A *
   5  28   V-Zr    3.60265 A *
   7  30   V-Zr    3.60265 A *
   7  31   V-Zr    3.60265 A  
   1  24   V-Zr    3.60717 A *
   1  25   V-Zr    3.60717 A  
  27  31  Zr-Zr    3.63197 A *
  26  30  Zr-Zr    3.63197 A  
  28  30  Zr-Zr    3.63197 A *
  29  31  Zr-Zr    3.63197 A  
  26  28  Zr-Zr    3.63197 A *
  27  29  Zr-Zr    3.63197 A *
   8  20  Te-Te    3.66527 A *
   9  21  Te-Te    3.66527 A *
   9  17  Te-Te    3.66528 A *
  12  20  Te-Te    3.66528 A *
   8  12  Te-Te    3.66528 A *
  17  21  Te-Te    3.66528 A *
  14  22  Te-Te    3.73656 A  
  11  19  Te-Te    3.73656 A  
  19  23  Te-Te    3.73656 A  
  10  14  Te-Te    3.73656 A  
  10  22  Te-Te    3.73657 A  
  11  23  Te-Te    3.73657 A  
   1   5   V-V     3.74598 A *
   1   5   V-V     3.74598 A  
   2   6   V-V     3.74598 A *
   2   6   V-V     3.74598 A  
   3   7   V-V     3.74598 A *
   3   7   V-V     3.74598 A  
   1   3   V-V     3.74598 A *
   1   3   V-V     3.74598 A  
   1   7   V-V     3.74598 A *
   1   7   V-V     3.74598 A  
   2   4   V-V     3.74598 A *
   2   4   V-V     3.74598 A *
   3   5   V-V     3.74598 A *
   3   5   V-V     3.74598 A *
   4   6   V-V     3.74598 A *
   4   6   V-V     3.74598 A  
   5   7   V-V     3.74598 A *
   5   7   V-V     3.74598 A  
  15  23  Te-Te    3.74622 A *
  10  18  Te-Te    3.74622 A *
  18  22  Te-Te    3.74622 A *
  11  15  Te-Te    3.74622 A *
  14  18  Te-Te    3.74623 A *
  15  19  Te-Te    3.74623 A *
  14  18  Te-Te    3.74623 A *
  15  19  Te-Te    3.74623 A *
  10  18  Te-Te    3.74624 A  
  15  23  Te-Te    3.74624 A  
  11  15  Te-Te    3.74624 A  
  18  22  Te-Te    3.74624 A  
  24  28  Zr-Zr    3.74656 A *
  25  29  Zr-Zr    3.74656 A  
  25  27  Zr-Zr    3.74656 A *
  24  26  Zr-Zr    3.74656 A  
  24  30  Zr-Zr    3.74656 A *
  25  31  Zr-Zr    3.74656 A  
  24  30  Zr-Zr    3.74656 A  
  25  31  Zr-Zr    3.74656 A *
  24  28  Zr-Zr    3.74657 A  
  25  29  Zr-Zr    3.74657 A *
  24  26  Zr-Zr    3.74657 A *
  25  27  Zr-Zr    3.74657 A  
   8  16  Te-Te    3.74731 A *
  13  21  Te-Te    3.74731 A *
   9  13  Te-Te    3.74731 A *
  16  20  Te-Te    3.74731 A *
  13  17  Te-Te    3.74733 A *
  12  16  Te-Te    3.74733 A *
  12  16  Te-Te    3.74733 A *
  13  17  Te-Te    3.74733 A *
  13  21  Te-Te    3.74734 A  
   8  16  Te-Te    3.74734 A  
   9  13  Te-Te    3.74734 A  
  16  20  Te-Te    3.74734 A  
  10  22  Te-Te    3.75539 A *
  11  23  Te-Te    3.75539 A *
  11  19  Te-Te    3.75541 A *
  14  22  Te-Te    3.75541 A *
  10  14  Te-Te    3.75541 A *
  19  23  Te-Te    3.75541 A *
   8   9  Te-Te    3.79061 A  
  20  21  Te-Te    3.79061 A  
   8  17  Te-Te    3.79061 A *
  12  21  Te-Te    3.79061 A *
  17  20  Te-Te    3.79061 A *
   9  12  Te-Te    3.79061 A *
   9  17  Te-Te    3.82668 A  
  12  20  Te-Te    3.82668 A  
   8  12  Te-Te    3.82668 A  
  17  21  Te-Te    3.82668 A  
   9  21  Te-Te    3.82669 A  
   8  20  Te-Te    3.82669 A  
  27  29  Zr-Zr    3.85999 A *
  26  28  Zr-Zr    3.85999 A *
  26  30  Zr-Zr    3.86000 A *
  27  31  Zr-Zr    3.86000 A  
  28  30  Zr-Zr    3.86000 A  
  29  31  Zr-Zr    3.86000 A *
  13  20  Te-Te    3.91655 A  
   9  16  Te-Te    3.91655 A  
   8  13  Te-Te    3.91655 A  
  16  21  Te-Te    3.91655 A  
  12  13  Te-Te    3.91655 A  
  16  17  Te-Te    3.91655 A  
  14  15  Te-Te    3.92080 A  
  18  19  Te-Te    3.92080 A  
  11  18  Te-Te    3.92080 A  
  15  22  Te-Te    3.92080 A  
  10  15  Te-Te    3.92080 A  
  18  23  Te-Te    3.92080 A  
  10  19  Te-Te    3.96263 A *
  14  23  Te-Te    3.96263 A *
  11  14  Te-Te    3.96263 A *
  19  22  Te-Te    3.96263 A *
  10  11  Te-Te    3.96264 A  
  22  23  Te-Te    3.96264 A  
  16  19  Te-Te    4.37782 A *
  13  14  Te-Te    4.37782 A  
  11  16  Te-Te    4.37783 A *
  13  22  Te-Te    4.37783 A  
  10  13  Te-Te    4.37783 A  
  16  23  Te-Te    4.37783 A *
  12  23  Te-Te    4.44837 A *
  10  17  Te-Te    4.44837 A *
  11  12  Te-Te    4.44837 A *
  17  22  Te-Te    4.44837 A *
   8  19  Te-Te    4.44838 A *
  14  21  Te-Te    4.44838 A *
  19  20  Te-Te    4.44838 A *
   9  14  Te-Te    4.44838 A *
   8  11  Te-Te    4.44839 A *
  21  22  Te-Te    4.44839 A  
   9  10  Te-Te    4.44839 A  
  20  23  Te-Te    4.44839 A *
  12  15  Te-Te    4.51825 A *
  17  18  Te-Te    4.51825 A  
   9  18  Te-Te    4.51827 A  
  15  20  Te-Te    4.51827 A *
   8  15  Te-Te    4.51827 A *
  18  21  Te-Te    4.51827 A  
   4   8   V-Te    4.58073 A *
   4  21   V-Te    4.58073 A *
   2   9   V-Te    4.58073 A *
   2  20   V-Te    4.58073 A *
   4   8   V-Te    4.58074 A  
   4  21   V-Te    4.58074 A *
   2   9   V-Te    4.58074 A  
   2  20   V-Te    4.58074 A *
   6  12   V-Te    4.58074 A *
   6  17   V-Te    4.58074 A *
   6  12   V-Te    4.58074 A *
   6  17   V-Te    4.58074 A *
   1  18   V-Te    4.61733 A *
   1  15   V-Te    4.61733 A *
   1  18   V-Te    4.61733 A  
   1  15   V-Te    4.61733 A *
   1  18   V-Te    4.61733 A *
   1  15   V-Te    4.61733 A  
   7  14   V-Te    4.62744 A  
   7  19   V-Te    4.62744 A  
   3  11   V-Te    4.62744 A *
   3  22   V-Te    4.62744 A  
   5  10   V-Te    4.62744 A *
   5  23   V-Te    4.62744 A  
   5  10   V-Te    4.63505 A *
   5  23   V-Te    4.63505 A *
   3  11   V-Te    4.63505 A *
   3  22   V-Te    4.63505 A *
   7  14   V-Te    4.63506 A *
   7  19   V-Te    4.63506 A *
   7  14   V-Te    4.63506 A *
   7  19   V-Te    4.63506 A *
   3  11   V-Te    4.63506 A  
   3  22   V-Te    4.63506 A *
   5  10   V-Te    4.63506 A  
   5  23   V-Te    4.63506 A *
   6  12   V-Te    4.64626 A  
   6  17   V-Te    4.64626 A  
   2   9   V-Te    4.64626 A *
   2  20   V-Te    4.64626 A  
   4   8   V-Te    4.64626 A *
   4  21   V-Te    4.64626 A  
  13  25  Te-Zr    4.70868 A *
  16  24  Te-Zr    4.70868 A *
  13  25  Te-Zr    4.70870 A *
  16  24  Te-Zr    4.70870 A  
  13  25  Te-Zr    4.70870 A  
  16  24  Te-Zr    4.70870 A *
  23  28  Te-Zr    4.71487 A *
  10  29  Te-Zr    4.71487 A *
  22  27  Te-Zr    4.71487 A *
  11  26  Te-Zr    4.71487 A *
  19  30  Te-Zr    4.71487 A *
  14  31  Te-Zr    4.71487 A *
  19  30  Te-Zr    4.71487 A *
  14  31  Te-Zr    4.71487 A *
  10  29  Te-Zr    4.71487 A  
  23  28  Te-Zr    4.71487 A *
  11  26  Te-Zr    4.71487 A *
  22  27  Te-Zr    4.71487 A *
  12  30  Te-Zr    4.72914 A  
  17  31  Te-Zr    4.72914 A  
   9  27  Te-Zr    4.72915 A *
  20  26  Te-Zr    4.72915 A  
   8  28  Te-Zr    4.72915 A *
  21  29  Te-Zr    4.72915 A  
   8  28  Te-Zr    4.75545 A *
  21  29  Te-Zr    4.75545 A *
   9  27  Te-Zr    4.75545 A *
  20  26  Te-Zr    4.75545 A *
  12  30  Te-Zr    4.75545 A *
  17  31  Te-Zr    4.75545 A *
  12  30  Te-Zr    4.75545 A *
  17  31  Te-Zr    4.75545 A *
  20  26  Te-Zr    4.75547 A *
   9  27  Te-Zr    4.75547 A  
   8  28  Te-Zr    4.75547 A  
  21  29  Te-Zr    4.75547 A *
  15  24  Te-Zr    4.76198 A *
  18  25  Te-Zr    4.76198 A *
  15  24  Te-Zr    4.76199 A *
  18  25  Te-Zr    4.76199 A  
  15  24  Te-Zr    4.76199 A *
  18  25  Te-Zr    4.76199 A *
  19  30  Te-Zr    4.79724 A *
  14  31  Te-Zr    4.79724 A  
  11  26  Te-Zr    4.79725 A *
  22  27  Te-Zr    4.79725 A  
  10  29  Te-Zr    4.79725 A *
  23  28  Te-Zr    4.79725 A *
   6  26   V-Zr    5.10399 A  
   6  27   V-Zr    5.10399 A *
   6  28   V-Zr    5.10399 A *
   6  29   V-Zr    5.10399 A  
   2  30   V-Zr    5.10399 A  
   2  31   V-Zr    5.10399 A *
   4  31   V-Zr    5.10399 A  
   4  30   V-Zr    5.10399 A *
   2  28   V-Zr    5.10399 A *
   2  29   V-Zr    5.10399 A *
   4  26   V-Zr    5.10399 A *
   4  27   V-Zr    5.10399 A *
   4  24   V-Zr    5.14173 A *
   4  25   V-Zr    5.14173 A  
   2  25   V-Zr    5.14173 A *
   2  24   V-Zr    5.14173 A  
   6  25   V-Zr    5.14173 A *
   6  24   V-Zr    5.14173 A  
   6  24   V-Zr    5.14173 A *
   6  25   V-Zr    5.14173 A  
   4  24   V-Zr    5.14173 A  
   4  25   V-Zr    5.14173 A *
   2  24   V-Zr    5.14173 A *
   2  25   V-Zr    5.14173 A  
   7  27   V-Zr    5.15600 A *
   7  26   V-Zr    5.15600 A *
   7  28   V-Zr    5.15600 A *
   7  29   V-Zr    5.15600 A  
   3  30   V-Zr    5.15600 A *
   3  31   V-Zr    5.15600 A *
   5  30   V-Zr    5.15600 A *
   5  31   V-Zr    5.15600 A  
   3  28   V-Zr    5.15601 A *
   3  29   V-Zr    5.15601 A *
   5  26   V-Zr    5.15601 A *
   5  27   V-Zr    5.15601 A *
   4  26   V-Zr    5.18699 A *
   4  27   V-Zr    5.18699 A *
   2  28   V-Zr    5.18699 A *
   2  29   V-Zr    5.18699 A *
   2  31   V-Zr    5.18700 A  
   2  30   V-Zr    5.18700 A *
   4  30   V-Zr    5.18700 A  
   4  31   V-Zr    5.18700 A *
   6  26   V-Zr    5.18700 A *
   6  27   V-Zr    5.18700 A  
   6  28   V-Zr    5.18700 A  
   6  29   V-Zr    5.18700 A *
   1  29   V-Zr    5.19725 A  
   1  28   V-Zr    5.19725 A *
   1  27   V-Zr    5.19725 A *
   1  26   V-Zr    5.19725 A *
   1  30   V-Zr    5.19726 A *
   1  31   V-Zr    5.19726 A  
   1  30   V-Zr    5.19726 A *
   1  31   V-Zr    5.19726 A *
   1  29   V-Zr    5.19726 A *
   1  28   V-Zr    5.19726 A *
   1  26   V-Zr    5.19726 A *
   1  27   V-Zr    5.19726 A  
   5  24   V-Zr    5.20039 A *
   5  25   V-Zr    5.20039 A  
   3  24   V-Zr    5.20039 A *
   3  25   V-Zr    5.20039 A *
   7  24   V-Zr    5.20039 A *
   7  24   V-Zr    5.20039 A *
   7  25   V-Zr    5.20039 A *
   7  25   V-Zr    5.20039 A  
   5  24   V-Zr    5.20039 A *
   5  25   V-Zr    5.20039 A *
   3  24   V-Zr    5.20039 A *
   3  25   V-Zr    5.20039 A  
   5  27   V-Zr    5.23818 A *
   5  26   V-Zr    5.23818 A *
   3  29   V-Zr    5.23818 A *
   3  28   V-Zr    5.23818 A *
   3  30   V-Zr    5.23818 A *
   3  31   V-Zr    5.23818 A  
   5  30   V-Zr    5.23818 A *
   5  31   V-Zr    5.23818 A *
   7  26   V-Zr    5.23818 A *
   7  27   V-Zr    5.23818 A  
   7  29   V-Zr    5.23818 A *
   7  28   V-Zr    5.23818 A *
   9  20  Te-Te    5.27284 A *
   8  21  Te-Te    5.27284 A *
  12  17  Te-Te    5.27287 A *
   9  20  Te-Te    5.38628 A *
   8  21  Te-Te    5.38628 A *
   8  21  Te-Te    5.38630 A  
   9  20  Te-Te    5.38630 A  
  12  17  Te-Te    5.38631 A *
  12  17  Te-Te    5.38631 A *
  15  18  Te-Te    5.39902 A *
  15  18  Te-Te    5.39902 A *
  15  18  Te-Te    5.39904 A  
  10  23  Te-Te    5.44649 A *
  11  22  Te-Te    5.44649 A *
  14  19  Te-Te    5.44650 A *
  14  19  Te-Te    5.44650 A *
  10  23  Te-Te    5.44651 A  
  11  22  Te-Te    5.44651 A  
  13  16  Te-Te    5.45448 A *
  13  16  Te-Te    5.45448 A *
  13  16  Te-Te    5.45449 A  
  11  22  Te-Te    5.45944 A *
  10  23  Te-Te    5.45944 A *
  14  19  Te-Te    5.45945 A *
  20  25  Te-Zr    5.51656 A *
   9  24  Te-Zr    5.51656 A  
  21  24  Te-Zr    5.51656 A *
   8  25  Te-Zr    5.51656 A  
  12  25  Te-Zr    5.51657 A *
  17  24  Te-Zr    5.51657 A *
  21  26  Te-Zr    5.56152 A *
   8  27  Te-Zr    5.56152 A  
   9  28  Te-Zr    5.56152 A  
  20  29  Te-Zr    5.56152 A *
   8  31  Te-Zr    5.56153 A  
  21  30  Te-Zr    5.56153 A  
   9  30  Te-Zr    5.56153 A  
  20  31  Te-Zr    5.56153 A  
  12  29  Te-Zr    5.56154 A *
  17  28  Te-Zr    5.56154 A  
  12  27  Te-Zr    5.56154 A  
  17  26  Te-Zr    5.56154 A *
  13  26  Te-Zr    5.59634 A  
  16  27  Te-Zr    5.59634 A *
  13  28  Te-Zr    5.59634 A *
  16  29  Te-Zr    5.59634 A  
  13  30  Te-Zr    5.59634 A  
  16  31  Te-Zr    5.59634 A  
  15  27  Te-Zr    5.67359 A  
  18  26  Te-Zr    5.67359 A *
  15  29  Te-Zr    5.67359 A *
  18  28  Te-Zr    5.67359 A *
  18  30  Te-Zr    5.67359 A *
  15  31  Te-Zr    5.67359 A  
  22  28  Te-Zr    5.67449 A *
  11  29  Te-Zr    5.67449 A  
  10  26  Te-Zr    5.67449 A *
  23  27  Te-Zr    5.67449 A *
  10  30  Te-Zr    5.67450 A *
  23  31  Te-Zr    5.67450 A  
  22  30  Te-Zr    5.67450 A *
  11  31  Te-Zr    5.67450 A  
  14  28  Te-Zr    5.67450 A *
  19  29  Te-Zr    5.67450 A  
  14  26  Te-Zr    5.67450 A *
  19  27  Te-Zr    5.67450 A *
  22  24  Te-Zr    5.69451 A *
  11  25  Te-Zr    5.69451 A  
  10  24  Te-Zr    5.69451 A *
  23  25  Te-Zr    5.69451 A *
  14  24  Te-Zr    5.69452 A *
  19  25  Te-Zr    5.69452 A *
  15  16  Te-Te    5.79222 A *
  13  18  Te-Te    5.79222 A *
  15  16  Te-Te    5.79222 A *
  13  18  Te-Te    5.79222 A *
  13  18  Te-Te    5.79224 A  
  15  16  Te-Te    5.79224 A *
  12  19  Te-Te    5.79247 A *
  14  17  Te-Te    5.79247 A *
   9  22  Te-Te    5.79247 A *
  11  20  Te-Te    5.79247 A *
   8  23  Te-Te    5.79247 A *
  10  21  Te-Te    5.79247 A *
  12  19  Te-Te    5.83838 A *
  14  17  Te-Te    5.83838 A *
  12  19  Te-Te    5.83838 A *
  14  17  Te-Te    5.83838 A *
   9  22  Te-Te    5.83838 A *
  11  20  Te-Te    5.83838 A *
   8  23  Te-Te    5.83838 A *
  10  21  Te-Te    5.83838 A *
   8  23  Te-Te    5.83840 A *
  10  21  Te-Te    5.83840 A  
  11  20  Te-Te    5.83840 A *
   9  22  Te-Te    5.83840 A  
   3  13   V-Te    5.87999 A  
   3  16   V-Te    5.87999 A *
   5  13   V-Te    5.87999 A *
   5  16   V-Te    5.87999 A *
   7  13   V-Te    5.88000 A  
   7  16   V-Te    5.88000 A *
   4  19   V-Te    5.88181 A *
   4  14   V-Te    5.88181 A *
   2  19   V-Te    5.88181 A *
   2  14   V-Te    5.88181 A  
   2  23   V-Te    5.88181 A *
   4  11   V-Te    5.88181 A *
   2  10   V-Te    5.88181 A  
   4  22   V-Te    5.88181 A *
   6  23   V-Te    5.88181 A *
   6  10   V-Te    5.88181 A  
   6  11   V-Te    5.88181 A *
   6  22   V-Te    5.88181 A  
   6   9   V-Te    5.89179 A *
   6  20   V-Te    5.89179 A *
   6   8   V-Te    5.89179 A *
   6  21   V-Te    5.89179 A *
   4   9   V-Te    5.89179 A *
   4  20   V-Te    5.89179 A *
   2   8   V-Te    5.89179 A *
   2  21   V-Te    5.89179 A *
   4  12   V-Te    5.89180 A *
   4  17   V-Te    5.89180 A *
   2  12   V-Te    5.89180 A *
   2  17   V-Te    5.89180 A *
   2  15   V-Te    5.92272 A *
   2  18   V-Te    5.92272 A *
   4  15   V-Te    5.92272 A *
   4  18   V-Te    5.92272 A  
   6  15   V-Te    5.92272 A *
   6  18   V-Te    5.92272 A  
   6   8   V-Te    5.94287 A *
   6  21   V-Te    5.94287 A *
   6   9   V-Te    5.94287 A *
   6  20   V-Te    5.94287 A *
   2  12   V-Te    5.94288 A *
   2  17   V-Te    5.94288 A *
   4  12   V-Te    5.94288 A *
   4  17   V-Te    5.94288 A *
   2   8   V-Te    5.94288 A *
   2  21   V-Te    5.94288 A  
   4   9   V-Te    5.94288 A *
   4  20   V-Te    5.94288 A  
   7  18   V-Te    5.94576 A *
   7  15   V-Te    5.94576 A *
   7  18   V-Te    5.94576 A *
   7  15   V-Te    5.94576 A *
   5  15   V-Te    5.94576 A *
   5  18   V-Te    5.94576 A *
   3  18   V-Te    5.94576 A *
   3  15   V-Te    5.94576 A *
   3  18   V-Te    5.94577 A  
   3  15   V-Te    5.94577 A *
   5  15   V-Te    5.94577 A  
   5  18   V-Te    5.94577 A *
   1  12   V-Te    5.94607 A *
   1  17   V-Te    5.94607 A *
   1   9   V-Te    5.94609 A  
   1  20   V-Te    5.94609 A *
   1  21   V-Te    5.94609 A *
   1   8   V-Te    5.94609 A *
   1  22   V-Te    5.95361 A *
   1  11   V-Te    5.95361 A *
   1  10   V-Te    5.95361 A *
   1  23   V-Te    5.95361 A *
   1  14   V-Te    5.95362 A *
   1  19   V-Te    5.95362 A  
   1  14   V-Te    5.95362 A  
   1  19   V-Te    5.95362 A *
   1  10   V-Te    5.95362 A *
   1  23   V-Te    5.95362 A  
   1  11   V-Te    5.95362 A *
   1  22   V-Te    5.95362 A  
   7  23   V-Te    5.95657 A *
   7  10   V-Te    5.95657 A *
   7  22   V-Te    5.95657 A *
   7  11   V-Te    5.95657 A *
   3  14   V-Te    5.95658 A *
   3  19   V-Te    5.95658 A *
   5  14   V-Te    5.95658 A *
   5  19   V-Te    5.95658 A *
   3  10   V-Te    5.95659 A *
   3  23   V-Te    5.95659 A  
   5  22   V-Te    5.95659 A  
   5  11   V-Te    5.95659 A *
   6  13   V-Te    5.95840 A *
   6  16   V-Te    5.95840 A *
   6  13   V-Te    5.95840 A *
   6  16   V-Te    5.95840 A *
   4  13   V-Te    5.95841 A *
   4  16   V-Te    5.95841 A *
   2  13   V-Te    5.95841 A *
   2  16   V-Te    5.95841 A *
   2  13   V-Te    5.95841 A *
   2  16   V-Te    5.95841 A  
   4  13   V-Te    5.95841 A  
   4  16   V-Te    5.95841 A *
   7  22   V-Te    5.96250 A *
   7  11   V-Te    5.96250 A *
   7  10   V-Te    5.96250 A *
   7  23   V-Te    5.96250 A *
   5  22   V-Te    5.96250 A *
   5  11   V-Te    5.96250 A *
   3  10   V-Te    5.96250 A *
   3  23   V-Te    5.96250 A *
   5  14   V-Te    5.96250 A *
   5  19   V-Te    5.96250 A *
   3  14   V-Te    5.96250 A *
   3  19   V-Te    5.96250 A *
   5  12   V-Te    5.97144 A *
   5  17   V-Te    5.97144 A  
   3  12   V-Te    5.97144 A *
   3  17   V-Te    5.97144 A *
  13  31  Te-Zr    5.97144 A *
  16  30  Te-Zr    5.97144 A *
  13  31  Te-Zr    5.97144 A *
  16  30  Te-Zr    5.97144 A *
  16  28  Te-Zr    5.97145 A *
  13  29  Te-Zr    5.97145 A *
  13  27  Te-Zr    5.97145 A *
  16  26  Te-Zr    5.97145 A *
  13  27  Te-Zr    5.97145 A *
  16  26  Te-Zr    5.97145 A  
  16  28  Te-Zr    5.97145 A *
  13  29  Te-Zr    5.97145 A  
   5   9   V-Te    5.97145 A  
   5  20   V-Te    5.97145 A *
   3  21   V-Te    5.97145 A *
   3   8   V-Te    5.97145 A *
   7  21   V-Te    5.97146 A  
   7   8   V-Te    5.97146 A *
   7   9   V-Te    5.97146 A  
   7  20   V-Te    5.97146 A *
  23  30  Te-Zr    5.98339 A *
  10  31  Te-Zr    5.98339 A *
  11  30  Te-Zr    5.98339 A *
  22  31  Te-Zr    5.98339 A *
  14  27  Te-Zr    5.98340 A *
  19  26  Te-Zr    5.98340 A *
  19  28  Te-Zr    5.98340 A *
  14  29  Te-Zr    5.98340 A *
  10  27  Te-Zr    5.98340 A *
  23  26  Te-Zr    5.98340 A *
  11  28  Te-Zr    5.98340 A *
  22  29  Te-Zr    5.98340 A  
  12  28  Te-Zr    5.99387 A *
  17  29  Te-Zr    5.99387 A *
  17  27  Te-Zr    5.99387 A *
  12  26  Te-Zr    5.99387 A *
  20  30  Te-Zr    5.99387 A *
   9  31  Te-Zr    5.99387 A *
   8  30  Te-Zr    5.99387 A *
  21  31  Te-Zr    5.99387 A *
   9  29  Te-Zr    5.99388 A *
  20  28  Te-Zr    5.99388 A *
   8  26  Te-Zr    5.99388 A *
  21  27  Te-Zr    5.99388 A *

Nearest neighbors for each atom (up to 4)

 atom   1 species V  : neighbors at    2.730   2.730   2.730   2.730 A
         d(center):10.694 A  angles  :   180.0    86.9    93.1    93.1    86.9   180.0
 atom   2 species V  : neighbors at    2.693   2.693   2.693   2.693 A
         d(center): 5.171 A  angles  :   180.0    90.5    89.5    89.5    90.5   180.0
 atom   3 species V  : neighbors at    2.700   2.700   2.723   2.723 A
         d(center):11.331 A  angles  :   180.0    87.4    92.6    92.6    87.4   180.0
 atom   4 species V  : neighbors at    2.693   2.693   2.693   2.693 A
         d(center): 5.171 A  angles  :   180.0    89.5    90.5    90.5    89.5   180.0
 atom   5 species V  : neighbors at    2.700   2.700   2.723   2.723 A
         d(center):11.331 A  angles  :   180.0    87.4    92.6    92.6    87.4   180.0
 atom   6 species V  : neighbors at    2.693   2.693   2.693   2.693 A
         d(center): 5.171 A  angles  :   180.0    90.5    89.5    89.5    90.5   180.0
 atom   7 species V  : neighbors at    2.700   2.700   2.723   2.723 A
         d(center):11.331 A  angles  :   180.0    87.4    92.6    92.6    87.4   180.0
 atom   8 species Te : neighbors at    2.693   2.693   2.877   2.910 A
         d(center): 2.906 A  angles  :    88.1   134.7    77.9   134.7   131.2    80.7
 atom   9 species Te : neighbors at    2.693   2.693   2.877   2.910 A
         d(center): 5.556 A  angles  :    88.1   134.7    77.9   134.7   131.2    80.7
 atom  10 species Te : neighbors at    2.723   2.723   2.730   2.915 A
         d(center): 9.292 A  angles  :    86.9    86.8   134.5    86.8   134.5    79.4
 atom  11 species Te : neighbors at    2.723   2.723   2.730   2.915 A
         d(center):12.541 A  angles  :    86.9    86.8   134.5    86.8   134.5    79.4
 atom  12 species Te : neighbors at    2.693   2.693   2.877   2.910 A
         d(center): 6.092 A  angles  :    88.1   134.7    77.9   134.7   131.2    80.7
 atom  13 species Te : neighbors at    2.727   2.727   2.727   2.906 A
         d(center): 6.784 A  angles  :    86.8    86.8    77.5    86.8   134.0   134.0
 atom  14 species Te : neighbors at    2.723   2.723   2.730   2.915 A
         d(center):10.693 A  angles  :    86.9    86.8   134.5    86.8   134.5    79.4
 atom  15 species Te : neighbors at    2.700   2.700   2.700   2.888 A
         d(center):13.047 A  angles  :    87.9    87.9    80.2    87.9   134.6   134.6
 atom  16 species Te : neighbors at    2.727   2.727   2.727   2.906 A
         d(center): 4.726 A  angles  :    86.8    86.8    77.5    86.8   134.0   134.0
 atom  17 species Te : neighbors at    2.693   2.693   2.877   2.910 A
         d(center): 7.716 A  angles  :    88.1   134.7    77.9   134.7   131.2    80.7
 atom  18 species Te : neighbors at    2.700   2.700   2.700   2.888 A
         d(center):10.056 A  angles  :    87.9    87.9    80.2    87.9   134.6   134.6
 atom  19 species Te : neighbors at    2.723   2.723   2.730   2.915 A
         d(center):13.612 A  angles  :    86.9    86.8   134.5    86.8   134.5    79.4
 atom  20 species Te : neighbors at    2.693   2.693   2.877   2.910 A
         d(center): 6.092 A  angles  :    88.1   134.7    77.9   134.7   131.2    80.7
 atom  21 species Te : neighbors at    2.693   2.693   2.877   2.910 A
         d(center): 7.716 A  angles  :    88.1   134.7    77.9   134.7   131.2    80.7
 atom  22 species Te : neighbors at    2.723   2.723   2.730   2.915 A
         d(center):10.693 A  angles  :    86.9    86.8   134.5    86.8   134.5    79.4
 atom  23 species Te : neighbors at    2.723   2.723   2.730   2.915 A
         d(center):13.612 A  angles  :    86.9    86.8   134.5    86.8   134.5    79.4
 atom  24 species Zr : neighbors at    2.877   2.877   2.877   2.915 A
         d(center): 0.043 A  angles  :    79.1    79.1   179.3    79.1   100.3   100.3
 atom  25 species Zr : neighbors at    2.877   2.877   2.877   2.915 A
         d(center): 7.087 A  angles  :    79.1    79.1   179.3    79.1   100.3   100.3
 atom  26 species Zr : neighbors at    2.888   2.906   2.910   2.910 A
         d(center): 3.747 A  angles  :   176.5   102.4   102.4    80.2    80.2    82.2
 atom  27 species Zr : neighbors at    2.888   2.906   2.910   2.910 A
         d(center): 8.021 A  angles  :   176.5   102.4   102.4    80.2    80.2    82.2
 atom  28 species Zr : neighbors at    2.888   2.906   2.910   2.910 A
         d(center): 3.747 A  angles  :   176.5   102.4   102.4    80.2    80.2    82.2
 atom  29 species Zr : neighbors at    2.888   2.906   2.910   2.910 A
         d(center): 8.021 A  angles  :   176.5   102.4   102.4    80.2    80.2    82.2
 atom  30 species Zr : neighbors at    2.888   2.906   2.910   2.910 A
         d(center): 3.747 A  angles  :   176.5   102.4   102.4    80.2    80.2    82.2
 atom  31 species Zr : neighbors at    2.888   2.906   2.910   2.910 A
         d(center): 8.021 A  angles  :   176.5   102.4   102.4    80.2    80.2    82.2
