Distances between atoms, up to dmax=  6.00 A   (* = with lattice translation)
  #1  #2   bond       d
   2  10  Cu-Te    2.76324 A *
   2  15  Cu-Te    2.76324 A  
   1  10  Cu-Te    2.76324 A  
   1  15  Cu-Te    2.76324 A *
   1  14  Cu-Te    2.76398 A *
   1  11  Cu-Te    2.76398 A  
   2  14  Cu-Te    2.76398 A  
   2  11  Cu-Te    2.76398 A *
   3   4  Cu-Te    2.78656 A  
   3  17  Cu-Te    2.78656 A  
   3  16  Cu-Te    2.78656 A  
   3   5  Cu-Te    2.78656 A  
   1   6  Cu-Te    2.78769 A  
   1  19  Cu-Te    2.78769 A *
   2  18  Cu-Te    2.78769 A *
   2   7  Cu-Te    2.78769 A  
   3   9  Cu-Te    2.79278 A  
   3  12  Cu-Te    2.79278 A  
   8  20  Te-Zr    2.85842 A *
  13  21  Te-Zr    2.85842 A *
   9  27  Te-Zr    2.88850 A  
  12  26  Te-Zr    2.88850 A  
  18  21  Te-Zr    2.88856 A *
   7  20  Te-Zr    2.88856 A *
   6  21  Te-Zr    2.88856 A  
  19  20  Te-Zr    2.88856 A *
   8  24  Te-Zr    2.88957 A *
  13  25  Te-Zr    2.88957 A  
  13  23  Te-Zr    2.88957 A *
   8  22  Te-Zr    2.88957 A  
  19  22  Te-Zr    2.89545 A *
   6  23  Te-Zr    2.89545 A  
   7  24  Te-Zr    2.89545 A *
  18  25  Te-Zr    2.89545 A *
   5  21  Te-Zr    2.90672 A  
  16  20  Te-Zr    2.90672 A *
  17  21  Te-Zr    2.90672 A *
   4  20  Te-Zr    2.90672 A  
   9  23  Te-Zr    2.91216 A  
  12  22  Te-Zr    2.91216 A *
  12  24  Te-Zr    2.91216 A  
   9  25  Te-Zr    2.91216 A *
  17  27  Te-Zr    2.91337 A  
   4  26  Te-Zr    2.91337 A  
   5  27  Te-Zr    2.91337 A  
  16  26  Te-Zr    2.91337 A  
  11  22  Te-Zr    2.91405 A *
  14  23  Te-Zr    2.91405 A *
  11  24  Te-Zr    2.91405 A *
  14  25  Te-Zr    2.91405 A  
   6  27  Te-Zr    2.91610 A  
  19  26  Te-Zr    2.91610 A *
   7  26  Te-Zr    2.91610 A *
  18  27  Te-Zr    2.91610 A  
  11  26  Te-Zr    2.93914 A *
  14  27  Te-Zr    2.93914 A  
  10  21  Te-Zr    2.93971 A *
  15  20  Te-Zr    2.93971 A *
  10  25  Te-Zr    2.93989 A *
  15  24  Te-Zr    2.93989 A *
  15  22  Te-Zr    2.93989 A *
  10  23  Te-Zr    2.93989 A  
   5  25  Te-Zr    2.94111 A  
  16  24  Te-Zr    2.94111 A *
   4  22  Te-Zr    2.94111 A  
  17  23  Te-Zr    2.94111 A *
   3  26  Cu-Zr    3.23394 A  
   3  27  Cu-Zr    3.23394 A  
   1  23  Cu-Zr    3.27641 A  
   2  25  Cu-Zr    3.27641 A  
   1  22  Cu-Zr    3.27641 A *
   2  24  Cu-Zr    3.27641 A *
   6   7  Te-Te    3.70251 A  
  18  19  Te-Te    3.70251 A  
  12  13  Te-Te    3.71801 A  
   8   9  Te-Te    3.71801 A  
   4  13  Te-Te    3.75935 A *
   8  17  Te-Te    3.75935 A *
  13  16  Te-Te    3.75935 A *
   5   8  Te-Te    3.75935 A *
   7  14  Te-Te    3.77342 A  
  11  18  Te-Te    3.77342 A  
   6  11  Te-Te    3.77342 A  
  14  19  Te-Te    3.77342 A  
   6  15  Te-Te    3.80511 A *
  10  19  Te-Te    3.80511 A *
   7  10  Te-Te    3.80511 A *
  15  18  Te-Te    3.80511 A *
   5  12  Te-Te    3.81910 A  
   9  16  Te-Te    3.81910 A  
   4   9  Te-Te    3.81910 A  
  12  17  Te-Te    3.81910 A  
  20  24  Zr-Zr    3.82544 A  
  21  25  Zr-Zr    3.82544 A *
  21  23  Zr-Zr    3.82544 A  
  20  22  Zr-Zr    3.82544 A *
   6  14  Te-Te    3.83147 A  
  11  19  Te-Te    3.83147 A  
   7  11  Te-Te    3.83147 A  
  14  18  Te-Te    3.83147 A  
   4  12  Te-Te    3.83573 A *
   9  17  Te-Te    3.83573 A *
   5   9  Te-Te    3.83573 A *
  12  16  Te-Te    3.83573 A *
   4   5  Te-Te    3.84762 A  
  16  17  Te-Te    3.84762 A  
   7  15  Te-Te    3.86263 A *
  10  18  Te-Te    3.86263 A *
  15  19  Te-Te    3.86263 A *
   6  10  Te-Te    3.86263 A *
  10  11  Te-Te    3.86463 A  
  14  15  Te-Te    3.86463 A  
   4  16  Te-Te    3.87115 A *
   5  17  Te-Te    3.87115 A *
  22  24  Zr-Zr    3.88943 A *
  23  25  Zr-Zr    3.88943 A *
  23  27  Zr-Zr    3.89013 A  
  22  26  Zr-Zr    3.89013 A *
  24  26  Zr-Zr    3.89013 A  
  25  27  Zr-Zr    3.89013 A *
   5  13  Te-Te    3.91673 A  
   8  16  Te-Te    3.91673 A  
   4   8  Te-Te    3.91673 A  
  13  17  Te-Te    3.91673 A  
   6  18  Te-Te    3.92208 A  
   7  19  Te-Te    3.92208 A  
   1   2  Cu-Cu    3.95148 A *
   1   2  Cu-Cu    3.95148 A *
  11  15  Te-Te    3.95155 A *
  10  14  Te-Te    3.95155 A *
  10  14  Te-Te    3.95155 A *
  11  15  Te-Te    3.95155 A *
   8  12  Te-Te    3.95176 A *
   9  13  Te-Te    3.95176 A *
   8  12  Te-Te    3.95176 A *
   9  13  Te-Te    3.95176 A *
  20  26  Zr-Zr    3.95202 A *
  21  27  Zr-Zr    3.95202 A  
  21  27  Zr-Zr    3.95202 A *
  20  26  Zr-Zr    3.95202 A  
   6  18  Te-Te    3.98089 A *
   7  19  Te-Te    3.98089 A *
   5  13  Te-Te    3.98744 A *
   8  16  Te-Te    3.98744 A *
   4   8  Te-Te    3.98744 A *
  13  17  Te-Te    3.98744 A *
  23  25  Zr-Zr    4.01354 A *
  22  24  Zr-Zr    4.01354 A *
  22  26  Zr-Zr    4.01795 A  
  23  27  Zr-Zr    4.01795 A *
  24  26  Zr-Zr    4.01795 A *
  25  27  Zr-Zr    4.01795 A  
   4  16  Te-Te    4.03182 A  
   5  17  Te-Te    4.03182 A  
   7  15  Te-Te    4.04160 A  
  10  18  Te-Te    4.04160 A  
   6  10  Te-Te    4.04160 A  
  15  19  Te-Te    4.04160 A  
   4  12  Te-Te    4.06739 A  
   9  17  Te-Te    4.06739 A  
   5   9  Te-Te    4.06739 A  
  12  16  Te-Te    4.06739 A  
   6  14  Te-Te    4.07220 A *
  11  19  Te-Te    4.07220 A *
   7  11  Te-Te    4.07220 A *
  14  18  Te-Te    4.07220 A *
  21  25  Zr-Zr    4.07906 A  
  20  24  Zr-Zr    4.07906 A *
  20  22  Zr-Zr    4.07906 A  
  21  23  Zr-Zr    4.07906 A *
   4  15  Te-Te    4.21186 A *
  10  17  Te-Te    4.21186 A *
   5  10  Te-Te    4.21186 A *
  15  16  Te-Te    4.21186 A *
   9  10  Te-Te    4.25179 A  
  12  15  Te-Te    4.25179 A *
   4   7  Te-Te    4.25481 A *
  17  18  Te-Te    4.25481 A  
  16  19  Te-Te    4.25481 A *
   5   6  Te-Te    4.25481 A  
  11  16  Te-Te    4.25613 A *
   5  14  Te-Te    4.25613 A  
   4  11  Te-Te    4.25613 A *
  14  17  Te-Te    4.25613 A  
  13  14  Te-Te    4.30203 A  
   8  11  Te-Te    4.30203 A *
   7  12  Te-Te    4.30974 A *
   9  18  Te-Te    4.30974 A  
   6   9  Te-Te    4.30974 A  
  12  19  Te-Te    4.30974 A *
   8  19  Te-Te    4.31366 A *
   6  13  Te-Te    4.31366 A *
   7   8  Te-Te    4.31366 A *
  13  18  Te-Te    4.31366 A *
   1  18  Cu-Te    4.74393 A *
   1   7  Cu-Te    4.74393 A  
   2   6  Cu-Te    4.74393 A  
   2  19  Cu-Te    4.74393 A *
   3   8  Cu-Te    4.78049 A  
   3  13  Cu-Te    4.78049 A  
   3   8  Cu-Te    4.81487 A *
   3  13  Cu-Te    4.81487 A *
   3   8  Cu-Te    4.81487 A *
   3  13  Cu-Te    4.81487 A *
   1  18  Cu-Te    4.82382 A  
   1   7  Cu-Te    4.82382 A *
   2   6  Cu-Te    4.82382 A *
   2  19  Cu-Te    4.82382 A  
   2   6  Cu-Te    4.84785 A *
   2  19  Cu-Te    4.84785 A *
   1   7  Cu-Te    4.84785 A *
   1  18  Cu-Te    4.84785 A *
   8  26  Te-Zr    4.87449 A *
  13  27  Te-Zr    4.87449 A *
   8  26  Te-Zr    4.87449 A *
  13  27  Te-Zr    4.87449 A *
   6  25  Te-Zr    4.88475 A  
  19  24  Te-Zr    4.88475 A *
   7  22  Te-Zr    4.88475 A *
  18  23  Te-Zr    4.88475 A *
  19  24  Te-Zr    4.88539 A *
   6  25  Te-Zr    4.88539 A *
   7  22  Te-Zr    4.88539 A *
  18  23  Te-Zr    4.88539 A *
  13  27  Te-Zr    4.89301 A  
   8  26  Te-Zr    4.89301 A  
  12  20  Te-Zr    4.89672 A  
   9  21  Te-Zr    4.89672 A *
   9  21  Te-Zr    4.89672 A  
  12  20  Te-Zr    4.89672 A *
   9  21  Te-Zr    4.90156 A *
  12  20  Te-Zr    4.90156 A *
   4  24  Te-Zr    4.90516 A  
  17  25  Te-Zr    4.90516 A *
   5  23  Te-Zr    4.90516 A  
  16  22  Te-Zr    4.90516 A *
  14  21  Te-Zr    4.91028 A *
  11  20  Te-Zr    4.91028 A *
   7  22  Te-Zr    4.91173 A *
  18  23  Te-Zr    4.91173 A  
   6  25  Te-Zr    4.91173 A *
  19  24  Te-Zr    4.91173 A *
  17  25  Te-Zr    4.91804 A *
   4  24  Te-Zr    4.91804 A *
   5  23  Te-Zr    4.91804 A *
  16  22  Te-Zr    4.91804 A *
  14  21  Te-Zr    4.92131 A  
  11  20  Te-Zr    4.92131 A *
  11  20  Te-Zr    4.92131 A *
  14  21  Te-Zr    4.92131 A *
  15  26  Te-Zr    4.92816 A *
  10  27  Te-Zr    4.92816 A *
  15  26  Te-Zr    4.92816 A *
  10  27  Te-Zr    4.92816 A *
   5  23  Te-Zr    4.93271 A *
  16  22  Te-Zr    4.93271 A  
   4  24  Te-Zr    4.93271 A *
  17  25  Te-Zr    4.93271 A  
  15  26  Te-Zr    4.94230 A *
  10  27  Te-Zr    4.94230 A  
   2  23  Cu-Zr    5.10920 A *
   2  22  Cu-Zr    5.10920 A *
   1  25  Cu-Zr    5.10920 A *
   1  24  Cu-Zr    5.10920 A *
   2  21  Cu-Zr    5.12781 A *
   2  20  Cu-Zr    5.12781 A *
   1  21  Cu-Zr    5.12781 A  
   1  20  Cu-Zr    5.12781 A *
   3  20  Cu-Zr    5.14083 A *
   3  21  Cu-Zr    5.14083 A  
   3  20  Cu-Zr    5.14083 A  
   3  21  Cu-Zr    5.14083 A *
   1  25  Cu-Zr    5.15697 A *
   1  24  Cu-Zr    5.15697 A *
   2  23  Cu-Zr    5.15697 A *
   2  22  Cu-Zr    5.15697 A *
   3  22  Cu-Zr    5.16034 A *
   3  23  Cu-Zr    5.16034 A  
   3  24  Cu-Zr    5.16034 A  
   3  25  Cu-Zr    5.16034 A *
   1  26  Cu-Zr    5.18705 A *
   1  27  Cu-Zr    5.18705 A  
   2  27  Cu-Zr    5.18705 A *
   2  26  Cu-Zr    5.18705 A *
   3  22  Cu-Zr    5.20857 A  
   3  23  Cu-Zr    5.20857 A *
   3  24  Cu-Zr    5.20857 A *
   3  25  Cu-Zr    5.20857 A  
   2  21  Cu-Zr    5.22578 A  
   2  20  Cu-Zr    5.22578 A *
   1  21  Cu-Zr    5.22578 A *
   1  20  Cu-Zr    5.22578 A *
   1  26  Cu-Zr    5.23605 A *
   1  27  Cu-Zr    5.23605 A *
   2  26  Cu-Zr    5.23605 A *
   2  27  Cu-Zr    5.23605 A  
   4  27  Te-Zr    5.28762 A  
  17  26  Te-Zr    5.28762 A  
  16  27  Te-Zr    5.28762 A  
   5  26  Te-Zr    5.28762 A  
  16  21  Te-Zr    5.29848 A *
   5  20  Te-Zr    5.29848 A  
   4  21  Te-Zr    5.29848 A  
  17  20  Te-Zr    5.29848 A *
  10  24  Te-Zr    5.30074 A *
  15  25  Te-Zr    5.30074 A  
  10  22  Te-Zr    5.30074 A *
  15  23  Te-Zr    5.30074 A *
  12  27  Te-Zr    5.30779 A  
   9  26  Te-Zr    5.30779 A  
  14  22  Te-Zr    5.31575 A *
  11  23  Te-Zr    5.31575 A  
  14  24  Te-Zr    5.31575 A *
  11  25  Te-Zr    5.31575 A *
  15  21  Te-Zr    5.32482 A *
  10  20  Te-Zr    5.32482 A *
   4  23  Te-Zr    5.34281 A  
   5  24  Te-Zr    5.34281 A  
  16  25  Te-Zr    5.34281 A *
  17  22  Te-Zr    5.34281 A *
   8  21  Te-Zr    5.34741 A *
  13  20  Te-Zr    5.34741 A *
  18  24  Te-Zr    5.35056 A *
   6  22  Te-Zr    5.35056 A *
   7  25  Te-Zr    5.35056 A  
  19  23  Te-Zr    5.35056 A *
   9  22  Te-Zr    5.35552 A  
  12  23  Te-Zr    5.35552 A *
   9  24  Te-Zr    5.35552 A *
  12  25  Te-Zr    5.35552 A  
  11  14  Te-Te    5.36157 A  
   7  21  Te-Zr    5.36741 A  
  18  20  Te-Zr    5.36741 A *
  19  21  Te-Zr    5.36741 A *
   6  20  Te-Zr    5.36741 A *
  14  26  Te-Zr    5.36916 A *
  11  27  Te-Zr    5.36916 A  
   8  25  Te-Zr    5.38404 A *
  13  24  Te-Zr    5.38404 A  
  13  22  Te-Zr    5.38404 A *
   8  23  Te-Zr    5.38404 A  
   6  19  Te-Te    5.39363 A  
   7  18  Te-Te    5.39363 A  
   6  26  Te-Zr    5.39771 A *
  19  27  Te-Zr    5.39771 A  
  18  26  Te-Zr    5.39771 A *
   7  27  Te-Zr    5.39771 A  
  10  15  Te-Te    5.40755 A *
   9  12  Te-Te    5.40970 A *
   9  12  Te-Te    5.40970 A *
   5  16  Te-Te    5.41588 A *
   4  17  Te-Te    5.41588 A *
   7  18  Te-Te    5.43655 A *
   6  19  Te-Te    5.43655 A *
   8  13  Te-Te    5.44199 A *
   8  13  Te-Te    5.44199 A *
   5  16  Te-Te    5.45802 A *
   4  17  Te-Te    5.45802 A *
   8  13  Te-Te    5.50226 A *
  10  15  Te-Te    5.52648 A *
  10  15  Te-Te    5.52648 A *
  11  14  Te-Te    5.52795 A *
  11  14  Te-Te    5.52795 A *
   4  17  Te-Te    5.57312 A  
   5  16  Te-Te    5.57312 A  
   6  19  Te-Te    5.57537 A *
   7  18  Te-Te    5.57537 A *
   3  11  Cu-Te    5.58030 A *
   3  14  Cu-Te    5.58030 A  
   2   5  Cu-Te    5.58253 A  
   1  17  Cu-Te    5.58253 A *
   2  16  Cu-Te    5.58253 A *
   1   4  Cu-Te    5.58253 A *
   9  12  Te-Te    5.58557 A  
   3   6  Cu-Te    5.59229 A  
   3  19  Cu-Te    5.59229 A *
   3  18  Cu-Te    5.59229 A  
   3   7  Cu-Te    5.59229 A *
   1   9  Cu-Te    5.59655 A  
   1  12  Cu-Te    5.59655 A *
   2   9  Cu-Te    5.59655 A *
   2  12  Cu-Te    5.59655 A *
   2   8  Cu-Te    5.60994 A *
   2  13  Cu-Te    5.60994 A  
   1  13  Cu-Te    5.60994 A *
   1   8  Cu-Te    5.60994 A *
   5  18  Te-Te    5.78913 A *
   7  16  Te-Te    5.78913 A *
   4  19  Te-Te    5.78913 A *
   6  17  Te-Te    5.78913 A *
   8  15  Te-Te    5.79809 A *
  10  13  Te-Te    5.79809 A *
   9  14  Te-Te    5.82009 A *
  11  12  Te-Te    5.82009 A *
   9  14  Te-Te    5.82009 A *
  11  12  Te-Te    5.82009 A *
   4  19  Te-Te    5.82379 A *
   6  17  Te-Te    5.82379 A  
   5  18  Te-Te    5.82379 A  
   7  16  Te-Te    5.82379 A *
   9  14  Te-Te    5.82532 A  
  11  12  Te-Te    5.82532 A *
  10  13  Te-Te    5.82566 A *
   8  15  Te-Te    5.82566 A *
  10  13  Te-Te    5.82566 A *
   8  15  Te-Te    5.82566 A *
   7  16  Te-Te    5.83518 A *
   5  18  Te-Te    5.83518 A *
   4  19  Te-Te    5.83518 A *
   6  17  Te-Te    5.83518 A *

Nearest neighbors for each atom (up to 4)

 atom   1 species Cu : neighbors at    2.763   2.763   2.764   2.764 A
         d(center):10.703 A  angles  :   180.0    91.3    88.7    88.7    91.3   180.0
 atom   2 species Cu : neighbors at    2.763   2.763   2.764   2.764 A
         d(center):10.703 A  angles  :   180.0    91.3    88.7    88.7    91.3   180.0
 atom   3 species Cu : neighbors at    2.787   2.787   2.787   2.787 A
         d(center): 5.158 A  angles  :   180.0    92.7    87.3    87.3    92.7   180.0
 atom   4 species Te : neighbors at    2.787   2.907   2.913   2.941 A
         d(center): 2.893 A  angles  :   129.1    69.1   130.8    85.5    88.5    86.7
 atom   5 species Te : neighbors at    2.787   2.907   2.913   2.941 A
         d(center): 5.340 A  angles  :   129.1    69.1   130.8    85.5    88.5    86.7
 atom   6 species Te : neighbors at    2.788   2.889   2.895   2.916 A
         d(center): 8.739 A  angles  :   129.2    70.4   130.8    82.8    85.8    84.0
 atom   7 species Te : neighbors at    2.788   2.889   2.895   2.916 A
         d(center):11.675 A  angles  :   129.2    70.4   130.8    82.8    85.8    84.0
 atom   8 species Te : neighbors at    2.858   2.890   2.890   3.718 A
         d(center): 6.285 A  angles  :    83.4    83.4   164.7    84.6   107.6   107.6
 atom   9 species Te : neighbors at    2.793   2.888   2.912   2.912 A
         d(center): 6.663 A  angles  :    69.4   129.5   129.5    84.2    84.2    87.1
 atom  10 species Te : neighbors at    2.763   2.763   2.940   2.940 A
         d(center):10.384 A  angles  :    91.3   132.8    70.0   132.8   129.4    87.9
 atom  11 species Te : neighbors at    2.764   2.764   2.914   2.914 A
         d(center):12.320 A  angles  :    91.3    70.4   128.2   128.2    70.4    83.7
 atom  12 species Te : neighbors at    2.793   2.888   2.912   2.912 A
         d(center): 4.942 A  angles  :    69.4   129.5   129.5    84.2    84.2    87.1
 atom  13 species Te : neighbors at    2.858   2.890   2.890   3.718 A
         d(center): 7.708 A  angles  :    83.4    83.4   164.7    84.6   107.6   107.6
 atom  14 species Te : neighbors at    2.764   2.764   2.914   2.914 A
         d(center): 9.577 A  angles  :    91.3    70.4   128.2   128.2    70.4    83.7
 atom  15 species Te : neighbors at    2.763   2.763   2.940   2.940 A
         d(center):12.979 A  angles  :    91.3   132.8    70.0   132.8   129.4    87.9
 atom  16 species Te : neighbors at    2.787   2.907   2.913   2.941 A
         d(center): 6.343 A  angles  :   129.1    69.1   130.8    85.5    88.5    86.7
 atom  17 species Te : neighbors at    2.787   2.907   2.913   2.941 A
         d(center): 7.770 A  angles  :   129.1    69.1   130.8    85.5    88.5    86.7
 atom  18 species Te : neighbors at    2.788   2.889   2.895   2.916 A
         d(center):10.362 A  angles  :   129.2    70.4   130.8    82.8    85.8    84.0
 atom  19 species Te : neighbors at    2.788   2.889   2.895   2.916 A
         d(center):12.934 A  angles  :   129.2    70.4   130.8    82.8    85.8    84.0
 atom  20 species Zr : neighbors at    2.858   2.889   2.889   2.907 A
         d(center): 0.079 A  angles  :    97.3    97.3    87.5    87.1   174.7    94.5
 atom  21 species Zr : neighbors at    2.858   2.889   2.889   2.907 A
         d(center): 6.604 A  angles  :    97.3    97.3    87.5    87.1   174.7    94.5
 atom  22 species Zr : neighbors at    2.890   2.895   2.912   2.914 A
         d(center): 4.014 A  angles  :    96.4    85.9    95.7    95.8    89.0   174.7
 atom  23 species Zr : neighbors at    2.890   2.895   2.912   2.914 A
         d(center): 7.722 A  angles  :    96.4    85.9    95.7    95.8    89.0   174.7
 atom  24 species Zr : neighbors at    2.890   2.895   2.912   2.914 A
         d(center): 3.889 A  angles  :    96.4    85.9    95.7    95.8    89.0   174.7
 atom  25 species Zr : neighbors at    2.890   2.895   2.912   2.914 A
         d(center): 7.786 A  angles  :    96.4    85.9    95.7    95.8    89.0   174.7
 atom  26 species Zr : neighbors at    2.888   2.913   2.913   2.916 A
         d(center): 3.953 A  angles  :    89.0    89.0    95.9    87.6   174.9    93.8
 atom  27 species Zr : neighbors at    2.888   2.913   2.913   2.916 A
         d(center): 7.649 A  angles  :    89.0    89.0    95.9    87.6   174.9    93.8
