Distances between atoms, up to dmax=  6.00 A   (* = with lattice translation)
  #1  #2   bond       d
   3  17  Co-Te    2.61940 A  
   4   8  Co-Te    2.61940 A  
   2   8  Co-Te    2.61943 A  
   1  17  Co-Te    2.61943 A *
   3  10  Co-Te    2.61943 A  
   4  15  Co-Te    2.61943 A  
   4  12  Co-Te    2.61944 A  
   3  13  Co-Te    2.61944 A  
   3   6  Co-Te    2.61944 A  
   4  19  Co-Te    2.61944 A  
   1  13  Co-Te    2.61947 A  
   2  12  Co-Te    2.61947 A *
   1  10  Co-Te    2.61948 A *
   2  15  Co-Te    2.61948 A  
   1   6  Co-Te    2.61948 A  
   2  19  Co-Te    2.61948 A *
   3  18  Co-Te    2.63104 A  
   4   7  Co-Te    2.63104 A  
   4  20  Co-Te    2.63109 A  
   3   5  Co-Te    2.63109 A  
   1   9  Co-Te    2.63110 A *
   2  16  Co-Te    2.63110 A  
   1  14  Co-Te    2.63114 A  
   2  11  Co-Te    2.63114 A *
  11  26  Te-Zr    2.88165 A *
  14  26  Te-Zr    2.88165 A  
   7  28  Te-Zr    2.88168 A  
  18  28  Te-Zr    2.88168 A  
   5  27  Te-Zr    2.88170 A  
  20  27  Te-Zr    2.88170 A *
   9  25  Te-Zr    2.88170 A *
  16  25  Te-Zr    2.88170 A *
   9  23  Te-Zr    2.88792 A  
  16  23  Te-Zr    2.88792 A *
  11  24  Te-Zr    2.88793 A  
  14  24  Te-Zr    2.88793 A *
   9  21  Te-Zr    2.88796 A *
  16  21  Te-Zr    2.88796 A *
   7  24  Te-Zr    2.88797 A  
  18  24  Te-Zr    2.88797 A *
  11  22  Te-Zr    2.88797 A *
  14  22  Te-Zr    2.88797 A *
   5  23  Te-Zr    2.88798 A  
  20  23  Te-Zr    2.88798 A *
   7  22  Te-Zr    2.88801 A  
  18  22  Te-Zr    2.88801 A *
  20  21  Te-Zr    2.88802 A *
   5  21  Te-Zr    2.88802 A  
  12  23  Te-Zr    2.90450 A *
  13  23  Te-Zr    2.90450 A *
  17  21  Te-Zr    2.90453 A *
   8  21  Te-Zr    2.90453 A *
  10  24  Te-Zr    2.90453 A  
  15  24  Te-Zr    2.90453 A *
  19  22  Te-Zr    2.90456 A *
   6  22  Te-Zr    2.90456 A  
   6  28  Te-Zr    2.90858 A  
  19  28  Te-Zr    2.90858 A  
  15  28  Te-Zr    2.90859 A  
  10  28  Te-Zr    2.90859 A  
  19  26  Te-Zr    2.90860 A *
   6  26  Te-Zr    2.90860 A  
  17  27  Te-Zr    2.90860 A  
   8  27  Te-Zr    2.90860 A *
  12  27  Te-Zr    2.90860 A *
  13  27  Te-Zr    2.90860 A  
  10  26  Te-Zr    2.90862 A *
  15  26  Te-Zr    2.90862 A  
  17  25  Te-Zr    2.90864 A *
   8  25  Te-Zr    2.90864 A *
  12  25  Te-Zr    2.90865 A *
  13  25  Te-Zr    2.90865 A  
   2  25  Co-Zr    3.24942 A *
   1  25  Co-Zr    3.24942 A  
   3  28  Co-Zr    3.24948 A  
   4  28  Co-Zr    3.24948 A  
   3  27  Co-Zr    3.24949 A  
   4  27  Co-Zr    3.24949 A *
   1  26  Co-Zr    3.24955 A  
   2  26  Co-Zr    3.24955 A  
   6  13  Te-Te    3.54800 A  
  12  19  Te-Te    3.54800 A  
   8  15  Te-Te    3.54801 A  
  10  17  Te-Te    3.54801 A  
  13  18  Te-Te    3.56673 A  
   7  12  Te-Te    3.56673 A  
  15  20  Te-Te    3.56675 A  
   5  10  Te-Te    3.56675 A  
  17  18  Te-Te    3.56677 A  
   7   8  Te-Te    3.56677 A  
  19  20  Te-Te    3.56679 A  
   5   6  Te-Te    3.56679 A  
  13  14  Te-Te    3.56682 A  
  11  12  Te-Te    3.56682 A  
   9  10  Te-Te    3.56683 A  
  15  16  Te-Te    3.56683 A  
   8  11  Te-Te    3.56685 A *
  14  17  Te-Te    3.56685 A *
   6   9  Te-Te    3.56687 A *
  16  19  Te-Te    3.56687 A *
   7  16  Te-Te    3.60249 A *
   9  18  Te-Te    3.60249 A *
   5  14  Te-Te    3.60251 A *
  11  20  Te-Te    3.60251 A *
   6  18  Te-Te    3.85299 A  
   7  19  Te-Te    3.85299 A  
   6  14  Te-Te    3.85302 A  
  11  19  Te-Te    3.85302 A  
   5  17  Te-Te    3.85305 A  
   8  20  Te-Te    3.85305 A  
   7  15  Te-Te    3.85306 A  
  10  18  Te-Te    3.85306 A  
  11  15  Te-Te    3.85309 A *
  10  14  Te-Te    3.85309 A *
  12  20  Te-Te    3.85310 A  
   5  13  Te-Te    3.85310 A  
   8  16  Te-Te    3.85312 A  
   9  17  Te-Te    3.85312 A  
   9  13  Te-Te    3.85318 A *
  12  16  Te-Te    3.85318 A *
  14  18  Te-Te    3.85450 A  
   7  11  Te-Te    3.85450 A  
  13  17  Te-Te    3.85450 A  
   8  12  Te-Te    3.85450 A  
   5   9  Te-Te    3.85451 A  
  16  20  Te-Te    3.85451 A  
   6  10  Te-Te    3.85453 A  
  15  19  Te-Te    3.85453 A  
   1   3  Co-Co    3.85453 A *
   2   4  Co-Co    3.85453 A  
  21  25  Zr-Zr    3.85456 A *
  21  25  Zr-Zr    3.85456 A  
  22  26  Zr-Zr    3.85456 A *
  22  26  Zr-Zr    3.85456 A  
  23  27  Zr-Zr    3.85456 A *
  23  27  Zr-Zr    3.85456 A  
  24  28  Zr-Zr    3.85456 A *
  24  28  Zr-Zr    3.85456 A  
  21  23  Zr-Zr    3.85456 A *
  21  23  Zr-Zr    3.85456 A  
  21  27  Zr-Zr    3.85456 A *
  21  27  Zr-Zr    3.85456 A  
  22  24  Zr-Zr    3.85456 A *
  22  24  Zr-Zr    3.85456 A  
  22  28  Zr-Zr    3.85456 A *
  22  28  Zr-Zr    3.85456 A  
  23  25  Zr-Zr    3.85456 A *
  23  25  Zr-Zr    3.85456 A *
  24  26  Zr-Zr    3.85456 A *
  24  26  Zr-Zr    3.85456 A *
  25  27  Zr-Zr    3.85456 A *
  25  27  Zr-Zr    3.85456 A  
  26  28  Zr-Zr    3.85456 A *
  26  28  Zr-Zr    3.85456 A  
   2   4  Co-Co    3.85459 A *
   1   3  Co-Co    3.85459 A  
  15  19  Te-Te    3.85460 A *
   6  10  Te-Te    3.85460 A *
   5   9  Te-Te    3.85462 A *
  16  20  Te-Te    3.85462 A *
   8  12  Te-Te    3.85462 A *
  13  17  Te-Te    3.85462 A *
  14  18  Te-Te    3.85463 A *
   7  11  Te-Te    3.85463 A *
   9  13  Te-Te    3.85624 A *
  12  16  Te-Te    3.85624 A *
   9  17  Te-Te    3.85629 A *
   8  16  Te-Te    3.85629 A *
   5  13  Te-Te    3.85632 A *
  12  20  Te-Te    3.85632 A *
  10  14  Te-Te    3.85633 A *
  11  15  Te-Te    3.85633 A *
  10  18  Te-Te    3.85635 A *
   7  15  Te-Te    3.85635 A *
   5  17  Te-Te    3.85636 A *
   8  20  Te-Te    3.85636 A *
  11  19  Te-Te    3.85639 A *
   6  14  Te-Te    3.85639 A *
   6  18  Te-Te    3.85642 A *
   7  19  Te-Te    3.85642 A *
   7  14  Te-Te    4.30161 A *
  11  18  Te-Te    4.30161 A *
   5  16  Te-Te    4.30161 A *
   9  20  Te-Te    4.30161 A *
  10  11  Te-Te    4.32222 A  
  14  15  Te-Te    4.32222 A  
   7  10  Te-Te    4.32225 A  
  15  18  Te-Te    4.32225 A  
   9  12  Te-Te    4.32225 A *
  13  16  Te-Te    4.32225 A *
   5  12  Te-Te    4.32226 A *
  13  20  Te-Te    4.32226 A *
   6  11  Te-Te    4.32226 A *
  14  19  Te-Te    4.32226 A *
   8   9  Te-Te    4.32229 A *
  16  17  Te-Te    4.32229 A *
  18  19  Te-Te    4.32229 A  
   6   7  Te-Te    4.32229 A  
  17  20  Te-Te    4.32230 A *
   5   8  Te-Te    4.32230 A *
  10  19  Te-Te    4.35684 A  
   6  15  Te-Te    4.35684 A  
  12  17  Te-Te    4.35691 A *
   8  13  Te-Te    4.35691 A *
   1   5  Co-Te    4.66686 A *
   2  20  Co-Te    4.66686 A  
   3  14  Co-Te    4.66691 A  
   4  11  Co-Te    4.66691 A  
   2   7  Co-Te    4.66693 A *
   1  18  Co-Te    4.66693 A  
   2  20  Co-Te    4.66693 A *
   1   5  Co-Te    4.66693 A  
   3  14  Co-Te    4.66694 A *
   4  11  Co-Te    4.66694 A *
   3   9  Co-Te    4.66694 A  
   4  16  Co-Te    4.66694 A  
   1  18  Co-Te    4.66696 A *
   2   7  Co-Te    4.66696 A  
   3   9  Co-Te    4.66702 A *
   4  16  Co-Te    4.66702 A *
   4  16  Co-Te    4.67464 A *
   3   9  Co-Te    4.67464 A *
   2  20  Co-Te    4.67469 A *
   1   5  Co-Te    4.67469 A *
   1  18  Co-Te    4.67473 A *
   2   7  Co-Te    4.67473 A *
   3  14  Co-Te    4.67475 A *
   4  11  Co-Te    4.67475 A *
  11  28  Te-Zr    4.81262 A  
  14  28  Te-Zr    4.81262 A  
   7  26  Te-Zr    4.81264 A *
  18  26  Te-Zr    4.81264 A  
   9  27  Te-Zr    4.81265 A  
  16  27  Te-Zr    4.81265 A *
   5  25  Te-Zr    4.81265 A *
  20  25  Te-Zr    4.81265 A *
  11  28  Te-Zr    4.81267 A *
  14  28  Te-Zr    4.81267 A *
   7  26  Te-Zr    4.81269 A  
  18  26  Te-Zr    4.81269 A *
   5  25  Te-Zr    4.81270 A  
  20  25  Te-Zr    4.81270 A *
   9  27  Te-Zr    4.81270 A *
  16  27  Te-Zr    4.81270 A *
   9  27  Te-Zr    4.82015 A *
  16  27  Te-Zr    4.82015 A *
  11  28  Te-Zr    4.82019 A *
  14  28  Te-Zr    4.82019 A *
   5  25  Te-Zr    4.82022 A *
  20  25  Te-Zr    4.82022 A *
   7  26  Te-Zr    4.82022 A *
  18  26  Te-Zr    4.82022 A *
  12  21  Te-Zr    4.82634 A *
  13  21  Te-Zr    4.82634 A *
  17  23  Te-Zr    4.82636 A *
   8  23  Te-Zr    4.82636 A *
  10  22  Te-Zr    4.82637 A  
  15  22  Te-Zr    4.82637 A *
   6  24  Te-Zr    4.82639 A  
  19  24  Te-Zr    4.82639 A *
  12  21  Te-Zr    4.82639 A *
  13  21  Te-Zr    4.82639 A *
  10  22  Te-Zr    4.82640 A *
  15  22  Te-Zr    4.82640 A *
   8  23  Te-Zr    4.82640 A *
  17  23  Te-Zr    4.82640 A *
   6  24  Te-Zr    4.82641 A *
  19  24  Te-Zr    4.82641 A *
  19  24  Te-Zr    4.83125 A  
   6  24  Te-Zr    4.83125 A *
  10  22  Te-Zr    4.83128 A *
  15  22  Te-Zr    4.83128 A  
   8  23  Te-Zr    4.83131 A *
  17  23  Te-Zr    4.83131 A  
  12  21  Te-Zr    4.83133 A *
  13  21  Te-Zr    4.83133 A  
   2  27  Co-Zr    5.04146 A *
   1  27  Co-Zr    5.04146 A *
   1  23  Co-Zr    5.04146 A *
   2  23  Co-Zr    5.04146 A *
   1  21  Co-Zr    5.04146 A *
   2  21  Co-Zr    5.04146 A *
   1  21  Co-Zr    5.04147 A  
   2  21  Co-Zr    5.04147 A *
   1  23  Co-Zr    5.04148 A *
   2  23  Co-Zr    5.04148 A *
   3  22  Co-Zr    5.04148 A *
   4  22  Co-Zr    5.04148 A  
   1  27  Co-Zr    5.04148 A  
   2  27  Co-Zr    5.04148 A *
   3  21  Co-Zr    5.04148 A *
   4  21  Co-Zr    5.04148 A *
   3  24  Co-Zr    5.04149 A *
   4  24  Co-Zr    5.04149 A  
   3  26  Co-Zr    5.04149 A *
   4  26  Co-Zr    5.04149 A  
   4  23  Co-Zr    5.04150 A *
   3  23  Co-Zr    5.04150 A *
   3  25  Co-Zr    5.04150 A *
   4  25  Co-Zr    5.04150 A *
   3  26  Co-Zr    5.04152 A  
   4  26  Co-Zr    5.04152 A *
   3  24  Co-Zr    5.04152 A  
   4  24  Co-Zr    5.04152 A *
   4  25  Co-Zr    5.04152 A *
   3  25  Co-Zr    5.04152 A  
   3  23  Co-Zr    5.04152 A  
   4  23  Co-Zr    5.04152 A *
   3  22  Co-Zr    5.04153 A  
   4  22  Co-Zr    5.04153 A *
   1  28  Co-Zr    5.04154 A *
   2  28  Co-Zr    5.04154 A  
   3  21  Co-Zr    5.04154 A  
   4  21  Co-Zr    5.04154 A *
   1  24  Co-Zr    5.04154 A *
   2  24  Co-Zr    5.04154 A *
   1  22  Co-Zr    5.04154 A *
   2  22  Co-Zr    5.04154 A  
   1  22  Co-Zr    5.04155 A  
   2  22  Co-Zr    5.04155 A *
   1  24  Co-Zr    5.04155 A *
   2  24  Co-Zr    5.04155 A *
   1  28  Co-Zr    5.04156 A  
   2  28  Co-Zr    5.04156 A *
  13  24  Te-Zr    5.13395 A *
  12  24  Te-Zr    5.13395 A  
   8  22  Te-Zr    5.13395 A  
  17  22  Te-Zr    5.13395 A *
  10  23  Te-Zr    5.13397 A  
  15  23  Te-Zr    5.13397 A *
   6  21  Te-Zr    5.13399 A  
  19  21  Te-Zr    5.13399 A *
  17  28  Te-Zr    5.13626 A  
   8  28  Te-Zr    5.13626 A  
   6  27  Te-Zr    5.13626 A  
  19  27  Te-Zr    5.13626 A *
  13  28  Te-Zr    5.13627 A  
  12  28  Te-Zr    5.13627 A  
  10  27  Te-Zr    5.13627 A  
  15  27  Te-Zr    5.13627 A *
   6  25  Te-Zr    5.13627 A  
  19  25  Te-Zr    5.13627 A *
   8  26  Te-Zr    5.13628 A  
  17  26  Te-Zr    5.13628 A *
  10  25  Te-Zr    5.13628 A *
  15  25  Te-Zr    5.13628 A *
  12  26  Te-Zr    5.13629 A *
  13  26  Te-Zr    5.13629 A  
  20  28  Te-Zr    5.16324 A  
   5  28  Te-Zr    5.16324 A  
  18  27  Te-Zr    5.16326 A  
   7  27  Te-Zr    5.16326 A *
  11  25  Te-Zr    5.16331 A *
  14  25  Te-Zr    5.16331 A  
   9  26  Te-Zr    5.16332 A *
  16  26  Te-Zr    5.16332 A  
  20  24  Te-Zr    5.16675 A *
   5  24  Te-Zr    5.16675 A  
   5  22  Te-Zr    5.16677 A  
  20  22  Te-Zr    5.16677 A *
  18  23  Te-Zr    5.16677 A *
   7  23  Te-Zr    5.16677 A *
  16  24  Te-Zr    5.16679 A *
   9  24  Te-Zr    5.16679 A  
  18  21  Te-Zr    5.16680 A *
   7  21  Te-Zr    5.16680 A *
   9  22  Te-Zr    5.16681 A *
  16  22  Te-Zr    5.16681 A *
  14  23  Te-Zr    5.16682 A *
  11  23  Te-Zr    5.16682 A *
  11  21  Te-Zr    5.16684 A *
  14  21  Te-Zr    5.16684 A *
  10  13  Te-Te    5.22981 A *
  12  15  Te-Te    5.22981 A *
   6  17  Te-Te    5.22986 A *
   8  19  Te-Te    5.22986 A *
   6  17  Te-Te    5.23884 A  
   8  19  Te-Te    5.23884 A  
  10  13  Te-Te    5.23887 A  
  12  15  Te-Te    5.23887 A  
   6  17  Te-Te    5.23891 A *
   8  19  Te-Te    5.23891 A *
  12  15  Te-Te    5.23895 A *
  10  13  Te-Te    5.23895 A *
   5  18  Te-Te    5.26212 A  
   7  20  Te-Te    5.26212 A  
   9  14  Te-Te    5.26224 A *
  11  16  Te-Te    5.26224 A *
   5  18  Te-Te    5.27589 A *
   7  20  Te-Te    5.27589 A *
   9  14  Te-Te    5.27593 A *
  11  16  Te-Te    5.27593 A *
   7  20  Te-Te    5.27598 A *
   5  18  Te-Te    5.27598 A *
   9  14  Te-Te    5.27601 A *
  11  16  Te-Te    5.27601 A *
   2   9  Co-Te    5.55006 A *
   1  16  Co-Te    5.55006 A *
   3   7  Co-Te    5.55014 A  
   4  18  Co-Te    5.55014 A  
   1  11  Co-Te    5.55014 A *
   2  14  Co-Te    5.55014 A  
   3  20  Co-Te    5.55014 A *
   4   5  Co-Te    5.55014 A *
   1  12  Co-Te    5.58358 A *
   2  13  Co-Te    5.58358 A *
   3  19  Co-Te    5.58359 A  
   4   6  Co-Te    5.58359 A  
   1   8  Co-Te    5.58359 A *
   2  17  Co-Te    5.58359 A *
   3  15  Co-Te    5.58360 A  
   4  10  Co-Te    5.58360 A  
   3  12  Co-Te    5.58362 A *
   4  13  Co-Te    5.58362 A *
   3   8  Co-Te    5.58363 A *
   4  17  Co-Te    5.58363 A *
   1  19  Co-Te    5.58366 A *
   2   6  Co-Te    5.58366 A  
   1  15  Co-Te    5.58368 A  
   2  10  Co-Te    5.58368 A *
  11  14  Te-Te    5.76330 A *
   7  18  Te-Te    5.76335 A  
   5  20  Te-Te    5.76340 A *
   9  16  Te-Te    5.76340 A *
   9  16  Te-Te    5.77584 A *
  11  14  Te-Te    5.77586 A *
   9  16  Te-Te    5.77592 A *
   7  18  Te-Te    5.77593 A *
  11  14  Te-Te    5.77594 A *
   5  20  Te-Te    5.77596 A *
   7  18  Te-Te    5.77602 A *
   5  20  Te-Te    5.77604 A *
  12  13  Te-Te    5.80900 A *
   8  17  Te-Te    5.80905 A *
  10  15  Te-Te    5.80906 A *
   6  19  Te-Te    5.80912 A *
   6  19  Te-Te    5.81716 A  
  10  15  Te-Te    5.81718 A  
   6  19  Te-Te    5.81720 A *
   8  17  Te-Te    5.81720 A *
  12  13  Te-Te    5.81720 A *
  10  15  Te-Te    5.81723 A *
   8  17  Te-Te    5.81727 A *
  12  13  Te-Te    5.81729 A *

Nearest neighbors for each atom (up to 4)

 atom   1 species Co : neighbors at    2.619   2.619   2.619   2.619 A
         d(center): 5.041 A  angles  :    94.7    85.3   180.0   180.0    85.3    94.7
 atom   2 species Co : neighbors at    2.619   2.619   2.619   2.619 A
         d(center):10.483 A  angles  :    94.7    85.3   180.0   180.0    85.3    94.7
 atom   3 species Co : neighbors at    2.619   2.619   2.619   2.619 A
         d(center): 5.042 A  angles  :    85.3    94.7   180.0   180.0    94.7    85.3
 atom   4 species Co : neighbors at    2.619   2.619   2.619   2.619 A
         d(center):10.483 A  angles  :    85.3    94.7   180.0   180.0    94.7    85.3
 atom   5 species Te : neighbors at    2.631   2.882   2.888   2.888 A
         d(center): 2.888 A  angles  :    72.1   131.9   131.9    83.8    83.8    83.7
 atom   6 species Te : neighbors at    2.619   2.619   2.905   2.909 A
         d(center): 5.134 A  angles  :    94.7   131.7    71.8   131.7   131.5    83.1
 atom   7 species Te : neighbors at    2.631   2.882   2.888   2.888 A
         d(center): 8.629 A  angles  :    72.1   131.9   131.9    83.8    83.8    83.7
 atom   8 species Te : neighbors at    2.619   2.619   2.905   2.909 A
         d(center):11.347 A  angles  :    94.7   131.7    71.8   131.7   131.5    83.1
 atom   9 species Te : neighbors at    2.631   2.882   2.888   2.888 A
         d(center): 6.169 A  angles  :    72.1   131.9   131.9    83.8    83.8    83.7
 atom  10 species Te : neighbors at    2.619   2.619   2.905   2.909 A
         d(center): 6.420 A  angles  :    94.7   131.7    71.8   131.7   131.5    83.1
 atom  11 species Te : neighbors at    2.631   2.882   2.888   2.888 A
         d(center):10.206 A  angles  :    72.1   131.9   131.9    83.8    83.8    83.7
 atom  12 species Te : neighbors at    2.619   2.619   2.904   2.909 A
         d(center):11.984 A  angles  :    94.7   131.7    71.8   131.7   131.5    83.1
 atom  13 species Te : neighbors at    2.619   2.619   2.904   2.909 A
         d(center): 4.831 A  angles  :    94.7   131.7    71.8   131.7   131.5    83.1
 atom  14 species Te : neighbors at    2.631   2.882   2.888   2.888 A
         d(center): 7.506 A  angles  :    72.1   131.9   131.9    83.8    83.8    83.7
 atom  15 species Te : neighbors at    2.619   2.619   2.905   2.909 A
         d(center): 9.481 A  angles  :    94.7   131.7    71.8   131.7   131.5    83.1
 atom  16 species Te : neighbors at    2.631   2.882   2.888   2.888 A
         d(center):12.616 A  angles  :    72.1   131.9   131.9    83.8    83.8    83.7
 atom  17 species Te : neighbors at    2.619   2.619   2.905   2.909 A
         d(center): 6.181 A  angles  :    94.7   131.7    71.8   131.7   131.5    83.1
 atom  18 species Te : neighbors at    2.631   2.882   2.888   2.888 A
         d(center): 7.506 A  angles  :    72.1   131.9   131.9    83.8    83.8    83.7
 atom  19 species Te : neighbors at    2.619   2.619   2.905   2.909 A
         d(center):10.235 A  angles  :    94.7   131.7    71.8   131.7   131.5    83.1
 atom  20 species Te : neighbors at    2.631   2.882   2.888   2.888 A
         d(center):12.616 A  angles  :    72.1   131.9   131.9    83.8    83.8    83.7
 atom  21 species Zr : neighbors at    2.888   2.888   2.888   2.888 A
         d(center): 0.000 A  angles  :   180.0    96.3    83.7    83.7    96.3   180.0
 atom  22 species Zr : neighbors at    2.888   2.888   2.888   2.888 A
         d(center): 6.499 A  angles  :   180.0    83.7    96.3    96.3    83.7   180.0
 atom  23 species Zr : neighbors at    2.888   2.888   2.888   2.888 A
         d(center): 3.855 A  angles  :   180.0    83.7    96.3    96.3    83.7   180.0
 atom  24 species Zr : neighbors at    2.888   2.888   2.888   2.888 A
         d(center): 7.556 A  angles  :   180.0    83.7    96.3    96.3    83.7   180.0
 atom  25 species Zr : neighbors at    2.882   2.882   2.909   2.909 A
         d(center): 3.855 A  angles  :   180.0    83.4    96.6    96.6    83.4   180.0
 atom  26 species Zr : neighbors at    2.882   2.882   2.909   2.909 A
         d(center): 7.556 A  angles  :   180.0    83.4    96.6    96.6    83.4   180.0
 atom  27 species Zr : neighbors at    2.882   2.882   2.909   2.909 A
         d(center): 3.855 A  angles  :   180.0    83.4    96.6    96.6    83.4   180.0
 atom  28 species Zr : neighbors at    2.882   2.882   2.909   2.909 A
         d(center): 7.556 A  angles  :   180.0    96.6    83.4    83.4    96.6   180.0
