Distances between atoms, up to dmax=  6.00 A   (* = with lattice translation)
  #1  #2   bond       d
   2  10   V-Te    2.67746 A *
   2  15   V-Te    2.67746 A  
   4   6   V-Te    2.67747 A  
   4  19   V-Te    2.67747 A  
   3   9   V-Te    2.69488 A  
   3  20   V-Te    2.69488 A *
   5   9   V-Te    2.69489 A  
   5  20   V-Te    2.69489 A  
   2  11   V-Te    2.69504 A *
   2  14   V-Te    2.69504 A  
   4  11   V-Te    2.69505 A  
   4  14   V-Te    2.69505 A  
   1  21   V-Te    2.71826 A *
   1   8   V-Te    2.71826 A  
   1  17   V-Te    2.71827 A *
   1  12   V-Te    2.71827 A  
   3  17   V-Te    2.72475 A  
   3  12   V-Te    2.72475 A *
   5  21   V-Te    2.72475 A  
   5   8   V-Te    2.72475 A  
   2   7   V-Te    2.72961 A  
   2  18   V-Te    2.72961 A *
   4   7   V-Te    2.72963 A  
   4  18   V-Te    2.72963 A  
   3  13   V-Te    2.73454 A *
   3  16   V-Te    2.73454 A  
   5  13   V-Te    2.73456 A  
   5  16   V-Te    2.73456 A  
   1  13   V-Te    2.74621 A  
   1  16   V-Te    2.74621 A *
  11  25  Te-Zr    2.85860 A  
  14  24  Te-Zr    2.85860 A *
   9  22  Te-Zr    2.86930 A *
  20  23  Te-Zr    2.86930 A *
   6  22  Te-Zr    2.88259 A  
  19  23  Te-Zr    2.88259 A *
  10  22  Te-Zr    2.88259 A *
  15  23  Te-Zr    2.88259 A *
   7  23  Te-Zr    2.89161 A  
  18  22  Te-Zr    2.89161 A *
  10  26  Te-Zr    2.89956 A *
  15  27  Te-Zr    2.89956 A  
   6  28  Te-Zr    2.89958 A  
  19  29  Te-Zr    2.89958 A  
  19  25  Te-Zr    2.90141 A *
   6  24  Te-Zr    2.90141 A  
  10  24  Te-Zr    2.90141 A  
  15  25  Te-Zr    2.90141 A *
  13  24  Te-Zr    2.90255 A *
  16  25  Te-Zr    2.90255 A *
  11  27  Te-Zr    2.90295 A *
  14  26  Te-Zr    2.90295 A  
  11  29  Te-Zr    2.90296 A  
  14  28  Te-Zr    2.90296 A  
   9  26  Te-Zr    2.92069 A *
  20  27  Te-Zr    2.92069 A *
   9  28  Te-Zr    2.92070 A *
  20  29  Te-Zr    2.92070 A  
  17  22  Te-Zr    2.92311 A *
  12  23  Te-Zr    2.92311 A *
  21  22  Te-Zr    2.92311 A *
   8  23  Te-Zr    2.92311 A  
  13  26  Te-Zr    2.92943 A *
  16  27  Te-Zr    2.92943 A  
  13  28  Te-Zr    2.92945 A *
  16  29  Te-Zr    2.92945 A  
  17  24  Te-Zr    2.93483 A *
  12  25  Te-Zr    2.93483 A  
   8  25  Te-Zr    2.93483 A  
  21  24  Te-Zr    2.93483 A *
   7  27  Te-Zr    2.93814 A  
  18  26  Te-Zr    2.93814 A *
   7  29  Te-Zr    2.93816 A  
  18  28  Te-Zr    2.93816 A  
  17  26  Te-Zr    2.94993 A *
  12  27  Te-Zr    2.94993 A *
  21  28  Te-Zr    2.94995 A *
   8  29  Te-Zr    2.94995 A  
   2  26   V-Zr    3.40888 A  
   2  27   V-Zr    3.40888 A  
   4  28   V-Zr    3.40889 A  
   4  29   V-Zr    3.40889 A  
   5  28   V-Zr    3.49054 A *
   5  29   V-Zr    3.49054 A  
   3  26   V-Zr    3.49054 A *
   3  27   V-Zr    3.49054 A  
   1  24   V-Zr    3.49643 A *
   1  25   V-Zr    3.49643 A  
  26  28  Zr-Zr    3.67042 A  
  27  29  Zr-Zr    3.67042 A *
  22  26  Zr-Zr    3.70591 A  
  23  27  Zr-Zr    3.70591 A *
  23  29  Zr-Zr    3.70592 A *
  22  28  Zr-Zr    3.70592 A  
  10  11  Te-Te    3.71237 A  
  14  15  Te-Te    3.71237 A  
   6  11  Te-Te    3.71238 A  
  14  19  Te-Te    3.71238 A  
   6  15  Te-Te    3.74182 A *
  10  19  Te-Te    3.74182 A *
   9  21  Te-Te    3.75308 A *
   8  20  Te-Te    3.75308 A *
  12  20  Te-Te    3.75311 A *
   9  17  Te-Te    3.75311 A *
  11  19  Te-Te    3.75533 A *
   6  14  Te-Te    3.75533 A *
  10  14  Te-Te    3.75536 A *
  11  15  Te-Te    3.75536 A *
   8  12  Te-Te    3.76783 A *
  17  21  Te-Te    3.76783 A *
  20  21  Te-Te    3.77765 A  
   8   9  Te-Te    3.77765 A  
   9  12  Te-Te    3.77765 A *
  17  20  Te-Te    3.77765 A *
   7  19  Te-Te    3.77981 A *
   6  18  Te-Te    3.77981 A *
   7  15  Te-Te    3.77983 A *
  10  18  Te-Te    3.77983 A *
  15  18  Te-Te    3.78680 A *
   7  10  Te-Te    3.78680 A *
   6   7  Te-Te    3.78682 A  
  18  19  Te-Te    3.78682 A  
  24  28  Zr-Zr    3.79250 A *
  25  29  Zr-Zr    3.79250 A  
  25  27  Zr-Zr    3.79251 A *
  24  26  Zr-Zr    3.79251 A *
  12  16  Te-Te    3.81597 A *
  13  17  Te-Te    3.81597 A *
  13  21  Te-Te    3.81599 A  
   8  16  Te-Te    3.81599 A  
   6  10  Te-Te    3.81634 A  
  15  19  Te-Te    3.81634 A  
   8  17  Te-Te    3.81752 A *
  12  21  Te-Te    3.81752 A *
   1   5   V-V     3.81927 A *
   1   5   V-V     3.81927 A  
   1   3   V-V     3.81927 A *
   1   3   V-V     3.81927 A *
   2   4   V-V     3.81927 A *
   2   4   V-V     3.81927 A  
   3   5   V-V     3.81927 A *
   3   5   V-V     3.81927 A  
  22  24  Zr-Zr    3.82005 A *
  23  25  Zr-Zr    3.82005 A  
  22  24  Zr-Zr    3.82006 A  
  23  25  Zr-Zr    3.82006 A *
   7  11  Te-Te    3.82019 A *
  14  18  Te-Te    3.82019 A *
   7  11  Te-Te    3.82024 A  
  14  18  Te-Te    3.82024 A  
   9  13  Te-Te    3.82104 A *
  16  20  Te-Te    3.82104 A *
  16  20  Te-Te    3.82109 A  
   9  13  Te-Te    3.82109 A  
   6  10  Te-Te    3.82221 A *
  15  19  Te-Te    3.82221 A *
   8  16  Te-Te    3.82345 A *
  13  21  Te-Te    3.82345 A *
  12  16  Te-Te    3.82347 A *
  13  17  Te-Te    3.82347 A *
  24  26  Zr-Zr    3.84734 A *
  25  27  Zr-Zr    3.84734 A *
  25  29  Zr-Zr    3.84734 A *
  24  28  Zr-Zr    3.84734 A  
  11  18  Te-Te    3.85151 A  
   7  14  Te-Te    3.85151 A  
   9  16  Te-Te    3.85744 A  
  13  20  Te-Te    3.85744 A  
  10  18  Te-Te    3.85995 A  
   7  15  Te-Te    3.85995 A  
   6  18  Te-Te    3.85997 A  
   7  19  Te-Te    3.85997 A  
   8  12  Te-Te    3.87071 A  
  17  21  Te-Te    3.87071 A  
  10  14  Te-Te    3.88359 A *
  11  15  Te-Te    3.88359 A *
   6  14  Te-Te    3.88361 A  
  11  19  Te-Te    3.88361 A  
   9  17  Te-Te    3.88621 A  
  12  20  Te-Te    3.88621 A  
   8  20  Te-Te    3.88624 A  
   9  21  Te-Te    3.88624 A  
  16  17  Te-Te    3.90414 A  
  12  13  Te-Te    3.90414 A  
   8  13  Te-Te    3.90415 A  
  16  21  Te-Te    3.90415 A  
  22  28  Zr-Zr    3.93274 A *
  23  29  Zr-Zr    3.93274 A  
  22  26  Zr-Zr    3.93275 A *
  23  27  Zr-Zr    3.93275 A  
  27  29  Zr-Zr    3.96813 A  
  26  28  Zr-Zr    3.96813 A *
   7  16  Te-Te    4.32142 A  
  13  18  Te-Te    4.32142 A *
   7  12  Te-Te    4.33097 A *
  17  18  Te-Te    4.33097 A *
   7   8  Te-Te    4.33100 A  
  18  21  Te-Te    4.33100 A *
  10  13  Te-Te    4.36156 A *
  15  16  Te-Te    4.36156 A  
   6  13  Te-Te    4.36158 A *
  16  19  Te-Te    4.36158 A  
   6  17  Te-Te    4.39184 A *
  12  19  Te-Te    4.39184 A *
  10  21  Te-Te    4.39186 A *
   8  15  Te-Te    4.39186 A *
  14  17  Te-Te    4.41692 A *
  11  12  Te-Te    4.41692 A  
  14  21  Te-Te    4.41695 A *
   8  11  Te-Te    4.41695 A  
   9  10  Te-Te    4.44121 A *
  15  20  Te-Te    4.44121 A *
   6   9  Te-Te    4.44122 A *
  19  20  Te-Te    4.44122 A  
   9  14  Te-Te    4.52066 A *
  11  20  Te-Te    4.52066 A  
   1   9   V-Te    4.64461 A *
   1  20   V-Te    4.64461 A *
   1   9   V-Te    4.64463 A  
   1  20   V-Te    4.64463 A *
   2  19   V-Te    4.65961 A *
   2   6   V-Te    4.65961 A *
   4  15   V-Te    4.65963 A *
   4  10   V-Te    4.65963 A *
   3   8   V-Te    4.66304 A *
   3  21   V-Te    4.66304 A *
   5  12   V-Te    4.66306 A *
   5  17   V-Te    4.66306 A *
   4  10   V-Te    4.66309 A  
   4  15   V-Te    4.66309 A  
   2   6   V-Te    4.66309 A *
   2  19   V-Te    4.66309 A  
   4  10   V-Te    4.66549 A *
   4  15   V-Te    4.66549 A *
   2   6   V-Te    4.66550 A  
   2  19   V-Te    4.66550 A *
   3  21   V-Te    4.67061 A *
   3   8   V-Te    4.67061 A  
   5  12   V-Te    4.67062 A *
   5  17   V-Te    4.67062 A *
   1   9   V-Te    4.70383 A *
   1  20   V-Te    4.70383 A  
   5  17   V-Te    4.71249 A  
   5  12   V-Te    4.71249 A  
   3   8   V-Te    4.71250 A *
   3  21   V-Te    4.71250 A  
  10  28  Te-Zr    4.73672 A *
  15  29  Te-Zr    4.73672 A *
   6  26  Te-Zr    4.73673 A  
  19  27  Te-Zr    4.73673 A *
   7  25  Te-Zr    4.75075 A *
  18  24  Te-Zr    4.75075 A *
   7  25  Te-Zr    4.75077 A  
  18  24  Te-Zr    4.75077 A *
  13  22  Te-Zr    4.75760 A *
  16  23  Te-Zr    4.75760 A *
  13  22  Te-Zr    4.75762 A *
  16  23  Te-Zr    4.75762 A *
   8  27  Te-Zr    4.77762 A *
  21  26  Te-Zr    4.77762 A *
  12  29  Te-Zr    4.77763 A *
  17  28  Te-Zr    4.77763 A *
  17  28  Te-Zr    4.78636 A *
  12  29  Te-Zr    4.78636 A  
   8  27  Te-Zr    4.78637 A *
  21  26  Te-Zr    4.78637 A *
  11  23  Te-Zr    4.80460 A *
  14  22  Te-Zr    4.80460 A  
  11  23  Te-Zr    4.80986 A *
  14  22  Te-Zr    4.80986 A *
  14  22  Te-Zr    4.80987 A *
  11  23  Te-Zr    4.80987 A  
  19  27  Te-Zr    4.81028 A *
   6  26  Te-Zr    4.81028 A *
  15  29  Te-Zr    4.81030 A *
  10  28  Te-Zr    4.81030 A *
   7  25  Te-Zr    4.81545 A *
  18  24  Te-Zr    4.81545 A  
   9  24  Te-Zr    4.81568 A *
  20  25  Te-Zr    4.81568 A *
   9  24  Te-Zr    4.81571 A *
  20  25  Te-Zr    4.81571 A *
  16  23  Te-Zr    4.84590 A  
  13  22  Te-Zr    4.84590 A *
  10  28  Te-Zr    4.85296 A  
  15  29  Te-Zr    4.85296 A  
   6  26  Te-Zr    4.85296 A *
  19  27  Te-Zr    4.85296 A  
  12  29  Te-Zr    4.86347 A *
  17  28  Te-Zr    4.86347 A *
  21  26  Te-Zr    4.86348 A *
   8  27  Te-Zr    4.86348 A  
  20  25  Te-Zr    4.86882 A  
   9  24  Te-Zr    4.86882 A *
   4  26   V-Zr    5.06347 A  
   4  27   V-Zr    5.06347 A *
   2  28   V-Zr    5.06348 A  
   2  29   V-Zr    5.06348 A *
   4  22   V-Zr    5.07455 A  
   4  23   V-Zr    5.07455 A *
   2  22   V-Zr    5.07455 A  
   2  23   V-Zr    5.07455 A *
   4  24   V-Zr    5.11238 A *
   4  25   V-Zr    5.11238 A  
   2  24   V-Zr    5.11238 A *
   2  25   V-Zr    5.11238 A *
   2  24   V-Zr    5.11619 A *
   2  25   V-Zr    5.11619 A *
   4  24   V-Zr    5.11619 A  
   4  25   V-Zr    5.11619 A *
   5  26   V-Zr    5.11881 A *
   5  27   V-Zr    5.11881 A *
   3  28   V-Zr    5.11881 A *
   3  29   V-Zr    5.11881 A *
   5  22   V-Zr    5.12348 A *
   5  23   V-Zr    5.12348 A *
   3  22   V-Zr    5.12348 A *
   3  23   V-Zr    5.12348 A *
   1  28   V-Zr    5.15565 A *
   1  29   V-Zr    5.15565 A  
   1  26   V-Zr    5.15565 A *
   1  27   V-Zr    5.15565 A *
   2  22   V-Zr    5.16978 A *
   2  23   V-Zr    5.16978 A  
   4  22   V-Zr    5.16979 A *
   4  23   V-Zr    5.16979 A  
   1  22   V-Zr    5.17086 A *
   1  23   V-Zr    5.17086 A *
   1  22   V-Zr    5.17087 A *
   1  23   V-Zr    5.17087 A  
   2  29   V-Zr    5.17454 A  
   2  28   V-Zr    5.17454 A *
   4  26   V-Zr    5.17454 A *
   4  27   V-Zr    5.17454 A  
   5  24   V-Zr    5.17613 A *
   5  25   V-Zr    5.17613 A  
   3  24   V-Zr    5.17614 A *
   3  25   V-Zr    5.17614 A *
   3  24   V-Zr    5.17989 A *
   3  25   V-Zr    5.17989 A *
   5  24   V-Zr    5.17990 A *
   5  25   V-Zr    5.17990 A *
   1  28   V-Zr    5.19237 A *
   1  29   V-Zr    5.19237 A *
   1  26   V-Zr    5.19237 A *
   1  27   V-Zr    5.19237 A *
  11  14  Te-Te    5.21565 A *
   3  22   V-Zr    5.21782 A *
   3  23   V-Zr    5.21782 A  
   5  22   V-Zr    5.21782 A *
   5  23   V-Zr    5.21782 A  
   3  28   V-Zr    5.22869 A *
   3  29   V-Zr    5.22869 A  
   5  26   V-Zr    5.22870 A *
   5  27   V-Zr    5.22870 A  
   9  20  Te-Te    5.28609 A *
   6  19  Te-Te    5.34467 A *
  10  15  Te-Te    5.34470 A *
  11  24  Te-Zr    5.34491 A  
  14  25  Te-Zr    5.34491 A *
   6  19  Te-Te    5.34887 A *
  10  15  Te-Te    5.34888 A *
   7  18  Te-Te    5.35195 A *
  10  15  Te-Te    5.35491 A *
   6  19  Te-Te    5.35493 A  
   8  21  Te-Te    5.36375 A *
  12  17  Te-Te    5.36379 A *
  19  24  Te-Zr    5.38542 A *
   6  25  Te-Zr    5.38542 A  
  10  25  Te-Zr    5.38543 A  
  15  24  Te-Zr    5.38543 A *
   9  20  Te-Te    5.38976 A *
   9  20  Te-Te    5.38979 A  
  11  14  Te-Te    5.39007 A *
  11  14  Te-Te    5.39010 A  
  15  26  Te-Zr    5.40102 A  
  10  27  Te-Zr    5.40102 A *
   6  29  Te-Zr    5.40103 A  
  19  28  Te-Zr    5.40103 A  
   7  22  Te-Zr    5.40965 A  
  18  23  Te-Zr    5.40965 A *
   6  23  Te-Zr    5.41294 A  
  19  22  Te-Zr    5.41294 A *
  10  23  Te-Zr    5.41294 A *
  15  22  Te-Zr    5.41294 A *
  11  26  Te-Zr    5.41667 A *
  14  27  Te-Zr    5.41667 A  
  14  29  Te-Zr    5.41668 A  
  11  28  Te-Zr    5.41668 A  
   7  26  Te-Zr    5.43229 A  
  18  27  Te-Zr    5.43229 A *
  18  29  Te-Zr    5.43231 A  
   7  28  Te-Zr    5.43231 A  
   8  21  Te-Te    5.43652 A *
  12  17  Te-Te    5.43654 A *
  12  17  Te-Te    5.44950 A *
   8  21  Te-Te    5.44951 A  
   7  18  Te-Te    5.45921 A *
   7  18  Te-Te    5.45925 A  
  13  16  Te-Te    5.46908 A *
  13  16  Te-Te    5.46912 A  
   9  23  Te-Zr    5.48092 A  
  20  22  Te-Zr    5.48092 A *
   8  22  Te-Zr    5.49020 A *
  21  23  Te-Zr    5.49020 A *
  12  22  Te-Zr    5.49022 A *
  17  23  Te-Zr    5.49022 A *
  13  16  Te-Te    5.49241 A *
   9  27  Te-Zr    5.51018 A  
  20  26  Te-Zr    5.51018 A *
  20  28  Te-Zr    5.51018 A *
   9  29  Te-Zr    5.51018 A  
   8  28  Te-Zr    5.52396 A *
  21  29  Te-Zr    5.52396 A  
  12  26  Te-Zr    5.52397 A *
  17  27  Te-Zr    5.52397 A  
   8  24  Te-Zr    5.53305 A *
  21  25  Te-Zr    5.53305 A *
  12  24  Te-Zr    5.53306 A *
  17  25  Te-Zr    5.53306 A *
  13  27  Te-Zr    5.54451 A *
  16  26  Te-Zr    5.54451 A *
  16  28  Te-Zr    5.54452 A *
  13  29  Te-Zr    5.54452 A  
  13  25  Te-Zr    5.57750 A  
  16  24  Te-Zr    5.57750 A *
   2  13   V-Te    5.71452 A *
   2  16   V-Te    5.71452 A  
   4  13   V-Te    5.71453 A *
   4  16   V-Te    5.71453 A  
   7  20  Te-Te    5.75761 A *
   9  18  Te-Te    5.75761 A *
  13  14  Te-Te    5.76060 A *
  11  16  Te-Te    5.76060 A *
   3  18   V-Te    5.76724 A *
   3   7   V-Te    5.76724 A  
   5  18   V-Te    5.76725 A *
   5   7   V-Te    5.76725 A  
   2  12   V-Te    5.77179 A *
   2  17   V-Te    5.77179 A *
   4   8   V-Te    5.77181 A  
   4  21   V-Te    5.77181 A *
   6  21  Te-Te    5.80429 A *
   8  19  Te-Te    5.80429 A *
  10  17  Te-Te    5.80429 A *
  12  15  Te-Te    5.80429 A *
   1  14   V-Te    5.80722 A *
   1  11   V-Te    5.80722 A  
   1   6   V-Te    5.81679 A *
   1  19   V-Te    5.81679 A *
   1  10   V-Te    5.81679 A *
   1  15   V-Te    5.81679 A *
   3  10   V-Te    5.81914 A *
   3  15   V-Te    5.81914 A  
   5   6   V-Te    5.81915 A *
   5  19   V-Te    5.81915 A  
   2   9   V-Te    5.82165 A *
   2  20   V-Te    5.82165 A *
   4   9   V-Te    5.82166 A *
   4  20   V-Te    5.82166 A  
  11  16  Te-Te    5.82937 A *
  13  14  Te-Te    5.82937 A *
  11  16  Te-Te    5.82940 A  
  13  14  Te-Te    5.82940 A *
   6  21  Te-Te    5.83612 A *
   8  19  Te-Te    5.83612 A *
  10  17  Te-Te    5.83612 A *
  12  15  Te-Te    5.83612 A *
  10  17  Te-Te    5.84684 A *
  12  15  Te-Te    5.84684 A *
   6  21  Te-Te    5.84687 A *
   8  19  Te-Te    5.84687 A  
   3  14   V-Te    5.84690 A *
   3  11   V-Te    5.84690 A *
   5  14   V-Te    5.84690 A *
   5  11   V-Te    5.84690 A  
   9  18  Te-Te    5.85518 A *
   7  20  Te-Te    5.85518 A *
   7  20  Te-Te    5.85522 A  
   9  18  Te-Te    5.85522 A *
   4  11   V-Te    5.95919 A *
   4  14   V-Te    5.95919 A *
   2  11   V-Te    5.95919 A *
   2  14   V-Te    5.95919 A *
   5   9   V-Te    5.99021 A *
   5  20   V-Te    5.99021 A *
   3   9   V-Te    5.99022 A *
   3  20   V-Te    5.99022 A *

Nearest neighbors for each atom (up to 4)

 atom   1 species V  : neighbors at    2.718   2.718   2.718   2.718 A
         d(center):11.029 A  angles  :   180.0    90.8    89.2    89.2    90.8   180.0
 atom   2 species V  : neighbors at    2.677   2.677   2.695   2.695 A
         d(center): 5.146 A  angles  :   180.0    87.4    92.6    92.6    87.4   180.0
 atom   3 species V  : neighbors at    2.695   2.695   2.725   2.725 A
         d(center):11.029 A  angles  :   180.0    91.6    88.4    88.4    91.6   180.0
 atom   4 species V  : neighbors at    2.677   2.677   2.695   2.695 A
         d(center): 5.146 A  angles  :   180.0    92.6    87.4    87.4    92.6   180.0
 atom   5 species V  : neighbors at    2.695   2.695   2.725   2.725 A
         d(center):11.029 A  angles  :   180.0    91.6    88.4    88.4    91.6   180.0
 atom   6 species Te : neighbors at    2.677   2.883   2.900   2.901 A
         d(center): 2.933 A  angles  :   131.7    75.2   133.0    79.7    82.7    83.1
 atom   7 species Te : neighbors at    2.730   2.730   2.892   2.938 A
         d(center): 5.472 A  angles  :    88.8   133.7    73.8   133.7   131.8    84.8
 atom   8 species Te : neighbors at    2.718   2.725   2.923   2.935 A
         d(center): 9.039 A  angles  :    89.1   132.8    76.3   135.0   132.3    81.4
 atom   9 species Te : neighbors at    2.695   2.695   2.869   2.921 A
         d(center):12.061 A  angles  :    90.2   134.1    76.7   134.1   131.4    79.6
 atom  10 species Te : neighbors at    2.677   2.883   2.900   2.901 A
         d(center): 6.145 A  angles  :   131.7    75.2   133.0    79.7    82.7    83.1
 atom  11 species Te : neighbors at    2.695   2.695   2.859   2.903 A
         d(center): 6.604 A  angles  :    90.2   134.0    74.9   134.0   129.5    82.3
 atom  12 species Te : neighbors at    2.718   2.725   2.923   2.935 A
         d(center):10.549 A  angles  :    89.1   132.8    76.3   135.0   132.3    81.4
 atom  13 species Te : neighbors at    2.735   2.735   2.746   2.903 A
         d(center):12.759 A  angles  :    88.6    88.3   133.5    88.3   133.5    76.4
 atom  14 species Te : neighbors at    2.695   2.695   2.859   2.903 A
         d(center): 4.887 A  angles  :    90.2   134.0    74.9   134.0   129.5    82.3
 atom  15 species Te : neighbors at    2.677   2.883   2.900   2.901 A
         d(center): 7.661 A  angles  :   131.7    75.2   133.0    79.7    82.7    83.1
 atom  16 species Te : neighbors at    2.735   2.735   2.746   2.903 A
         d(center): 9.770 A  angles  :    88.6    88.3   133.5    88.3   133.5    76.4
 atom  17 species Te : neighbors at    2.718   2.725   2.923   2.935 A
         d(center):13.282 A  angles  :    89.1   132.8    76.3   135.0   132.3    81.4
 atom  18 species Te : neighbors at    2.730   2.730   2.892   2.938 A
         d(center): 6.158 A  angles  :    88.8   133.7    73.8   133.7   131.8    84.8
 atom  19 species Te : neighbors at    2.677   2.883   2.900   2.901 A
         d(center): 7.661 A  angles  :   131.7    75.2   133.0    79.7    82.7    83.1
 atom  20 species Te : neighbors at    2.695   2.695   2.869   2.921 A
         d(center):10.599 A  angles  :    90.2   134.1    76.7   134.1   131.4    79.6
 atom  21 species Te : neighbors at    2.718   2.725   2.923   2.935 A
         d(center):13.282 A  angles  :    89.1   132.8    76.3   135.0   132.3    81.4
 atom  22 species Zr : neighbors at    2.869   2.883   2.883   2.892 A
         d(center): 0.082 A  angles  :   101.1   101.1   176.1    83.1    81.8    81.8
 atom  23 species Zr : neighbors at    2.869   2.883   2.883   2.892 A
         d(center): 6.862 A  angles  :   101.1   101.1   176.1    83.1    81.8    81.8
 atom  24 species Zr : neighbors at    2.859   2.901   2.901   2.903 A
         d(center): 3.820 A  angles  :    81.4    81.4   178.4    82.2    97.4    97.4
 atom  25 species Zr : neighbors at    2.859   2.901   2.901   2.903 A
         d(center): 7.843 A  angles  :    81.4    81.4   178.4    82.2    97.4    97.4
 atom  26 species Zr : neighbors at    2.900   2.903   2.921   2.929 A
         d(center): 3.770 A  angles  :    84.0    99.5    96.9   101.8   176.3    81.6
 atom  27 species Zr : neighbors at    2.900   2.903   2.921   2.929 A
         d(center): 7.873 A  angles  :    84.0    99.5    96.9   101.8   176.3    81.6
 atom  28 species Zr : neighbors at    2.900   2.903   2.921   2.929 A
         d(center): 3.770 A  angles  :    84.0    99.5    96.9   101.8   176.3    81.6
 atom  29 species Zr : neighbors at    2.900   2.903   2.921   2.929 A
         d(center): 7.873 A  angles  :    84.0    99.5    96.9   101.8   176.3    81.6
