Distances between atoms, up to dmax=  6.00 A   (* = with lattice translation)
  #1  #2   bond       d
   3   9  Zn-Te    2.73738 A  
   3  20  Zn-Te    2.73738 A *
   5  20  Zn-Te    2.73740 A  
   5   9  Zn-Te    2.73740 A  
   2  11  Zn-Te    2.79036 A *
   2  14  Zn-Te    2.79036 A  
   4  14  Zn-Te    2.79037 A  
   4  11  Zn-Te    2.79037 A  
   9  22  Te-Zr    2.81010 A *
  20  23  Te-Zr    2.81010 A *
   2  15  Zn-Te    2.81362 A  
   2  10  Zn-Te    2.81362 A *
   4   6  Zn-Te    2.81364 A  
   4  19  Zn-Te    2.81364 A  
   1  16  Zn-Te    2.82712 A *
   1  13  Zn-Te    2.82712 A  
  19  23  Te-Zr    2.84450 A *
   6  22  Te-Zr    2.84450 A  
  10  22  Te-Zr    2.84450 A *
  15  23  Te-Zr    2.84450 A *
   3  13  Zn-Te    2.85700 A *
   3  16  Zn-Te    2.85700 A  
   5  13  Zn-Te    2.85702 A  
   5  16  Zn-Te    2.85702 A  
  13  24  Te-Zr    2.86387 A *
  16  25  Te-Zr    2.86387 A *
   3  12  Zn-Te    2.89826 A *
   3  17  Zn-Te    2.89826 A  
   5   8  Zn-Te    2.89827 A  
   5  21  Zn-Te    2.89827 A  
   8  25  Te-Zr    2.90071 A  
  21  24  Te-Zr    2.90071 A *
  17  24  Te-Zr    2.90071 A *
  12  25  Te-Zr    2.90071 A  
   1   8  Zn-Te    2.91607 A  
   1  21  Zn-Te    2.91607 A *
   1  12  Zn-Te    2.91608 A  
   1  17  Zn-Te    2.91608 A *
   6  24  Te-Zr    2.91924 A  
  19  25  Te-Zr    2.91924 A *
  10  24  Te-Zr    2.91924 A  
  15  25  Te-Zr    2.91924 A *
   9  26  Te-Zr    2.92127 A *
  20  27  Te-Zr    2.92127 A *
   9  28  Te-Zr    2.92129 A *
  20  29  Te-Zr    2.92129 A  
  11  27  Te-Zr    2.92166 A *
  14  26  Te-Zr    2.92166 A  
  11  29  Te-Zr    2.92168 A  
  14  28  Te-Zr    2.92168 A  
  11  25  Te-Zr    2.92876 A  
  14  24  Te-Zr    2.92876 A *
  15  27  Te-Zr    2.93981 A  
  10  26  Te-Zr    2.93981 A *
  19  29  Te-Zr    2.93983 A  
   6  28  Te-Zr    2.93983 A  
   2  18  Zn-Te    2.95499 A *
   2   7  Zn-Te    2.95499 A  
   4   7  Zn-Te    2.95501 A  
   4  18  Zn-Te    2.95501 A  
   8  23  Te-Zr    2.98491 A  
  21  22  Te-Zr    2.98491 A *
  12  23  Te-Zr    2.98492 A *
  17  22  Te-Zr    2.98492 A *
  13  26  Te-Zr    2.99446 A *
  16  27  Te-Zr    2.99446 A  
  13  28  Te-Zr    2.99448 A *
  16  29  Te-Zr    2.99448 A  
  17  26  Te-Zr    3.02425 A *
  12  27  Te-Zr    3.02425 A *
  21  28  Te-Zr    3.02426 A *
   8  29  Te-Zr    3.02426 A  
   7  23  Te-Zr    3.03873 A  
  18  22  Te-Zr    3.03873 A *
   7  27  Te-Zr    3.07553 A  
  18  26  Te-Zr    3.07553 A *
   7  29  Te-Zr    3.07555 A  
  18  28  Te-Zr    3.07555 A  
   5  28  Zn-Zr    3.28532 A *
   5  29  Zn-Zr    3.28532 A  
   3  26  Zn-Zr    3.28532 A *
   3  27  Zn-Zr    3.28532 A  
   2  26  Zn-Zr    3.35248 A  
   2  27  Zn-Zr    3.35248 A  
   4  29  Zn-Zr    3.35249 A  
   4  28  Zn-Zr    3.35249 A  
   1  25  Zn-Zr    3.35624 A  
   1  24  Zn-Zr    3.35624 A *
  22  26  Zr-Zr    3.45088 A  
  23  27  Zr-Zr    3.45088 A *
  23  29  Zr-Zr    3.45088 A *
  22  28  Zr-Zr    3.45088 A  
  26  28  Zr-Zr    3.49741 A  
  27  29  Zr-Zr    3.49741 A *
   6  15  Te-Te    3.54906 A *
  10  19  Te-Te    3.54906 A *
   9  12  Te-Te    3.67740 A *
  17  20  Te-Te    3.67740 A *
  20  21  Te-Te    3.67740 A  
   8   9  Te-Te    3.67740 A  
  10  11  Te-Te    3.73923 A  
  14  15  Te-Te    3.73923 A  
   6  11  Te-Te    3.73924 A  
  14  19  Te-Te    3.73924 A  
  13  20  Te-Te    3.83022 A  
   9  16  Te-Te    3.83022 A  
  17  18  Te-Te    3.85621 A *
   7  12  Te-Te    3.85621 A *
   7   8  Te-Te    3.85624 A  
  18  21  Te-Te    3.85624 A *
   8  20  Te-Te    3.89769 A *
   9  21  Te-Te    3.89769 A *
  12  20  Te-Te    3.89772 A *
   9  17  Te-Te    3.89772 A *
   7  16  Te-Te    3.92101 A  
  13  18  Te-Te    3.92101 A *
   6  14  Te-Te    3.94067 A *
  11  19  Te-Te    3.94067 A *
  10  14  Te-Te    3.94070 A *
  11  15  Te-Te    3.94070 A *
  24  26  Zr-Zr    3.98048 A *
  25  27  Zr-Zr    3.98048 A *
  25  29  Zr-Zr    3.98048 A *
  24  28  Zr-Zr    3.98048 A  
   8  12  Te-Te    4.00131 A *
  17  21  Te-Te    4.00131 A *
   6  18  Te-Te    4.03185 A *
   7  19  Te-Te    4.03185 A *
  10  18  Te-Te    4.03187 A *
   7  15  Te-Te    4.03187 A *
   7  10  Te-Te    4.03671 A *
  15  18  Te-Te    4.03671 A *
   6   7  Te-Te    4.03673 A  
  18  19  Te-Te    4.03673 A  
  15  19  Te-Te    4.04393 A  
   6  10  Te-Te    4.04393 A  
   8  16  Te-Te    4.04913 A *
  13  21  Te-Te    4.04913 A *
  12  16  Te-Te    4.04916 A *
  13  17  Te-Te    4.04916 A *
   1   5  Zn-Zn    4.05622 A *
   1   5  Zn-Zn    4.05622 A  
   1   3  Zn-Zn    4.05622 A *
   1   3  Zn-Zn    4.05622 A *
   2   4  Zn-Zn    4.05622 A *
   2   4  Zn-Zn    4.05622 A  
   3   5  Zn-Zn    4.05622 A *
   3   5  Zn-Zn    4.05622 A  
   7  14  Te-Te    4.05750 A  
  11  18  Te-Te    4.05750 A  
  22  24  Zr-Zr    4.06509 A *
  23  25  Zr-Zr    4.06509 A  
  23  25  Zr-Zr    4.06510 A *
  22  24  Zr-Zr    4.06510 A  
  12  16  Te-Te    4.06547 A *
  13  17  Te-Te    4.06547 A *
  13  21  Te-Te    4.06550 A  
   8  16  Te-Te    4.06550 A  
   6  10  Te-Te    4.06852 A *
  15  19  Te-Te    4.06852 A *
   7  11  Te-Te    4.07097 A *
  14  18  Te-Te    4.07097 A *
  14  18  Te-Te    4.07102 A  
   7  11  Te-Te    4.07102 A  
  12  13  Te-Te    4.07390 A  
  16  17  Te-Te    4.07390 A  
  16  21  Te-Te    4.07391 A  
   8  13  Te-Te    4.07391 A  
   9  13  Te-Te    4.07932 A *
  16  20  Te-Te    4.07932 A *
  16  20  Te-Te    4.07937 A  
   9  13  Te-Te    4.07937 A  
   8  12  Te-Te    4.11114 A  
  17  21  Te-Te    4.11114 A  
   7  15  Te-Te    4.12333 A  
  10  18  Te-Te    4.12333 A  
   7  19  Te-Te    4.12336 A  
   6  18  Te-Te    4.12336 A  
  14  17  Te-Te    4.13624 A *
  11  12  Te-Te    4.13624 A  
   8  11  Te-Te    4.13626 A  
  14  21  Te-Te    4.13626 A *
   8  17  Te-Te    4.13674 A *
  12  21  Te-Te    4.13674 A *
   6  17  Te-Te    4.14517 A *
  12  19  Te-Te    4.14517 A *
  10  21  Te-Te    4.14518 A *
   8  15  Te-Te    4.14518 A *
  24  28  Zr-Zr    4.16903 A *
  25  29  Zr-Zr    4.16903 A  
  24  26  Zr-Zr    4.16903 A *
  25  27  Zr-Zr    4.16903 A *
  10  14  Te-Te    4.17412 A *
  11  15  Te-Te    4.17412 A *
   6  14  Te-Te    4.17414 A  
  11  19  Te-Te    4.17414 A  
   9  17  Te-Te    4.27354 A  
  12  20  Te-Te    4.27354 A  
   8  20  Te-Te    4.27357 A  
   9  21  Te-Te    4.27357 A  
  10  13  Te-Te    4.28573 A *
  15  16  Te-Te    4.28573 A  
  16  19  Te-Te    4.28574 A  
   6  13  Te-Te    4.28574 A *
   9  10  Te-Te    4.58156 A *
  15  20  Te-Te    4.58156 A *
   6   9  Te-Te    4.58158 A *
  19  20  Te-Te    4.58158 A  
  26  28  Zr-Zr    4.61504 A *
  27  29  Zr-Zr    4.61504 A  
  22  28  Zr-Zr    4.66378 A *
  23  29  Zr-Zr    4.66378 A  
  22  26  Zr-Zr    4.66378 A *
  23  27  Zr-Zr    4.66378 A  
   9  14  Te-Te    4.66711 A *
  11  20  Te-Te    4.66711 A  
   8  27  Te-Zr    4.72464 A *
  21  26  Te-Zr    4.72464 A *
  17  28  Te-Zr    4.72465 A *
  12  29  Te-Zr    4.72465 A *
   1   9  Zn-Te    4.74655 A *
   1  20  Zn-Te    4.74655 A *
   1   9  Zn-Te    4.74657 A  
   1  20  Zn-Te    4.74657 A *
  14  22  Te-Zr    4.74935 A  
  11  23  Te-Zr    4.74935 A *
  10  28  Te-Zr    4.78245 A *
  15  29  Te-Zr    4.78245 A *
  19  27  Te-Zr    4.78245 A *
   6  26  Te-Zr    4.78245 A  
   2   6  Zn-Te    4.80217 A *
   2  19  Zn-Te    4.80217 A *
   4  10  Zn-Te    4.80219 A *
   4  15  Zn-Te    4.80219 A *
  18  24  Te-Zr    4.81948 A  
   7  25  Te-Zr    4.81948 A *
  16  23  Te-Zr    4.84770 A *
  13  22  Te-Zr    4.84770 A *
  13  22  Te-Zr    4.84772 A *
  16  23  Te-Zr    4.84772 A *
  17  28  Te-Zr    4.85019 A *
  12  29  Te-Zr    4.85019 A  
  21  26  Te-Zr    4.85021 A *
   8  27  Te-Zr    4.85021 A *
   9  20  Te-Te    4.93027 A *
   7  25  Te-Zr    4.93078 A *
  18  24  Te-Zr    4.93078 A *
  18  24  Te-Zr    4.93079 A *
   7  25  Te-Zr    4.93079 A  
   4  15  Zn-Te    4.93149 A  
   4  10  Zn-Te    4.93149 A  
   2   6  Zn-Te    4.93149 A *
   2  19  Zn-Te    4.93149 A  
   4  10  Zn-Te    4.94159 A *
   4  15  Zn-Te    4.94159 A *
   2  19  Zn-Te    4.94160 A *
   2   6  Zn-Te    4.94160 A  
   3   8  Zn-Te    4.96288 A  
   3  21  Zn-Te    4.96288 A *
   5  12  Zn-Te    4.96288 A *
   5  17  Zn-Te    4.96288 A *
   3   8  Zn-Te    4.98369 A *
   3  21  Zn-Te    4.98369 A *
   5  12  Zn-Te    4.98371 A *
   5  17  Zn-Te    4.98371 A *
   4  22  Zn-Zr    4.98954 A  
   4  23  Zn-Zr    4.98954 A *
   2  22  Zn-Zr    4.98954 A  
   2  23  Zn-Zr    4.98954 A *
   5  26  Zn-Zr    4.99796 A *
   5  27  Zn-Zr    4.99796 A *
   3  28  Zn-Zr    4.99796 A *
   3  29  Zn-Zr    4.99796 A *
   5  12  Zn-Te    5.00755 A  
   5  17  Zn-Te    5.00755 A  
   3   8  Zn-Te    5.00756 A *
   3  21  Zn-Te    5.00756 A  
   1   9  Zn-Te    5.03614 A *
   1  20  Zn-Te    5.03614 A  
   9  24  Te-Zr    5.04078 A *
  20  25  Te-Zr    5.04078 A *
  20  25  Te-Zr    5.04081 A *
   9  24  Te-Zr    5.04081 A *
   4  26  Zn-Zr    5.04236 A  
   4  27  Zn-Zr    5.04236 A *
   2  29  Zn-Zr    5.04237 A *
   2  28  Zn-Zr    5.04237 A  
   5  23  Zn-Zr    5.06273 A *
   5  22  Zn-Zr    5.06273 A *
   3  22  Zn-Zr    5.06273 A *
   3  23  Zn-Zr    5.06273 A *
  11  23  Te-Zr    5.13472 A *
  14  22  Te-Zr    5.13472 A *
  14  22  Te-Zr    5.13474 A *
  11  23  Te-Zr    5.13474 A  
   2  24  Zn-Zr    5.16530 A *
   2  25  Zn-Zr    5.16530 A *
   4  24  Zn-Zr    5.16531 A  
   4  25  Zn-Zr    5.16531 A *
   1  28  Zn-Zr    5.17343 A *
   1  29  Zn-Zr    5.17343 A *
   1  26  Zn-Zr    5.17343 A *
   1  27  Zn-Zr    5.17343 A *
  20  22  Te-Zr    5.19217 A *
   9  23  Te-Zr    5.19217 A  
   6  25  Te-Zr    5.19424 A  
  19  24  Te-Zr    5.19424 A *
  10  25  Te-Zr    5.19425 A  
  15  24  Te-Zr    5.19425 A *
   6  26  Te-Zr    5.19717 A *
  19  27  Te-Zr    5.19717 A *
  10  28  Te-Zr    5.19718 A *
  15  29  Te-Zr    5.19718 A *
   4  24  Zn-Zr    5.22045 A *
   4  25  Zn-Zr    5.22045 A  
   2  24  Zn-Zr    5.22045 A *
   2  25  Zn-Zr    5.22045 A *
  10  28  Te-Zr    5.22546 A  
  15  29  Te-Zr    5.22546 A  
   6  26  Te-Zr    5.22546 A *
  19  27  Te-Zr    5.22546 A  
   3  24  Zn-Zr    5.23746 A *
   3  25  Zn-Zr    5.23746 A *
   5  24  Zn-Zr    5.23746 A *
   5  25  Zn-Zr    5.23746 A *
  11  24  Te-Zr    5.24273 A  
  14  25  Te-Zr    5.24273 A *
  17  28  Te-Zr    5.25474 A *
  12  29  Te-Zr    5.25474 A *
   8  27  Te-Zr    5.25475 A  
  21  26  Te-Zr    5.25475 A *
   6  23  Te-Zr    5.26434 A  
  19  22  Te-Zr    5.26434 A *
  10  23  Te-Zr    5.26434 A *
  15  22  Te-Zr    5.26434 A *
   1  28  Zn-Zr    5.26576 A *
   1  29  Zn-Zr    5.26576 A  
   1  26  Zn-Zr    5.26576 A *
   1  27  Zn-Zr    5.26576 A *
   1  22  Zn-Zr    5.27292 A *
   1  23  Zn-Zr    5.27292 A *
   1  22  Zn-Zr    5.27292 A *
   1  23  Zn-Zr    5.27292 A  
   5  24  Zn-Zr    5.29185 A *
   5  25  Zn-Zr    5.29185 A  
   3  24  Zn-Zr    5.29185 A *
   3  25  Zn-Zr    5.29185 A *
  20  26  Te-Zr    5.29523 A *
   9  27  Te-Zr    5.29523 A  
  20  28  Te-Zr    5.29523 A *
   9  29  Te-Zr    5.29523 A  
   3   7  Zn-Te    5.30856 A  
   3  18  Zn-Te    5.30856 A *
   5   7  Zn-Te    5.30857 A  
   5  18  Zn-Te    5.30857 A *
  13  22  Te-Zr    5.30896 A *
  16  23  Te-Zr    5.30896 A  
   9  24  Te-Zr    5.36798 A *
  20  25  Te-Zr    5.36798 A  
  16  26  Te-Zr    5.38003 A *
  13  27  Te-Zr    5.38003 A *
  16  28  Te-Zr    5.38004 A *
  13  29  Te-Zr    5.38004 A  
   6  19  Te-Te    5.38043 A *
  10  15  Te-Te    5.38046 A *
   6  19  Te-Te    5.39895 A *
  10  15  Te-Te    5.39895 A *
   8  28  Te-Zr    5.40744 A *
  21  29  Te-Zr    5.40744 A  
  12  26  Te-Zr    5.40745 A *
  17  27  Te-Zr    5.40745 A  
   2  22  Zn-Zr    5.40745 A *
   2  23  Zn-Zr    5.40745 A  
   4  22  Zn-Zr    5.40745 A *
   4  23  Zn-Zr    5.40745 A  
   2  17  Zn-Te    5.42460 A *
   2  12  Zn-Te    5.42460 A *
   4  21  Zn-Te    5.42462 A *
   4   8  Zn-Te    5.42462 A  
   3  28  Zn-Zr    5.43258 A *
   3  29  Zn-Zr    5.43258 A  
   5  26  Zn-Zr    5.43259 A *
   5  27  Zn-Zr    5.43259 A  
  11  26  Te-Zr    5.43271 A *
  14  27  Te-Zr    5.43271 A  
  14  29  Te-Zr    5.43272 A  
  11  28  Te-Zr    5.43272 A  
  15  26  Te-Zr    5.44690 A  
  10  27  Te-Zr    5.44690 A *
   6  29  Te-Zr    5.44691 A  
  19  28  Te-Zr    5.44691 A  
   2  28  Zn-Zr    5.47346 A *
   2  29  Zn-Zr    5.47346 A  
   4  26  Zn-Zr    5.47347 A *
   4  27  Zn-Zr    5.47347 A  
   7  22  Te-Zr    5.47475 A  
  18  23  Te-Zr    5.47475 A *
   9  20  Te-Te    5.47477 A *
   9  20  Te-Te    5.47480 A  
   3  22  Zn-Zr    5.47505 A *
   3  23  Zn-Zr    5.47505 A  
   5  22  Zn-Zr    5.47506 A *
   5  23  Zn-Zr    5.47506 A  
  11  14  Te-Te    5.48385 A *
  13  25  Te-Zr    5.50566 A  
  16  24  Te-Zr    5.50566 A *
   2  13  Zn-Te    5.50771 A *
   2  16  Zn-Te    5.50771 A  
   4  13  Zn-Te    5.50772 A *
   4  16  Zn-Te    5.50772 A  
   8  22  Te-Zr    5.50938 A *
  21  23  Te-Zr    5.50938 A *
  12  22  Te-Zr    5.50940 A *
  17  23  Te-Zr    5.50940 A *
   7  26  Te-Zr    5.52118 A  
  18  27  Te-Zr    5.52118 A *
   7  28  Te-Zr    5.52119 A  
  18  29  Te-Zr    5.52119 A  
   8  24  Te-Zr    5.57868 A *
  21  25  Te-Zr    5.57868 A *
  12  24  Te-Zr    5.57869 A *
  17  25  Te-Zr    5.57869 A *
  11  14  Te-Te    5.58071 A *
  11  14  Te-Te    5.58074 A  
   1  14  Zn-Te    5.60645 A *
   1  11  Zn-Te    5.60645 A  
  10  15  Te-Te    5.62725 A *
   6  19  Te-Te    5.62727 A  
   3  14  Zn-Te    5.63030 A *
   3  11  Zn-Te    5.63030 A *
   5  14  Zn-Te    5.63030 A *
   5  11  Zn-Te    5.63030 A  
  13  16  Te-Te    5.65425 A *
   1  19  Zn-Te    5.67192 A *
   1   6  Zn-Te    5.67192 A *
   1  10  Zn-Te    5.67193 A *
   1  15  Zn-Te    5.67193 A *
  13  16  Te-Te    5.71400 A *
  13  16  Te-Te    5.71404 A  
   3  10  Zn-Te    5.73148 A *
   3  15  Zn-Te    5.73148 A  
   5  19  Zn-Te    5.73149 A  
   5   6  Zn-Te    5.73149 A *
   7  20  Te-Te    5.74614 A *
   9  18  Te-Te    5.74614 A *
   8  21  Te-Te    5.75525 A *
  12  17  Te-Te    5.75529 A *
   6  21  Te-Te    5.78462 A *
   8  19  Te-Te    5.78462 A *
  10  17  Te-Te    5.78463 A *
  12  15  Te-Te    5.78463 A *
  11  16  Te-Te    5.79257 A *
  13  14  Te-Te    5.79257 A *
  12  17  Te-Te    5.79652 A *
   8  21  Te-Te    5.79653 A  
   6  21  Te-Te    5.81443 A *
   8  19  Te-Te    5.81443 A *
  10  17  Te-Te    5.81443 A *
  12  15  Te-Te    5.81443 A *
   8  21  Te-Te    5.83215 A *
  12  17  Te-Te    5.83217 A *
  13  14  Te-Te    5.86765 A *
  11  16  Te-Te    5.86765 A *
  13  14  Te-Te    5.86768 A *
  11  16  Te-Te    5.86768 A  
   2   9  Zn-Te    5.90661 A *
   2  20  Zn-Te    5.90661 A *
   4   9  Zn-Te    5.90662 A *
   4  20  Zn-Te    5.90662 A  
   7  18  Te-Te    5.90998 A *
   7  18  Te-Te    5.91003 A  
  12  15  Te-Te    5.91259 A *
  10  17  Te-Te    5.91259 A *
   6  21  Te-Te    5.91262 A *
   8  19  Te-Te    5.91262 A  
   9  18  Te-Te    5.94459 A *
   7  20  Te-Te    5.94459 A *
   7  20  Te-Te    5.94463 A  
   9  18  Te-Te    5.94463 A *
   7  18  Te-Te    5.99611 A *

Nearest neighbors for each atom (up to 4)

 atom   1 species Zn : neighbors at    2.827   2.827   2.916   2.916 A
         d(center):10.696 A  angles  :   180.0    89.7    90.3    90.3    89.7   180.0
 atom   2 species Zn : neighbors at    2.790   2.790   2.814   2.814 A
         d(center): 5.228 A  angles  :   180.0    96.3    83.7    83.7    96.3   180.0
 atom   3 species Zn : neighbors at    2.737   2.737   2.857   2.857 A
         d(center):10.696 A  angles  :   180.0    93.6    86.4    86.4    93.6   180.0
 atom   4 species Zn : neighbors at    2.790   2.790   2.814   2.814 A
         d(center): 5.228 A  angles  :   180.0    96.3    83.7    83.7    96.3   180.0
 atom   5 species Zn : neighbors at    2.737   2.737   2.857   2.857 A
         d(center):10.696 A  angles  :   180.0    86.4    93.6    93.6    86.4   180.0
 atom   6 species Te : neighbors at    2.814   2.845   2.919   2.940 A
         d(center): 2.978 A  angles  :   123.7   128.6    71.2    89.7    73.2    85.6
 atom   7 species Te : neighbors at    2.955   2.955   3.039   3.076 A
         d(center): 5.649 A  angles  :    86.7   128.9    67.5   128.9   130.3    99.4
 atom   8 species Te : neighbors at    2.898   2.901   2.916   2.985 A
         d(center): 8.513 A  angles  :   131.7    88.5   137.1    70.5    87.4   126.6
 atom   9 species Te : neighbors at    2.737   2.737   2.810   2.921 A
         d(center):11.325 A  angles  :    95.6   131.7    70.9   131.7   124.0    74.0
 atom  10 species Te : neighbors at    2.814   2.845   2.919   2.940 A
         d(center): 6.456 A  angles  :   123.7   128.6    71.2    89.7    73.2    85.6
 atom  11 species Te : neighbors at    2.790   2.790   2.922   2.922 A
         d(center): 6.683 A  angles  :    93.2    71.8   123.9   123.9    71.8    73.5
 atom  12 species Te : neighbors at    2.898   2.901   2.916   2.985 A
         d(center):10.287 A  angles  :   131.7    88.5   137.1    70.5    87.4   126.6
 atom  13 species Te : neighbors at    2.827   2.857   2.857   2.864 A
         d(center):12.428 A  angles  :    91.1    91.1    72.3    90.4   132.6   132.6
 atom  14 species Te : neighbors at    2.790   2.790   2.922   2.922 A
         d(center): 5.058 A  angles  :    93.2    71.8   123.9   123.9    71.8    73.5
 atom  15 species Te : neighbors at    2.814   2.845   2.919   2.940 A
         d(center): 7.851 A  angles  :   123.7   128.6    71.2    89.7    73.2    85.6
 atom  16 species Te : neighbors at    2.827   2.857   2.857   2.864 A
         d(center): 9.523 A  angles  :    91.1    91.1    72.3    90.4   132.6   132.6
 atom  17 species Te : neighbors at    2.898   2.901   2.916   2.985 A
         d(center):13.159 A  angles  :   131.7    88.5   137.1    70.5    87.4   126.6
 atom  18 species Te : neighbors at    2.955   2.955   3.039   3.076 A
         d(center): 6.342 A  angles  :    86.7   128.9    67.5   128.9   130.3    99.4
 atom  19 species Te : neighbors at    2.814   2.845   2.919   2.940 A
         d(center): 7.851 A  angles  :   123.7   128.6    71.2    89.7    73.2    85.6
 atom  20 species Te : neighbors at    2.737   2.737   2.810   2.921 A
         d(center):10.750 A  angles  :    95.6   131.7    70.9   131.7   124.0    74.0
 atom  21 species Te : neighbors at    2.898   2.901   2.916   2.985 A
         d(center):13.159 A  angles  :   131.7    88.5   137.1    70.5    87.4   126.6
 atom  22 species Zr : neighbors at    2.810   2.845   2.845   2.985 A
         d(center): 0.314 A  angles  :   108.2   108.2    84.5    91.3   165.8    90.6
 atom  23 species Zr : neighbors at    2.810   2.845   2.845   2.985 A
         d(center): 6.550 A  angles  :   108.2   108.2    84.5    91.3   165.8    90.6
 atom  24 species Zr : neighbors at    2.864   2.901   2.901   2.919 A
         d(center): 4.057 A  angles  :    89.2    89.2    95.6    90.2   175.0    90.8
 atom  25 species Zr : neighbors at    2.864   2.901   2.901   2.919 A
         d(center): 7.697 A  angles  :    89.2    89.2    95.6    90.2   175.0    90.8
 atom  26 species Zr : neighbors at    2.921   2.922   2.940   2.994 A
         d(center): 3.720 A  angles  :   106.0   102.8    87.2    90.8   165.3    92.5
 atom  27 species Zr : neighbors at    2.921   2.922   2.940   2.994 A
         d(center): 7.957 A  angles  :   106.0   102.8    87.2    90.8   165.3    92.5
 atom  28 species Zr : neighbors at    2.921   2.922   2.940   2.994 A
         d(center): 3.720 A  angles  :   106.0   102.8    87.2    90.8   165.3    92.5
 atom  29 species Zr : neighbors at    2.921   2.922   2.940   2.994 A
         d(center): 7.957 A  angles  :   106.0   102.8    87.2    90.8   165.3    92.5
