Distances between atoms, up to dmax=  6.00 A   (* = with lattice translation)
  #1  #2   bond       d
   2  10  Ni-Te    2.68001 A *
   2  15  Ni-Te    2.68001 A  
   1  15  Ni-Te    2.68001 A *
   1  10  Ni-Te    2.68001 A  
   1  11  Ni-Te    2.68118 A  
   1  14  Ni-Te    2.68118 A *
   2  14  Ni-Te    2.68118 A  
   2  11  Ni-Te    2.68118 A *
   1   6  Ni-Te    2.68861 A  
   1  19  Ni-Te    2.68861 A *
   2  18  Ni-Te    2.68861 A *
   2   7  Ni-Te    2.68861 A  
   3   9  Ni-Te    2.70426 A  
   3  12  Ni-Te    2.70426 A  
   3   4  Ni-Te    2.70713 A  
   3  17  Ni-Te    2.70713 A  
   3   5  Ni-Te    2.70713 A  
   3  16  Ni-Te    2.70713 A  
   8  20  Te-Zr    2.85969 A *
  13  21  Te-Zr    2.85969 A *
   8  24  Te-Zr    2.87524 A *
  13  25  Te-Zr    2.87524 A  
   8  22  Te-Zr    2.87524 A  
  13  23  Te-Zr    2.87524 A *
   6  23  Te-Zr    2.87776 A  
  19  22  Te-Zr    2.87776 A *
   7  24  Te-Zr    2.87776 A *
  18  25  Te-Zr    2.87776 A *
   7  20  Te-Zr    2.88138 A *
  18  21  Te-Zr    2.88138 A *
  19  20  Te-Zr    2.88138 A *
   6  21  Te-Zr    2.88138 A  
   9  27  Te-Zr    2.89307 A  
  12  26  Te-Zr    2.89307 A  
   6  27  Te-Zr    2.89785 A  
  19  26  Te-Zr    2.89785 A *
   7  26  Te-Zr    2.89785 A *
  18  27  Te-Zr    2.89785 A  
   9  23  Te-Zr    2.90068 A  
  12  22  Te-Zr    2.90068 A *
   9  25  Te-Zr    2.90068 A *
  12  24  Te-Zr    2.90068 A  
   4  26  Te-Zr    2.90306 A  
  17  27  Te-Zr    2.90306 A  
   5  27  Te-Zr    2.90306 A  
  16  26  Te-Zr    2.90306 A  
   5  21  Te-Zr    2.90463 A  
  16  20  Te-Zr    2.90463 A *
  17  21  Te-Zr    2.90463 A *
   4  20  Te-Zr    2.90463 A  
  11  22  Te-Zr    2.90604 A *
  14  23  Te-Zr    2.90604 A *
  14  25  Te-Zr    2.90604 A  
  11  24  Te-Zr    2.90604 A *
  14  27  Te-Zr    2.91102 A  
  11  26  Te-Zr    2.91102 A *
   5  25  Te-Zr    2.92215 A  
  16  24  Te-Zr    2.92215 A *
   4  22  Te-Zr    2.92215 A  
  17  23  Te-Zr    2.92215 A *
  10  25  Te-Zr    2.92634 A *
  15  24  Te-Zr    2.92634 A *
  10  23  Te-Zr    2.92634 A  
  15  22  Te-Zr    2.92634 A *
  10  21  Te-Zr    2.92670 A *
  15  20  Te-Zr    2.92670 A *
   1  23  Ni-Zr    3.22367 A  
   2  25  Ni-Zr    3.22367 A  
   1  22  Ni-Zr    3.22367 A *
   2  24  Ni-Zr    3.22367 A *
   3  26  Ni-Zr    3.22809 A  
   3  27  Ni-Zr    3.22809 A  
   6   7  Te-Te    3.58940 A  
  18  19  Te-Te    3.58940 A  
  11  18  Te-Te    3.61755 A  
   7  14  Te-Te    3.61755 A  
   6  11  Te-Te    3.61755 A  
  14  19  Te-Te    3.61755 A  
   8   9  Te-Te    3.62724 A  
  12  13  Te-Te    3.62724 A  
   6  15  Te-Te    3.63902 A *
  10  19  Te-Te    3.63902 A *
  15  18  Te-Te    3.63902 A *
   7  10  Te-Te    3.63902 A *
   4  13  Te-Te    3.65247 A *
   8  17  Te-Te    3.65247 A *
   5   8  Te-Te    3.65247 A *
  13  16  Te-Te    3.65247 A *
  14  15  Te-Te    3.66797 A  
  10  11  Te-Te    3.66797 A  
   5  12  Te-Te    3.67927 A  
   9  16  Te-Te    3.67927 A  
   4   9  Te-Te    3.67927 A  
  12  17  Te-Te    3.67927 A  
   4   5  Te-Te    3.70339 A  
  16  17  Te-Te    3.70339 A  
  20  24  Zr-Zr    3.81172 A  
  21  25  Zr-Zr    3.81172 A *
  20  22  Zr-Zr    3.81172 A *
  21  23  Zr-Zr    3.81172 A  
  11  19  Te-Te    3.85173 A  
   6  14  Te-Te    3.85173 A  
   7  11  Te-Te    3.85173 A  
  14  18  Te-Te    3.85173 A  
   4  12  Te-Te    3.85192 A *
   9  17  Te-Te    3.85192 A *
  12  16  Te-Te    3.85192 A *
   5   9  Te-Te    3.85192 A *
  22  24  Zr-Zr    3.86089 A *
  23  25  Zr-Zr    3.86089 A *
  22  26  Zr-Zr    3.86509 A *
  23  27  Zr-Zr    3.86509 A  
  24  26  Zr-Zr    3.86509 A  
  25  27  Zr-Zr    3.86509 A *
   4  16  Te-Te    3.87038 A *
   5  17  Te-Te    3.87038 A *
   7  15  Te-Te    3.87313 A *
  10  18  Te-Te    3.87313 A *
   6  10  Te-Te    3.87313 A *
  15  19  Te-Te    3.87313 A *
   6  18  Te-Te    3.89380 A  
   7  19  Te-Te    3.89380 A  
   5  13  Te-Te    3.89513 A  
   8  16  Te-Te    3.89513 A  
   4   8  Te-Te    3.89513 A  
  13  17  Te-Te    3.89513 A  
   1   2  Ni-Ni    3.90998 A *
   1   2  Ni-Ni    3.90998 A *
  11  15  Te-Te    3.91002 A *
  10  14  Te-Te    3.91002 A *
  10  14  Te-Te    3.91002 A *
  11  15  Te-Te    3.91002 A *
   8  12  Te-Te    3.91007 A *
   9  13  Te-Te    3.91007 A *
   8  12  Te-Te    3.91007 A *
   9  13  Te-Te    3.91007 A *
  21  27  Zr-Zr    3.91019 A  
  20  26  Zr-Zr    3.91019 A *
  20  26  Zr-Zr    3.91019 A  
  21  27  Zr-Zr    3.91019 A *
   5  13  Te-Te    3.92512 A *
   8  16  Te-Te    3.92512 A *
   4   8  Te-Te    3.92512 A *
  13  17  Te-Te    3.92512 A *
   6  18  Te-Te    3.92616 A *
   7  19  Te-Te    3.92616 A *
   7  15  Te-Te    3.94710 A  
  10  18  Te-Te    3.94710 A  
   6  10  Te-Te    3.94710 A  
  15  19  Te-Te    3.94710 A  
   4  16  Te-Te    3.94957 A  
   5  17  Te-Te    3.94957 A  
  23  27  Zr-Zr    3.95625 A *
  22  26  Zr-Zr    3.95625 A  
  24  26  Zr-Zr    3.95625 A *
  25  27  Zr-Zr    3.95625 A  
  23  25  Zr-Zr    3.95907 A *
  22  24  Zr-Zr    3.95907 A *
   9  17  Te-Te    3.96814 A  
   4  12  Te-Te    3.96814 A  
   5   9  Te-Te    3.96814 A  
  12  16  Te-Te    3.96814 A  
   6  14  Te-Te    3.96837 A *
  11  19  Te-Te    3.96837 A *
   7  11  Te-Te    3.96837 A *
  14  18  Te-Te    3.96837 A *
  21  25  Zr-Zr    4.00860 A  
  20  24  Zr-Zr    4.00860 A *
  20  22  Zr-Zr    4.00860 A  
  21  23  Zr-Zr    4.00860 A *
  10  17  Te-Te    4.24663 A *
   4  15  Te-Te    4.24663 A *
   5  10  Te-Te    4.24663 A *
  15  16  Te-Te    4.24663 A *
   5  14  Te-Te    4.26963 A  
  11  16  Te-Te    4.26963 A *
  14  17  Te-Te    4.26963 A  
   4  11  Te-Te    4.26963 A *
   4   7  Te-Te    4.27271 A *
  17  18  Te-Te    4.27271 A  
   5   6  Te-Te    4.27271 A  
  16  19  Te-Te    4.27271 A *
   9  10  Te-Te    4.27288 A  
  12  15  Te-Te    4.27288 A *
   8  19  Te-Te    4.30087 A *
   6  13  Te-Te    4.30087 A *
   7   8  Te-Te    4.30087 A *
  13  18  Te-Te    4.30087 A *
   8  11  Te-Te    4.30104 A *
  13  14  Te-Te    4.30104 A  
   7  12  Te-Te    4.30369 A *
   9  18  Te-Te    4.30369 A  
   6   9  Te-Te    4.30369 A  
  12  19  Te-Te    4.30369 A *
   1  18  Ni-Te    4.70588 A *
   1   7  Ni-Te    4.70588 A  
   2   6  Ni-Te    4.70588 A  
   2  19  Ni-Te    4.70588 A *
   3   8  Ni-Te    4.73075 A  
   3  13  Ni-Te    4.73075 A  
   1   7  Ni-Te    4.73849 A *
   1  18  Ni-Te    4.73849 A  
   2   6  Ni-Te    4.73849 A *
   2  19  Ni-Te    4.73849 A  
   3  13  Ni-Te    4.74212 A *
   3   8  Ni-Te    4.74212 A *
   3  13  Ni-Te    4.74212 A *
   3   8  Ni-Te    4.74212 A *
   2   6  Ni-Te    4.75182 A *
   2  19  Ni-Te    4.75182 A *
   1  18  Ni-Te    4.75182 A *
   1   7  Ni-Te    4.75182 A *
   6  25  Te-Zr    4.84148 A *
  19  24  Te-Zr    4.84148 A *
   7  22  Te-Zr    4.84148 A *
  18  23  Te-Zr    4.84148 A *
   5  23  Te-Zr    4.84776 A  
  16  22  Te-Zr    4.84776 A *
   4  24  Te-Zr    4.84776 A  
  17  25  Te-Zr    4.84776 A *
   8  26  Te-Zr    4.85019 A *
  13  27  Te-Zr    4.85019 A *
   8  26  Te-Zr    4.85019 A *
  13  27  Te-Zr    4.85019 A *
  14  21  Te-Zr    4.85351 A *
  11  20  Te-Zr    4.85351 A *
   9  21  Te-Zr    4.85773 A *
  12  20  Te-Zr    4.85773 A  
   9  21  Te-Zr    4.85773 A  
  12  20  Te-Zr    4.85773 A *
  18  23  Te-Zr    4.86799 A  
   7  22  Te-Zr    4.86799 A *
   6  25  Te-Zr    4.86799 A *
  19  24  Te-Zr    4.86799 A *
   8  26  Te-Zr    4.86989 A  
  13  27  Te-Zr    4.86989 A  
  10  27  Te-Zr    4.87487 A  
  15  26  Te-Zr    4.87487 A *
   5  23  Te-Zr    4.87728 A *
  16  22  Te-Zr    4.87728 A  
   4  24  Te-Zr    4.87728 A *
  17  25  Te-Zr    4.87728 A  
  10  27  Te-Zr    4.87781 A *
  15  26  Te-Zr    4.87781 A *
  10  27  Te-Zr    4.87781 A *
  15  26  Te-Zr    4.87781 A *
   6  25  Te-Zr    4.87884 A  
  19  24  Te-Zr    4.87884 A *
   7  22  Te-Zr    4.87884 A *
  18  23  Te-Zr    4.87884 A *
  14  21  Te-Zr    4.88066 A  
  11  20  Te-Zr    4.88066 A *
  14  21  Te-Zr    4.88066 A *
  11  20  Te-Zr    4.88066 A *
   4  24  Te-Zr    4.88488 A *
  17  25  Te-Zr    4.88488 A *
  16  22  Te-Zr    4.88488 A *
   5  23  Te-Zr    4.88488 A *
   9  21  Te-Zr    4.88540 A *
  12  20  Te-Zr    4.88540 A *
   2  21  Ni-Zr    5.04692 A *
   2  20  Ni-Zr    5.04692 A *
   1  21  Ni-Zr    5.04692 A  
   1  20  Ni-Zr    5.04692 A *
   2  22  Ni-Zr    5.04856 A *
   2  23  Ni-Zr    5.04856 A *
   1  25  Ni-Zr    5.04856 A *
   1  24  Ni-Zr    5.04856 A *
   3  22  Ni-Zr    5.08169 A *
   3  23  Ni-Zr    5.08169 A  
   3  24  Ni-Zr    5.08169 A  
   3  25  Ni-Zr    5.08169 A *
   1  27  Ni-Zr    5.08406 A  
   1  26  Ni-Zr    5.08406 A *
   2  27  Ni-Zr    5.08406 A *
   2  26  Ni-Zr    5.08406 A *
   3  21  Ni-Zr    5.08599 A  
   3  20  Ni-Zr    5.08599 A *
   3  20  Ni-Zr    5.08599 A  
   3  21  Ni-Zr    5.08599 A *
   1  25  Ni-Zr    5.08644 A *
   1  24  Ni-Zr    5.08644 A *
   2  23  Ni-Zr    5.08644 A *
   2  22  Ni-Zr    5.08644 A *
   1  27  Ni-Zr    5.11340 A *
   1  26  Ni-Zr    5.11340 A *
   2  27  Ni-Zr    5.11340 A  
   2  26  Ni-Zr    5.11340 A *
   2  21  Ni-Zr    5.11990 A  
   2  20  Ni-Zr    5.11990 A *
   1  21  Ni-Zr    5.11990 A *
   1  20  Ni-Zr    5.11990 A *
   3  23  Ni-Zr    5.12224 A *
   3  22  Ni-Zr    5.12224 A  
   3  24  Ni-Zr    5.12224 A *
   3  25  Ni-Zr    5.12224 A  
  10  24  Te-Zr    5.15611 A *
  15  25  Te-Zr    5.15611 A  
  15  23  Te-Zr    5.15611 A *
  10  22  Te-Zr    5.15611 A *
  15  21  Te-Zr    5.16118 A *
  10  20  Te-Zr    5.16118 A *
  11  23  Te-Zr    5.16879 A  
  14  22  Te-Zr    5.16879 A *
  11  25  Te-Zr    5.16879 A *
  14  24  Te-Zr    5.16879 A *
  11  27  Te-Zr    5.18115 A  
  14  26  Te-Zr    5.18115 A *
   7  21  Te-Zr    5.19190 A  
  18  20  Te-Zr    5.19190 A *
   6  20  Te-Zr    5.19190 A *
  19  21  Te-Zr    5.19190 A *
   7  25  Te-Zr    5.19228 A  
  18  24  Te-Zr    5.19228 A *
   6  22  Te-Zr    5.19228 A *
  19  23  Te-Zr    5.19228 A *
   6  26  Te-Zr    5.20037 A *
  19  27  Te-Zr    5.20037 A  
   7  27  Te-Zr    5.20037 A  
  18  26  Te-Zr    5.20037 A *
   5  20  Te-Zr    5.20283 A  
  16  21  Te-Zr    5.20283 A *
   4  21  Te-Zr    5.20283 A  
  17  20  Te-Zr    5.20283 A *
  17  26  Te-Zr    5.20293 A  
   4  27  Te-Zr    5.20293 A  
   5  26  Te-Zr    5.20293 A  
  16  27  Te-Zr    5.20293 A  
   9  26  Te-Zr    5.20550 A  
  12  27  Te-Zr    5.20550 A  
   4  23  Te-Zr    5.21217 A  
   5  24  Te-Zr    5.21217 A  
  16  25  Te-Zr    5.21217 A *
  17  22  Te-Zr    5.21217 A *
  12  23  Te-Zr    5.21773 A *
   9  22  Te-Zr    5.21773 A  
   9  24  Te-Zr    5.21773 A *
  12  25  Te-Zr    5.21773 A  
   8  21  Te-Zr    5.23265 A *
  13  20  Te-Zr    5.23265 A *
   8  25  Te-Zr    5.24499 A *
  13  24  Te-Zr    5.24499 A  
   8  23  Te-Zr    5.24499 A  
  13  22  Te-Zr    5.24499 A *
  11  14  Te-Te    5.27253 A  
   6  19  Te-Te    5.29579 A  
   7  18  Te-Te    5.29579 A  
  10  15  Te-Te    5.30931 A *
   7  18  Te-Te    5.31963 A *
   6  19  Te-Te    5.31963 A *
   9  12  Te-Te    5.32046 A *
   9  12  Te-Te    5.32046 A *
   5  16  Te-Te    5.33304 A *
   4  17  Te-Te    5.33304 A *
   8  13  Te-Te    5.34638 A *
   8  13  Te-Te    5.34638 A *
   5  16  Te-Te    5.35676 A *
   4  17  Te-Te    5.35676 A *
  10  15  Te-Te    5.36001 A *
  10  15  Te-Te    5.36001 A *
  11  14  Te-Te    5.36235 A *
  11  14  Te-Te    5.36235 A *
   8  13  Te-Te    5.36650 A *
   6  19  Te-Te    5.37722 A *
   7  18  Te-Te    5.37722 A *
   9  12  Te-Te    5.40851 A  
   4  17  Te-Te    5.41426 A  
   5  16  Te-Te    5.41426 A  
   2   5  Ni-Te    5.52203 A  
   1  17  Ni-Te    5.52203 A *
   2  16  Ni-Te    5.52203 A *
   1   4  Ni-Te    5.52203 A *
   1   9  Ni-Te    5.53898 A  
   1  12  Ni-Te    5.53898 A *
   2   9  Ni-Te    5.53898 A *
   2  12  Ni-Te    5.53898 A *
   2  13  Ni-Te    5.54133 A  
   2   8  Ni-Te    5.54133 A *
   1  13  Ni-Te    5.54133 A *
   1   8  Ni-Te    5.54133 A *
   3  14  Ni-Te    5.54663 A  
   3  11  Ni-Te    5.54663 A *
   3   6  Ni-Te    5.55374 A  
   3  19  Ni-Te    5.55374 A *
   3   7  Ni-Te    5.55374 A *
   3  18  Ni-Te    5.55374 A  
   5  18  Te-Te    5.78375 A *
   7  16  Te-Te    5.78375 A *
   4  19  Te-Te    5.78375 A *
   6  17  Te-Te    5.78375 A *
  10  13  Te-Te    5.78620 A *
   8  15  Te-Te    5.78620 A *
   5  18  Te-Te    5.79940 A *
   7  16  Te-Te    5.79940 A *
   4  19  Te-Te    5.79940 A *
   6  17  Te-Te    5.79940 A *
   4  19  Te-Te    5.79956 A *
   6  17  Te-Te    5.79956 A  
   5  18  Te-Te    5.79956 A  
   7  16  Te-Te    5.79956 A *
  10  13  Te-Te    5.80024 A *
   8  15  Te-Te    5.80024 A *
   8  15  Te-Te    5.80024 A *
  10  13  Te-Te    5.80024 A *
   9  14  Te-Te    5.80374 A  
  11  12  Te-Te    5.80374 A *
  11  12  Te-Te    5.80420 A *
   9  14  Te-Te    5.80420 A *
   9  14  Te-Te    5.80420 A *
  11  12  Te-Te    5.80420 A *

Nearest neighbors for each atom (up to 4)

 atom   1 species Ni : neighbors at    2.680   2.680   2.681   2.681 A
         d(center):10.505 A  angles  :   180.0    86.3    93.7    93.7    86.3   180.0
 atom   2 species Ni : neighbors at    2.680   2.680   2.681   2.681 A
         d(center):10.505 A  angles  :   180.0    93.7    86.3    86.3    93.7   180.0
 atom   3 species Ni : neighbors at    2.704   2.704   2.707   2.707 A
         d(center): 5.084 A  angles  :   180.0    85.7    94.3    94.3    85.7   180.0
 atom   4 species Te : neighbors at    2.707   2.903   2.905   2.922 A
         d(center): 2.881 A  angles  :    70.2   130.0   131.0    84.6    85.6    86.9
 atom   5 species Te : neighbors at    2.707   2.903   2.905   2.922 A
         d(center): 5.213 A  angles  :    70.2   130.0   131.0    84.6    85.6    86.9
 atom   6 species Te : neighbors at    2.689   2.878   2.881   2.898 A
         d(center): 8.632 A  angles  :    70.7   129.9   131.0    82.9    84.0    85.2
 atom   7 species Te : neighbors at    2.689   2.878   2.881   2.898 A
         d(center):11.392 A  angles  :    70.7   129.9   131.0    82.9    84.0    85.2
 atom   8 species Te : neighbors at    2.860   2.875   2.875   3.627 A
         d(center): 6.236 A  angles  :    83.3    83.3   167.0    84.4   106.1   106.1
 atom   9 species Te : neighbors at    2.704   2.893   2.901   2.901 A
         d(center): 6.519 A  angles  :    70.3   130.1   130.1    83.7    83.7    86.1
 atom  10 species Te : neighbors at    2.680   2.680   2.926   2.926 A
         d(center):10.252 A  angles  :    93.7    70.0   130.2   130.2    70.0    85.1
 atom  11 species Te : neighbors at    2.681   2.681   2.906   2.906 A
         d(center):12.041 A  angles  :    93.6    70.3   129.2   129.2    70.3    83.3
 atom  12 species Te : neighbors at    2.704   2.893   2.901   2.901 A
         d(center): 4.882 A  angles  :    70.3   130.1   130.1    83.7    83.7    86.1
 atom  13 species Te : neighbors at    2.860   2.875   2.875   3.627 A
         d(center): 7.588 A  angles  :    83.3    83.3   167.0    84.4   106.1   106.1
 atom  14 species Te : neighbors at    2.681   2.681   2.906   2.906 A
         d(center): 9.468 A  angles  :    93.6    70.3   129.2   129.2    70.3    83.3
 atom  15 species Te : neighbors at    2.680   2.680   2.926   2.926 A
         d(center):12.682 A  angles  :    93.7    70.0   130.2   130.2    70.0    85.1
 atom  16 species Te : neighbors at    2.707   2.903   2.905   2.922 A
         d(center): 6.260 A  angles  :    70.2   130.0   131.0    84.6    85.6    86.9
 atom  17 species Te : neighbors at    2.707   2.903   2.905   2.922 A
         d(center): 7.620 A  angles  :    70.2   130.0   131.0    84.6    85.6    86.9
 atom  18 species Te : neighbors at    2.689   2.878   2.881   2.898 A
         d(center):10.245 A  angles  :    70.7   129.9   131.0    82.9    84.0    85.2
 atom  19 species Te : neighbors at    2.689   2.878   2.881   2.898 A
         d(center):12.658 A  angles  :    70.7   129.9   131.0    82.9    84.0    85.2
 atom  20 species Zr : neighbors at    2.860   2.881   2.881   2.905 A
         d(center): 0.055 A  angles  :    97.0    97.0    85.8    85.9   176.8    95.2
 atom  21 species Zr : neighbors at    2.860   2.881   2.881   2.905 A
         d(center): 6.503 A  angles  :    97.0    97.0    85.8    85.9   176.8    95.2
 atom  22 species Zr : neighbors at    2.875   2.878   2.901   2.906 A
         d(center): 3.961 A  angles  :    96.8    85.2    96.1    96.3    86.6   176.6
 atom  23 species Zr : neighbors at    2.875   2.878   2.901   2.906 A
         d(center): 7.583 A  angles  :    96.8    85.2    96.1    96.3    86.6   176.6
 atom  24 species Zr : neighbors at    2.875   2.878   2.901   2.906 A
         d(center): 3.859 A  angles  :    96.8    85.2    96.1    96.3    86.6   176.6
 atom  25 species Zr : neighbors at    2.875   2.878   2.901   2.906 A
         d(center): 7.635 A  angles  :    96.8    85.2    96.1    96.3    86.6   176.6
 atom  26 species Zr : neighbors at    2.893   2.898   2.898   2.903 A
         d(center): 3.910 A  angles  :    96.0    96.0    86.4    84.4   177.5    94.9
 atom  27 species Zr : neighbors at    2.893   2.898   2.898   2.903 A
         d(center): 7.567 A  angles  :    96.0    96.0    86.4    84.4   177.5    94.9
