Distances between atoms, up to dmax=  6.00 A   (* = with lattice translation)
  #1  #2   bond       d
   5   8  Fe-Te    2.58255 A  
   3   8  Fe-Te    2.58258 A  
   6  17  Fe-Te    2.58259 A  
   6  14  Fe-Te    2.58260 A  
   4  14  Fe-Te    2.58261 A *
   5  19  Fe-Te    2.58261 A  
   4  17  Fe-Te    2.58262 A  
   3  19  Fe-Te    2.58263 A *
   2  15  Fe-Te    2.58954 A *
   1  21  Fe-Te    2.58954 A *
   2  12  Fe-Te    2.58954 A  
   1  10  Fe-Te    2.58958 A  
   5  12  Fe-Te    2.59130 A  
   6  21  Fe-Te    2.59131 A  
   6  10  Fe-Te    2.59132 A  
   4  10  Fe-Te    2.59132 A  
   3  12  Fe-Te    2.59133 A *
   4  21  Fe-Te    2.59133 A *
   5  15  Fe-Te    2.59133 A  
   3  15  Fe-Te    2.59134 A  
   5  20  Fe-Te    2.59445 A  
   6   9  Fe-Te    2.59445 A  
   6  22  Fe-Te    2.59447 A  
   3  16  Fe-Te    2.59447 A  
   4  18  Fe-Te    2.59447 A  
   4  13  Fe-Te    2.59447 A *
   5   7  Fe-Te    2.59449 A  
   3  11  Fe-Te    2.59450 A *
   2  16  Fe-Te    2.59740 A *
   1  13  Fe-Te    2.59740 A *
   1   9  Fe-Te    2.59741 A  
   2  20  Fe-Te    2.59741 A *
   2  11  Fe-Te    2.59741 A  
   2   7  Fe-Te    2.59742 A  
   1  18  Fe-Te    2.59745 A *
   1  22  Fe-Te    2.59745 A *
  14  25  Te-Zr    2.87857 A *
  17  26  Te-Zr    2.87858 A *
  19  23  Te-Zr    2.87860 A *
   8  24  Te-Zr    2.87861 A  
  14  29  Te-Zr    2.88526 A *
  17  30  Te-Zr    2.88526 A  
   8  30  Te-Zr    2.88527 A  
  14  27  Te-Zr    2.88528 A *
  19  29  Te-Zr    2.88528 A  
  17  28  Te-Zr    2.88528 A  
   8  28  Te-Zr    2.88528 A  
  19  27  Te-Zr    2.88529 A *
  20  30  Te-Zr    2.89493 A  
  16  28  Te-Zr    2.89493 A  
   9  30  Te-Zr    2.89494 A  
  13  28  Te-Zr    2.89494 A *
   7  29  Te-Zr    2.89496 A  
  11  27  Te-Zr    2.89496 A *
  22  29  Te-Zr    2.89496 A *
  18  27  Te-Zr    2.89496 A *
  13  26  Te-Zr    2.89839 A  
   9  26  Te-Zr    2.89840 A  
  18  25  Te-Zr    2.89842 A *
  16  24  Te-Zr    2.89842 A *
  20  24  Te-Zr    2.89843 A *
  11  23  Te-Zr    2.89843 A *
  22  25  Te-Zr    2.89843 A *
   7  23  Te-Zr    2.89844 A  
  16  26  Te-Zr    2.90555 A *
  18  23  Te-Zr    2.90555 A *
  20  26  Te-Zr    2.90555 A *
  11  25  Te-Zr    2.90556 A  
  13  24  Te-Zr    2.90556 A *
  22  23  Te-Zr    2.90556 A *
   7  25  Te-Zr    2.90556 A  
   9  24  Te-Zr    2.90557 A  
  21  30  Te-Zr    2.94855 A  
  12  30  Te-Zr    2.94855 A  
  12  28  Te-Zr    2.94856 A *
  21  28  Te-Zr    2.94857 A *
  15  29  Te-Zr    2.94860 A  
  10  29  Te-Zr    2.94860 A *
  15  27  Te-Zr    2.94861 A  
  10  27  Te-Zr    2.94862 A *
  21  24  Te-Zr    2.95134 A *
  12  26  Te-Zr    2.95135 A  
  15  25  Te-Zr    2.95137 A *
  10  23  Te-Zr    2.95138 A *
   5  30  Fe-Zr    3.22834 A  
   3  28  Fe-Zr    3.22834 A  
   6  30  Fe-Zr    3.22840 A  
   4  27  Fe-Zr    3.22842 A *
   6  29  Fe-Zr    3.22842 A *
   4  28  Fe-Zr    3.22843 A  
   3  27  Fe-Zr    3.22844 A  
   5  29  Fe-Zr    3.22846 A  
   1  24  Fe-Zr    3.25808 A  
   2  25  Fe-Zr    3.25809 A  
   1  23  Fe-Zr    3.25813 A *
   2  26  Fe-Zr    3.25817 A  
  12  19  Te-Te    3.46868 A  
  14  21  Te-Te    3.46869 A  
  10  17  Te-Te    3.46874 A  
   8  15  Te-Te    3.46875 A  
  19  20  Te-Te    3.48166 A  
   9  14  Te-Te    3.48168 A  
  16  19  Te-Te    3.48169 A *
  13  14  Te-Te    3.48170 A  
   7   8  Te-Te    3.48171 A  
  17  22  Te-Te    3.48172 A  
   8  11  Te-Te    3.48174 A *
  17  18  Te-Te    3.48175 A  
   7  12  Te-Te    3.48723 A  
  21  22  Te-Te    3.48724 A  
  15  20  Te-Te    3.48725 A  
  11  12  Te-Te    3.48725 A  
  18  21  Te-Te    3.48726 A *
  15  16  Te-Te    3.48726 A  
   9  10  Te-Te    3.48727 A  
  10  13  Te-Te    3.48728 A *
   7  16  Te-Te    3.51476 A *
  11  20  Te-Te    3.51476 A *
  13  22  Te-Te    3.51477 A *
   9  18  Te-Te    3.51477 A *
  27  29  Zr-Zr    3.72590 A *
  28  30  Zr-Zr    3.72613 A  
  23  27  Zr-Zr    3.78543 A *
  23  29  Zr-Zr    3.78544 A *
  25  29  Zr-Zr    3.78545 A  
  25  27  Zr-Zr    3.78545 A *
  26  30  Zr-Zr    3.78555 A *
  26  28  Zr-Zr    3.78555 A *
  24  28  Zr-Zr    3.78557 A  
  24  30  Zr-Zr    3.78557 A  
  16  20  Te-Te    3.82520 A  
   9  13  Te-Te    3.82526 A *
   7  11  Te-Te    3.82531 A  
  18  22  Te-Te    3.82532 A *
   9  17  Te-Te    3.83139 A  
  13  17  Te-Te    3.83140 A *
   8  20  Te-Te    3.83141 A  
   8  16  Te-Te    3.83143 A  
   7  19  Te-Te    3.83146 A  
  14  22  Te-Te    3.83146 A  
  14  18  Te-Te    3.83148 A *
  11  19  Te-Te    3.83149 A  
  10  22  Te-Te    3.83814 A  
   9  21  Te-Te    3.83814 A  
   7  15  Te-Te    3.83815 A  
  10  18  Te-Te    3.83815 A  
  13  21  Te-Te    3.83816 A  
  11  15  Te-Te    3.83817 A *
  12  20  Te-Te    3.83820 A  
  12  16  Te-Te    3.83822 A *
   3   5  Fe-Fe    3.83886 A  
   4   6  Fe-Fe    3.83889 A  
   2   3  Fe-Fe    3.83890 A *
   2   5  Fe-Fe    3.83890 A *
   1   6  Fe-Fe    3.83890 A  
   1   4  Fe-Fe    3.83890 A  
   8  12  Te-Te    3.83892 A  
  15  19  Te-Te    3.83892 A  
   1   4  Fe-Fe    3.83893 A *
  10  14  Te-Te    3.83893 A  
   1   6  Fe-Fe    3.83893 A *
  17  21  Te-Te    3.83893 A  
   2   5  Fe-Fe    3.83893 A  
   2   3  Fe-Fe    3.83893 A *
   4   6  Fe-Fe    3.83894 A *
   3   5  Fe-Fe    3.83897 A *
  17  21  Te-Te    3.83897 A *
  10  14  Te-Te    3.83897 A *
   8  12  Te-Te    3.83898 A *
  15  19  Te-Te    3.83898 A *
  12  16  Te-Te    3.83970 A *
  12  20  Te-Te    3.83973 A *
  11  15  Te-Te    3.83975 A *
  13  21  Te-Te    3.83977 A *
  10  18  Te-Te    3.83977 A *
   7  15  Te-Te    3.83978 A *
   9  21  Te-Te    3.83978 A *
  10  22  Te-Te    3.83979 A *
  24  26  Zr-Zr    3.83983 A *
  23  25  Zr-Zr    3.83983 A  
  24  26  Zr-Zr    3.83984 A  
  23  25  Zr-Zr    3.83984 A *
  11  19  Te-Te    3.84665 A *
  14  18  Te-Te    3.84665 A *
  14  22  Te-Te    3.84667 A *
   7  19  Te-Te    3.84667 A *
   8  16  Te-Te    3.84671 A *
   8  20  Te-Te    3.84673 A *
  13  17  Te-Te    3.84673 A *
   9  17  Te-Te    3.84675 A *
  18  22  Te-Te    3.85250 A  
   7  11  Te-Te    3.85251 A *
   9  13  Te-Te    3.85257 A  
  16  20  Te-Te    3.85263 A *
  24  30  Zr-Zr    3.89279 A *
  24  28  Zr-Zr    3.89280 A *
  26  28  Zr-Zr    3.89282 A *
  26  30  Zr-Zr    3.89282 A  
  25  27  Zr-Zr    3.89291 A *
  25  29  Zr-Zr    3.89292 A *
  23  29  Zr-Zr    3.89293 A  
  23  27  Zr-Zr    3.89293 A  
  28  30  Zr-Zr    3.95170 A *
  27  29  Zr-Zr    3.95193 A  
  13  20  Te-Te    4.35221 A *
   9  16  Te-Te    4.35221 A *
   7  18  Te-Te    4.35224 A *
  11  22  Te-Te    4.35224 A *
   7  10  Te-Te    4.36186 A *
  15  22  Te-Te    4.36186 A *
  10  11  Te-Te    4.36187 A *
  15  18  Te-Te    4.36187 A *
   9  12  Te-Te    4.36187 A  
  12  13  Te-Te    4.36188 A  
  20  21  Te-Te    4.36190 A  
  16  21  Te-Te    4.36190 A *
  17  20  Te-Te    4.37040 A  
  16  17  Te-Te    4.37041 A  
   8   9  Te-Te    4.37041 A  
   8  13  Te-Te    4.37042 A *
   7  14  Te-Te    4.37049 A *
  11  14  Te-Te    4.37050 A *
  19  22  Te-Te    4.37054 A *
  18  19  Te-Te    4.37055 A *
  10  15  Te-Te    4.37715 A *
  12  21  Te-Te    4.37722 A  
   8  17  Te-Te    4.40626 A  
  14  19  Te-Te    4.40647 A *
   2  19  Fe-Te    4.62574 A *
   2  19  Fe-Te    4.62577 A *
   1  14  Fe-Te    4.62577 A  
   1  14  Fe-Te    4.62580 A *
   2   8  Fe-Te    4.62581 A  
   1  17  Fe-Te    4.62581 A *
   1  17  Fe-Te    4.62583 A *
   2   8  Fe-Te    4.62584 A *
   5  16  Fe-Te    4.62770 A  
   3  20  Fe-Te    4.62770 A  
   1  17  Fe-Te    4.62772 A  
   6  13  Fe-Te    4.62774 A *
   4   9  Fe-Te    4.62775 A  
   2   8  Fe-Te    4.62776 A *
   2  19  Fe-Te    4.62777 A  
   4  22  Fe-Te    4.62779 A *
   1  14  Fe-Te    4.62779 A *
   6  18  Fe-Te    4.62780 A *
   3   7  Fe-Te    4.62781 A *
   5  11  Fe-Te    4.62782 A  
   4  22  Fe-Te    4.63902 A  
   3   7  Fe-Te    4.63903 A  
   6  18  Fe-Te    4.63904 A  
   5  11  Fe-Te    4.63904 A *
   4   9  Fe-Te    4.63907 A *
   6  13  Fe-Te    4.63908 A  
   3  20  Fe-Te    4.63911 A *
   5  16  Fe-Te    4.63911 A *
   5  16  Fe-Te    4.64233 A *
   3  20  Fe-Te    4.64234 A *
   4  22  Fe-Te    4.64235 A *
   6  18  Fe-Te    4.64235 A *
   5  11  Fe-Te    4.64237 A *
   6  13  Fe-Te    4.64237 A *
   3   7  Fe-Te    4.64237 A *
   4   9  Fe-Te    4.64238 A *
   7  27  Te-Zr    4.75746 A *
  11  29  Te-Zr    4.75747 A  
  22  27  Te-Zr    4.75748 A *
  18  29  Te-Zr    4.75748 A *
  20  28  Te-Zr    4.75750 A  
  16  30  Te-Zr    4.75751 A  
   9  28  Te-Zr    4.75753 A  
  13  30  Te-Zr    4.75753 A *
  10  25  Te-Zr    4.79168 A *
  15  23  Te-Zr    4.79168 A *
  15  23  Te-Zr    4.79170 A *
  10  25  Te-Zr    4.79170 A *
  21  26  Te-Zr    4.79170 A *
  12  24  Te-Zr    4.79171 A  
  21  26  Te-Zr    4.79172 A *
  12  24  Te-Zr    4.79173 A *
  17  24  Te-Zr    4.81041 A  
  14  23  Te-Zr    4.81041 A *
   8  26  Te-Zr    4.81043 A *
  19  25  Te-Zr    4.81045 A  
  11  29  Te-Zr    4.81688 A *
  16  30  Te-Zr    4.81688 A *
   7  27  Te-Zr    4.81689 A *
  20  28  Te-Zr    4.81689 A *
  13  30  Te-Zr    4.81690 A *
  18  29  Te-Zr    4.81690 A *
   9  28  Te-Zr    4.81691 A *
  22  27  Te-Zr    4.81691 A *
  21  26  Te-Zr    4.83419 A  
  12  24  Te-Zr    4.83421 A *
  10  25  Te-Zr    4.83423 A *
  15  23  Te-Zr    4.83426 A  
  17  24  Te-Zr    4.84898 A *
   8  26  Te-Zr    4.84900 A  
  17  24  Te-Zr    4.84900 A *
   8  26  Te-Zr    4.84902 A *
  14  23  Te-Zr    4.84902 A *
  14  23  Te-Zr    4.84904 A *
  19  25  Te-Zr    4.84904 A *
  19  25  Te-Zr    4.84906 A *
  13  30  Te-Zr    4.85848 A  
   9  28  Te-Zr    4.85848 A *
  20  28  Te-Zr    4.85850 A *
  16  30  Te-Zr    4.85850 A *
  18  29  Te-Zr    4.85856 A *
   7  27  Te-Zr    4.85856 A  
  22  27  Te-Zr    4.85857 A *
  11  29  Te-Zr    4.85857 A *
   4  29  Fe-Zr    4.97254 A *
   5  28  Fe-Zr    4.97254 A  
   6  27  Fe-Zr    4.97255 A *
   3  30  Fe-Zr    4.97256 A  
   5  27  Fe-Zr    4.97257 A *
   3  29  Fe-Zr    4.97258 A *
   6  28  Fe-Zr    4.97260 A  
   4  30  Fe-Zr    4.97262 A  
   5  24  Fe-Zr    4.97681 A  
   6  26  Fe-Zr    4.97681 A *
   4  25  Fe-Zr    4.97681 A *
   3  24  Fe-Zr    4.97682 A  
   6  25  Fe-Zr    4.97682 A *
   4  26  Fe-Zr    4.97683 A *
   3  23  Fe-Zr    4.97686 A *
   5  23  Fe-Zr    4.97687 A *
   2  27  Fe-Zr    4.99428 A *
   2  29  Fe-Zr    4.99428 A  
   1  29  Fe-Zr    4.99432 A *
   1  30  Fe-Zr    4.99432 A  
   1  28  Fe-Zr    4.99432 A  
   1  27  Fe-Zr    4.99432 A *
   2  28  Fe-Zr    4.99433 A *
   2  30  Fe-Zr    4.99434 A *
   1  26  Fe-Zr    4.99639 A *
   1  26  Fe-Zr    4.99640 A  
   2  23  Fe-Zr    4.99642 A *
   2  23  Fe-Zr    4.99643 A  
   2  24  Fe-Zr    4.99645 A  
   1  25  Fe-Zr    4.99645 A *
   2  24  Fe-Zr    4.99645 A *
   1  25  Fe-Zr    4.99646 A *
   4  23  Fe-Zr    5.01565 A *
   6  23  Fe-Zr    5.01566 A *
   5  26  Fe-Zr    5.01567 A *
   3  26  Fe-Zr    5.01568 A *
   6  24  Fe-Zr    5.01569 A  
   3  25  Fe-Zr    5.01570 A *
   5  25  Fe-Zr    5.01570 A  
   4  24  Fe-Zr    5.01571 A  
   5  24  Fe-Zr    5.01591 A *
   3  24  Fe-Zr    5.01591 A *
   6  26  Fe-Zr    5.01592 A  
   4  26  Fe-Zr    5.01593 A *
   4  25  Fe-Zr    5.01597 A *
   6  25  Fe-Zr    5.01598 A *
   3  23  Fe-Zr    5.01600 A  
   5  23  Fe-Zr    5.01601 A  
   1  30  Fe-Zr    5.03748 A *
   1  28  Fe-Zr    5.03749 A *
   2  27  Fe-Zr    5.03750 A *
   2  29  Fe-Zr    5.03751 A *
   2  28  Fe-Zr    5.03751 A *
   2  30  Fe-Zr    5.03751 A  
   1  29  Fe-Zr    5.03756 A *
   1  27  Fe-Zr    5.03757 A *
  19  24  Te-Zr    5.04860 A *
  14  26  Te-Zr    5.04863 A  
   8  23  Te-Zr    5.04876 A  
  17  25  Te-Zr    5.04877 A *
   6  24  Fe-Zr    5.05448 A *
   5  26  Fe-Zr    5.05448 A  
   4  24  Fe-Zr    5.05448 A *
   3  26  Fe-Zr    5.05449 A *
   4  23  Fe-Zr    5.05451 A *
   6  23  Fe-Zr    5.05453 A *
   3  25  Fe-Zr    5.05455 A *
   5  25  Fe-Zr    5.05456 A *
  12  27  Te-Zr    5.05772 A *
  21  29  Te-Zr    5.05773 A *
  12  29  Te-Zr    5.05773 A  
  21  27  Te-Zr    5.05774 A *
  15  28  Te-Zr    5.05778 A  
  15  30  Te-Zr    5.05778 A  
  10  30  Te-Zr    5.05781 A  
  10  28  Te-Zr    5.05782 A  
   5  28  Fe-Zr    5.05891 A *
   3  30  Fe-Zr    5.05892 A *
   4  30  Fe-Zr    5.05895 A *
   6  28  Fe-Zr    5.05895 A *
   4  29  Fe-Zr    5.05901 A *
   3  29  Fe-Zr    5.05903 A  
   5  27  Fe-Zr    5.05903 A  
   6  27  Fe-Zr    5.05903 A *
  22  26  Te-Zr    5.06464 A *
  18  26  Te-Zr    5.06466 A *
   7  24  Te-Zr    5.06469 A  
  11  24  Te-Zr    5.06469 A *
   9  25  Te-Zr    5.06470 A *
  13  25  Te-Zr    5.06471 A *
  20  23  Te-Zr    5.06472 A *
  16  23  Te-Zr    5.06473 A *
  19  30  Te-Zr    5.08518 A  
  19  28  Te-Zr    5.08519 A *
  14  30  Te-Zr    5.08524 A  
  14  28  Te-Zr    5.08526 A *
   8  29  Te-Zr    5.08532 A  
   8  27  Te-Zr    5.08533 A  
  17  29  Te-Zr    5.08533 A *
  17  27  Te-Zr    5.08536 A *
   7  30  Te-Zr    5.09184 A  
  11  28  Te-Zr    5.09185 A *
  22  30  Te-Zr    5.09185 A  
  16  27  Te-Zr    5.09186 A  
  20  29  Te-Zr    5.09186 A  
   9  29  Te-Zr    5.09187 A *
  18  28  Te-Zr    5.09187 A  
  13  27  Te-Zr    5.09189 A *
  21  23  Te-Zr    5.09227 A *
  12  25  Te-Zr    5.09227 A  
  10  24  Te-Zr    5.09235 A  
  15  26  Te-Zr    5.09236 A *
  22  24  Te-Zr    5.12653 A *
  18  24  Te-Zr    5.12654 A *
  16  25  Te-Zr    5.12655 A *
  20  25  Te-Zr    5.12655 A *
   9  23  Te-Zr    5.12656 A *
  13  23  Te-Zr    5.12656 A *
  11  26  Te-Zr    5.12657 A  
   7  26  Te-Zr    5.12657 A  
   8  19  Te-Te    5.16165 A *
  14  17  Te-Te    5.16171 A *
   8  19  Te-Te    5.16516 A  
  14  17  Te-Te    5.16519 A  
   8  19  Te-Te    5.16521 A *
  14  17  Te-Te    5.16523 A *
  12  15  Te-Te    5.17908 A *
  10  21  Te-Te    5.17912 A *
  10  21  Te-Te    5.18262 A  
  12  15  Te-Te    5.18264 A  
  10  21  Te-Te    5.18265 A *
  12  15  Te-Te    5.18267 A *
   9  22  Te-Te    5.18892 A  
   7  20  Te-Te    5.18894 A  
  13  18  Te-Te    5.18895 A *
  11  16  Te-Te    5.18897 A *
  11  16  Te-Te    5.19481 A *
   7  20  Te-Te    5.19482 A *
  13  18  Te-Te    5.19485 A *
   9  22  Te-Te    5.19485 A *
   9  22  Te-Te    5.21494 A *
  13  18  Te-Te    5.21495 A *
   7  20  Te-Te    5.21496 A *
  11  16  Te-Te    5.21496 A *
   5   9  Fe-Te    5.55548 A  
   3  13  Fe-Te    5.55549 A *
   6  20  Fe-Te    5.55553 A  
   4  16  Fe-Te    5.55555 A  
   4  11  Fe-Te    5.55556 A *
   6   7  Fe-Te    5.55557 A *
   3  18  Fe-Te    5.55561 A *
   5  22  Fe-Te    5.55563 A *
   2  18  Fe-Te    5.56161 A *
   1  16  Fe-Te    5.56161 A *
   1  20  Fe-Te    5.56161 A *
   2  22  Fe-Te    5.56162 A *
   2  13  Fe-Te    5.56165 A  
   2   9  Fe-Te    5.56166 A  
   1  11  Fe-Te    5.56166 A *
   1   7  Fe-Te    5.56167 A *
   5  21  Fe-Te    5.57423 A  
   4  15  Fe-Te    5.57424 A *
   3  21  Fe-Te    5.57424 A *
   6  15  Fe-Te    5.57425 A *
   6  12  Fe-Te    5.57427 A  
   3  10  Fe-Te    5.57427 A *
   5  10  Fe-Te    5.57428 A *
   4  12  Fe-Te    5.57429 A *
   1   8  Fe-Te    5.58891 A  
   2  17  Fe-Te    5.58895 A *
   2  14  Fe-Te    5.58896 A *
   1  19  Fe-Te    5.58906 A *
   5  17  Fe-Te    5.58966 A  
   3  17  Fe-Te    5.58968 A  
   6   8  Fe-Te    5.58972 A  
   4   8  Fe-Te    5.58975 A  
   4  19  Fe-Te    5.58986 A *
   6  19  Fe-Te    5.58986 A *
   3  14  Fe-Te    5.58986 A *
   5  14  Fe-Te    5.58986 A *
   9  20  Te-Te    5.78902 A  
  13  16  Te-Te    5.78903 A *
   7  22  Te-Te    5.78907 A *
  11  18  Te-Te    5.78907 A *
  13  16  Te-Te    5.80332 A *
   9  20  Te-Te    5.80333 A *
  11  18  Te-Te    5.80335 A *
  13  16  Te-Te    5.80336 A *
  11  18  Te-Te    5.80336 A *
   9  20  Te-Te    5.80337 A *
   7  22  Te-Te    5.80337 A *
   7  22  Te-Te    5.80338 A *
  12  17  Te-Te    5.82994 A *
  14  15  Te-Te    5.82994 A *
   8  21  Te-Te    5.82995 A *
  10  19  Te-Te    5.82998 A *
  12  17  Te-Te    5.83304 A  
   8  21  Te-Te    5.83304 A  
  12  17  Te-Te    5.83307 A *
   8  21  Te-Te    5.83308 A *
  14  15  Te-Te    5.83308 A *
  10  19  Te-Te    5.83310 A *
  14  15  Te-Te    5.83311 A *
  10  19  Te-Te    5.83314 A *

Nearest neighbors for each atom (up to 4)

 atom   1 species Fe : neighbors at    2.590   2.590   2.597   2.597 A
         d(center): 9.684 A  angles  :   180.0    95.5    95.5    84.5    84.5    94.8
 atom   2 species Fe : neighbors at    2.590   2.590   2.597   2.597 A
         d(center): 5.016 A  angles  :   180.0    84.5    84.5    95.5    95.5    94.8
 atom   3 species Fe : neighbors at    2.583   2.583   2.591   2.591 A
         d(center): 5.016 A  angles  :   180.0    95.8    84.2    84.2    95.8   180.0
 atom   4 species Fe : neighbors at    2.583   2.583   2.591   2.591 A
         d(center):10.417 A  angles  :   180.0    95.8    84.2    84.2    95.8   180.0
 atom   5 species Fe : neighbors at    2.583   2.583   2.591   2.591 A
         d(center): 5.016 A  angles  :   180.0    95.8    84.2    84.2    95.8   180.0
 atom   6 species Fe : neighbors at    2.583   2.583   2.591   2.591 A
         d(center):10.417 A  angles  :   180.0    95.8    84.2    84.2    95.8   180.0
 atom   7 species Te : neighbors at    2.594   2.597   2.895   2.898 A
         d(center): 2.906 A  angles  :    95.4    71.8   131.8   130.7   130.7    84.4
 atom   8 species Te : neighbors at    2.583   2.583   2.879   2.885 A
         d(center): 5.063 A  angles  :    96.0   131.3    72.1   131.3   130.8    82.1
 atom   9 species Te : neighbors at    2.594   2.597   2.895   2.898 A
         d(center): 8.614 A  angles  :    95.4    71.8   131.8   130.7   130.7    84.4
 atom  10 species Te : neighbors at    2.590   2.591   2.591   2.949 A
         d(center):11.246 A  angles  :    95.6    95.6   130.8    95.6    71.0   131.8
 atom  11 species Te : neighbors at    2.594   2.597   2.895   2.898 A
         d(center): 6.149 A  angles  :    95.4    71.8   131.8   130.7   130.7    84.4
 atom  12 species Te : neighbors at    2.590   2.591   2.591   2.949 A
         d(center): 6.366 A  angles  :    95.6    95.6   130.8    95.6    71.0   131.8
 atom  13 species Te : neighbors at    2.594   2.597   2.895   2.898 A
         d(center):10.187 A  angles  :    95.4    71.8   131.8   130.7   130.7    84.4
 atom  14 species Te : neighbors at    2.583   2.583   2.879   2.885 A
         d(center):11.867 A  angles  :    96.0   131.3    72.1   131.3   130.8    82.1
 atom  15 species Te : neighbors at    2.590   2.591   2.591   2.949 A
         d(center): 4.819 A  angles  :    95.6    95.6   130.8    95.6    71.0   131.8
 atom  16 species Te : neighbors at    2.594   2.597   2.895   2.898 A
         d(center): 7.438 A  angles  :    95.4    71.8   131.8   130.7   130.7    84.4
 atom  17 species Te : neighbors at    2.583   2.583   2.879   2.885 A
         d(center): 9.462 A  angles  :    96.0   131.3    72.1   131.3   130.8    82.1
 atom  18 species Te : neighbors at    2.594   2.597   2.895   2.898 A
         d(center):12.501 A  angles  :    95.4    71.8   131.8   130.7   130.7    84.4
 atom  19 species Te : neighbors at    2.583   2.583   2.879   2.885 A
         d(center): 6.166 A  angles  :    96.0   131.3    72.1   131.3   130.8    82.1
 atom  20 species Te : neighbors at    2.594   2.597   2.895   2.898 A
         d(center): 7.438 A  angles  :    95.4    71.8   131.8   130.7   130.7    84.4
 atom  21 species Te : neighbors at    2.590   2.591   2.591   2.949 A
         d(center):10.198 A  angles  :    95.6    95.6   130.8    95.6    71.0   131.8
 atom  22 species Te : neighbors at    2.594   2.597   2.895   2.898 A
         d(center):12.501 A  angles  :    95.4    71.8   131.8   130.7   130.7    84.4
 atom  23 species Zr : neighbors at    2.879   2.898   2.898   2.906 A
         d(center): 0.042 A  angles  :    83.5    83.5    98.2    83.3   178.3    97.2
 atom  24 species Zr : neighbors at    2.879   2.898   2.898   2.906 A
         d(center): 6.426 A  angles  :    83.5    83.5    98.2    83.3   178.3    97.2
 atom  25 species Zr : neighbors at    2.879   2.898   2.898   2.906 A
         d(center): 3.839 A  angles  :    83.5    83.5    98.2    83.3   178.3    97.2
 atom  26 species Zr : neighbors at    2.879   2.898   2.898   2.906 A
         d(center): 7.537 A  angles  :    83.5    83.5    98.2    83.3   178.3    97.2
 atom  27 species Zr : neighbors at    2.885   2.885   2.895   2.895 A
         d(center): 3.867 A  angles  :    99.6    98.2    83.0    83.0    98.2   178.0
 atom  28 species Zr : neighbors at    2.885   2.885   2.895   2.895 A
         d(center): 7.497 A  angles  :    99.6    98.2    83.0    83.0    98.2   178.0
 atom  29 species Zr : neighbors at    2.885   2.885   2.895   2.895 A
         d(center): 3.867 A  angles  :    99.6    98.2    83.0    83.0    98.2   178.0
 atom  30 species Zr : neighbors at    2.885   2.885   2.895   2.895 A
         d(center): 7.497 A  angles  :    99.6    98.2    83.0    83.0    98.2   178.0
