Distances between atoms, up to dmax=  6.00 A   (* = with lattice translation)
  #1  #2   bond       d
   3  13  Ti-Te    2.74186 A  
   3  10  Ti-Te    2.74186 A  
   3   5  Ti-Te    2.76800 A  
   3  18  Ti-Te    2.76800 A  
   3   6  Ti-Te    2.76800 A  
   3  17  Ti-Te    2.76800 A  
   4  20  Ti-Te    2.77085 A  
   4   7  Ti-Te    2.77085 A  
   4   8  Ti-Te    2.77085 A  
   4  19  Ti-Te    2.77085 A  
   2   8  Ti-Te    2.77757 A  
   2  19  Ti-Te    2.77757 A *
   1  20  Ti-Te    2.77757 A *
   1   7  Ti-Te    2.77757 A  
   4  12  Ti-Te    2.80744 A  
   4  15  Ti-Te    2.80744 A  
   2  11  Ti-Te    2.80878 A *
   2  16  Ti-Te    2.80878 A  
   1  11  Ti-Te    2.80878 A  
   1  16  Ti-Te    2.80878 A *
   1  12  Ti-Te    2.81032 A  
   1  15  Ti-Te    2.81032 A *
   2  12  Ti-Te    2.81032 A *
   2  15  Ti-Te    2.81032 A  
   9  21  Te-Zr    2.84768 A *
  14  22  Te-Zr    2.84768 A *
  10  24  Te-Zr    2.87955 A  
  13  23  Te-Zr    2.87955 A *
  10  26  Te-Zr    2.87955 A *
  13  25  Te-Zr    2.87955 A  
   9  25  Te-Zr    2.88258 A *
  14  26  Te-Zr    2.88258 A  
   9  23  Te-Zr    2.88258 A  
  14  24  Te-Zr    2.88258 A *
  10  28  Te-Zr    2.88284 A  
  13  27  Te-Zr    2.88284 A  
  19  22  Te-Zr    2.88570 A *
   8  21  Te-Zr    2.88570 A *
   7  22  Te-Zr    2.88570 A  
  20  21  Te-Zr    2.88570 A *
   6  22  Te-Zr    2.89455 A  
  17  21  Te-Zr    2.89455 A *
   5  21  Te-Zr    2.89455 A  
  18  22  Te-Zr    2.89455 A *
  19  26  Te-Zr    2.90490 A *
   8  25  Te-Zr    2.90490 A *
   7  24  Te-Zr    2.90490 A  
  20  23  Te-Zr    2.90490 A *
   5  27  Te-Zr    2.93504 A  
  18  28  Te-Zr    2.93504 A  
  17  27  Te-Zr    2.93504 A  
   6  28  Te-Zr    2.93504 A  
  17  25  Te-Zr    2.93793 A *
   6  26  Te-Zr    2.93793 A  
  18  24  Te-Zr    2.93793 A *
   5  23  Te-Zr    2.93793 A  
  15  24  Te-Zr    2.94663 A *
  12  23  Te-Zr    2.94663 A *
  15  26  Te-Zr    2.94663 A  
  12  25  Te-Zr    2.94663 A *
  11  22  Te-Zr    2.95610 A *
  16  21  Te-Zr    2.95610 A *
  16  25  Te-Zr    2.95940 A *
  11  26  Te-Zr    2.95940 A *
  16  23  Te-Zr    2.95940 A *
  11  24  Te-Zr    2.95940 A  
   7  28  Te-Zr    2.96048 A  
  20  27  Te-Zr    2.96048 A *
  19  28  Te-Zr    2.96048 A  
   8  27  Te-Zr    2.96048 A *
  15  28  Te-Zr    3.04120 A  
  12  27  Te-Zr    3.04120 A *
   3  27  Ti-Zr    3.28897 A  
   3  28  Ti-Zr    3.28897 A  
   1  24  Ti-Zr    3.48718 A  
   1  23  Ti-Zr    3.48718 A *
   2  25  Ti-Zr    3.48718 A *
   2  26  Ti-Zr    3.48718 A  
   4  27  Ti-Zr    3.53500 A *
   4  28  Ti-Zr    3.53500 A  
   9  10  Te-Te    3.60827 A  
  13  14  Te-Te    3.60827 A  
  23  27  Zr-Zr    3.66994 A *
  24  28  Zr-Zr    3.66994 A  
  26  28  Zr-Zr    3.66994 A *
  25  27  Zr-Zr    3.66994 A  
  22  26  Zr-Zr    3.74032 A *
  21  25  Zr-Zr    3.74032 A  
  21  23  Zr-Zr    3.74032 A *
  22  24  Zr-Zr    3.74032 A  
   6  13  Te-Te    3.76279 A  
  10  17  Te-Te    3.76279 A  
   5  10  Te-Te    3.76279 A  
  13  18  Te-Te    3.76279 A  
   5  14  Te-Te    3.76397 A *
   9  18  Te-Te    3.76397 A *
  14  17  Te-Te    3.76397 A *
   6   9  Te-Te    3.76397 A *
  10  18  Te-Te    3.79286 A *
   5  13  Te-Te    3.79286 A *
   6  10  Te-Te    3.79286 A *
  13  17  Te-Te    3.79286 A *
   7  19  Te-Te    3.79580 A *
   8  20  Te-Te    3.79580 A *
   8  16  Te-Te    3.81693 A *
  11  19  Te-Te    3.81693 A *
   7  11  Te-Te    3.81693 A *
  16  20  Te-Te    3.81693 A *
   7   8  Te-Te    3.81816 A  
  19  20  Te-Te    3.81816 A  
   5  17  Te-Te    3.85845 A *
   6  18  Te-Te    3.85845 A *
   5   6  Te-Te    3.87484 A  
  17  18  Te-Te    3.87484 A  
  23  25  Zr-Zr    3.88120 A *
  24  26  Zr-Zr    3.88120 A *
   9  17  Te-Te    3.89061 A  
   6  14  Te-Te    3.89061 A  
  14  18  Te-Te    3.89061 A  
   5   9  Te-Te    3.89061 A  
   7  15  Te-Te    3.90138 A  
  12  20  Te-Te    3.90138 A  
   8  12  Te-Te    3.90138 A  
  15  19  Te-Te    3.90138 A  
  11  20  Te-Te    3.90269 A *
   7  16  Te-Te    3.90269 A *
   8  11  Te-Te    3.90269 A *
  16  19  Te-Te    3.90269 A *
   1   4  Ti-Ti    3.90614 A *
   1   4  Ti-Ti    3.90614 A  
   1   2  Ti-Ti    3.90614 A *
   1   2  Ti-Ti    3.90614 A *
   2   4  Ti-Ti    3.90614 A *
   2   4  Ti-Ti    3.90614 A  
  11  15  Te-Te    3.90636 A *
  12  16  Te-Te    3.90636 A *
  11  15  Te-Te    3.90636 A *
  12  16  Te-Te    3.90636 A *
  21  27  Zr-Zr    3.90689 A  
  22  28  Zr-Zr    3.90689 A *
  22  28  Zr-Zr    3.90689 A  
  21  27  Zr-Zr    3.90689 A *
   9  13  Te-Te    3.90768 A *
  10  14  Te-Te    3.90768 A *
  10  14  Te-Te    3.90768 A *
   9  13  Te-Te    3.90768 A *
  12  20  Te-Te    3.91507 A *
   7  15  Te-Te    3.91507 A *
   8  12  Te-Te    3.91507 A *
  15  19  Te-Te    3.91507 A *
   6  14  Te-Te    3.92351 A *
   9  17  Te-Te    3.92351 A *
   5   9  Te-Te    3.92351 A *
  14  18  Te-Te    3.92351 A *
  23  25  Zr-Zr    3.93108 A *
  24  26  Zr-Zr    3.93108 A *
   6  18  Te-Te    3.95384 A  
   5  17  Te-Te    3.95384 A  
   8  15  Te-Te    3.98722 A  
  12  19  Te-Te    3.98722 A  
   7  12  Te-Te    3.98722 A  
  15  20  Te-Te    3.98722 A  
   8  16  Te-Te    3.99716 A  
  11  19  Te-Te    3.99716 A  
   7  11  Te-Te    3.99716 A  
  16  20  Te-Te    3.99716 A  
   7  19  Te-Te    4.01649 A  
   8  20  Te-Te    4.01649 A  
   5  13  Te-Te    4.02501 A  
  10  18  Te-Te    4.02501 A  
   6  10  Te-Te    4.02501 A  
  13  17  Te-Te    4.02501 A  
  11  12  Te-Te    4.03914 A  
  15  16  Te-Te    4.03914 A  
  21  25  Zr-Zr    4.07516 A *
  22  26  Zr-Zr    4.07516 A  
  22  24  Zr-Zr    4.07516 A *
  21  23  Zr-Zr    4.07516 A  
  23  27  Zr-Zr    4.14681 A  
  24  28  Zr-Zr    4.14681 A *
  25  27  Zr-Zr    4.14681 A *
  26  28  Zr-Zr    4.14681 A  
  11  18  Te-Te    4.23005 A *
   5  16  Te-Te    4.23005 A *
   6  11  Te-Te    4.23005 A *
  16  17  Te-Te    4.23005 A *
   6  15  Te-Te    4.23911 A  
  12  17  Te-Te    4.23911 A *
  15  18  Te-Te    4.23911 A  
   5  12  Te-Te    4.23911 A *
  14  15  Te-Te    4.29819 A  
   9  12  Te-Te    4.29819 A *
   6   7  Te-Te    4.32196 A  
  17  20  Te-Te    4.32196 A *
  18  19  Te-Te    4.32196 A  
   5   8  Te-Te    4.32196 A *
  10  11  Te-Te    4.34793 A  
  13  16  Te-Te    4.34793 A *
   7  14  Te-Te    4.37991 A *
   9  20  Te-Te    4.37991 A *
  14  19  Te-Te    4.37991 A *
   8   9  Te-Te    4.37991 A *
  10  19  Te-Te    4.50889 A  
   8  13  Te-Te    4.50889 A *
   7  10  Te-Te    4.50889 A  
  13  20  Te-Te    4.50889 A *
   2   7  Ti-Te    4.73997 A  
   2  20  Ti-Te    4.73997 A *
   1   8  Ti-Te    4.73997 A  
   1  19  Ti-Te    4.73997 A *
   3   9  Ti-Te    4.74105 A  
   3  14  Ti-Te    4.74105 A  
   2   7  Ti-Te    4.74782 A *
   2  20  Ti-Te    4.74782 A *
   1   8  Ti-Te    4.74782 A *
   1  19  Ti-Te    4.74782 A *
   3   9  Ti-Te    4.75007 A *
   3  14  Ti-Te    4.75007 A *
   3   9  Ti-Te    4.75007 A *
   3  14  Ti-Te    4.75007 A *
  18  26  Te-Zr    4.76772 A *
   5  25  Te-Zr    4.76772 A  
  17  23  Te-Zr    4.76772 A *
   6  24  Te-Zr    4.76772 A  
  16  27  Te-Zr    4.77532 A *
  11  28  Te-Zr    4.77532 A  
  15  22  Te-Zr    4.78447 A *
  12  21  Te-Zr    4.78447 A *
   4  11  Ti-Te    4.78658 A *
   4  16  Ti-Te    4.78658 A *
   4  11  Ti-Te    4.78658 A *
   4  16  Ti-Te    4.78658 A *
   9  27  Te-Zr    4.79054 A *
  14  28  Te-Zr    4.79054 A *
   9  27  Te-Zr    4.79054 A *
  14  28  Te-Zr    4.79054 A *
   7  26  Te-Zr    4.83322 A *
  20  25  Te-Zr    4.83322 A *
  19  24  Te-Zr    4.83322 A *
   8  23  Te-Zr    4.83322 A *
   4  11  Ti-Te    4.83560 A  
   4  16  Ti-Te    4.83560 A  
   1   8  Ti-Te    4.83776 A *
   1  19  Ti-Te    4.83776 A  
   2  20  Ti-Te    4.83776 A  
   2   7  Ti-Te    4.83776 A *
  18  26  Te-Zr    4.85869 A *
   5  25  Te-Zr    4.85869 A *
   6  24  Te-Zr    4.85869 A *
  17  23  Te-Zr    4.85869 A *
  10  22  Te-Zr    4.89178 A *
  13  21  Te-Zr    4.89178 A *
  10  22  Te-Zr    4.89931 A *
  13  21  Te-Zr    4.89931 A  
  10  22  Te-Zr    4.89931 A  
  13  21  Te-Zr    4.89931 A *
   8  23  Te-Zr    4.90176 A *
  19  24  Te-Zr    4.90176 A  
   7  26  Te-Zr    4.90176 A *
  20  25  Te-Zr    4.90176 A *
  15  22  Te-Zr    4.90467 A  
  12  21  Te-Zr    4.90467 A *
  12  21  Te-Zr    4.90467 A *
  15  22  Te-Zr    4.90467 A *
   6  24  Te-Zr    4.91673 A *
  17  23  Te-Zr    4.91673 A  
   5  25  Te-Zr    4.91673 A *
  18  26  Te-Zr    4.91673 A  
  16  27  Te-Zr    4.94418 A *
  11  28  Te-Zr    4.94418 A *
  11  28  Te-Zr    4.94418 A *
  16  27  Te-Zr    4.94418 A *
   7  26  Te-Zr    4.97044 A  
  20  25  Te-Zr    4.97044 A *
  19  24  Te-Zr    4.97044 A *
   8  23  Te-Zr    4.97044 A *
   9  27  Te-Zr    4.99766 A  
  14  28  Te-Zr    4.99766 A  
   3  23  Ti-Zr    5.05588 A *
   3  24  Ti-Zr    5.05588 A  
   3  25  Ti-Zr    5.05588 A  
   3  26  Ti-Zr    5.05588 A *
   3  21  Ti-Zr    5.12751 A *
   3  22  Ti-Zr    5.12751 A  
   3  21  Ti-Zr    5.12751 A  
   3  22  Ti-Zr    5.12751 A *
   4  23  Ti-Zr    5.15859 A *
   4  24  Ti-Zr    5.15859 A  
   4  26  Ti-Zr    5.15859 A *
   4  25  Ti-Zr    5.15859 A *
   1  27  Ti-Zr    5.16698 A *
   1  28  Ti-Zr    5.16698 A  
   2  27  Ti-Zr    5.16698 A *
   2  28  Ti-Zr    5.16698 A *
   2  21  Ti-Zr    5.18570 A *
   2  22  Ti-Zr    5.18570 A *
   1  21  Ti-Zr    5.18570 A *
   1  22  Ti-Zr    5.18570 A  
   3  24  Ti-Zr    5.21311 A *
   3  23  Ti-Zr    5.21311 A  
   3  25  Ti-Zr    5.21311 A *
   3  26  Ti-Zr    5.21311 A  
   1  25  Ti-Zr    5.22695 A *
   1  26  Ti-Zr    5.22695 A *
   2  23  Ti-Zr    5.22695 A *
   2  24  Ti-Zr    5.22695 A *
   4  21  Ti-Zr    5.24309 A *
   4  22  Ti-Zr    5.24309 A  
   4  21  Ti-Zr    5.24309 A *
   4  22  Ti-Zr    5.24309 A *
   2  23  Ti-Zr    5.24555 A *
   2  24  Ti-Zr    5.24555 A *
   1  25  Ti-Zr    5.24555 A *
   1  26  Ti-Zr    5.24555 A *
  10  13  Te-Te    5.24686 A *
  10  13  Te-Te    5.24686 A *
  10  23  Te-Zr    5.26265 A  
  13  24  Te-Zr    5.26265 A *
  13  26  Te-Zr    5.26265 A  
  10  25  Te-Zr    5.26265 A *
   2  22  Ti-Zr    5.29987 A  
   2  21  Ti-Zr    5.29987 A *
   1  21  Ti-Zr    5.29987 A *
   1  22  Ti-Zr    5.29987 A *
   4  23  Ti-Zr    5.31279 A *
   4  24  Ti-Zr    5.31279 A *
   4  25  Ti-Zr    5.31279 A *
   4  26  Ti-Zr    5.31279 A  
   5  28  Te-Zr    5.32389 A  
  18  27  Te-Zr    5.32389 A  
  17  28  Te-Zr    5.32389 A  
   6  27  Te-Zr    5.32389 A  
  13  28  Te-Zr    5.32536 A  
  10  27  Te-Zr    5.32536 A  
   6  25  Te-Zr    5.32641 A  
  17  26  Te-Zr    5.32641 A *
   5  24  Te-Zr    5.32641 A  
  18  23  Te-Zr    5.32641 A *
  14  25  Te-Zr    5.33274 A  
   9  26  Te-Zr    5.33274 A *
   9  24  Te-Zr    5.33274 A  
  14  23  Te-Zr    5.33274 A *
   9  22  Te-Zr    5.34490 A *
  14  21  Te-Zr    5.34490 A *
   6  21  Te-Zr    5.35158 A  
  17  22  Te-Zr    5.35158 A *
   5  22  Te-Zr    5.35158 A  
  18  21  Te-Zr    5.35158 A *
   1  27  Ti-Zr    5.36755 A *
   1  28  Ti-Zr    5.36755 A *
   2  27  Ti-Zr    5.36755 A *
   2  28  Ti-Zr    5.36755 A  
   8  19  Te-Te    5.38391 A *
   7  20  Te-Te    5.38391 A *
   9  14  Te-Te    5.38977 A *
   9  14  Te-Te    5.38977 A *
   9  14  Te-Te    5.40563 A *
   6  17  Te-Te    5.43682 A *
   5  18  Te-Te    5.43682 A *
   6  17  Te-Te    5.46828 A *
   5  18  Te-Te    5.46828 A *
  10  13  Te-Te    5.48373 A  
  11  16  Te-Te    5.53295 A *
   8  22  Te-Zr    5.53445 A  
  19  21  Te-Zr    5.53445 A *
  20  22  Te-Zr    5.53445 A *
   7  21  Te-Zr    5.53445 A *
   5  18  Te-Te    5.53599 A  
   6  17  Te-Te    5.53599 A  
   7  20  Te-Te    5.54171 A  
   8  19  Te-Te    5.54171 A  
   8  19  Te-Te    5.55514 A *
   7  20  Te-Te    5.55514 A *
  16  22  Te-Zr    5.57067 A *
  11  21  Te-Zr    5.57067 A *
   8  26  Te-Zr    5.59573 A  
  19  25  Te-Zr    5.59573 A *
  20  24  Te-Zr    5.59573 A *
   7  23  Te-Zr    5.59573 A *
  11  25  Te-Zr    5.59833 A *
  16  26  Te-Zr    5.59833 A  
  11  23  Te-Zr    5.59833 A *
  16  24  Te-Zr    5.59833 A *
  12  24  Te-Zr    5.60661 A  
  15  23  Te-Zr    5.60661 A *
  12  26  Te-Zr    5.60661 A *
  15  25  Te-Zr    5.60661 A *
  12  28  Te-Zr    5.61310 A  
  15  27  Te-Zr    5.61310 A *
   3  15  Ti-Te    5.61343 A  
   3  12  Ti-Te    5.61343 A *
  12  15  Te-Te    5.61488 A  
  11  16  Te-Te    5.61755 A *
  11  16  Te-Te    5.61755 A *
   7  27  Te-Zr    5.61990 A *
  20  28  Te-Zr    5.61990 A  
   8  28  Te-Zr    5.61990 A  
  19  27  Te-Zr    5.61990 A *
  12  15  Te-Te    5.62064 A *
  12  15  Te-Te    5.62064 A *
   2   6  Ti-Te    5.71331 A  
   2  17  Ti-Te    5.71331 A *
   1  18  Ti-Te    5.71331 A *
   1   5  Ti-Te    5.71331 A *
   3   7  Ti-Te    5.72543 A  
   3  20  Ti-Te    5.72543 A *
   3  19  Ti-Te    5.72543 A  
   3   8  Ti-Te    5.72543 A *
   4   5  Ti-Te    5.73706 A *
   4  18  Ti-Te    5.73706 A  
   4  17  Ti-Te    5.73706 A *
   4   6  Ti-Te    5.73706 A  
   6  19  Te-Te    5.77280 A *
   8  17  Te-Te    5.77280 A *
   7  18  Te-Te    5.77280 A *
   5  20  Te-Te    5.77280 A *
   2   9  Ti-Te    5.79243 A *
   2  14  Ti-Te    5.79243 A  
   1   9  Ti-Te    5.79243 A *
   1  14  Ti-Te    5.79243 A *
  11  14  Te-Te    5.80320 A *
   9  16  Te-Te    5.80320 A *
  10  15  Te-Te    5.81670 A *
  12  13  Te-Te    5.81670 A *
  10  15  Te-Te    5.81670 A *
  12  13  Te-Te    5.81670 A *
   9  16  Te-Te    5.83638 A *
  11  14  Te-Te    5.83638 A *
  11  14  Te-Te    5.83638 A *
   9  16  Te-Te    5.83638 A *
   1  10  Ti-Te    5.83723 A  
   1  13  Ti-Te    5.83723 A *
   2  10  Ti-Te    5.83723 A *
   2  13  Ti-Te    5.83723 A *
   6  19  Te-Te    5.83870 A *
   8  17  Te-Te    5.83870 A *
   7  18  Te-Te    5.83870 A *
   5  20  Te-Te    5.83870 A *
   7  18  Te-Te    5.87877 A  
   5  20  Te-Te    5.87877 A *
   6  19  Te-Te    5.87877 A  
   8  17  Te-Te    5.87877 A *
   4  13  Ti-Te    5.89141 A *
   4  10  Ti-Te    5.89141 A  
  10  15  Te-Te    5.92220 A  
  12  13  Te-Te    5.92220 A *

Nearest neighbors for each atom (up to 4)

 atom   1 species Ti : neighbors at    2.778   2.778   2.809   2.809 A
         d(center):10.946 A  angles  :   180.0    91.4    88.6    88.6    91.4   180.0
 atom   2 species Ti : neighbors at    2.778   2.778   2.809   2.809 A
         d(center):10.946 A  angles  :   180.0    91.4    88.6    88.6    91.4   180.0
 atom   3 species Ti : neighbors at    2.742   2.742   2.768   2.768 A
         d(center): 5.184 A  angles  :   180.0    93.9    86.1    86.1    93.9   180.0
 atom   4 species Ti : neighbors at    2.771   2.771   2.771   2.771 A
         d(center):10.946 A  angles  :   180.0    92.9    87.1    87.1    92.9   180.0
 atom   5 species Te : neighbors at    2.768   2.895   2.935   2.938 A
         d(center): 2.913 A  angles  :   129.8    70.4   132.0    84.2    88.6    89.8
 atom   6 species Te : neighbors at    2.768   2.895   2.935   2.938 A
         d(center): 5.450 A  angles  :   129.8    70.4   132.0    84.2    88.6    89.8
 atom   7 species Te : neighbors at    2.771   2.778   2.886   2.905 A
         d(center): 8.930 A  angles  :    89.5   135.9   130.7   132.6    75.7    80.5
 atom   8 species Te : neighbors at    2.771   2.778   2.886   2.905 A
         d(center):11.994 A  angles  :    89.5   135.9   130.7   132.6    75.7    80.5
 atom   9 species Te : neighbors at    2.848   2.883   2.883   3.608 A
         d(center): 6.266 A  angles  :    81.5    81.5   166.9    86.0   107.8   107.8
 atom  10 species Te : neighbors at    2.742   2.880   2.880   2.883 A
         d(center): 6.636 A  angles  :   128.1   128.1    71.5    84.7    79.1    79.1
 atom  11 species Te : neighbors at    2.809   2.809   2.956   2.959 A
         d(center):10.462 A  angles  :    88.1   133.6    74.3   133.6   129.9    87.1
 atom  12 species Te : neighbors at    2.807   2.810   2.810   2.947 A
         d(center):12.726 A  angles  :    88.1    88.1   134.8    88.0    74.5   131.3
 atom  13 species Te : neighbors at    2.742   2.880   2.880   2.883 A
         d(center): 4.975 A  angles  :   128.1   128.1    71.5    84.7    79.1    79.1
 atom  14 species Te : neighbors at    2.848   2.883   2.883   3.608 A
         d(center): 7.710 A  angles  :    81.5    81.5   166.9    86.0   107.8   107.8
 atom  15 species Te : neighbors at    2.807   2.810   2.810   2.947 A
         d(center): 9.666 A  angles  :    88.1    88.1   134.8    88.0    74.5   131.3
 atom  16 species Te : neighbors at    2.809   2.809   2.956   2.959 A
         d(center):13.302 A  angles  :    88.1   133.6    74.3   133.6   129.9    87.1
 atom  17 species Te : neighbors at    2.768   2.895   2.935   2.938 A
         d(center): 6.275 A  angles  :   129.8    70.4   132.0    84.2    88.6    89.8
 atom  18 species Te : neighbors at    2.768   2.895   2.935   2.938 A
         d(center): 7.784 A  angles  :   129.8    70.4   132.0    84.2    88.6    89.8
 atom  19 species Te : neighbors at    2.771   2.778   2.886   2.905 A
         d(center):10.542 A  angles  :    89.5   135.9   130.7   132.6    75.7    80.5
 atom  20 species Te : neighbors at    2.771   2.778   2.886   2.905 A
         d(center):13.237 A  angles  :    89.5   135.9   130.7   132.6    75.7    80.5
 atom  21 species Zr : neighbors at    2.848   2.886   2.886   2.895 A
         d(center): 0.125 A  angles  :    99.6    99.6    86.2    82.2   174.2    96.8
 atom  22 species Zr : neighbors at    2.848   2.886   2.886   2.895 A
         d(center): 6.729 A  angles  :    99.6    99.6    86.2    82.2   174.2    96.8
 atom  23 species Zr : neighbors at    2.880   2.883   2.905   2.938 A
         d(center): 3.998 A  angles  :    85.4   102.4    81.4    98.4    83.9   175.7
 atom  24 species Zr : neighbors at    2.880   2.883   2.905   2.938 A
         d(center): 7.745 A  angles  :    85.4   102.4    81.4    98.4    83.9   175.7
 atom  25 species Zr : neighbors at    2.880   2.883   2.905   2.938 A
         d(center): 3.817 A  angles  :    85.4   102.4    81.4    98.4    83.9   175.7
 atom  26 species Zr : neighbors at    2.880   2.883   2.905   2.938 A
         d(center): 7.836 A  angles  :    85.4   102.4    81.4    98.4    83.9   175.7
 atom  27 species Zr : neighbors at    2.883   2.935   2.935   2.960 A
         d(center): 3.911 A  angles  :    87.5    87.5   101.0    84.7   171.4    94.3
 atom  28 species Zr : neighbors at    2.883   2.935   2.935   2.960 A
         d(center): 7.752 A  angles  :    87.5    87.5   101.0    84.7   171.4    94.3
