Distances between atoms, up to dmax=  6.00 A   (* = with lattice translation)
  #1  #2   bond       d
   1   6  Co-Te    2.65847 A  
   1  10  Co-Te    2.65847 A *
   1  17  Co-Te    2.65848 A *
   1  13  Co-Te    2.65848 A  
   2  11  Co-Te    2.65853 A  
   2  15  Co-Te    2.65854 A  
   2   8  Co-Te    2.65855 A  
   2   4  Co-Te    2.65855 A  
   1   9  Co-Te    2.66869 A *
   1  14  Co-Te    2.66870 A  
   2  16  Co-Te    2.66875 A  
   2   3  Co-Te    2.66876 A  
   5  22  Te-Zr    2.86390 A  
   5  20  Te-Zr    2.86391 A  
  18  21  Te-Zr    2.86391 A *
  18  19  Te-Zr    2.86391 A *
   7  19  Te-Zr    2.86395 A *
   7  21  Te-Zr    2.86395 A  
  12  20  Te-Zr    2.86395 A *
  12  22  Te-Zr    2.86395 A *
   5  26  Te-Zr    2.87568 A  
  18  25  Te-Zr    2.87569 A *
  12  24  Te-Zr    2.87571 A  
   7  23  Te-Zr    2.87571 A *
  17  24  Te-Zr    2.89525 A *
  13  24  Te-Zr    2.89525 A  
   6  23  Te-Zr    2.89527 A *
  10  23  Te-Zr    2.89527 A *
   8  26  Te-Zr    2.89529 A  
   4  26  Te-Zr    2.89529 A  
  11  25  Te-Zr    2.89531 A  
  15  25  Te-Zr    2.89531 A  
   9  24  Te-Zr    2.89693 A *
  14  23  Te-Zr    2.89694 A *
  16  26  Te-Zr    2.89696 A  
   3  25  Te-Zr    2.89698 A  
   6  19  Te-Zr    2.90183 A *
  10  21  Te-Zr    2.90183 A *
  17  20  Te-Zr    2.90183 A *
  13  22  Te-Zr    2.90183 A *
  11  21  Te-Zr    2.90184 A *
  15  19  Te-Zr    2.90184 A *
   8  22  Te-Zr    2.90184 A  
   4  20  Te-Zr    2.90184 A  
  13  26  Te-Zr    2.91538 A  
   4  24  Te-Zr    2.91538 A  
  17  26  Te-Zr    2.91538 A  
   8  24  Te-Zr    2.91538 A *
  15  23  Te-Zr    2.91538 A *
  10  25  Te-Zr    2.91539 A *
  11  23  Te-Zr    2.91539 A  
   6  25  Te-Zr    2.91539 A *
  14  19  Te-Zr    2.92012 A *
  14  21  Te-Zr    2.92013 A *
   3  21  Te-Zr    2.92013 A  
   3  19  Te-Zr    2.92013 A  
   9  20  Te-Zr    2.92014 A *
   9  22  Te-Zr    2.92014 A  
  16  22  Te-Zr    2.92014 A *
  16  20  Te-Zr    2.92014 A *
   1  24  Co-Zr    3.23308 A  
   1  23  Co-Zr    3.23310 A *
   2  26  Co-Zr    3.23317 A  
   2  25  Co-Zr    3.23318 A  
   5  10  Te-Te    3.58383 A  
   5   6  Te-Te    3.58383 A  
  13  18  Te-Te    3.58384 A  
  17  18  Te-Te    3.58384 A  
  12  15  Te-Te    3.58387 A *
  11  12  Te-Te    3.58387 A  
   4   7  Te-Te    3.58390 A *
   7   8  Te-Te    3.58390 A  
  10  17  Te-Te    3.59660 A  
   6  13  Te-Te    3.59661 A  
   8  15  Te-Te    3.59673 A  
   4  11  Te-Te    3.59674 A  
   6   9  Te-Te    3.63006 A *
   9  10  Te-Te    3.63007 A  
  14  17  Te-Te    3.63007 A *
  13  14  Te-Te    3.63008 A  
  11  16  Te-Te    3.63018 A  
  15  16  Te-Te    3.63019 A  
   3   8  Te-Te    3.63020 A  
   3   4  Te-Te    3.63020 A  
   9  18  Te-Te    3.63282 A *
   5  14  Te-Te    3.63283 A *
   7  16  Te-Te    3.63290 A *
   3  12  Te-Te    3.63291 A *
  20  22  Zr-Zr    3.76786 A  
  19  21  Zr-Zr    3.76790 A *
  22  24  Zr-Zr    3.83124 A *
  20  24  Zr-Zr    3.83124 A *
  20  26  Zr-Zr    3.83126 A  
  22  26  Zr-Zr    3.83126 A  
  21  23  Zr-Zr    3.83126 A *
  19  23  Zr-Zr    3.83126 A  
  19  25  Zr-Zr    3.83126 A *
  21  25  Zr-Zr    3.83126 A *
   4   8  Te-Te    3.86787 A *
  11  15  Te-Te    3.86788 A *
  13  17  Te-Te    3.86793 A  
   6  10  Te-Te    3.86795 A  
   8  12  Te-Te    3.88337 A *
   4  12  Te-Te    3.88337 A  
   5  17  Te-Te    3.88338 A  
   5  13  Te-Te    3.88338 A  
   7  11  Te-Te    3.88340 A *
   7  15  Te-Te    3.88340 A  
   6  18  Te-Te    3.88341 A  
  10  18  Te-Te    3.88341 A  
   3  11  Te-Te    3.88539 A *
   3  15  Te-Te    3.88539 A *
   4  16  Te-Te    3.88540 A *
   8  16  Te-Te    3.88540 A *
   6  14  Te-Te    3.88545 A *
  10  14  Te-Te    3.88545 A *
   9  13  Te-Te    3.88545 A *
   9  17  Te-Te    3.88545 A *
  14  18  Te-Te    3.89215 A  
   5   9  Te-Te    3.89215 A  
   5   9  Te-Te    3.89215 A *
  14  18  Te-Te    3.89215 A *
   3   7  Te-Te    3.89215 A  
   3   7  Te-Te    3.89215 A *
  12  16  Te-Te    3.89215 A *
  12  16  Te-Te    3.89215 A  
  23  25  Zr-Zr    3.89257 A *
  24  26  Zr-Zr    3.89257 A  
  23  25  Zr-Zr    3.89257 A  
  24  26  Zr-Zr    3.89257 A *
   9  17  Te-Te    3.89890 A  
   9  13  Te-Te    3.89890 A *
  10  14  Te-Te    3.89890 A *
   6  14  Te-Te    3.89890 A  
   8  16  Te-Te    3.89895 A  
   4  16  Te-Te    3.89895 A  
   3  15  Te-Te    3.89896 A  
   3  11  Te-Te    3.89896 A  
  10  18  Te-Te    3.90047 A *
   6  18  Te-Te    3.90047 A *
   7  15  Te-Te    3.90047 A *
   7  11  Te-Te    3.90047 A *
   5  13  Te-Te    3.90049 A *
   5  17  Te-Te    3.90050 A *
   4  12  Te-Te    3.90051 A *
   8  12  Te-Te    3.90051 A *
   6  10  Te-Te    3.91591 A *
  13  17  Te-Te    3.91592 A *
  11  15  Te-Te    3.91597 A  
   4   8  Te-Te    3.91599 A  
  21  25  Zr-Zr    3.95295 A  
  19  25  Zr-Zr    3.95295 A  
  19  23  Zr-Zr    3.95295 A *
  21  23  Zr-Zr    3.95295 A *
  22  26  Zr-Zr    3.95296 A *
  20  26  Zr-Zr    3.95296 A *
  20  24  Zr-Zr    3.95297 A  
  22  24  Zr-Zr    3.95297 A *
  19  21  Zr-Zr    4.01596 A  
  20  22  Zr-Zr    4.01600 A *
   9  16  Te-Te    4.24036 A *
   3  14  Te-Te    4.24037 A *
   4   9  Te-Te    4.26666 A *
   8   9  Te-Te    4.26666 A  
  14  15  Te-Te    4.26667 A *
  11  14  Te-Te    4.26667 A *
  13  16  Te-Te    4.26668 A  
  16  17  Te-Te    4.26668 A  
   3  10  Te-Te    4.26669 A *
   3   6  Te-Te    4.26669 A *
   5   8  Te-Te    4.31155 A  
   4   5  Te-Te    4.31155 A  
  11  18  Te-Te    4.31156 A *
   6   7  Te-Te    4.31156 A *
  15  18  Te-Te    4.31156 A *
   7  10  Te-Te    4.31157 A *
  12  17  Te-Te    4.31157 A *
  12  13  Te-Te    4.31157 A  
   7  18  Te-Te    4.31408 A *
   5  12  Te-Te    4.31411 A *
   8  17  Te-Te    4.31416 A  
   4  13  Te-Te    4.31416 A  
   6  11  Te-Te    4.31419 A *
  10  15  Te-Te    4.31419 A *
   1   5  Co-Te    4.70481 A *
   2  12  Co-Te    4.70481 A *
   1   5  Co-Te    4.70481 A  
   2  12  Co-Te    4.70481 A  
   1  18  Co-Te    4.70482 A  
   2   7  Co-Te    4.70483 A *
   1  18  Co-Te    4.70483 A *
   2   7  Co-Te    4.70483 A  
   1  18  Co-Te    4.71419 A *
   2   7  Co-Te    4.71422 A *
   1   5  Co-Te    4.71423 A *
   2  12  Co-Te    4.71425 A *
  17  22  Te-Zr    4.81407 A *
  13  20  Te-Zr    4.81407 A *
   6  21  Te-Zr    4.81408 A *
  10  19  Te-Zr    4.81408 A *
   8  20  Te-Zr    4.81410 A  
   4  22  Te-Zr    4.81410 A  
  11  19  Te-Zr    4.81411 A *
  15  21  Te-Zr    4.81411 A *
  14  25  Te-Zr    4.82531 A *
  14  25  Te-Zr    4.82532 A *
   9  26  Te-Zr    4.82532 A *
   9  26  Te-Zr    4.82532 A  
   3  23  Te-Zr    4.82533 A *
   3  23  Te-Zr    4.82534 A  
  16  24  Te-Zr    4.82534 A  
  16  24  Te-Zr    4.82534 A *
  18  23  Te-Zr    4.82644 A *
   5  24  Te-Zr    4.82644 A *
   7  25  Te-Zr    4.82646 A *
  12  26  Te-Zr    4.82648 A *
  17  22  Te-Zr    4.85938 A  
  13  20  Te-Zr    4.85939 A  
  10  19  Te-Zr    4.85939 A *
   6  21  Te-Zr    4.85939 A *
   8  20  Te-Zr    4.85940 A *
   4  22  Te-Zr    4.85940 A *
  15  21  Te-Zr    4.85942 A  
  11  19  Te-Zr    4.85942 A  
   5  24  Te-Zr    4.86523 A *
   5  24  Te-Zr    4.86523 A  
  12  26  Te-Zr    4.86525 A *
  18  23  Te-Zr    4.86525 A *
  12  26  Te-Zr    4.86525 A  
  18  23  Te-Zr    4.86525 A *
   7  25  Te-Zr    4.86526 A *
   7  25  Te-Zr    4.86526 A  
   3  23  Te-Zr    4.87704 A *
  16  24  Te-Zr    4.87705 A *
   9  26  Te-Zr    4.87707 A *
  14  25  Te-Zr    4.87707 A *
  15  21  Te-Zr    4.89427 A *
  11  19  Te-Zr    4.89428 A *
   4  22  Te-Zr    4.89429 A *
   8  20  Te-Zr    4.89429 A *
  10  19  Te-Zr    4.89429 A *
   6  21  Te-Zr    4.89429 A *
  13  20  Te-Zr    4.89430 A *
  17  22  Te-Zr    4.89431 A *
   1  19  Co-Zr    5.04078 A *
   1  21  Co-Zr    5.04078 A *
   1  22  Co-Zr    5.04079 A *
   1  20  Co-Zr    5.04079 A *
   2  21  Co-Zr    5.04085 A *
   2  19  Co-Zr    5.04085 A *
   2  22  Co-Zr    5.04086 A  
   2  20  Co-Zr    5.04086 A  
   1  25  Co-Zr    5.06919 A *
   1  25  Co-Zr    5.06919 A *
   1  26  Co-Zr    5.06920 A  
   1  26  Co-Zr    5.06921 A *
   2  23  Co-Zr    5.06925 A  
   2  23  Co-Zr    5.06925 A *
   2  24  Co-Zr    5.06926 A  
   2  24  Co-Zr    5.06926 A *
   1  20  Co-Zr    5.08845 A  
   1  22  Co-Zr    5.08845 A *
   1  21  Co-Zr    5.08846 A *
   1  19  Co-Zr    5.08846 A *
   2  22  Co-Zr    5.08851 A *
   2  20  Co-Zr    5.08851 A *
   2  19  Co-Zr    5.08851 A  
   2  21  Co-Zr    5.08851 A  
  13  25  Te-Zr    5.15249 A *
  17  25  Te-Zr    5.15249 A *
  10  26  Te-Zr    5.15250 A  
   6  26  Te-Zr    5.15250 A  
   4  23  Te-Zr    5.15262 A  
   8  23  Te-Zr    5.15262 A *
  15  24  Te-Zr    5.15263 A *
  11  24  Te-Zr    5.15263 A  
   6  20  Te-Zr    5.15556 A  
  10  22  Te-Zr    5.15556 A  
  17  19  Te-Zr    5.15557 A *
  13  21  Te-Zr    5.15557 A *
  11  22  Te-Zr    5.15569 A *
  15  20  Te-Zr    5.15569 A *
   4  19  Te-Zr    5.15571 A  
   8  21  Te-Zr    5.15571 A  
   6  24  Te-Zr    5.16314 A  
  10  24  Te-Zr    5.16314 A *
  17  23  Te-Zr    5.16317 A *
  13  23  Te-Zr    5.16317 A *
  11  26  Te-Zr    5.16330 A  
  15  26  Te-Zr    5.16330 A  
   8  25  Te-Zr    5.16332 A  
   4  25  Te-Zr    5.16333 A  
  14  24  Te-Zr    5.17274 A  
   9  23  Te-Zr    5.17276 A *
   3  26  Te-Zr    5.17289 A  
  16  25  Te-Zr    5.17291 A  
  14  20  Te-Zr    5.17318 A *
  14  22  Te-Zr    5.17318 A *
   9  19  Te-Zr    5.17319 A *
   9  21  Te-Zr    5.17319 A *
   3  22  Te-Zr    5.17333 A  
   3  20  Te-Zr    5.17334 A  
  16  21  Te-Zr    5.17335 A *
  16  19  Te-Zr    5.17335 A *
   5  25  Te-Zr    5.17746 A *
  18  26  Te-Zr    5.17748 A  
  12  23  Te-Zr    5.17755 A  
   7  24  Te-Zr    5.17759 A *
   5  21  Te-Zr    5.18368 A *
   5  19  Te-Zr    5.18368 A *
  18  22  Te-Zr    5.18368 A *
  18  20  Te-Zr    5.18368 A *
  12  19  Te-Zr    5.18380 A *
  12  21  Te-Zr    5.18381 A *
   7  20  Te-Zr    5.18382 A *
   7  22  Te-Zr    5.18382 A  
  10  13  Te-Te    5.28171 A  
   6  17  Te-Te    5.28172 A  
   4  15  Te-Te    5.28175 A *
   8  11  Te-Te    5.28176 A *
   5  18  Te-Te    5.28703 A  
   7  12  Te-Te    5.28705 A *
  10  13  Te-Te    5.29014 A *
   6  17  Te-Te    5.29014 A *
   4  15  Te-Te    5.29017 A *
   8  11  Te-Te    5.29017 A *
   5  18  Te-Te    5.30374 A *
   5  18  Te-Te    5.30375 A *
   7  12  Te-Te    5.30379 A *
   7  12  Te-Te    5.30380 A *
   6  17  Te-Te    5.31695 A *
  10  13  Te-Te    5.31695 A *
   8  11  Te-Te    5.31708 A  
   4  15  Te-Te    5.31709 A  
   9  14  Te-Te    5.33739 A *
   3  16  Te-Te    5.33751 A  
   9  14  Te-Te    5.34441 A *
   9  14  Te-Te    5.34441 A *
   3  16  Te-Te    5.34446 A *
   3  16  Te-Te    5.34447 A *
   1   7  Co-Te    5.55003 A *
   1  12  Co-Te    5.55004 A  
   2  18  Co-Te    5.55007 A *
   2   5  Co-Te    5.55008 A  
   1   4  Co-Te    5.55086 A  
   1   8  Co-Te    5.55087 A *
   1  15  Co-Te    5.55088 A *
   1  11  Co-Te    5.55088 A *
   2  13  Co-Te    5.55093 A  
   2  17  Co-Te    5.55094 A  
   2  10  Co-Te    5.55095 A *
   2   6  Co-Te    5.55095 A *
   9  12  Te-Te    5.77195 A *
   5  16  Te-Te    5.77196 A  
   7  14  Te-Te    5.77196 A *
   3  18  Te-Te    5.77197 A *
   3  18  Te-Te    5.78284 A *
   5  16  Te-Te    5.78284 A *
   3  18  Te-Te    5.78284 A *
   5  16  Te-Te    5.78284 A *
   7  14  Te-Te    5.78287 A *
   7  14  Te-Te    5.78287 A *
   9  12  Te-Te    5.78288 A *
   9  12  Te-Te    5.78289 A *
  10  11  Te-Te    5.80178 A *
   6  15  Te-Te    5.80178 A *
   8  13  Te-Te    5.80178 A *
   4  17  Te-Te    5.80178 A *
   4  17  Te-Te    5.81019 A *
   8  13  Te-Te    5.81019 A *
   6  15  Te-Te    5.81021 A *
  10  11  Te-Te    5.81021 A *
   8  13  Te-Te    5.81023 A  
   4  17  Te-Te    5.81023 A  
  10  11  Te-Te    5.81025 A *
   6  15  Te-Te    5.81026 A *

Nearest neighbors for each atom (up to 4)

 atom   1 species Co : neighbors at    2.658   2.658   2.658   2.658 A
         d(center):10.471 A  angles  :    94.9   180.0    85.1    85.1   180.0    94.9
 atom   2 species Co : neighbors at    2.659   2.659   2.659   2.659 A
         d(center): 5.064 A  angles  :    94.9   180.0    85.1    85.1   180.0    94.9
 atom   3 species Te : neighbors at    2.669   2.897   2.920   2.920 A
         d(center): 2.878 A  angles  :    70.9   131.1   131.1    85.6    85.6    86.9
 atom   4 species Te : neighbors at    2.659   2.895   2.902   2.915 A
         d(center): 5.155 A  angles  :    71.1   130.0   130.8    82.7    84.1    85.6
 atom   5 species Te : neighbors at    2.864   2.864   2.876   3.584 A
         d(center): 8.617 A  angles  :    82.3    83.8   105.6    83.8   168.4   105.3
 atom   6 species Te : neighbors at    2.658   2.895   2.902   2.915 A
         d(center):11.346 A  angles  :    71.1   130.0   130.8    82.7    84.1    85.6
 atom   7 species Te : neighbors at    2.864   2.864   2.876   3.584 A
         d(center): 6.224 A  angles  :    82.3    83.7   105.6    83.7   168.4   105.3
 atom   8 species Te : neighbors at    2.659   2.895   2.902   2.915 A
         d(center): 6.467 A  angles  :    71.1   130.0   130.8    82.7    84.1    85.6
 atom   9 species Te : neighbors at    2.669   2.897   2.920   2.920 A
         d(center):10.191 A  angles  :    70.9   131.1   131.1    85.6    85.6    86.9
 atom  10 species Te : neighbors at    2.658   2.895   2.902   2.915 A
         d(center):11.992 A  angles  :    71.1   130.0   130.8    82.7    84.1    85.6
 atom  11 species Te : neighbors at    2.659   2.895   2.902   2.915 A
         d(center): 4.859 A  angles  :    71.1   130.0   130.8    82.7    84.1    85.6
 atom  12 species Te : neighbors at    2.864   2.864   2.876   3.584 A
         d(center): 7.539 A  angles  :    82.3    83.7   105.6    83.7   168.4   105.3
 atom  13 species Te : neighbors at    2.658   2.895   2.902   2.915 A
         d(center): 9.458 A  angles  :    71.1   130.0   130.8    82.7    84.1    85.6
 atom  14 species Te : neighbors at    2.669   2.897   2.920   2.920 A
         d(center):12.648 A  angles  :    70.9   131.1   131.1    85.6    85.6    86.9
 atom  15 species Te : neighbors at    2.659   2.895   2.902   2.915 A
         d(center): 6.233 A  angles  :    71.1   130.0   130.8    82.7    84.1    85.6
 atom  16 species Te : neighbors at    2.669   2.897   2.920   2.920 A
         d(center): 7.567 A  angles  :    70.9   131.1   131.1    85.6    85.6    86.9
 atom  17 species Te : neighbors at    2.658   2.895   2.902   2.915 A
         d(center):10.223 A  angles  :    71.1   130.0   130.8    82.7    84.1    85.6
 atom  18 species Te : neighbors at    2.864   2.864   2.876   3.584 A
         d(center):12.610 A  angles  :    82.3    83.8   105.6    83.8   168.4   105.3
 atom  19 species Zr : neighbors at    2.864   2.864   2.902   2.902 A
         d(center): 0.062 A  angles  :    97.7    85.1    96.8    96.8    85.1   177.1
 atom  20 species Zr : neighbors at    2.864   2.864   2.902   2.902 A
         d(center): 6.481 A  angles  :    97.7    85.1    96.8    96.8    85.1   177.1
 atom  21 species Zr : neighbors at    2.864   2.864   2.902   2.902 A
         d(center): 3.954 A  angles  :    97.7    85.1    96.8    96.8    85.1   177.1
 atom  22 species Zr : neighbors at    2.864   2.864   2.902   2.902 A
         d(center): 7.528 A  angles  :    97.7    85.1    96.8    96.8    85.1   177.1
 atom  23 species Zr : neighbors at    2.876   2.895   2.895   2.897 A
         d(center): 3.862 A  angles  :    96.7    96.7   178.2    85.1    84.6    84.6
 atom  24 species Zr : neighbors at    2.876   2.895   2.895   2.897 A
         d(center): 7.582 A  angles  :    96.7    96.7   178.2    85.1    84.6    84.6
 atom  25 species Zr : neighbors at    2.876   2.895   2.895   2.897 A
         d(center): 3.922 A  angles  :    96.7    96.7   178.2    85.1    84.6    84.6
 atom  26 species Zr : neighbors at    2.876   2.895   2.895   2.897 A
         d(center): 7.538 A  angles  :    96.7    96.7   178.2    85.1    84.6    84.6
