
     Program PWSCF v.6.7MaX starts on 26Nov2021 at 14:41:32 

     This program is part of the open-source Quantum ESPRESSO suite
     for quantum simulation of materials; please cite
         "P. Giannozzi et al., J. Phys.:Condens. Matter 21 395502 (2009);
         "P. Giannozzi et al., J. Phys.:Condens. Matter 29 465901 (2017);
          URL http://www.quantum-espresso.org", 
     in publications or presentations arising from this work. More details at
     http://www.quantum-espresso.org/quote

     Parallel version (MPI), running on    20 processors

     MPI processes distributed on     1 nodes
     K-points division:     npool     =      10
     R & G space division:  proc/nbgrp/npool/nimage =       2
     Waiting for input...
     Reading input from standard input

     Current dimensions of program PWSCF are:
     Max number of different atomic species (ntypx) = 10
     Max number of k-points (npk) =  40000
     Max angular momentum in pseudopotentials (lmaxx) =  3
     file Te.pbe-dn-kjpaw_psl.1.0.0.UPF: wavefunction(s)  5S 5P renormalized
     file Co.pbe-spn-kjpaw_psl.1.0.0.UPF: wavefunction(s)  3P 3D renormalized
     file Zr.pbe-spn-kjpaw_psl.1.0.0.UPF: wavefunction(s)  4S 4P renormalized

     IMPORTANT: XC functional enforced from input :
     Exchange-correlation= VDW-DF2-B86R
                           (   1   4  26   0   2   0   0)
     Any further DFT definition will be discarded
     Please, verify this is what you really want


     Subspace diagonalization in iterative solution of the eigenvalue problem:
     a serial algorithm will be used

     Message from routine find_sym:
     Not a group! Trying with lower acceptance parameter...
     Message from routine find_sym:
     Symmetry operations form a group

     Parallelization info
     --------------------
     sticks:   dense  smooth     PW     G-vecs:    dense   smooth      PW
     Min        5205    2088    573               717643   181546   25824
     Max        5206    2089    574               717650   181549   25827
     Sum       10411    4177   1147              1435293   363095   51651


     Title: 
     CoZrTe2-S2_i02_w12                                                         


     bravais-lattice index     =            4
     lattice parameter (alat)  =      14.7100  a.u.
     unit-cell volume          =    4590.2099 (a.u.)^3
     number of atoms/cell      =           26
     number of atomic types    =            3
     number of electrons       =       386.00
     number of Kohn-Sham states=          232
     kinetic-energy cutoff     =      70.0000  Ry
     charge density cutoff     =     700.0000  Ry
     scf convergence threshold =      1.0E-06
     mixing beta               =       0.7000
     number of iterations used =            8  plain     mixing
     energy convergence thresh.=      1.0E-05
     force convergence thresh. =      1.0E-04
     press convergence thresh. =      5.0E-01
     Exchange-correlation= VDW-DF2-B86R
                           (   1   4  26   0   2   0   0)
     nstep                     =           50


     celldm(1)=  14.709956  celldm(2)=   0.000000  celldm(3)=   1.665205
     celldm(4)=   0.000000  celldm(5)=   0.000000  celldm(6)=   0.000000

     crystal axes: (cart. coord. in units of alat)
               a(1) = (   1.000000   0.000000   0.000000 )  
               a(2) = (  -0.500000   0.866025   0.000000 )  
               a(3) = (   0.000000   0.000000   1.665205 )  

     reciprocal axes: (cart. coord. in units 2 pi/alat)
               b(1) = (  1.000000  0.577350 -0.000000 )  
               b(2) = (  0.000000  1.154701  0.000000 )  
               b(3) = (  0.000000 -0.000000  0.600527 )  


     PseudoPot. # 1 for Te read from file:
     ../../pseudo/Te.pbe-dn-kjpaw_psl.1.0.0.UPF
     MD5 check sum: 6fcff28523c44509c8b0933d026a09ba
     Pseudo is Projector augmented-wave + core cor, Zval = 16.0
     Generated using "atomic" code by A. Dal Corso  v.6.2 svn rev. 13949:13950
     Shape of augmentation charge: PSQ
     Using radial grid of 1245 points,  6 beta functions with: 
                l(1) =   0
                l(2) =   0
                l(3) =   1
                l(4) =   1
                l(5) =   2
                l(6) =   2
     Q(r) pseudized with 0 coefficients 


     PseudoPot. # 2 for Co read from file:
     ../../pseudo/Co.pbe-spn-kjpaw_psl.1.0.0.UPF
     MD5 check sum: ae68c65c1ed12cdfc68c9a59d10cd886
     Pseudo is Projector augmented-wave + core cor, Zval = 17.0
     Generated using "atomic" code by A. Dal Corso  v.6.2 svn rev. 13949:13950
     Shape of augmentation charge: PSQ
     Using radial grid of 1193 points,  6 beta functions with: 
                l(1) =   0
                l(2) =   0
                l(3) =   1
                l(4) =   1
                l(5) =   2
                l(6) =   2
     Q(r) pseudized with 0 coefficients 


     PseudoPot. # 3 for Zr read from file:
     ../../pseudo/Zr.pbe-spn-kjpaw_psl.1.0.0.UPF
     MD5 check sum: c5f18ff7fd7b8b65997bc48e1dc42bc6
     Pseudo is Projector augmented-wave + core cor, Zval = 12.0
     Generated using "atomic" code by A. Dal Corso  v.6.2 svn rev. 13949:13950
     Shape of augmentation charge: PSQ
     Using radial grid of 1225 points,  6 beta functions with: 
                l(1) =   0
                l(2) =   0
                l(3) =   1
                l(4) =   1
                l(5) =   2
                l(6) =   2
     Q(r) pseudized with 0 coefficients 


     atomic species   valence    mass     pseudopotential
        Te            16.00   127.60000     Te( 1.00)
        Co            17.00    58.93300     Co( 1.00)
        Zr            12.00    91.22400     Zr( 1.00)

      2 Sym. Ops. (no inversion) found ( 1 have fractional translation)



   Cartesian axes

     site n.     atom                  positions (alat units)
         1           Co  tau(   1) = (   0.4999990  -0.0000004   1.2489029  )
         2           Co  tau(   2) = (   0.2500013   0.4330133   0.4163019  )
         3           Te  tau(   3) = (   0.0003001   0.2888488   0.2307850  )
         4           Te  tau(   4) = (   0.2503676   0.1427599   0.5963270  )
         5           Te  tau(   5) = (   0.0007296   0.2890966   1.0686706  )
         6           Te  tau(   6) = (   0.2488215   0.1454434   1.4289128  )
         7           Te  tau(   7) = (  -0.2492731   0.7221079   0.2360630  )
         8           Te  tau(   8) = (  -0.0011821   0.5784570   0.5963270  )
         9           Te  tau(   9) = (  -0.2496979   0.7218625   1.0633999  )
        10           Te  tau(  10) = (   0.0003686   0.5757764   1.4289128  )
        11           Te  tau(  11) = (   0.5011830   0.2875701   0.2362797  )
        12           Te  tau(  12) = (   0.7492703   0.1439159   0.5965403  )
        13           Te  tau(  13) = (   0.4996302   0.2902490   1.0688924  )
        14           Te  tau(  14) = (   0.7496975   0.1441627   1.4344062  )
        15           Te  tau(  15) = (   0.2496342   0.7232654   0.2362798  )
        16           Te  tau(  16) = (   0.4997004   0.5771769   0.6018202  )
        17           Te  tau(  17) = (   0.2511778   0.7205810   1.0688924  )
        18           Te  tau(  18) = (   0.4992719   0.5769296   1.4291355  )
        19           Zr  tau(  19) = (   0.0039855  -0.0069020  -0.0000052  )
        20           Zr  tau(  20) = (  -0.0039872   0.0069042   0.8326073  )
        21           Zr  tau(  21) = (  -0.2539846   0.4399153  -0.0000052  )
        22           Zr  tau(  22) = (  -0.2460143   0.4261075   0.8326072  )
        23           Zr  tau(  23) = (   0.4961660  -0.0022136  -0.0009630  )
        24           Zr  tau(  24) = (   0.5038345   0.0022139   0.8335682  )
        25           Zr  tau(  25) = (   0.2538350   0.4352269   0.0009556  )
        26           Zr  tau(  26) = (   0.2461651   0.4307985   0.8316451  )

     number of k points=   114  Marzari-Vanderbilt smearing, width (Ry)=  0.0050

     Number of k-points >= 100: set verbosity='high' to print them.

     Dense  grid:  1435293 G-vectors     FFT dimensions: ( 125, 128, 216)

     Smooth grid:   363095 G-vectors     FFT dimensions: (  80,  80, 135)

     Estimated max dynamical RAM per process >       2.12 GB

     Estimated total dynamical RAM >      42.38 GB

     Initial potential from superposition of free atoms

     starting charge  385.97878, renormalised to  386.00000


     %%%%%%%%%%%%%%%%%%%%%%%%%%%%%%%%%%%%%%%%%%%%%%%%%%%%%%%%%%%%%%%%%%%%%%%%
     %                                                                      %
     % You are using vdW-DF, which was implemented by the Thonhauser group. %
     % Please cite the following two papers that made this development      %
     % possible and the two reviews that describe the various versions:     %
     %                                                                      %
     %   T. Thonhauser et al., PRL 115, 136402 (2015).                      %
     %   T. Thonhauser et al., PRB 76, 125112 (2007).                       %
     %   K. Berland et al., Rep. Prog. Phys. 78, 066501 (2015).             %
     %   D.C. Langreth et al., J. Phys.: Condens. Matter 21, 084203 (2009). %
     %                                                                      %
     %                                                                      %
     % If you are calculating the stress with vdW-DF, please also cite:     %
     %                                                                      %
     %   R. Sabatini et al., J. Phys.: Condens. Matter 24, 424209 (2012).   %
     %                                                                      %
     %%%%%%%%%%%%%%%%%%%%%%%%%%%%%%%%%%%%%%%%%%%%%%%%%%%%%%%%%%%%%%%%%%%%%%%%


     Starting wfcs are  268 randomized atomic wfcs
     Checking if some PAW data can be deallocated... 

     total cpu time spent up to now is      649.4 secs

     Self-consistent Calculation

     iteration #  1     ecut=    70.00 Ry     beta= 0.70
     Davidson diagonalization with overlap
     ethr =  1.00E-02,  avg # of iterations =  2.1

     total cpu time spent up to now is     1560.3 secs

     total energy              =  -11347.68332137 Ry
     estimated scf accuracy    <       8.09248095 Ry

     iteration #  2     ecut=    70.00 Ry     beta= 0.70
     Davidson diagonalization with overlap
     ethr =  2.10E-03,  avg # of iterations =  9.4

     total cpu time spent up to now is     2670.1 secs

     total energy              =  -11349.46711379 Ry
     estimated scf accuracy    <     152.74216482 Ry

     iteration #  3     ecut=    70.00 Ry     beta= 0.70
     Davidson diagonalization with overlap
     ethr =  2.10E-03,  avg # of iterations =  6.7

     total cpu time spent up to now is     3958.7 secs

     total energy              =  -11351.48147056 Ry
     estimated scf accuracy    <      31.65609091 Ry

     iteration #  4     ecut=    70.00 Ry     beta= 0.70
     Davidson diagonalization with overlap
     ethr =  2.10E-03,  avg # of iterations =  3.5

     total cpu time spent up to now is     4864.5 secs

     total energy              =  -11353.01703539 Ry
     estimated scf accuracy    <       6.31902412 Ry

     iteration #  5     ecut=    70.00 Ry     beta= 0.70
     Davidson diagonalization with overlap
     ethr =  1.64E-03,  avg # of iterations =  1.9

     total cpu time spent up to now is     5704.7 secs

     total energy              =  -11353.00258678 Ry
     estimated scf accuracy    <       4.28998385 Ry

     iteration #  6     ecut=    70.00 Ry     beta= 0.70
     Davidson diagonalization with overlap
     ethr =  1.11E-03,  avg # of iterations =  1.8

     total cpu time spent up to now is     6542.1 secs

     total energy              =  -11352.69542598 Ry
     estimated scf accuracy    <      32.27919368 Ry

     iteration #  7     ecut=    70.00 Ry     beta= 0.70
     Davidson diagonalization with overlap
     ethr =  1.11E-03,  avg # of iterations =  1.9

     total cpu time spent up to now is     7381.8 secs

     total energy              =  -11353.24825477 Ry
     estimated scf accuracy    <       1.45056046 Ry

     iteration #  8     ecut=    70.00 Ry     beta= 0.70
     Davidson diagonalization with overlap
     ethr =  3.76E-04,  avg # of iterations =  1.8

     total cpu time spent up to now is     8219.0 secs

     total energy              =  -11353.26407600 Ry
     estimated scf accuracy    <       1.52597740 Ry

     iteration #  9     ecut=    70.00 Ry     beta= 0.70
     Davidson diagonalization with overlap
     ethr =  3.76E-04,  avg # of iterations =  1.0

     total cpu time spent up to now is     9000.6 secs

     total energy              =  -11353.21596753 Ry
     estimated scf accuracy    <       1.50778650 Ry

     iteration # 10     ecut=    70.00 Ry     beta= 0.70
     Davidson diagonalization with overlap
     ethr =  3.76E-04,  avg # of iterations =  2.0

     total cpu time spent up to now is     9842.8 secs

     total energy              =  -11353.24813305 Ry
     estimated scf accuracy    <       0.57402552 Ry

     iteration # 11     ecut=    70.00 Ry     beta= 0.70
     Davidson diagonalization with overlap
     ethr =  1.49E-04,  avg # of iterations =  3.8

     total cpu time spent up to now is    10734.0 secs

     total energy              =  -11353.23400915 Ry
     estimated scf accuracy    <       2.80152106 Ry

     iteration # 12     ecut=    70.00 Ry     beta= 0.70
     Davidson diagonalization with overlap
     ethr =  1.49E-04,  avg # of iterations =  2.3

     total cpu time spent up to now is    11590.1 secs

     total energy              =  -11353.24852467 Ry
     estimated scf accuracy    <       0.32954376 Ry

     iteration # 13     ecut=    70.00 Ry     beta= 0.70
     Davidson diagonalization with overlap
     ethr =  8.54E-05,  avg # of iterations =  7.7

     total cpu time spent up to now is    12593.5 secs

     total energy              =  -11353.24242452 Ry
     estimated scf accuracy    <       0.96306890 Ry

     iteration # 14     ecut=    70.00 Ry     beta= 0.70
     Davidson diagonalization with overlap
     ethr =  8.54E-05,  avg # of iterations =  2.0

     total cpu time spent up to now is    13450.9 secs

     total energy              =  -11353.26238310 Ry
     estimated scf accuracy    <       0.61610178 Ry

     iteration # 15     ecut=    70.00 Ry     beta= 0.70
     Davidson diagonalization with overlap
     ethr =  8.54E-05,  avg # of iterations =  2.0

     total cpu time spent up to now is    14292.3 secs

     total energy              =  -11353.26743106 Ry
     estimated scf accuracy    <       0.04930007 Ry

     iteration # 16     ecut=    70.00 Ry     beta= 0.70
     Davidson diagonalization with overlap
     c_bands:  1 eigenvalues not converged
     ethr =  1.28E-05,  avg # of iterations = 11.3

     total cpu time spent up to now is    15398.4 secs

     total energy              =  -11353.21934999 Ry
     estimated scf accuracy    <       2.83579480 Ry

     iteration # 17     ecut=    70.00 Ry     beta= 0.70
     Davidson diagonalization with overlap
     ethr =  1.28E-05,  avg # of iterations =  3.3

     total cpu time spent up to now is    16324.3 secs

     total energy              =  -11353.27203340 Ry
     estimated scf accuracy    <       0.03455355 Ry

     iteration # 18     ecut=    70.00 Ry     beta= 0.70
     Davidson diagonalization with overlap
     ethr =  8.95E-06,  avg # of iterations =  1.6

     total cpu time spent up to now is    17159.4 secs

     total energy              =  -11353.27384560 Ry
     estimated scf accuracy    <       0.01083298 Ry

     iteration # 19     ecut=    70.00 Ry     beta= 0.70
     Davidson diagonalization with overlap
     ethr =  2.81E-06,  avg # of iterations =  4.1

     total cpu time spent up to now is    18056.5 secs

     total energy              =  -11353.27420687 Ry
     estimated scf accuracy    <       0.00090981 Ry

     iteration # 20     ecut=    70.00 Ry     beta= 0.70
     Davidson diagonalization with overlap
     ethr =  2.36E-07,  avg # of iterations =  7.0

     total cpu time spent up to now is    19326.0 secs

     total energy              =  -11353.27445228 Ry
     estimated scf accuracy    <       0.00220930 Ry

     iteration # 21     ecut=    70.00 Ry     beta= 0.70
     Davidson diagonalization with overlap
     ethr =  2.36E-07,  avg # of iterations =  2.1

     total cpu time spent up to now is    20220.0 secs

     total energy              =  -11353.27443808 Ry
     estimated scf accuracy    <       0.00385762 Ry

     iteration # 22     ecut=    70.00 Ry     beta= 0.70
     Davidson diagonalization with overlap
     ethr =  2.36E-07,  avg # of iterations =  2.1

     total cpu time spent up to now is    21102.1 secs

     total energy              =  -11353.27463534 Ry
     estimated scf accuracy    <       0.00143929 Ry

     iteration # 23     ecut=    70.00 Ry     beta= 0.70
     Davidson diagonalization with overlap
     ethr =  2.36E-07,  avg # of iterations =  2.0

     total cpu time spent up to now is    21947.3 secs

     total energy              =  -11353.27467006 Ry
     estimated scf accuracy    <       0.00045250 Ry

     iteration # 24     ecut=    70.00 Ry     beta= 0.70
     Davidson diagonalization with overlap
     ethr =  1.17E-07,  avg # of iterations =  2.0

     total cpu time spent up to now is    22787.0 secs

     total energy              =  -11353.27466968 Ry
     estimated scf accuracy    <       0.00007685 Ry

     iteration # 25     ecut=    70.00 Ry     beta= 0.70
     Davidson diagonalization with overlap
     ethr =  1.99E-08,  avg # of iterations =  2.9

     total cpu time spent up to now is    23685.2 secs

     total energy              =  -11353.27467598 Ry
     estimated scf accuracy    <       0.00011108 Ry

     iteration # 26     ecut=    70.00 Ry     beta= 0.70
     Davidson diagonalization with overlap
     ethr =  1.99E-08,  avg # of iterations =  2.0

     total cpu time spent up to now is    24537.7 secs

     total energy              =  -11353.27465176 Ry
     estimated scf accuracy    <       0.00053672 Ry

     iteration # 27     ecut=    70.00 Ry     beta= 0.70
     Davidson diagonalization with overlap
     ethr =  1.99E-08,  avg # of iterations =  3.8

     total cpu time spent up to now is    25437.6 secs

     total energy              =  -11353.27461781 Ry
     estimated scf accuracy    <       0.00182945 Ry

     iteration # 28     ecut=    70.00 Ry     beta= 0.70
     Davidson diagonalization with overlap
     ethr =  1.99E-08,  avg # of iterations =  3.7

     total cpu time spent up to now is    26337.0 secs

     total energy              =  -11353.27466642 Ry
     estimated scf accuracy    <       0.00045707 Ry

     iteration # 29     ecut=    70.00 Ry     beta= 0.70
     Davidson diagonalization with overlap
     ethr =  1.99E-08,  avg # of iterations =  2.0

     total cpu time spent up to now is    27184.0 secs

     total energy              =  -11353.27467929 Ry
     estimated scf accuracy    <       0.00003137 Ry

     iteration # 30     ecut=    70.00 Ry     beta= 0.70
     Davidson diagonalization with overlap
     ethr =  8.13E-09,  avg # of iterations =  2.0

     total cpu time spent up to now is    28023.5 secs

     total energy              =  -11353.27468179 Ry
     estimated scf accuracy    <       0.00002677 Ry

     iteration # 31     ecut=    70.00 Ry     beta= 0.70
     Davidson diagonalization with overlap
     ethr =  6.94E-09,  avg # of iterations =  2.0

     total cpu time spent up to now is    28861.8 secs

     total energy              =  -11353.27467960 Ry
     estimated scf accuracy    <       0.00001100 Ry

     iteration # 32     ecut=    70.00 Ry     beta= 0.70
     Davidson diagonalization with overlap
     ethr =  2.85E-09,  avg # of iterations =  4.0

     total cpu time spent up to now is    29800.0 secs

     total energy              =  -11353.27467639 Ry
     estimated scf accuracy    <       0.00011955 Ry

     iteration # 33     ecut=    70.00 Ry     beta= 0.70
     Davidson diagonalization with overlap
     ethr =  2.85E-09,  avg # of iterations =  2.9

     total cpu time spent up to now is    30707.9 secs

     total energy              =  -11353.27468224 Ry
     estimated scf accuracy    <       0.00001428 Ry

     iteration # 34     ecut=    70.00 Ry     beta= 0.70
     Davidson diagonalization with overlap
     ethr =  2.85E-09,  avg # of iterations =  2.0

     total cpu time spent up to now is    31547.7 secs

     total energy              =  -11353.27468236 Ry
     estimated scf accuracy    <       0.00000973 Ry

     iteration # 35     ecut=    70.00 Ry     beta= 0.70
     Davidson diagonalization with overlap
     ethr =  2.52E-09,  avg # of iterations =  1.0

     total cpu time spent up to now is    32317.0 secs

     total energy              =  -11353.27468278 Ry
     estimated scf accuracy    <       0.00000167 Ry

     iteration # 36     ecut=    70.00 Ry     beta= 0.70
     Davidson diagonalization with overlap
     ethr =  4.32E-10,  avg # of iterations =  3.9

     total cpu time spent up to now is    33204.4 secs

     End of self-consistent calculation

     Number of k-points >= 100: set verbosity='high' to print the bands.

     the Fermi energy is    11.7503 ev

!    total energy              =  -11353.27468279 Ry

     total all-electron energy =   -280528.558960 Ry
     estimated scf accuracy    <       0.00000088 Ry
     smearing contrib. (-TS)   =       0.00014616 Ry
     internal energy E=F+TS    =  -11353.27482895 Ry

     The total energy is F=E-TS. E is the sum of the following terms:
     one-electron contribution =   -2167.27388104 Ry
     hartree contribution      =    1293.14504054 Ry
     xc contribution           =   -1028.38028570 Ry
     ewald contribution        =   -2858.25557768 Ry
     one-center paw contrib.   =   -6592.51012508 Ry

     convergence has been achieved in  36 iterations

     Forces acting on atoms (cartesian axes, Ry/au):

     atom    1 type  2   force =    -0.00000446   -0.00000258    0.00001926
     atom    2 type  2   force =    -0.00000316   -0.00000182   -0.00001315
     atom    3 type  1   force =     0.00009943    0.00005740   -0.00024328
     atom    4 type  1   force =     0.00000439    0.00007800    0.00004844
     atom    5 type  1   force =     0.00002223    0.00001284   -0.00030684
     atom    6 type  1   force =     0.00006935   -0.00007420    0.00015195
     atom    7 type  1   force =     0.00005198    0.00003001   -0.00031672
     atom    8 type  1   force =     0.00006975   -0.00003520    0.00004844
     atom    9 type  1   force =     0.00010164    0.00005868   -0.00029492
     atom   10 type  1   force =    -0.00002958    0.00009716    0.00015195
     atom   11 type  1   force =    -0.00006699    0.00003341   -0.00008182
     atom   12 type  1   force =    -0.00005030   -0.00002904    0.00028175
     atom   13 type  1   force =     0.00002402   -0.00009277   -0.00012396
     atom   14 type  1   force =    -0.00010319   -0.00005958    0.00032048
     atom   15 type  1   force =    -0.00000457   -0.00007472   -0.00008182
     atom   16 type  1   force =    -0.00010161   -0.00005867    0.00021480
     atom   17 type  1   force =    -0.00006833    0.00006719   -0.00012396
     atom   18 type  1   force =    -0.00001354   -0.00000782    0.00033298
     atom   19 type  3   force =    -0.00002179    0.00004001   -0.00002296
     atom   20 type  3   force =     0.00002340   -0.00004308    0.00002830
     atom   21 type  3   force =     0.00002375   -0.00003888   -0.00002296
     atom   22 type  3   force =    -0.00002561    0.00004181    0.00002830
     atom   23 type  3   force =     0.00001205    0.00000696   -0.00001181
     atom   24 type  3   force =    -0.00001150   -0.00000664    0.00001481
     atom   25 type  3   force =    -0.00001387   -0.00000801   -0.00003668
     atom   26 type  3   force =     0.00001650    0.00000953    0.00003944

     Total force =     0.000957     Total SCF correction =     0.001038
     SCF correction compared to forces is large: reduce conv_thr to get better values


     Computing stress (Cartesian axis) and pressure

          total   stress  (Ry/bohr**3)                   (kbar)     P=        0.22
  -0.00000164  -0.00000817  -0.00001386           -0.24       -1.20       -2.04
  -0.00000817   0.00000780  -0.00000800           -1.20        1.15       -1.18
  -0.00001386  -0.00000800  -0.00000177           -2.04       -1.18       -0.26


     BFGS Geometry Optimization
     Energy error            =      0.0E+00
     Gradient error          =      3.3E-04
     Cell gradient error     =      1.4E-05


     number of scf cycles    =   1
     number of bfgs steps    =   0

     enthalpy new            =  -11353.2746827949 Ry

     new trust radius        =       0.0054799954 bohr
ibrav =      4
 celldm(1) =     14.70935561
 celldm(3) =      1.66519974
Input lattice vectors:
     0.99995912    -0.00020431    -0.00034662
    -0.50015650     0.86629646    -0.00000000
    -0.00057719    -0.00033324     1.66513167
New lattice vectors in INITIAL alat:
     0.99995920     0.00000000     0.00000000
    -0.49997960     0.86599007     0.00000000
     0.00000000     0.00000000     1.66513180
New lattice vectors in NEW alat (for information only):
     1.00000000     0.00000000     0.00000000
    -0.50000000     0.86602540     0.00000000
     0.00000000     0.00000000     1.66519974
Discrepancy in bohr =     0.000402    0.000354    0.000666
     new conv_thr            =       0.0000010000 Ry

     new unit-cell volume =   4589.63246 a.u.^3 (   680.11336 Ang^3 )
     density =      7.05430 g/cm^3

CELL_PARAMETERS (alat= 14.70995579)
   0.999959199   0.000000000   0.000000000
  -0.499979599   0.865990069   0.000000000
   0.000000000   0.000000000   1.665131799

ATOMIC_POSITIONS (crystal)
Co            0.4999983276       -0.0000006881        0.7500000687
Co            0.5000013505        0.5000005339        0.2499997947
Te            0.1670760175        0.3335383496        0.1385825591
Te            0.3327934444        0.1648510356        0.3581121502
Te            0.1676415955        0.3338210060        0.6417525182
Te            0.3327950575        0.1679377031        0.8581062157
Te            0.1676408164        0.8338207405        0.1417491833
Te            0.3327935481        0.6679418486        0.3581121389
Te            0.1670788731        0.8335396394        0.6385877663
Te            0.3327950573        0.6648569647        0.8581061969
Te            0.6672084370        0.3320599504        0.1418889112
Te            0.8323556547        0.1661774833        0.3582497839
Te            0.6672035709        0.3351433931        0.6418931665
Te            0.8329205122        0.1664600445        0.8614120322
Te            0.6672084327        0.8351490744        0.1418889377
Te            0.8329243698        0.6664618445        0.3614177710
Te            0.6672034688        0.8320605770        0.6418931802
Te            0.8323611660        0.6661803519        0.8582473705
Zr            0.0000007220       -0.0079665703       -0.0000040494
Zr           -0.0000011574        0.0079689243        0.5000039363
Zr            0.0000007603        0.5079674361       -0.0000040411
Zr           -0.0000011253        0.4920297936        0.5000038749
Zr            0.4948891029       -0.0025554539       -0.0005788090
Zr            0.5051116230        0.0025558217        0.5005804124
Zr            0.5051121118        0.5025561610        0.0005723879
Zr            0.4948882624        0.4974440351        0.4994265422



     Writing output data file ./tmp/CoZrTe2-S2_i02_w12.save/
     NEW-OLD atomic charge density approx. for the potential
     extrapolated charge  385.95144, renormalised to  386.00000

     total cpu time spent up to now is    35421.2 secs

     Self-consistent Calculation

     iteration #  1     ecut=    70.00 Ry     beta= 0.70
     Davidson diagonalization with overlap
     ethr =  1.00E-06,  avg # of iterations =  2.0

     total cpu time spent up to now is    36489.2 secs

     total energy              =  -11353.27177749 Ry
     estimated scf accuracy    <       0.00319420 Ry

     iteration #  2     ecut=    70.00 Ry     beta= 0.70
     Davidson diagonalization with overlap
     ethr =  8.28E-07,  avg # of iterations =  7.5

     total cpu time spent up to now is    37640.3 secs

     total energy              =  -11353.22960568 Ry
     estimated scf accuracy    <       1.67488448 Ry

     iteration #  3     ecut=    70.00 Ry     beta= 0.70
     Davidson diagonalization with overlap
     ethr =  8.28E-07,  avg # of iterations =  6.9

     total cpu time spent up to now is    38785.7 secs

     total energy              =  -11353.27423858 Ry
     estimated scf accuracy    <       0.02475218 Ry

     iteration #  4     ecut=    70.00 Ry     beta= 0.70
     Davidson diagonalization with overlap
     ethr =  8.28E-07,  avg # of iterations =  2.0

     total cpu time spent up to now is    39624.8 secs

     total energy              =  -11353.27470515 Ry
     estimated scf accuracy    <       0.00303625 Ry

     iteration #  5     ecut=    70.00 Ry     beta= 0.70
     Davidson diagonalization with overlap
     ethr =  7.87E-07,  avg # of iterations =  1.0

     total cpu time spent up to now is    40387.8 secs

     total energy              =  -11353.27469871 Ry
     estimated scf accuracy    <       0.00165894 Ry

     iteration #  6     ecut=    70.00 Ry     beta= 0.70
     Davidson diagonalization with overlap
     ethr =  4.30E-07,  avg # of iterations =  1.1

     total cpu time spent up to now is    41173.0 secs

     total energy              =  -11353.27469794 Ry
     estimated scf accuracy    <       0.00091082 Ry

     iteration #  7     ecut=    70.00 Ry     beta= 0.70
     Davidson diagonalization with overlap
     ethr =  2.36E-07,  avg # of iterations =  1.0

     total cpu time spent up to now is    41946.1 secs

     total energy              =  -11353.27469722 Ry
     estimated scf accuracy    <       0.00071983 Ry

     iteration #  8     ecut=    70.00 Ry     beta= 0.70
     Davidson diagonalization with overlap
     ethr =  1.86E-07,  avg # of iterations =  1.1

     total cpu time spent up to now is    42730.7 secs

     total energy              =  -11353.27469492 Ry
     estimated scf accuracy    <       0.00056652 Ry

     iteration #  9     ecut=    70.00 Ry     beta= 0.70
     Davidson diagonalization with overlap
     ethr =  1.47E-07,  avg # of iterations =  1.1

     total cpu time spent up to now is    43522.1 secs

     total energy              =  -11353.27469167 Ry
     estimated scf accuracy    <       0.00046112 Ry

     iteration # 10     ecut=    70.00 Ry     beta= 0.70
     Davidson diagonalization with overlap
     ethr =  1.19E-07,  avg # of iterations =  1.0

     total cpu time spent up to now is    44302.1 secs

     total energy              =  -11353.27467045 Ry
     estimated scf accuracy    <       0.00034497 Ry

     iteration # 11     ecut=    70.00 Ry     beta= 0.70
     Davidson diagonalization with overlap
     ethr =  8.94E-08,  avg # of iterations =  1.2

     total cpu time spent up to now is    45122.8 secs

     total energy              =  -11353.27468099 Ry
     estimated scf accuracy    <       0.00001126 Ry

     iteration # 12     ecut=    70.00 Ry     beta= 0.70
     Davidson diagonalization with overlap
     ethr =  2.92E-09,  avg # of iterations =  7.0

     total cpu time spent up to now is    46100.1 secs

     total energy              =  -11353.27468239 Ry
     estimated scf accuracy    <       0.00002179 Ry

     iteration # 13     ecut=    70.00 Ry     beta= 0.70
     Davidson diagonalization with overlap
     ethr =  2.92E-09,  avg # of iterations =  1.0

     total cpu time spent up to now is    46867.4 secs

     total energy              =  -11353.27468254 Ry
     estimated scf accuracy    <       0.00001556 Ry

     iteration # 14     ecut=    70.00 Ry     beta= 0.70
     Davidson diagonalization with overlap
     ethr =  2.92E-09,  avg # of iterations =  2.0

     total cpu time spent up to now is    47710.8 secs

     total energy              =  -11353.27468196 Ry
     estimated scf accuracy    <       0.00013939 Ry

     iteration # 15     ecut=    70.00 Ry     beta= 0.70
     Davidson diagonalization with overlap
     ethr =  2.92E-09,  avg # of iterations =  3.7

     total cpu time spent up to now is    48639.7 secs

     total energy              =  -11353.27467767 Ry
     estimated scf accuracy    <       0.00009034 Ry

     iteration # 16     ecut=    70.00 Ry     beta= 0.70
     Davidson diagonalization with overlap
     ethr =  2.92E-09,  avg # of iterations =  3.0

     total cpu time spent up to now is    49560.1 secs

     total energy              =  -11353.27467580 Ry
     estimated scf accuracy    <       0.00015638 Ry

     iteration # 17     ecut=    70.00 Ry     beta= 0.70
     Davidson diagonalization with overlap
     ethr =  2.92E-09,  avg # of iterations =  2.0

     total cpu time spent up to now is    50445.6 secs

     total energy              =  -11353.27468201 Ry
     estimated scf accuracy    <       0.00002585 Ry

     iteration # 18     ecut=    70.00 Ry     beta= 0.70
     Davidson diagonalization with overlap
     ethr =  2.92E-09,  avg # of iterations =  2.0

     total cpu time spent up to now is    51286.3 secs

     total energy              =  -11353.27468248 Ry
     estimated scf accuracy    <       0.00000282 Ry

     iteration # 19     ecut=    70.00 Ry     beta= 0.70
     Davidson diagonalization with overlap
     ethr =  7.32E-10,  avg # of iterations =  1.9

     total cpu time spent up to now is    52124.0 secs

     End of self-consistent calculation

     Number of k-points >= 100: set verbosity='high' to print the bands.

     the Fermi energy is    11.7522 ev

!    total energy              =  -11353.27468250 Ry

     total all-electron energy =   -280528.558960 Ry
     estimated scf accuracy    <       0.00000036 Ry
     smearing contrib. (-TS)   =       0.00014624 Ry
     internal energy E=F+TS    =  -11353.27482874 Ry

     The total energy is F=E-TS. E is the sum of the following terms:
     one-electron contribution =   -2167.14117256 Ry
     hartree contribution      =    1293.10643279 Ry
     xc contribution           =   -1028.38313847 Ry
     ewald contribution        =   -2858.34663002 Ry
     one-center paw contrib.   =   -6592.51032047 Ry

     convergence has been achieved in  19 iterations

     Forces acting on atoms (cartesian axes, Ry/au):

     atom    1 type  2   force =    -0.00000056   -0.00000032    0.00000510
     atom    2 type  2   force =    -0.00000441   -0.00000255    0.00000234
     atom    3 type  1   force =     0.00011229    0.00006483   -0.00020774
     atom    4 type  1   force =    -0.00000244    0.00008467    0.00006755
     atom    5 type  1   force =     0.00006967    0.00004022   -0.00016660
     atom    6 type  1   force =     0.00001527    0.00002699    0.00006254
     atom    7 type  1   force =     0.00004654    0.00002687   -0.00021541
     atom    8 type  1   force =     0.00007211   -0.00004445    0.00006755
     atom    9 type  1   force =     0.00005017    0.00002897   -0.00016892
     atom   10 type  1   force =     0.00003101   -0.00000027    0.00006254
     atom   11 type  1   force =    -0.00007536    0.00004330   -0.00007785
     atom   12 type  1   force =    -0.00004246   -0.00002451    0.00021931
     atom   13 type  1   force =    -0.00002239    0.00000017   -0.00005343
     atom   14 type  1   force =    -0.00005480   -0.00003164    0.00016643
     atom   15 type  1   force =    -0.00000018   -0.00008691   -0.00007785
     atom   16 type  1   force =    -0.00010674   -0.00006163    0.00020488
     atom   17 type  1   force =    -0.00001105   -0.00001948   -0.00005343
     atom   18 type  1   force =    -0.00007638   -0.00004410    0.00017499
     atom   19 type  3   force =    -0.00003466    0.00005632    0.00003166
     atom   20 type  3   force =     0.00003788   -0.00005696   -0.00003603
     atom   21 type  3   force =     0.00003145   -0.00005818    0.00003166
     atom   22 type  3   force =    -0.00003039    0.00006129   -0.00003603
     atom   23 type  3   force =     0.00002268    0.00001309    0.00004931
     atom   24 type  3   force =    -0.00002563   -0.00001479   -0.00005226
     atom   25 type  3   force =    -0.00001665   -0.00000961    0.00001653
     atom   26 type  3   force =     0.00001503    0.00000868   -0.00001683

     Total force =     0.000672     Total SCF correction =     0.000757
     SCF correction compared to forces is large: reduce conv_thr to get better values


     Computing stress (Cartesian axis) and pressure

          total   stress  (Ry/bohr**3)                   (kbar)     P=        0.34
  -0.00000094  -0.00000823  -0.00001396           -0.14       -1.21       -2.05
  -0.00000823   0.00000857  -0.00000806           -1.21        1.26       -1.19
  -0.00001396  -0.00000806  -0.00000073           -2.05       -1.19       -0.11

     Energy error            =      2.9E-07
     Gradient error          =      2.2E-04
     Cell gradient error     =      1.4E-05


     number of scf cycles    =   2
     number of bfgs steps    =   1

     enthalpy old            =  -11353.2746827949 Ry
     enthalpy new            =  -11353.2746825012 Ry

     CASE: enthalpy_new > enthalpy_old

     new trust radius        =       0.0000873925 bohr

     trust_radius < trust_radius_min

     resetting bfgs history

ibrav =      4
 celldm(1) =     14.70935558
 celldm(3) =      1.66519974
Input lattice vectors:
     0.99995912    -0.00020432    -0.00034663
    -0.50015650     0.86629648     0.00000000
    -0.00057721    -0.00033325     1.66513166
New lattice vectors in INITIAL alat:
     0.99995920     0.00000000     0.00000000
    -0.49997960     0.86599007     0.00000000
     0.00000000     0.00000000     1.66513180
New lattice vectors in NEW alat (for information only):
     1.00000000     0.00000000     0.00000000
    -0.50000000     0.86602540     0.00000000
     0.00000000     0.00000000     1.66519974
Discrepancy in bohr =     0.000402    0.000354    0.000667
     new conv_thr            =       0.0000010000 Ry

     new unit-cell volume =   4589.63244 a.u.^3 (   680.11336 Ang^3 )
     density =      7.05430 g/cm^3

CELL_PARAMETERS (alat= 14.70995579)
   0.999959197   0.000000000   0.000000000
  -0.499979598   0.865990067   0.000000000
   0.000000000   0.000000000   1.665131796

ATOMIC_POSITIONS (crystal)
Co            0.4999983276       -0.0000006882        0.7500000688
Co            0.5000013505        0.5000005339        0.2499997947
Te            0.1670760183        0.3335383500        0.1385825582
Te            0.3327934447        0.1648510361        0.3581121504
Te            0.1676415956        0.3338210061        0.6417525171
Te            0.3327950577        0.1679377027        0.8581062163
Te            0.1676408167        0.8338207407        0.1417491822
Te            0.3327935484        0.6679418484        0.3581121391
Te            0.1670788738        0.8335396398        0.6385877652
Te            0.3327950575        0.6648569653        0.8581061975
Te            0.6672084367        0.3320599506        0.1418889109
Te            0.8323556544        0.1661774831        0.3582497849
Te            0.6672035707        0.3351433925        0.6418931661
Te            0.8329205115        0.1664600441        0.8614120333
Te            0.6672084324        0.8351490739        0.1418889374
Te            0.8329243691        0.6664618441        0.3614177718
Te            0.6672034686        0.8320605775        0.6418931798
Te            0.8323611659        0.6661803518        0.8582473717
Zr            0.0000007220       -0.0079665700       -0.0000040495
Zr           -0.0000011574        0.0079689241        0.5000039364
Zr            0.0000007603        0.5079674359       -0.0000040412
Zr           -0.0000011253        0.4920297938        0.5000038750
Zr            0.4948891030       -0.0025554539       -0.0005788090
Zr            0.5051116229        0.0025558217        0.5005804124
Zr            0.5051121117        0.5025561610        0.0005723878
Zr            0.4948882625        0.4974440351        0.4994265423



     Writing output data file ./tmp/CoZrTe2-S2_i02_w12.save/
     NEW-OLD atomic charge density approx. for the potential

     total cpu time spent up to now is    54352.2 secs

     Self-consistent Calculation

     iteration #  1     ecut=    70.00 Ry     beta= 0.70
     Davidson diagonalization with overlap
     ethr =  1.00E-06,  avg # of iterations =  2.0

     Threshold (ethr) on eigenvalues was too large:
     Diagonalizing with lowered threshold

     Davidson diagonalization with overlap
     ethr =  7.28E-09,  avg # of iterations =  1.0

     total cpu time spent up to now is    56074.7 secs

     total energy              =  -11353.27467565 Ry
     estimated scf accuracy    <       0.00002976 Ry

     iteration #  2     ecut=    70.00 Ry     beta= 0.70
     Davidson diagonalization with overlap
     ethr =  7.71E-09,  avg # of iterations =  5.2

     total cpu time spent up to now is    57046.4 secs

     total energy              =  -11353.27444128 Ry
     estimated scf accuracy    <       0.00597511 Ry

     iteration #  3     ecut=    70.00 Ry     beta= 0.70
     Davidson diagonalization with overlap
     ethr =  7.71E-09,  avg # of iterations =  5.5

     total cpu time spent up to now is    58033.7 secs

     total energy              =  -11353.27460228 Ry
     estimated scf accuracy    <       0.00359738 Ry

     iteration #  4     ecut=    70.00 Ry     beta= 0.70
     Davidson diagonalization with overlap
     ethr =  7.71E-09,  avg # of iterations =  4.3

     total cpu time spent up to now is    58977.5 secs

     total energy              =  -11353.27466336 Ry
     estimated scf accuracy    <       0.00066732 Ry

     iteration #  5     ecut=    70.00 Ry     beta= 0.70
     Davidson diagonalization with overlap
     ethr =  7.71E-09,  avg # of iterations =  3.1

     total cpu time spent up to now is    59849.5 secs

     total energy              =  -11353.27468234 Ry
     estimated scf accuracy    <       0.00000186 Ry

     iteration #  6     ecut=    70.00 Ry     beta= 0.70
     Davidson diagonalization with overlap
     ethr =  4.81E-10,  avg # of iterations =  4.9

     total cpu time spent up to now is    60745.2 secs

     End of self-consistent calculation

     Number of k-points >= 100: set verbosity='high' to print the bands.

     the Fermi energy is    11.7522 ev

!    total energy              =  -11353.27468224 Ry

     total all-electron energy =   -280528.558959 Ry
     estimated scf accuracy    <       0.00000051 Ry
     smearing contrib. (-TS)   =       0.00014637 Ry
     internal energy E=F+TS    =  -11353.27482860 Ry

     The total energy is F=E-TS. E is the sum of the following terms:
     one-electron contribution =   -2167.14557084 Ry
     hartree contribution      =    1293.11134618 Ry
     xc contribution           =   -1028.38352543 Ry
     ewald contribution        =   -2858.34663262 Ry
     one-center paw contrib.   =   -6592.51044591 Ry

     convergence has been achieved in   6 iterations

     Forces acting on atoms (cartesian axes, Ry/au):

     atom    1 type  2   force =    -0.00000014   -0.00000008    0.00002747
     atom    2 type  2   force =    -0.00000212   -0.00000122   -0.00002392
     atom    3 type  1   force =     0.00010951    0.00006323   -0.00047295
     atom    4 type  1   force =    -0.00000983    0.00008049   -0.00007846
     atom    5 type  1   force =     0.00008197    0.00004733    0.00004052
     atom    6 type  1   force =     0.00002626    0.00003940    0.00026688
     atom    7 type  1   force =     0.00003770    0.00002177   -0.00046575
     atom    8 type  1   force =     0.00006479   -0.00004876   -0.00007846
     atom    9 type  1   force =     0.00004323    0.00002496    0.00004263
     atom   10 type  1   force =     0.00004726    0.00000304    0.00026688
     atom   11 type  1   force =    -0.00008006    0.00005493   -0.00034632
     atom   12 type  1   force =    -0.00003305   -0.00001908    0.00005032
     atom   13 type  1   force =    -0.00003536    0.00000761    0.00015683
     atom   14 type  1   force =    -0.00005875   -0.00003392    0.00036162
     atom   15 type  1   force =     0.00000754   -0.00009680   -0.00034632
     atom   16 type  1   force =    -0.00009596   -0.00005540    0.00006213
     atom   17 type  1   force =    -0.00001109   -0.00003443    0.00015683
     atom   18 type  1   force =    -0.00009399   -0.00005426    0.00038724
     atom   19 type  3   force =    -0.00003123    0.00004832    0.00004428
     atom   20 type  3   force =     0.00003703   -0.00005064   -0.00004665
     atom   21 type  3   force =     0.00002623   -0.00005121    0.00004428
     atom   22 type  3   force =    -0.00002534    0.00005739   -0.00004665
     atom   23 type  3   force =     0.00002273    0.00001312    0.00004192
     atom   24 type  3   force =    -0.00002656   -0.00001533   -0.00004774
     atom   25 type  3   force =    -0.00001219   -0.00000704    0.00004877
     atom   26 type  3   force =     0.00001141    0.00000659   -0.00004536

     Total force =     0.001144     Total SCF correction =     0.004171
     SCF correction compared to forces is large: reduce conv_thr to get better values


     Computing stress (Cartesian axis) and pressure

          total   stress  (Ry/bohr**3)                   (kbar)     P=        0.48
   0.00000005  -0.00000824  -0.00001395            0.01       -1.21       -2.05
  -0.00000824   0.00000957  -0.00000806           -1.21        1.41       -1.19
  -0.00001395  -0.00000806   0.00000021           -2.05       -1.19        0.03

     Energy error            =      5.6E-07
     Gradient error          =      4.7E-04
     Cell gradient error     =      1.4E-05


     number of scf cycles    =   3
     number of bfgs steps    =   1

     enthalpy old            =  -11353.2746827949 Ry
     enthalpy new            =  -11353.2746822378 Ry

     CASE: enthalpy_new > enthalpy_old

     new trust radius        =       0.0000534601 bohr

     trust_radius < trust_radius_min

     resetting bfgs history

     Message from routine bfgs:
     history already reset at previous step: stopping
ibrav =      4
 celldm(1) =     14.70935558
 celldm(3) =      1.66519974
Input lattice vectors:
     0.99995912    -0.00020432    -0.00034663
    -0.50015650     0.86629648     0.00000000
    -0.00057721    -0.00033325     1.66513166
New lattice vectors in INITIAL alat:
     0.99995920     0.00000000     0.00000000
    -0.49997960     0.86599007     0.00000000
     0.00000000     0.00000000     1.66513180
New lattice vectors in NEW alat (for information only):
     1.00000000     0.00000000     0.00000000
    -0.50000000     0.86602540     0.00000000
     0.00000000     0.00000000     1.66519974
Discrepancy in bohr =     0.000402    0.000354    0.000667
     new conv_thr            =       0.0000010000 Ry

     new unit-cell volume =   4589.63244 a.u.^3 (   680.11336 Ang^3 )
     density =      7.05430 g/cm^3

CELL_PARAMETERS (alat= 14.70995579)
   0.999959197   0.000000000   0.000000000
  -0.499979598   0.865990067   0.000000000
   0.000000000   0.000000000   1.665131796

ATOMIC_POSITIONS (crystal)
Co            0.4999983276       -0.0000006882        0.7500000688
Co            0.5000013505        0.5000005339        0.2499997947
Te            0.1670760183        0.3335383500        0.1385825582
Te            0.3327934447        0.1648510361        0.3581121504
Te            0.1676415956        0.3338210061        0.6417525171
Te            0.3327950577        0.1679377027        0.8581062163
Te            0.1676408167        0.8338207407        0.1417491822
Te            0.3327935484        0.6679418484        0.3581121391
Te            0.1670788738        0.8335396398        0.6385877652
Te            0.3327950575        0.6648569653        0.8581061975
Te            0.6672084367        0.3320599506        0.1418889109
Te            0.8323556544        0.1661774831        0.3582497849
Te            0.6672035707        0.3351433925        0.6418931661
Te            0.8329205115        0.1664600441        0.8614120333
Te            0.6672084324        0.8351490739        0.1418889374
Te            0.8329243691        0.6664618441        0.3614177718
Te            0.6672034686        0.8320605775        0.6418931798
Te            0.8323611659        0.6661803518        0.8582473717
Zr            0.0000007220       -0.0079665700       -0.0000040495
Zr           -0.0000011574        0.0079689241        0.5000039364
Zr            0.0000007603        0.5079674359       -0.0000040412
Zr           -0.0000011253        0.4920297938        0.5000038750
Zr            0.4948891030       -0.0025554539       -0.0005788090
Zr            0.5051116229        0.0025558217        0.5005804124
Zr            0.5051121117        0.5025561610        0.0005723878
Zr            0.4948882625        0.4974440351        0.4994265423



     Writing output data file ./tmp/CoZrTe2-S2_i02_w12.save/
     NEW-OLD atomic charge density approx. for the potential

     total cpu time spent up to now is    62968.2 secs

     Self-consistent Calculation

     iteration #  1     ecut=    70.00 Ry     beta= 0.70
     Davidson diagonalization with overlap
     ethr =  1.00E-06,  avg # of iterations =  2.0

     Threshold (ethr) on eigenvalues was too large:
     Diagonalizing with lowered threshold

     Davidson diagonalization with overlap
     ethr =  3.27E-08,  avg # of iterations =  1.0

     total cpu time spent up to now is    64732.1 secs

     total energy              =  -11353.27457747 Ry
     estimated scf accuracy    <       0.00013139 Ry

     iteration #  2     ecut=    70.00 Ry     beta= 0.70
     Davidson diagonalization with overlap
     ethr =  3.40E-08,  avg # of iterations =  5.8

     total cpu time spent up to now is    65842.3 secs

     total energy              =  -11353.27338143 Ry
     estimated scf accuracy    <       0.03751658 Ry

     iteration #  3     ecut=    70.00 Ry     beta= 0.70
     Davidson diagonalization with overlap
     ethr =  3.40E-08,  avg # of iterations =  5.6

     total cpu time spent up to now is    66890.7 secs

     total energy              =  -11353.27435249 Ry
     estimated scf accuracy    <       0.01513449 Ry

     iteration #  4     ecut=    70.00 Ry     beta= 0.70
     Davidson diagonalization with overlap
     ethr =  3.40E-08,  avg # of iterations =  3.9

     total cpu time spent up to now is    67825.5 secs

     total energy              =  -11353.27467107 Ry
     estimated scf accuracy    <       0.00020448 Ry

     iteration #  5     ecut=    70.00 Ry     beta= 0.70
     Davidson diagonalization with overlap
     ethr =  3.40E-08,  avg # of iterations =  2.0

     total cpu time spent up to now is    68667.9 secs

     total energy              =  -11353.27467885 Ry
     estimated scf accuracy    <       0.00009084 Ry

     iteration #  6     ecut=    70.00 Ry     beta= 0.70
     Davidson diagonalization with overlap
     ethr =  2.35E-08,  avg # of iterations =  1.3

     total cpu time spent up to now is    69498.9 secs

     total energy              =  -11353.27468176 Ry
     estimated scf accuracy    <       0.00000119 Ry

     iteration #  7     ecut=    70.00 Ry     beta= 0.70
     Davidson diagonalization with overlap
     ethr =  3.07E-10,  avg # of iterations =  6.0

     total cpu time spent up to now is    70666.8 secs

     End of self-consistent calculation

     Number of k-points >= 100: set verbosity='high' to print the bands.

     the Fermi energy is    11.7522 ev

!    total energy              =  -11353.27468245 Ry

     total all-electron energy =   -280528.558960 Ry
     estimated scf accuracy    <       0.00000100 Ry
     smearing contrib. (-TS)   =       0.00014642 Ry
     internal energy E=F+TS    =  -11353.27482887 Ry

     The total energy is F=E-TS. E is the sum of the following terms:
     one-electron contribution =   -2167.14548604 Ry
     hartree contribution      =    1293.11123869 Ry
     xc contribution           =   -1028.38352849 Ry
     ewald contribution        =   -2858.34663262 Ry
     one-center paw contrib.   =   -6592.51042041 Ry

     convergence has been achieved in   7 iterations

     Forces acting on atoms (cartesian axes, Ry/au):

     atom    1 type  2   force =     0.00000085    0.00000049   -0.00001153
     atom    2 type  2   force =    -0.00000198   -0.00000114    0.00001342
     atom    3 type  1   force =     0.00005271    0.00003043   -0.00009289
     atom    4 type  1   force =    -0.00000313    0.00004456    0.00024063
     atom    5 type  1   force =     0.00004768    0.00002753   -0.00035174
     atom    6 type  1   force =     0.00004140   -0.00001451   -0.00006946
     atom    7 type  1   force =     0.00003602    0.00002080   -0.00005682
     atom    8 type  1   force =     0.00003703   -0.00002499    0.00024063
     atom    9 type  1   force =     0.00008432    0.00004868   -0.00032400
     atom   10 type  1   force =     0.00000813    0.00004311   -0.00006946
     atom   11 type  1   force =    -0.00002243    0.00002011    0.00003163
     atom   12 type  1   force =    -0.00003891   -0.00002246    0.00038637
     atom   13 type  1   force =    -0.00000413   -0.00005074   -0.00020634
     atom   14 type  1   force =    -0.00007356   -0.00004247    0.00004448
     atom   15 type  1   force =     0.00000620   -0.00002947    0.00003163
     atom   16 type  1   force =    -0.00007431   -0.00004290    0.00037176
     atom   17 type  1   force =    -0.00004601    0.00002179   -0.00020634
     atom   18 type  1   force =    -0.00005031   -0.00002905    0.00002682
     atom   19 type  3   force =    -0.00002859    0.00004920    0.00002722
     atom   20 type  3   force =     0.00003549   -0.00005588   -0.00002732
     atom   21 type  3   force =     0.00002831   -0.00004935    0.00002722
     atom   22 type  3   force =    -0.00003065    0.00005868   -0.00002732
     atom   23 type  3   force =     0.00001603    0.00000926    0.00004512
     atom   24 type  3   force =    -0.00002278   -0.00001315   -0.00004680
     atom   25 type  3   force =    -0.00001547   -0.00000893    0.00002552
     atom   26 type  3   force =     0.00001805    0.00001042   -0.00002246

     Total force =     0.000907     Total SCF correction =     0.002186
     SCF correction compared to forces is large: reduce conv_thr to get better values


     Computing stress (Cartesian axis) and pressure

          total   stress  (Ry/bohr**3)                   (kbar)     P=        0.47
   0.00000006  -0.00000818  -0.00001394            0.01       -1.20       -2.05
  -0.00000818   0.00000951  -0.00000805           -1.20        1.40       -1.18
  -0.00001394  -0.00000805   0.00000007           -2.05       -1.18        0.01

     Message from routine bfgs:
     history already reset at previous step: stopping
     Energy error            =      3.4E-07
     Gradient error          =      3.9E-04
     Cell gradient error     =      1.4E-05

ibrav =      4
 celldm(1) =     14.70935558
 celldm(3) =      1.66519974
Input lattice vectors:
     0.99995920     0.00000000     0.00000000
    -0.49997960     0.86599007     0.00000000
     0.00000000     0.00000000     1.66513180
New lattice vectors in INITIAL alat:
     0.99995920     0.00000000     0.00000000
    -0.49997960     0.86599007     0.00000000
     0.00000000     0.00000000     1.66513180
New lattice vectors in NEW alat (for information only):
     1.00000000     0.00000000     0.00000000
    -0.50000000     0.86602540     0.00000000
     0.00000000     0.00000000     1.66519974
Discrepancy in bohr =     0.000000    0.000000    0.000000

     bfgs converged in   4 scf cycles and   1 bfgs steps
     (criteria: energy <  1.0E-05 Ry, force <  1.0E-04Ry/Bohr, cell <  5.0E-01kbar)

     End of BFGS Geometry Optimization

     Final enthalpy =  -11353.2746824510 Ry

     File ./tmp/CoZrTe2-S2_i02_w12.bfgs deleted, as requested
Begin final coordinates
     new unit-cell volume =   4589.63244 a.u.^3 (   680.11336 Ang^3 )
     density =      7.05430 g/cm^3

CELL_PARAMETERS (alat= 14.70995579)
   0.999959197   0.000000000   0.000000000
  -0.499979598   0.865990067   0.000000000
   0.000000000   0.000000000   1.665131796

ATOMIC_POSITIONS (crystal)
Co            0.4999983276       -0.0000006882        0.7500000688
Co            0.5000013505        0.5000005339        0.2499997947
Te            0.1670760183        0.3335383500        0.1385825582
Te            0.3327934447        0.1648510361        0.3581121504
Te            0.1676415956        0.3338210061        0.6417525171
Te            0.3327950577        0.1679377027        0.8581062163
Te            0.1676408167        0.8338207407        0.1417491822
Te            0.3327935484        0.6679418484        0.3581121391
Te            0.1670788738        0.8335396398        0.6385877652
Te            0.3327950575        0.6648569653        0.8581061975
Te            0.6672084367        0.3320599506        0.1418889109
Te            0.8323556544        0.1661774831        0.3582497849
Te            0.6672035707        0.3351433925        0.6418931661
Te            0.8329205115        0.1664600441        0.8614120333
Te            0.6672084324        0.8351490739        0.1418889374
Te            0.8329243691        0.6664618441        0.3614177718
Te            0.6672034686        0.8320605775        0.6418931798
Te            0.8323611659        0.6661803518        0.8582473717
Zr            0.0000007220       -0.0079665700       -0.0000040495
Zr           -0.0000011574        0.0079689241        0.5000039364
Zr            0.0000007603        0.5079674359       -0.0000040412
Zr           -0.0000011253        0.4920297938        0.5000038750
Zr            0.4948891030       -0.0025554539       -0.0005788090
Zr            0.5051116229        0.0025558217        0.5005804124
Zr            0.5051121117        0.5025561610        0.0005723878
Zr            0.4948882625        0.4974440351        0.4994265423
End final coordinates



     Writing output data file ./tmp/CoZrTe2-S2_i02_w12.save/

     Final scf calculation at the relaxed structure.
     The G-vectors are recalculated for the final unit cell
     Results may differ from those at the preceding step.

     Parallelization info
     --------------------
     sticks:   dense  smooth     PW     G-vecs:    dense   smooth      PW
     Min        5205    2088    573               717577   181546   25818
     Max        5206    2089    574               717584   181549   25821
     Sum       10411    4177   1147              1435161   363095   51639


     Title: 
     CoZrTe2-S2_i02_w12                                                         


     bravais-lattice index     =            4
     lattice parameter (alat)  =      14.7100  a.u.
     unit-cell volume          =    4589.6324 (a.u.)^3
     number of atoms/cell      =           26
     number of atomic types    =            3
     number of electrons       =       386.00
     number of Kohn-Sham states=          232
     kinetic-energy cutoff     =      70.0000  Ry
     charge density cutoff     =     700.0000  Ry
     scf convergence threshold =      1.0E-06
     mixing beta               =       0.7000
     number of iterations used =            8  plain     mixing
     press convergence thresh. =      5.0E-01
     Exchange-correlation= VDW-DF2-B86R
                           (   1   4  26   0   2   0   0)

     celldm(1)=  14.709956  celldm(2)=   0.000000  celldm(3)=   1.665205
     celldm(4)=   0.000000  celldm(5)=   0.000000  celldm(6)=   0.000000

     crystal axes: (cart. coord. in units of alat)
               a(1) = (   0.999959   0.000000   0.000000 )  
               a(2) = (  -0.499980   0.865990   0.000000 )  
               a(3) = (   0.000000   0.000000   1.665132 )  

     reciprocal axes: (cart. coord. in units 2 pi/alat)
               b(1) = (  1.000041  0.577374 -0.000000 )  
               b(2) = (  0.000000  1.154748  0.000000 )  
               b(3) = (  0.000000 -0.000000  0.600553 )  


     PseudoPot. # 1 for Te read from file:
     ../../pseudo/Te.pbe-dn-kjpaw_psl.1.0.0.UPF
     MD5 check sum: 6fcff28523c44509c8b0933d026a09ba
     Pseudo is Projector augmented-wave + core cor, Zval = 16.0
     Generated using "atomic" code by A. Dal Corso  v.6.2 svn rev. 13949:13950
     Shape of augmentation charge: PSQ
     Using radial grid of 1245 points,  6 beta functions with: 
                l(1) =   0
                l(2) =   0
                l(3) =   1
                l(4) =   1
                l(5) =   2
                l(6) =   2
     Q(r) pseudized with 0 coefficients 


     PseudoPot. # 2 for Co read from file:
     ../../pseudo/Co.pbe-spn-kjpaw_psl.1.0.0.UPF
     MD5 check sum: ae68c65c1ed12cdfc68c9a59d10cd886
     Pseudo is Projector augmented-wave + core cor, Zval = 17.0
     Generated using "atomic" code by A. Dal Corso  v.6.2 svn rev. 13949:13950
     Shape of augmentation charge: PSQ
     Using radial grid of 1193 points,  6 beta functions with: 
                l(1) =   0
                l(2) =   0
                l(3) =   1
                l(4) =   1
                l(5) =   2
                l(6) =   2
     Q(r) pseudized with 0 coefficients 


     PseudoPot. # 3 for Zr read from file:
     ../../pseudo/Zr.pbe-spn-kjpaw_psl.1.0.0.UPF
     MD5 check sum: c5f18ff7fd7b8b65997bc48e1dc42bc6
     Pseudo is Projector augmented-wave + core cor, Zval = 12.0
     Generated using "atomic" code by A. Dal Corso  v.6.2 svn rev. 13949:13950
     Shape of augmentation charge: PSQ
     Using radial grid of 1225 points,  6 beta functions with: 
                l(1) =   0
                l(2) =   0
                l(3) =   1
                l(4) =   1
                l(5) =   2
                l(6) =   2
     Q(r) pseudized with 0 coefficients 


     atomic species   valence    mass     pseudopotential
        Te            16.00   127.60000     Te( 1.00)
        Co            17.00    58.93300     Co( 1.00)
        Zr            12.00    91.22400     Zr( 1.00)

      2 Sym. Ops. (no inversion) found ( 1 have fractional translation)



   Cartesian axes

     site n.     atom                  positions (alat units)
         1           Co  tau(   1) = (   0.4999783  -0.0000006   1.2488490  )
         2           Co  tau(   2) = (   0.2499909   0.4329955   0.4162826  )
         3           Te  tau(   3) = (   0.0003068   0.2888409   0.2307582  )
         4           Te  tau(   4) = (   0.2503577   0.1427594   0.5963039  )
         5           Te  tau(   5) = (   0.0007311   0.2890857   1.0686025  )
         6           Te  tau(   6) = (   0.2488161   0.1454324   1.4288599  )
         7           Te  tau(   7) = (  -0.2492594   0.7220805   0.2360311  )
         8           Te  tau(   8) = (  -0.0011773   0.5784310   0.5963039  )
         9           Te  tau(   9) = (  -0.2496808   0.7218370   1.0633328  )
        10           Te  tau(  10) = (   0.0003666   0.5757595   1.4288599  )
        11           Te  tau(  11) = (   0.5011580   0.2875606   0.2362637  )
        12           Te  tau(  12) = (   0.7492363   0.1439080   0.5965331  )
        13           Te  tau(  13) = (   0.4996115   0.2902308   1.0688367  )
        14           Te  tau(  14) = (   0.7496599   0.1441527   1.4343646  )
        15           Te  tau(  15) = (   0.2496237   0.7232308   0.2362638  )
        16           Te  tau(  16) = (   0.4996731   0.5771493   0.6018082  )
        17           Te  tau(  17) = (   0.2511629   0.7205562   1.0688367  )
        18           Te  tau(  18) = (   0.4992506   0.5769056   1.4290950  )
        19           Zr  tau(  19) = (   0.0039838  -0.0068990  -0.0000067  )
        20           Zr  tau(  20) = (  -0.0039855   0.0069010   0.8325725  )
        21           Zr  tau(  21) = (  -0.2539726   0.4398948  -0.0000067  )
        22           Zr  tau(  22) = (  -0.2460060   0.4260929   0.8325724  )
        23           Zr  tau(  23) = (   0.4961466  -0.0022130  -0.0009638  )
        24           Zr  tau(  24) = (   0.5038132   0.0022133   0.8335324  )
        25           Zr  tau(  25) = (   0.2538237   0.4352086   0.0009531  )
        26           Zr  tau(  26) = (   0.2461562   0.4307816   0.8316110  )

     number of k points=   114  Marzari-Vanderbilt smearing, width (Ry)=  0.0050

     Number of k-points >= 100: set verbosity='high' to print them.

     Dense  grid:  1435161 G-vectors     FFT dimensions: ( 125, 128, 216)

     Smooth grid:   363095 G-vectors     FFT dimensions: (  80,  80, 135)

     Estimated max dynamical RAM per process >       2.13 GB

     Estimated total dynamical RAM >      42.69 GB

     Initial potential from superposition of free atoms

     starting charge  385.97878, renormalised to  386.00000
     Starting wfcs are  268 randomized atomic wfcs
     Checking if some PAW data can be deallocated... 

     total cpu time spent up to now is    73113.6 secs

     Self-consistent Calculation

     iteration #  1     ecut=    70.00 Ry     beta= 0.70
     Davidson diagonalization with overlap
     c_bands:  4 eigenvalues not converged
     c_bands:  4 eigenvalues not converged
     c_bands:  2 eigenvalues not converged
     c_bands:  1 eigenvalues not converged
     c_bands:  2 eigenvalues not converged
     c_bands:  1 eigenvalues not converged
     c_bands:  2 eigenvalues not converged
     c_bands:  2 eigenvalues not converged
     c_bands:  5 eigenvalues not converged
     ethr =  1.00E-06,  avg # of iterations = 38.4

     negative rho (up, down):  1.733E-02 0.000E+00

     total cpu time spent up to now is    81356.6 secs

     total energy              =  -11348.18161795 Ry
     estimated scf accuracy    <       8.54300050 Ry

     iteration #  2     ecut=    70.00 Ry     beta= 0.70
     Davidson diagonalization with overlap
     ethr =  2.21E-03,  avg # of iterations =  9.1

     negative rho (up, down):  9.012E-03 0.000E+00

     total cpu time spent up to now is    82437.4 secs

     total energy              =  -11348.71120933 Ry
     estimated scf accuracy    <     146.62657113 Ry

     iteration #  3     ecut=    70.00 Ry     beta= 0.70
     Davidson diagonalization with overlap
     ethr =  2.21E-03,  avg # of iterations =  6.6

     total cpu time spent up to now is    83731.2 secs

     total energy              =  -11352.76830767 Ry
     estimated scf accuracy    <      25.70760314 Ry

     iteration #  4     ecut=    70.00 Ry     beta= 0.70
     Davidson diagonalization with overlap
     ethr =  2.21E-03,  avg # of iterations =  2.0

     total cpu time spent up to now is    84577.8 secs

     total energy              =  -11352.80926715 Ry
     estimated scf accuracy    <      13.72000288 Ry

     iteration #  5     ecut=    70.00 Ry     beta= 0.70
     Davidson diagonalization with overlap
     ethr =  2.21E-03,  avg # of iterations =  1.4

     total cpu time spent up to now is    85409.5 secs

     total energy              =  -11352.64060628 Ry
     estimated scf accuracy    <      39.42246139 Ry

     iteration #  6     ecut=    70.00 Ry     beta= 0.70
     Davidson diagonalization with overlap
     ethr =  2.21E-03,  avg # of iterations =  1.6

     total cpu time spent up to now is    86244.8 secs

     total energy              =  -11353.25054963 Ry
     estimated scf accuracy    <       3.17788541 Ry

     iteration #  7     ecut=    70.00 Ry     beta= 0.70
     Davidson diagonalization with overlap
     ethr =  8.23E-04,  avg # of iterations =  1.1

     total cpu time spent up to now is    87036.7 secs

     total energy              =  -11353.26222671 Ry
     estimated scf accuracy    <       3.28810271 Ry

     iteration #  8     ecut=    70.00 Ry     beta= 0.70
     Davidson diagonalization with overlap
     ethr =  8.23E-04,  avg # of iterations =  1.2

     total cpu time spent up to now is    87868.9 secs

     total energy              =  -11353.05763340 Ry
     estimated scf accuracy    <       3.22277402 Ry

     iteration #  9     ecut=    70.00 Ry     beta= 0.70
     Davidson diagonalization with overlap
     ethr =  8.23E-04,  avg # of iterations =  2.0

     total cpu time spent up to now is    88714.3 secs

     total energy              =  -11353.23575704 Ry
     estimated scf accuracy    <       1.10923760 Ry

     iteration # 10     ecut=    70.00 Ry     beta= 0.70
     Davidson diagonalization with overlap
     ethr =  2.87E-04,  avg # of iterations =  1.9

     total cpu time spent up to now is    89554.0 secs

     total energy              =  -11353.25892825 Ry
     estimated scf accuracy    <       0.67417791 Ry

     iteration # 11     ecut=    70.00 Ry     beta= 0.70
     Davidson diagonalization with overlap
     ethr =  1.75E-04,  avg # of iterations =  2.2

     total cpu time spent up to now is    90400.5 secs

     total energy              =  -11353.25942998 Ry
     estimated scf accuracy    <       0.74720688 Ry

     iteration # 12     ecut=    70.00 Ry     beta= 0.70
     Davidson diagonalization with overlap
     ethr =  1.75E-04,  avg # of iterations =  1.5

     total cpu time spent up to now is    91234.4 secs

     total energy              =  -11353.25624756 Ry
     estimated scf accuracy    <       0.38665835 Ry

     iteration # 13     ecut=    70.00 Ry     beta= 0.70
     Davidson diagonalization with overlap
     ethr =  1.00E-04,  avg # of iterations =  4.4

     total cpu time spent up to now is    92118.6 secs

     total energy              =  -11353.25951865 Ry
     estimated scf accuracy    <       0.35512217 Ry

     iteration # 14     ecut=    70.00 Ry     beta= 0.70
     Davidson diagonalization with overlap
     ethr =  9.20E-05,  avg # of iterations =  2.0

     total cpu time spent up to now is    92957.7 secs

     total energy              =  -11353.26739485 Ry
     estimated scf accuracy    <       0.05231390 Ry

     iteration # 15     ecut=    70.00 Ry     beta= 0.70
     Davidson diagonalization with overlap
     ethr =  1.36E-05,  avg # of iterations = 12.2

     total cpu time spent up to now is    94020.5 secs

     total energy              =  -11353.26872349 Ry
     estimated scf accuracy    <       0.21451486 Ry

     iteration # 16     ecut=    70.00 Ry     beta= 0.70
     Davidson diagonalization with overlap
     ethr =  1.36E-05,  avg # of iterations =  2.3

     total cpu time spent up to now is    94871.1 secs

     total energy              =  -11353.26782485 Ry
     estimated scf accuracy    <       0.09166775 Ry

     iteration # 17     ecut=    70.00 Ry     beta= 0.70
     Davidson diagonalization with overlap
     ethr =  1.36E-05,  avg # of iterations =  3.6

     total cpu time spent up to now is    95776.0 secs

     total energy              =  -11353.26508548 Ry
     estimated scf accuracy    <       0.14561578 Ry

     iteration # 18     ecut=    70.00 Ry     beta= 0.70
     Davidson diagonalization with overlap
     ethr =  1.36E-05,  avg # of iterations =  2.4

     total cpu time spent up to now is    96638.4 secs

     total energy              =  -11353.26913588 Ry
     estimated scf accuracy    <       0.05784664 Ry

     iteration # 19     ecut=    70.00 Ry     beta= 0.70
     Davidson diagonalization with overlap
     ethr =  1.36E-05,  avg # of iterations =  2.0

     total cpu time spent up to now is    97486.4 secs

     total energy              =  -11353.27023122 Ry
     estimated scf accuracy    <       0.06756314 Ry

     iteration # 20     ecut=    70.00 Ry     beta= 0.70
     Davidson diagonalization with overlap
     ethr =  1.36E-05,  avg # of iterations =  2.0

     total cpu time spent up to now is    98324.1 secs

     total energy              =  -11353.27193006 Ry
     estimated scf accuracy    <       0.07843218 Ry

     iteration # 21     ecut=    70.00 Ry     beta= 0.70
     Davidson diagonalization with overlap
     ethr =  1.36E-05,  avg # of iterations =  1.0

     total cpu time spent up to now is    99092.4 secs

     total energy              =  -11353.27439646 Ry
     estimated scf accuracy    <       0.00309042 Ry

     iteration # 22     ecut=    70.00 Ry     beta= 0.70
     Davidson diagonalization with overlap
     ethr =  8.01E-07,  avg # of iterations =  5.8

     total cpu time spent up to now is   100051.9 secs

     total energy              =  -11353.27442825 Ry
     estimated scf accuracy    <       0.00698526 Ry

     iteration # 23     ecut=    70.00 Ry     beta= 0.70
     Davidson diagonalization with overlap
     ethr =  8.01E-07,  avg # of iterations =  2.3

     total cpu time spent up to now is   100908.3 secs

     total energy              =  -11353.27453912 Ry
     estimated scf accuracy    <       0.00352344 Ry

     iteration # 24     ecut=    70.00 Ry     beta= 0.70
     Davidson diagonalization with overlap
     ethr =  8.01E-07,  avg # of iterations =  2.4

     total cpu time spent up to now is   101773.1 secs

     total energy              =  -11353.27426513 Ry
     estimated scf accuracy    <       0.01356557 Ry

     iteration # 25     ecut=    70.00 Ry     beta= 0.70
     Davidson diagonalization with overlap
     ethr =  8.01E-07,  avg # of iterations =  2.8

     total cpu time spent up to now is   102631.7 secs

     total energy              =  -11353.27401935 Ry
     estimated scf accuracy    <       0.01257921 Ry

     iteration # 26     ecut=    70.00 Ry     beta= 0.70
     Davidson diagonalization with overlap
     ethr =  8.01E-07,  avg # of iterations =  2.0

     total cpu time spent up to now is   103479.1 secs

     total energy              =  -11353.27412071 Ry
     estimated scf accuracy    <       0.01353997 Ry

     iteration # 27     ecut=    70.00 Ry     beta= 0.70
     Davidson diagonalization with overlap
     ethr =  8.01E-07,  avg # of iterations =  2.0

     total cpu time spent up to now is   104322.2 secs

     total energy              =  -11353.27446784 Ry
     estimated scf accuracy    <       0.00440832 Ry

     iteration # 28     ecut=    70.00 Ry     beta= 0.70
     Davidson diagonalization with overlap
     ethr =  8.01E-07,  avg # of iterations =  1.0

     total cpu time spent up to now is   105085.2 secs

     total energy              =  -11353.27463740 Ry
     estimated scf accuracy    <       0.00041975 Ry

     iteration # 29     ecut=    70.00 Ry     beta= 0.70
     Davidson diagonalization with overlap
     ethr =  1.09E-07,  avg # of iterations =  2.4

     total cpu time spent up to now is   105932.3 secs

     total energy              =  -11353.27465029 Ry
     estimated scf accuracy    <       0.00009984 Ry

     iteration # 30     ecut=    70.00 Ry     beta= 0.70
     Davidson diagonalization with overlap
     ethr =  2.59E-08,  avg # of iterations =  4.6

     total cpu time spent up to now is   106842.5 secs

     total energy              =  -11353.27465372 Ry
     estimated scf accuracy    <       0.00005216 Ry

     iteration # 31     ecut=    70.00 Ry     beta= 0.70
     Davidson diagonalization with overlap
     ethr =  1.35E-08,  avg # of iterations =  5.8

     total cpu time spent up to now is   107805.2 secs

     total energy              =  -11353.27464227 Ry
     estimated scf accuracy    <       0.00015063 Ry

     iteration # 32     ecut=    70.00 Ry     beta= 0.70
     Davidson diagonalization with overlap
     ethr =  1.35E-08,  avg # of iterations =  3.1

     total cpu time spent up to now is   108725.4 secs

     total energy              =  -11353.27462536 Ry
     estimated scf accuracy    <       0.00107404 Ry

     iteration # 33     ecut=    70.00 Ry     beta= 0.70
     Davidson diagonalization with overlap
     ethr =  1.35E-08,  avg # of iterations =  2.7

     total cpu time spent up to now is   109627.4 secs

     total energy              =  -11353.27465660 Ry
     estimated scf accuracy    <       0.00013763 Ry

     iteration # 34     ecut=    70.00 Ry     beta= 0.70
     Davidson diagonalization with overlap
     ethr =  1.35E-08,  avg # of iterations =  2.0

     total cpu time spent up to now is   110469.0 secs

     total energy              =  -11353.27466035 Ry
     estimated scf accuracy    <       0.00001324 Ry

     iteration # 35     ecut=    70.00 Ry     beta= 0.70
     Davidson diagonalization with overlap
     ethr =  3.43E-09,  avg # of iterations =  2.1

     total cpu time spent up to now is   111347.4 secs

     total energy              =  -11353.27465950 Ry
     estimated scf accuracy    <       0.00003947 Ry

     iteration # 36     ecut=    70.00 Ry     beta= 0.70
     Davidson diagonalization with overlap
     ethr =  3.43E-09,  avg # of iterations =  2.1

     total cpu time spent up to now is   112200.2 secs

     total energy              =  -11353.27465802 Ry
     estimated scf accuracy    <       0.00010424 Ry

     iteration # 37     ecut=    70.00 Ry     beta= 0.70
     Davidson diagonalization with overlap
     ethr =  3.43E-09,  avg # of iterations =  2.0

     total cpu time spent up to now is   113061.1 secs

     total energy              =  -11353.27465923 Ry
     estimated scf accuracy    <       0.00003322 Ry

     iteration # 38     ecut=    70.00 Ry     beta= 0.70
     Davidson diagonalization with overlap
     ethr =  3.43E-09,  avg # of iterations =  2.0

     total cpu time spent up to now is   113927.8 secs

     total energy              =  -11353.27465979 Ry
     estimated scf accuracy    <       0.00002828 Ry

     iteration # 39     ecut=    70.00 Ry     beta= 0.70
     Davidson diagonalization with overlap
     ethr =  3.43E-09,  avg # of iterations =  2.0

     total cpu time spent up to now is   114811.9 secs

     total energy              =  -11353.27466049 Ry
     estimated scf accuracy    <       0.00001572 Ry

     iteration # 40     ecut=    70.00 Ry     beta= 0.70
     Davidson diagonalization with overlap
     ethr =  3.43E-09,  avg # of iterations =  2.0

     total cpu time spent up to now is   115656.6 secs

     total energy              =  -11353.27466165 Ry
     estimated scf accuracy    <       0.00000839 Ry

     iteration # 41     ecut=    70.00 Ry     beta= 0.70
     Davidson diagonalization with overlap
     ethr =  2.17E-09,  avg # of iterations =  1.8

     total cpu time spent up to now is   116492.8 secs

     total energy              =  -11353.27466168 Ry
     estimated scf accuracy    <       0.00000219 Ry

     iteration # 42     ecut=    70.00 Ry     beta= 0.70
     Davidson diagonalization with overlap
     ethr =  5.66E-10,  avg # of iterations =  3.1

     total cpu time spent up to now is   117368.3 secs

     total energy              =  -11353.27466177 Ry
     estimated scf accuracy    <       0.00000112 Ry

     iteration # 43     ecut=    70.00 Ry     beta= 0.70
     Davidson diagonalization with overlap
     ethr =  2.91E-10,  avg # of iterations =  5.1

     total cpu time spent up to now is   118295.1 secs

     End of self-consistent calculation

     Number of k-points >= 100: set verbosity='high' to print the bands.

     the Fermi energy is    11.7522 ev

!    total energy              =  -11353.27466159 Ry

     total all-electron energy =   -280528.558939 Ry
     estimated scf accuracy    <       0.00000055 Ry
     smearing contrib. (-TS)   =       0.00014647 Ry
     internal energy E=F+TS    =  -11353.27480806 Ry

     The total energy is F=E-TS. E is the sum of the following terms:
     one-electron contribution =   -2167.14919867 Ry
     hartree contribution      =    1293.11540978 Ry
     xc contribution           =   -1028.38387680 Ry
     ewald contribution        =   -2858.34663262 Ry
     one-center paw contrib.   =   -6592.51050976 Ry

     convergence has been achieved in  43 iterations

     Forces acting on atoms (cartesian axes, Ry/au):

     atom    1 type  2   force =     0.00000387    0.00000223   -0.00000988
     atom    2 type  2   force =    -0.00000356   -0.00000206    0.00000754
     atom    3 type  1   force =     0.00004818    0.00002782   -0.00030755
     atom    4 type  1   force =     0.00000100   -0.00000053    0.00024338
     atom    5 type  1   force =     0.00006306    0.00003641   -0.00012691
     atom    6 type  1   force =     0.00004363    0.00000956   -0.00006228
     atom    7 type  1   force =     0.00006290    0.00003632   -0.00027127
     atom    8 type  1   force =     0.00000004    0.00000113    0.00024338
     atom    9 type  1   force =     0.00005943    0.00003431   -0.00012301
     atom   10 type  1   force =     0.00003009    0.00003301   -0.00006228
     atom   11 type  1   force =    -0.00001466   -0.00001603   -0.00018842
     atom   12 type  1   force =    -0.00004569   -0.00002638    0.00035234
     atom   13 type  1   force =    -0.00001742   -0.00001845    0.00000765
     atom   14 type  1   force =    -0.00007913   -0.00004568    0.00004996
     atom   15 type  1   force =    -0.00002121   -0.00000468   -0.00018842
     atom   16 type  1   force =    -0.00003346   -0.00001932    0.00039015
     atom   17 type  1   force =    -0.00002469   -0.00000586    0.00000765
     atom   18 type  1   force =    -0.00007519   -0.00004341    0.00004226
     atom   19 type  3   force =    -0.00002680    0.00004762    0.00009225
     atom   20 type  3   force =     0.00002807   -0.00004705   -0.00009398
     atom   21 type  3   force =     0.00002784   -0.00004702    0.00009225
     atom   22 type  3   force =    -0.00002672    0.00004783   -0.00009398
     atom   23 type  3   force =     0.00001558    0.00000899    0.00009566
     atom   24 type  3   force =    -0.00001541   -0.00000890   -0.00009691
     atom   25 type  3   force =    -0.00001470   -0.00000849    0.00010420
     atom   26 type  3   force =     0.00001496    0.00000863   -0.00010378

     Total force =     0.000900     Total SCF correction =     0.003166
     SCF correction compared to forces is large: reduce conv_thr to get better values


     Computing stress (Cartesian axis) and pressure

          total   stress  (Ry/bohr**3)                   (kbar)     P=        0.61
   0.00000090  -0.00000831  -0.00001391            0.13       -1.22       -2.05
  -0.00000831   0.00001049  -0.00000803           -1.22        1.54       -1.18
  -0.00001391  -0.00000803   0.00000100           -2.05       -1.18        0.15


     Writing output data file ./tmp/CoZrTe2-S2_i02_w12.save/

     init_run     :   1222.20s CPU   1277.84s WALL (       2 calls)
     electrons    : 101483.25s CPU 108560.15s WALL (       5 calls)
     update_pot   :   1123.82s CPU   1130.77s WALL (       3 calls)
     forces       :   1678.30s CPU   1692.04s WALL (       5 calls)
     stress       :   7296.57s CPU   7332.57s WALL (       5 calls)

     Called by init_run:
     wfcinit      :    605.59s CPU    655.94s WALL (       2 calls)
     potinit      :    235.10s CPU    238.88s WALL (       2 calls)
     hinit0       :    375.99s CPU    376.74s WALL (       2 calls)

     Called by electrons:
     c_bands      :  85770.92s CPU  91477.89s WALL (     113 calls)
     sum_band     :  12596.02s CPU  13709.77s WALL (     113 calls)
     v_of_rho     :   2857.70s CPU   3038.77s WALL (     116 calls)
     newd         :    176.29s CPU    208.48s WALL (     116 calls)
     PAW_pot      :     93.51s CPU     96.26s WALL (     119 calls)
     mix_rho      :     90.05s CPU     97.97s WALL (     113 calls)
     vdW_kernel   :     14.06s CPU     14.08s WALL (       1 calls)

     Called by c_bands:
     init_us_2    :    358.73s CPU    361.30s WALL (    2892 calls)
     cegterg      :  81910.15s CPU  87511.34s WALL (    1368 calls)

     Called by *egterg:
     cdiaghg      :   1107.96s CPU   1174.68s WALL (    5742 calls)
     h_psi        :  47712.18s CPU  53051.05s WALL (    5838 calls)
     s_psi        :   7099.44s CPU   7119.45s WALL (    5838 calls)
     g_psi        :    166.24s CPU    167.59s WALL (    4446 calls)

     Called by h_psi:
     h_psi:calbec :   7255.57s CPU   7276.63s WALL (    5838 calls)
     vloc_psi     :  33164.57s CPU  38379.78s WALL (    5838 calls)
     add_vuspsi   :   7109.33s CPU   7128.64s WALL (    5838 calls)

     General routines
     calbec       :  11032.72s CPU  11064.83s WALL (    7530 calls)
     fft          :   1729.93s CPU   1832.61s WALL (    8148 calls)
     ffts         :     11.37s CPU     12.35s WALL (     229 calls)
     fftw         :  33288.21s CPU  39322.90s WALL ( 1804760 calls)
     interpolate  :     31.66s CPU     35.50s WALL (     116 calls)

     Parallel routines
     fft_scatt_xy :   7630.09s CPU   8661.91s WALL ( 1813137 calls)
     fft_scatt_yz :   5780.62s CPU   6690.50s WALL ( 1813137 calls)

     PWSCF        :   1d 7h21m CPU   1d 9h22m WALL


   This run was terminated on:   0: 4: 8  28Nov2021            

=------------------------------------------------------------------------------=
   JOB DONE.
=------------------------------------------------------------------------------=
