
     Program PWSCF v.6.7MaX starts on 26Nov2021 at 14:41:52 

     This program is part of the open-source Quantum ESPRESSO suite
     for quantum simulation of materials; please cite
         "P. Giannozzi et al., J. Phys.:Condens. Matter 21 395502 (2009);
         "P. Giannozzi et al., J. Phys.:Condens. Matter 29 465901 (2017);
          URL http://www.quantum-espresso.org", 
     in publications or presentations arising from this work. More details at
     http://www.quantum-espresso.org/quote

     Parallel version (MPI), running on    20 processors

     MPI processes distributed on     1 nodes
     K-points division:     npool     =      10
     R & G space division:  proc/nbgrp/npool/nimage =       2
     Waiting for input...
     Reading input from standard input

     Current dimensions of program PWSCF are:
     Max number of different atomic species (ntypx) = 10
     Max number of k-points (npk) =  40000
     Max angular momentum in pseudopotentials (lmaxx) =  3
     file Te.pbe-dn-kjpaw_psl.1.0.0.UPF: wavefunction(s)  5S 5P renormalized
     file Co.pbe-spn-kjpaw_psl.1.0.0.UPF: wavefunction(s)  3P 3D renormalized
     file Zr.pbe-spn-kjpaw_psl.1.0.0.UPF: wavefunction(s)  4S 4P renormalized

     IMPORTANT: XC functional enforced from input :
     Exchange-correlation= VDW-DF2-B86R
                           (   1   4  26   0   2   0   0)
     Any further DFT definition will be discarded
     Please, verify this is what you really want


     Subspace diagonalization in iterative solution of the eigenvalue problem:
     a serial algorithm will be used


     Parallelization info
     --------------------
     sticks:   dense  smooth     PW     G-vecs:    dense   smooth      PW
     Min        5175    2070    567               711353   179860   25625
     Max        5176    2071    568               711362   179863   25630
     Sum       10351    4141   1135              1422715   359723   51255


     Title: 
     CoZrTe2-S3_i02_w24                                                         


     bravais-lattice index     =            4
     lattice parameter (alat)  =      14.6568  a.u.
     unit-cell volume          =    4550.1159 (a.u.)^3
     number of atoms/cell      =           27
     number of atomic types    =            3
     number of electrons       =       403.00
     number of Kohn-Sham states=          242
     kinetic-energy cutoff     =      70.0000  Ry
     charge density cutoff     =     700.0000  Ry
     scf convergence threshold =      1.0E-06
     mixing beta               =       0.7000
     number of iterations used =            8  plain     mixing
     energy convergence thresh.=      1.0E-05
     force convergence thresh. =      1.0E-04
     press convergence thresh. =      5.0E-01
     Exchange-correlation= VDW-DF2-B86R
                           (   1   4  26   0   2   0   0)
     nstep                     =           50


     celldm(1)=  14.656800  celldm(2)=   0.000000  celldm(3)=   1.668685
     celldm(4)=   0.000000  celldm(5)=   0.000000  celldm(6)=   0.000000

     crystal axes: (cart. coord. in units of alat)
               a(1) = (   1.000000   0.000000   0.000000 )  
               a(2) = (  -0.500000   0.866025   0.000000 )  
               a(3) = (   0.000000   0.000000   1.668685 )  

     reciprocal axes: (cart. coord. in units 2 pi/alat)
               b(1) = (  1.000000  0.577350 -0.000000 )  
               b(2) = (  0.000000  1.154701  0.000000 )  
               b(3) = (  0.000000 -0.000000  0.599274 )  


     PseudoPot. # 1 for Te read from file:
     ../../pseudo/Te.pbe-dn-kjpaw_psl.1.0.0.UPF
     MD5 check sum: 6fcff28523c44509c8b0933d026a09ba
     Pseudo is Projector augmented-wave + core cor, Zval = 16.0
     Generated using "atomic" code by A. Dal Corso  v.6.2 svn rev. 13949:13950
     Shape of augmentation charge: PSQ
     Using radial grid of 1245 points,  6 beta functions with: 
                l(1) =   0
                l(2) =   0
                l(3) =   1
                l(4) =   1
                l(5) =   2
                l(6) =   2
     Q(r) pseudized with 0 coefficients 


     PseudoPot. # 2 for Co read from file:
     ../../pseudo/Co.pbe-spn-kjpaw_psl.1.0.0.UPF
     MD5 check sum: ae68c65c1ed12cdfc68c9a59d10cd886
     Pseudo is Projector augmented-wave + core cor, Zval = 17.0
     Generated using "atomic" code by A. Dal Corso  v.6.2 svn rev. 13949:13950
     Shape of augmentation charge: PSQ
     Using radial grid of 1193 points,  6 beta functions with: 
                l(1) =   0
                l(2) =   0
                l(3) =   1
                l(4) =   1
                l(5) =   2
                l(6) =   2
     Q(r) pseudized with 0 coefficients 


     PseudoPot. # 3 for Zr read from file:
     ../../pseudo/Zr.pbe-spn-kjpaw_psl.1.0.0.UPF
     MD5 check sum: c5f18ff7fd7b8b65997bc48e1dc42bc6
     Pseudo is Projector augmented-wave + core cor, Zval = 12.0
     Generated using "atomic" code by A. Dal Corso  v.6.2 svn rev. 13949:13950
     Shape of augmentation charge: PSQ
     Using radial grid of 1225 points,  6 beta functions with: 
                l(1) =   0
                l(2) =   0
                l(3) =   1
                l(4) =   1
                l(5) =   2
                l(6) =   2
     Q(r) pseudized with 0 coefficients 


     atomic species   valence    mass     pseudopotential
        Te            16.00   127.60000     Te( 1.00)
        Co            17.00    58.93300     Co( 1.00)
        Zr            12.00    91.22400     Zr( 1.00)

      4 Sym. Ops., with inversion, found ( 2 have fractional translation)



   Cartesian axes

     site n.     atom                  positions (alat units)
         1           Co  tau(   1) = (  -0.2500000   0.4330127   1.2515137  )
         2           Co  tau(   2) = (   0.5000000   0.0000000   1.2515137  )
         3           Co  tau(   3) = (   0.2500000   0.4330127   0.4171712  )
         4           Te  tau(   4) = (  -0.0008832   0.2893274   0.2320408  )
         5           Te  tau(   5) = (   0.2510064   0.1438988   0.6023017  )
         6           Te  tau(   6) = (   0.0018963   0.2876917   1.0748365  )
         7           Te  tau(   7) = (   0.2482002   0.1454881   1.4281909  )
         8           Te  tau(   8) = (  -0.2508312   0.7221677   0.2365187  )
         9           Te  tau(   9) = (  -0.0007691   0.5777943   0.5977566  )
        10           Te  tau(  10) = (  -0.2489101   0.7210586   1.0705518  )
        11           Te  tau(  11) = (   0.0006397   0.5769810   1.4276410  )
        12           Te  tau(  12) = (   0.5007691   0.2882311   0.2365859  )
        13           Te  tau(  13) = (   0.7508312   0.1438577   0.5978238  )
        14           Te  tau(  14) = (   0.4993603   0.2890444   1.0753865  )
        15           Te  tau(  15) = (   0.7489101   0.1449668   1.4324756  )
        16           Te  tau(  16) = (   0.2489936   0.7221266   0.2320408  )
        17           Te  tau(  17) = (   0.5008832   0.5766980   0.6023017  )
        18           Te  tau(  18) = (   0.2517998   0.7205373   1.0748365  )
        19           Te  tau(  19) = (   0.4981037   0.5783337   1.4281909  )
        20           Zr  tau(  20) = (   0.0054079  -0.0031222  -0.0025510  )
        21           Zr  tau(  21) = (  -0.0054079   0.0031222   0.8368935  )
        22           Zr  tau(  22) = (  -0.2542843   0.4394695  -0.0011501  )
        23           Zr  tau(  23) = (  -0.2457157   0.4265559   0.8354926  )
        24           Zr  tau(  24) = (   0.4922661   0.0004819  -0.0011501  )
        25           Zr  tau(  25) = (   0.5077339  -0.0004819   0.8354926  )
        26           Zr  tau(  26) = (   0.2519408   0.4318922  -0.0020833  )
        27           Zr  tau(  27) = (   0.2480592   0.4341332   0.8364258  )

     number of k points=   114  Marzari-Vanderbilt smearing, width (Ry)=  0.0050

     Number of k-points >= 100: set verbosity='high' to print them.

     Dense  grid:  1422715 G-vectors     FFT dimensions: ( 125, 125, 216)

     Smooth grid:   359723 G-vectors     FFT dimensions: (  80,  80, 144)

     Estimated max dynamical RAM per process >       2.17 GB

     Estimated total dynamical RAM >      43.39 GB

     Initial potential from superposition of free atoms

     starting charge  402.97849, renormalised to  403.00000


     %%%%%%%%%%%%%%%%%%%%%%%%%%%%%%%%%%%%%%%%%%%%%%%%%%%%%%%%%%%%%%%%%%%%%%%%
     %                                                                      %
     % You are using vdW-DF, which was implemented by the Thonhauser group. %
     % Please cite the following two papers that made this development      %
     % possible and the two reviews that describe the various versions:     %
     %                                                                      %
     %   T. Thonhauser et al., PRL 115, 136402 (2015).                      %
     %   T. Thonhauser et al., PRB 76, 125112 (2007).                       %
     %   K. Berland et al., Rep. Prog. Phys. 78, 066501 (2015).             %
     %   D.C. Langreth et al., J. Phys.: Condens. Matter 21, 084203 (2009). %
     %                                                                      %
     %                                                                      %
     % If you are calculating the stress with vdW-DF, please also cite:     %
     %                                                                      %
     %   R. Sabatini et al., J. Phys.: Condens. Matter 24, 424209 (2012).   %
     %                                                                      %
     %%%%%%%%%%%%%%%%%%%%%%%%%%%%%%%%%%%%%%%%%%%%%%%%%%%%%%%%%%%%%%%%%%%%%%%%


     Starting wfcs are  278 randomized atomic wfcs
     Checking if some PAW data can be deallocated... 

     total cpu time spent up to now is      677.6 secs

     Self-consistent Calculation

     iteration #  1     ecut=    70.00 Ry     beta= 0.70
     Davidson diagonalization with overlap
     ethr =  1.00E-02,  avg # of iterations =  2.1

     total cpu time spent up to now is     1686.0 secs

     total energy              =  -11721.27051418 Ry
     estimated scf accuracy    <      11.02744164 Ry

     iteration #  2     ecut=    70.00 Ry     beta= 0.70
     Davidson diagonalization with overlap
     ethr =  2.74E-03,  avg # of iterations =  7.5

     total cpu time spent up to now is     2898.6 secs

     total energy              =  -11721.07513590 Ry
     estimated scf accuracy    <     257.63872237 Ry

     iteration #  3     ecut=    70.00 Ry     beta= 0.70
     Davidson diagonalization with overlap
     ethr =  2.74E-03,  avg # of iterations =  8.4

     total cpu time spent up to now is     4421.3 secs

     total energy              =  -11724.71808757 Ry
     estimated scf accuracy    <      65.46119204 Ry

     iteration #  4     ecut=    70.00 Ry     beta= 0.70
     Davidson diagonalization with overlap
     ethr =  2.74E-03,  avg # of iterations =  5.9

     total cpu time spent up to now is     5797.8 secs

     total energy              =  -11726.27029750 Ry
     estimated scf accuracy    <     107.88992292 Ry

     iteration #  5     ecut=    70.00 Ry     beta= 0.70
     Davidson diagonalization with overlap
     ethr =  2.74E-03,  avg # of iterations =  4.1

     total cpu time spent up to now is     6799.6 secs

     total energy              =  -11728.84145470 Ry
     estimated scf accuracy    <       6.89679329 Ry

     iteration #  6     ecut=    70.00 Ry     beta= 0.70
     Davidson diagonalization with overlap
     ethr =  1.71E-03,  avg # of iterations =  1.5

     total cpu time spent up to now is     7713.1 secs

     total energy              =  -11729.00799920 Ry
     estimated scf accuracy    <       4.03902015 Ry

     iteration #  7     ecut=    70.00 Ry     beta= 0.70
     Davidson diagonalization with overlap
     ethr =  1.00E-03,  avg # of iterations =  1.0

     total cpu time spent up to now is     8573.3 secs

     total energy              =  -11728.97729453 Ry
     estimated scf accuracy    <       2.71500884 Ry

     iteration #  8     ecut=    70.00 Ry     beta= 0.70
     Davidson diagonalization with overlap
     ethr =  6.74E-04,  avg # of iterations =  1.3

     total cpu time spent up to now is     9483.6 secs

     total energy              =  -11728.96810289 Ry
     estimated scf accuracy    <       1.60296006 Ry

     iteration #  9     ecut=    70.00 Ry     beta= 0.70
     Davidson diagonalization with overlap
     ethr =  3.98E-04,  avg # of iterations =  2.1

     total cpu time spent up to now is    10405.9 secs

     total energy              =  -11728.97828699 Ry
     estimated scf accuracy    <       0.30757111 Ry

     iteration # 10     ecut=    70.00 Ry     beta= 0.70
     Davidson diagonalization with overlap
     ethr =  7.63E-05,  avg # of iterations = 10.9

     total cpu time spent up to now is    11572.8 secs

     total energy              =  -11729.00131185 Ry
     estimated scf accuracy    <       1.21232930 Ry

     iteration # 11     ecut=    70.00 Ry     beta= 0.70
     Davidson diagonalization with overlap
     ethr =  7.63E-05,  avg # of iterations =  2.2

     total cpu time spent up to now is    12517.8 secs

     total energy              =  -11729.01158055 Ry
     estimated scf accuracy    <       0.45007142 Ry

     iteration # 12     ecut=    70.00 Ry     beta= 0.70
     Davidson diagonalization with overlap
     ethr =  7.63E-05,  avg # of iterations =  2.0

     total cpu time spent up to now is    13436.6 secs

     total energy              =  -11729.01265568 Ry
     estimated scf accuracy    <       0.27976336 Ry

     iteration # 13     ecut=    70.00 Ry     beta= 0.70
     Davidson diagonalization with overlap
     ethr =  6.94E-05,  avg # of iterations =  1.0

     total cpu time spent up to now is    14288.6 secs

     total energy              =  -11729.01726968 Ry
     estimated scf accuracy    <       0.17593788 Ry

     iteration # 14     ecut=    70.00 Ry     beta= 0.70
     Davidson diagonalization with overlap
     ethr =  4.37E-05,  avg # of iterations =  1.0

     total cpu time spent up to now is    15138.0 secs

     total energy              =  -11729.01692406 Ry
     estimated scf accuracy    <       0.10307286 Ry

     iteration # 15     ecut=    70.00 Ry     beta= 0.70
     Davidson diagonalization with overlap
     ethr =  2.56E-05,  avg # of iterations =  2.7

     total cpu time spent up to now is    16081.4 secs

     total energy              =  -11729.01584938 Ry
     estimated scf accuracy    <       0.07087142 Ry

     iteration # 16     ecut=    70.00 Ry     beta= 0.70
     Davidson diagonalization with overlap
     ethr =  1.76E-05,  avg # of iterations =  1.6

     total cpu time spent up to now is    16991.9 secs

     total energy              =  -11729.01809560 Ry
     estimated scf accuracy    <       0.00559723 Ry

     iteration # 17     ecut=    70.00 Ry     beta= 0.70
     Davidson diagonalization with overlap
     ethr =  1.39E-06,  avg # of iterations = 13.0

     total cpu time spent up to now is    18334.4 secs

     total energy              =  -11729.01886439 Ry
     estimated scf accuracy    <       0.01781470 Ry

     iteration # 18     ecut=    70.00 Ry     beta= 0.70
     Davidson diagonalization with overlap
     ethr =  1.39E-06,  avg # of iterations =  2.3

     total cpu time spent up to now is    19270.1 secs

     total energy              =  -11729.01933434 Ry
     estimated scf accuracy    <       0.00723610 Ry

     iteration # 19     ecut=    70.00 Ry     beta= 0.70
     Davidson diagonalization with overlap
     ethr =  1.39E-06,  avg # of iterations =  2.0

     total cpu time spent up to now is    20209.6 secs

     total energy              =  -11729.01817952 Ry
     estimated scf accuracy    <       0.01731783 Ry

     iteration # 20     ecut=    70.00 Ry     beta= 0.70
     Davidson diagonalization with overlap
     ethr =  1.39E-06,  avg # of iterations =  3.2

     total cpu time spent up to now is    21206.9 secs

     total energy              =  -11729.01863699 Ry
     estimated scf accuracy    <       0.02450541 Ry

     iteration # 21     ecut=    70.00 Ry     beta= 0.70
     Davidson diagonalization with overlap
     ethr =  1.39E-06,  avg # of iterations =  2.1

     total cpu time spent up to now is    22140.8 secs

     total energy              =  -11729.01951497 Ry
     estimated scf accuracy    <       0.00071091 Ry

     iteration # 22     ecut=    70.00 Ry     beta= 0.70
     Davidson diagonalization with overlap
     ethr =  1.76E-07,  avg # of iterations =  5.3

     total cpu time spent up to now is    23206.0 secs

     total energy              =  -11729.01934797 Ry
     estimated scf accuracy    <       0.00389545 Ry

     iteration # 23     ecut=    70.00 Ry     beta= 0.70
     Davidson diagonalization with overlap
     ethr =  1.76E-07,  avg # of iterations =  2.0

     total cpu time spent up to now is    24187.6 secs

     total energy              =  -11729.01957039 Ry
     estimated scf accuracy    <       0.00112977 Ry

     iteration # 24     ecut=    70.00 Ry     beta= 0.70
     Davidson diagonalization with overlap
     ethr =  1.76E-07,  avg # of iterations =  2.0

     total cpu time spent up to now is    25104.6 secs

     total energy              =  -11729.01960806 Ry
     estimated scf accuracy    <       0.00028955 Ry

     iteration # 25     ecut=    70.00 Ry     beta= 0.70
     Davidson diagonalization with overlap
     ethr =  7.18E-08,  avg # of iterations =  2.0

     total cpu time spent up to now is    26053.8 secs

     total energy              =  -11729.01957444 Ry
     estimated scf accuracy    <       0.00092285 Ry

     iteration # 26     ecut=    70.00 Ry     beta= 0.70
     Davidson diagonalization with overlap
     ethr =  7.18E-08,  avg # of iterations =  2.0

     total cpu time spent up to now is    27005.5 secs

     total energy              =  -11729.01960663 Ry
     estimated scf accuracy    <       0.00030182 Ry

     iteration # 27     ecut=    70.00 Ry     beta= 0.70
     Davidson diagonalization with overlap
     ethr =  7.18E-08,  avg # of iterations =  1.1

     total cpu time spent up to now is    27877.4 secs

     total energy              =  -11729.01961679 Ry
     estimated scf accuracy    <       0.00007468 Ry

     iteration # 28     ecut=    70.00 Ry     beta= 0.70
     Davidson diagonalization with overlap
     ethr =  1.85E-08,  avg # of iterations =  4.6

     total cpu time spent up to now is    28878.2 secs

     total energy              =  -11729.01960584 Ry
     estimated scf accuracy    <       0.00048944 Ry

     iteration # 29     ecut=    70.00 Ry     beta= 0.70
     Davidson diagonalization with overlap
     ethr =  1.85E-08,  avg # of iterations =  2.0

     total cpu time spent up to now is    29819.4 secs

     total energy              =  -11729.01961396 Ry
     estimated scf accuracy    <       0.00012716 Ry

     iteration # 30     ecut=    70.00 Ry     beta= 0.70
     Davidson diagonalization with overlap
     ethr =  1.85E-08,  avg # of iterations =  2.9

     total cpu time spent up to now is    30813.9 secs

     total energy              =  -11729.01959754 Ry
     estimated scf accuracy    <       0.00041291 Ry

     iteration # 31     ecut=    70.00 Ry     beta= 0.70
     Davidson diagonalization with overlap
     ethr =  1.85E-08,  avg # of iterations =  3.1

     total cpu time spent up to now is    31813.0 secs

     total energy              =  -11729.01961702 Ry
     estimated scf accuracy    <       0.00043611 Ry

     iteration # 32     ecut=    70.00 Ry     beta= 0.70
     Davidson diagonalization with overlap
     ethr =  1.85E-08,  avg # of iterations =  2.2

     total cpu time spent up to now is    32746.7 secs

     total energy              =  -11729.01961498 Ry
     estimated scf accuracy    <       0.00010042 Ry

     iteration # 33     ecut=    70.00 Ry     beta= 0.70
     Davidson diagonalization with overlap
     ethr =  1.85E-08,  avg # of iterations =  2.0

     total cpu time spent up to now is    33665.4 secs

     total energy              =  -11729.01962157 Ry
     estimated scf accuracy    <       0.00007386 Ry

     iteration # 34     ecut=    70.00 Ry     beta= 0.70
     Davidson diagonalization with overlap
     ethr =  1.83E-08,  avg # of iterations =  2.0

     total cpu time spent up to now is    34591.7 secs

     total energy              =  -11729.01962322 Ry
     estimated scf accuracy    <       0.00014084 Ry

     iteration # 35     ecut=    70.00 Ry     beta= 0.70
     Davidson diagonalization with overlap
     ethr =  1.83E-08,  avg # of iterations =  2.0

     total cpu time spent up to now is    35510.6 secs

     total energy              =  -11729.01962475 Ry
     estimated scf accuracy    <       0.00000577 Ry

     iteration # 36     ecut=    70.00 Ry     beta= 0.70
     Davidson diagonalization with overlap
     ethr =  1.43E-09,  avg # of iterations =  6.4

     total cpu time spent up to now is    36578.8 secs

     total energy              =  -11729.01962530 Ry
     estimated scf accuracy    <       0.00000140 Ry

     iteration # 37     ecut=    70.00 Ry     beta= 0.70
     Davidson diagonalization with overlap
     ethr =  3.47E-10,  avg # of iterations =  5.0

     total cpu time spent up to now is    37685.6 secs

     total energy              =  -11729.01962565 Ry
     estimated scf accuracy    <       0.00000763 Ry

     iteration # 38     ecut=    70.00 Ry     beta= 0.70
     Davidson diagonalization with overlap
     ethr =  3.47E-10,  avg # of iterations =  2.9

     total cpu time spent up to now is    38643.0 secs

     total energy              =  -11729.01962492 Ry
     estimated scf accuracy    <       0.00001787 Ry

     iteration # 39     ecut=    70.00 Ry     beta= 0.70
     Davidson diagonalization with overlap
     ethr =  3.47E-10,  avg # of iterations =  2.9

     total cpu time spent up to now is    39599.4 secs

     total energy              =  -11729.01962528 Ry
     estimated scf accuracy    <       0.00001684 Ry

     iteration # 40     ecut=    70.00 Ry     beta= 0.70
     Davidson diagonalization with overlap
     ethr =  3.47E-10,  avg # of iterations =  2.1

     total cpu time spent up to now is    40539.7 secs

     total energy              =  -11729.01962558 Ry
     estimated scf accuracy    <       0.00000122 Ry

     iteration # 41     ecut=    70.00 Ry     beta= 0.70
     Davidson diagonalization with overlap
     ethr =  3.03E-10,  avg # of iterations =  2.0

     total cpu time spent up to now is    41462.2 secs

     total energy              =  -11729.01962561 Ry
     estimated scf accuracy    <       0.00000134 Ry

     iteration # 42     ecut=    70.00 Ry     beta= 0.70
     Davidson diagonalization with overlap
     ethr =  3.03E-10,  avg # of iterations =  1.9

     total cpu time spent up to now is    42375.5 secs

     End of self-consistent calculation

     Number of k-points >= 100: set verbosity='high' to print the bands.

     the Fermi energy is    12.3675 ev

!    total energy              =  -11729.01962518 Ry

     total all-electron energy =   -283314.482257 Ry
     estimated scf accuracy    <       0.00000086 Ry
     smearing contrib. (-TS)   =      -0.00006395 Ry
     internal energy E=F+TS    =  -11729.01956122 Ry

     The total energy is F=E-TS. E is the sum of the following terms:
     one-electron contribution =   -2411.82760874 Ry
     hartree contribution      =    1433.80730427 Ry
     xc contribution           =   -1059.80494317 Ry
     ewald contribution        =   -3009.33164514 Ry
     one-center paw contrib.   =   -6681.86266845 Ry

     convergence has been achieved in  42 iterations

     Forces acting on atoms (cartesian axes, Ry/au):

     atom    1 type  2   force =     0.00000000    0.00000000    0.00000000
     atom    2 type  2   force =     0.00000000    0.00000000    0.00000000
     atom    3 type  2   force =     0.00000000    0.00000000    0.00000000
     atom    4 type  1   force =    -0.00003233    0.00000569    0.00006149
     atom    5 type  1   force =     0.00002109   -0.00002515   -0.00006149
     atom    6 type  1   force =    -0.00006037   -0.00014466   -0.00019649
     atom    7 type  1   force =    -0.00009510   -0.00012461    0.00019649
     atom    8 type  1   force =    -0.00021333    0.00012317   -0.00002205
     atom    9 type  1   force =     0.00014112   -0.00008148   -0.00009999
     atom   10 type  1   force =     0.00008851   -0.00005110   -0.00011593
     atom   11 type  1   force =    -0.00023941    0.00013822    0.00007413
     atom   12 type  1   force =    -0.00014112    0.00008148    0.00009999
     atom   13 type  1   force =     0.00021333   -0.00012317    0.00002205
     atom   14 type  1   force =     0.00023941   -0.00013822   -0.00007413
     atom   15 type  1   force =    -0.00008851    0.00005110    0.00011593
     atom   16 type  1   force =    -0.00002109    0.00002515    0.00006149
     atom   17 type  1   force =     0.00003233   -0.00000569   -0.00006149
     atom   18 type  1   force =     0.00009510    0.00012461   -0.00019649
     atom   19 type  1   force =     0.00006037    0.00014466    0.00019649
     atom   20 type  3   force =    -0.00014387    0.00008307    0.00015580
     atom   21 type  3   force =     0.00014387   -0.00008307   -0.00015580
     atom   22 type  3   force =    -0.00007786    0.00004273   -0.00048203
     atom   23 type  3   force =     0.00007786   -0.00004273    0.00048203
     atom   24 type  3   force =    -0.00007593    0.00004606   -0.00048203
     atom   25 type  3   force =     0.00007593   -0.00004606    0.00048203
     atom   26 type  3   force =    -0.00010584    0.00006111    0.00065303
     atom   27 type  3   force =     0.00010584   -0.00006111   -0.00065303

     Total force =     0.001621     Total SCF correction =     0.003265
     SCF correction compared to forces is large: reduce conv_thr to get better values


     Computing stress (Cartesian axis) and pressure

          total   stress  (Ry/bohr**3)                   (kbar)     P=        1.16
   0.00000328   0.00001274  -0.00002245            0.48        1.87       -3.30
   0.00001274   0.00001798   0.00001296            1.87        2.65        1.91
  -0.00002245   0.00001296   0.00000230           -3.30        1.91        0.34


     BFGS Geometry Optimization
     Energy error            =      0.0E+00
     Gradient error          =      6.5E-04
     Cell gradient error     =      2.2E-05


     number of scf cycles    =   1
     number of bfgs steps    =   0

     enthalpy new            =  -11729.0196251766 Ry

     new trust radius        =       0.0087787321 bohr
ibrav =      4
 celldm(1) =     14.65800297
 celldm(3) =      1.66864419
Input lattice vectors:
     1.00008188     0.00031848    -0.00056134
    -0.49976513     0.86625555     0.00056134
    -0.00093669     0.00054080     1.66878081
New lattice vectors in INITIAL alat:
     1.00008208     0.00000000     0.00000000
    -0.50004104     0.86609649     0.00000000
     0.00000000     0.00000000     1.66878116
New lattice vectors in NEW alat (for information only):
     1.00000000     0.00000000     0.00000000
    -0.50000000     0.86602540     0.00000000
     0.00000000     0.00000000     1.66864419
Discrepancy in bohr =     0.000645    0.000645    0.001082
     new conv_thr            =       0.0000010000 Ry

     new unit-cell volume =   4551.12527 a.u.^3 (   674.40718 Ang^3 )
     density =      7.25910 g/cm^3

CELL_PARAMETERS (alat= 14.65679987)
   1.000082085   0.000000000   0.000000000
  -0.500041042   0.866096491   0.000000000
   0.000000000   0.000000000   1.668781163

ATOMIC_POSITIONS (crystal)
Co            0.0000000000        0.5000000000        0.7500000000
Co            0.5000000000        0.0000000000        0.7500000000
Co            0.5000000000        0.5000000000        0.2500000000
Te            0.1661580859        0.3340869262        0.1390585833
Te            0.3340869262        0.1661580859        0.3609414167
Te            0.1679853371        0.3321863948        0.6441138649
Te            0.3321863948        0.1679853371        0.8558861351
Te            0.1661028175        0.8338971825        0.1417386910
Te            0.3328270041        0.6671729959        0.3582160473
Te            0.1673972822        0.8326027178        0.6415494343
Te            0.3337488839        0.6662511161        0.8555515690
Te            0.6671729959        0.3328270041        0.1417839527
Te            0.8338971825        0.1661028175        0.3582613090
Te            0.6662511161        0.3337488839        0.6444484310
Te            0.8326027178        0.1673972822        0.8584505657
Te            0.6659130738        0.8338419141        0.1390585833
Te            0.8338419141        0.6659130738        0.3609414167
Te            0.6678136052        0.8320146629        0.6441138649
Te            0.8320146629        0.6678136052        0.8558861351
Zr            0.0035987091       -0.0035987091       -0.0015223905
Zr           -0.0035987091        0.0035987091        0.5015223905
Zr           -0.0005600869        0.5074590108       -0.0007089587
Zr            0.0005600869        0.4925409892        0.5007089587
Zr            0.4925409892        0.0005600869       -0.0007089587
Zr            0.5074590108       -0.0005600869        0.5007089587
Zr            0.5012890541        0.4987109459       -0.0012217779
Zr            0.4987109459        0.5012890541        0.5012217779



     Writing output data file ./tmp/CoZrTe2-S3_i02_w24.save/
     NEW-OLD atomic charge density approx. for the potential
     extrapolated charge  403.08937, renormalised to  403.00000

     total cpu time spent up to now is    44660.9 secs

     Self-consistent Calculation

     iteration #  1     ecut=    70.00 Ry     beta= 0.70
     Davidson diagonalization with overlap
     ethr =  1.00E-06,  avg # of iterations =  2.0

     total cpu time spent up to now is    45879.7 secs

     total energy              =  -11729.00453529 Ry
     estimated scf accuracy    <       0.01657190 Ry

     iteration #  2     ecut=    70.00 Ry     beta= 0.70
     Davidson diagonalization with overlap
     ethr =  4.11E-06,  avg # of iterations = 11.4

     total cpu time spent up to now is    47346.8 secs

     total energy              =  -11728.89046862 Ry
     estimated scf accuracy    <       4.10743471 Ry

     iteration #  3     ecut=    70.00 Ry     beta= 0.70
     Davidson diagonalization with overlap
     ethr =  4.11E-06,  avg # of iterations =  8.2

     total cpu time spent up to now is    48719.0 secs

     total energy              =  -11729.01267678 Ry
     estimated scf accuracy    <       0.32750574 Ry

     iteration #  4     ecut=    70.00 Ry     beta= 0.70
     Davidson diagonalization with overlap
     ethr =  4.11E-06,  avg # of iterations =  2.0

     total cpu time spent up to now is    49657.4 secs

     total energy              =  -11729.01984158 Ry
     estimated scf accuracy    <       0.02426971 Ry

     iteration #  5     ecut=    70.00 Ry     beta= 0.70
     Davidson diagonalization with overlap
     ethr =  4.11E-06,  avg # of iterations =  1.0

     total cpu time spent up to now is    50493.1 secs

     total energy              =  -11729.01972399 Ry
     estimated scf accuracy    <       0.01293640 Ry

     iteration #  6     ecut=    70.00 Ry     beta= 0.70
     Davidson diagonalization with overlap
     ethr =  3.21E-06,  avg # of iterations =  1.0

     total cpu time spent up to now is    51328.1 secs

     total energy              =  -11729.01961730 Ry
     estimated scf accuracy    <       0.00654245 Ry

     iteration #  7     ecut=    70.00 Ry     beta= 0.70
     Davidson diagonalization with overlap
     ethr =  1.62E-06,  avg # of iterations =  1.0

     total cpu time spent up to now is    52165.4 secs

     total energy              =  -11729.01963772 Ry
     estimated scf accuracy    <       0.00236732 Ry

     iteration #  8     ecut=    70.00 Ry     beta= 0.70
     Davidson diagonalization with overlap
     ethr =  5.87E-07,  avg # of iterations =  1.0

     total cpu time spent up to now is    53013.4 secs

     total energy              =  -11729.01962652 Ry
     estimated scf accuracy    <       0.00164059 Ry

     iteration #  9     ecut=    70.00 Ry     beta= 0.70
     Davidson diagonalization with overlap
     ethr =  4.07E-07,  avg # of iterations =  1.0

     total cpu time spent up to now is    53877.8 secs

     total energy              =  -11729.01962747 Ry
     estimated scf accuracy    <       0.00102069 Ry

     iteration # 10     ecut=    70.00 Ry     beta= 0.70
     Davidson diagonalization with overlap
     ethr =  2.53E-07,  avg # of iterations =  1.3

     total cpu time spent up to now is    54781.0 secs

     total energy              =  -11729.01958347 Ry
     estimated scf accuracy    <       0.00077173 Ry

     iteration # 11     ecut=    70.00 Ry     beta= 0.70
     Davidson diagonalization with overlap
     ethr =  1.91E-07,  avg # of iterations =  2.1

     total cpu time spent up to now is    55704.0 secs

     total energy              =  -11729.01961364 Ry
     estimated scf accuracy    <       0.00000420 Ry

     iteration # 12     ecut=    70.00 Ry     beta= 0.70
     Davidson diagonalization with overlap
     ethr =  1.04E-09,  avg # of iterations = 11.0

     total cpu time spent up to now is    57223.2 secs

     total energy              =  -11729.01963104 Ry
     estimated scf accuracy    <       0.00000264 Ry

     iteration # 13     ecut=    70.00 Ry     beta= 0.70
     Davidson diagonalization with overlap
     ethr =  6.56E-10,  avg # of iterations =  1.9

     total cpu time spent up to now is    58141.9 secs

     total energy              =  -11729.01963102 Ry
     estimated scf accuracy    <       0.00000120 Ry

     iteration # 14     ecut=    70.00 Ry     beta= 0.70
     Davidson diagonalization with overlap
     ethr =  2.99E-10,  avg # of iterations =  3.1

     total cpu time spent up to now is    59090.6 secs

     End of self-consistent calculation

     Number of k-points >= 100: set verbosity='high' to print the bands.

     the Fermi energy is    12.3641 ev

!    total energy              =  -11729.01963067 Ry

     total all-electron energy =   -283314.482262 Ry
     estimated scf accuracy    <       0.00000059 Ry
     smearing contrib. (-TS)   =      -0.00006427 Ry
     internal energy E=F+TS    =  -11729.01956640 Ry

     The total energy is F=E-TS. E is the sum of the following terms:
     one-electron contribution =   -2412.17821128 Ry
     hartree contribution      =    1433.90484672 Ry
     xc contribution           =   -1059.79749622 Ry
     ewald contribution        =   -3009.08708204 Ry
     one-center paw contrib.   =   -6681.86162357 Ry

     convergence has been achieved in  14 iterations

     Forces acting on atoms (cartesian axes, Ry/au):

     atom    1 type  2   force =     0.00000000    0.00000000    0.00000000
     atom    2 type  2   force =     0.00000000    0.00000000    0.00000000
     atom    3 type  2   force =     0.00000000    0.00000000    0.00000000
     atom    4 type  1   force =     0.00012518    0.00026174    0.00004164
     atom    5 type  1   force =     0.00016409    0.00023928   -0.00004164
     atom    6 type  1   force =    -0.00020728    0.00019788   -0.00007225
     atom    7 type  1   force =     0.00027501   -0.00008057    0.00007225
     atom    8 type  1   force =    -0.00005825    0.00003363   -0.00013644
     atom    9 type  1   force =     0.00029030   -0.00016760    0.00000404
     atom   10 type  1   force =     0.00043850   -0.00025317    0.00019737
     atom   11 type  1   force =    -0.00037598    0.00021707   -0.00013461
     atom   12 type  1   force =    -0.00029030    0.00016760   -0.00000404
     atom   13 type  1   force =     0.00005825   -0.00003363    0.00013644
     atom   14 type  1   force =     0.00037598   -0.00021707    0.00013461
     atom   15 type  1   force =    -0.00043850    0.00025317   -0.00019737
     atom   16 type  1   force =    -0.00016409   -0.00023928    0.00004164
     atom   17 type  1   force =    -0.00012518   -0.00026174   -0.00004164
     atom   18 type  1   force =    -0.00027501    0.00008057   -0.00007225
     atom   19 type  1   force =     0.00020728   -0.00019788    0.00007225
     atom   20 type  3   force =    -0.00011916    0.00006880    0.00016738
     atom   21 type  3   force =     0.00011916   -0.00006880   -0.00016738
     atom   22 type  3   force =    -0.00009453    0.00006955   -0.00027794
     atom   23 type  3   force =     0.00009453   -0.00006955    0.00027794
     atom   24 type  3   force =    -0.00010750    0.00004709   -0.00027794
     atom   25 type  3   force =     0.00010750   -0.00004709    0.00027794
     atom   26 type  3   force =    -0.00007923    0.00004574    0.00054656
     atom   27 type  3   force =     0.00007923   -0.00004574   -0.00054656

     Total force =     0.001744     Total SCF correction =     0.002536
     SCF correction compared to forces is large: reduce conv_thr to get better values


     Computing stress (Cartesian axis) and pressure

          total   stress  (Ry/bohr**3)                   (kbar)     P=       -0.42
  -0.00000763   0.00001287  -0.00002243           -1.12        1.89       -3.30
   0.00001287   0.00000723   0.00001295            1.89        1.06        1.91
  -0.00002243   0.00001295  -0.00000814           -3.30        1.91       -1.20

     Energy error            =      5.5E-06
     Gradient error          =      5.5E-04
     Cell gradient error     =      2.2E-05


     number of scf cycles    =   2
     number of bfgs steps    =   1

     enthalpy old            =  -11729.0196251766 Ry
     enthalpy new            =  -11729.0196306729 Ry

     CASE: enthalpy_new < enthalpy_old

     new trust radius        =       0.0033222968 bohr
ibrav =      4
 celldm(1) =     14.65739611
 celldm(3) =      1.66862338
Input lattice vectors:
     1.00004065     0.00011932    -0.00020809
    -0.49991699     0.86612027     0.00020809
    -0.00034725     0.00020048     1.66869121
New lattice vectors in INITIAL alat:
     1.00004068     0.00000000     0.00000000
    -0.50002034     0.86606063     0.00000000
     0.00000000     0.00000000     1.66869126
New lattice vectors in NEW alat (for information only):
     1.00000000     0.00000000     0.00000000
    -0.50000000     0.86602540     0.00000000
     0.00000000     0.00000000     1.66862338
Discrepancy in bohr =     0.000240    0.000240    0.000401
     new conv_thr            =       0.0000000100 Ry

     new unit-cell volume =   4550.50326 a.u.^3 (   674.31501 Ang^3 )
     density =      7.26009 g/cm^3

CELL_PARAMETERS (alat= 14.65679987)
   1.000040680   0.000000000   0.000000000
  -0.500020340   0.866060634   0.000000000
   0.000000000   0.000000000   1.668691259

ATOMIC_POSITIONS (crystal)
Co            0.0000000000        0.5000000000        0.7500000000
Co            0.5000000000        0.0000000000        0.7500000000
Co            0.5000000000        0.5000000000        0.2500000000
Te            0.1661641670        0.3340944247        0.1390600039
Te            0.3340944247        0.1661641670        0.3609399961
Te            0.1679798973        0.3321882666        0.6441102122
Te            0.3321882666        0.1679798973        0.8558897878
Te            0.1660987332        0.8339012668        0.1417364100
Te            0.3328337895        0.6671662105        0.3582147836
Te            0.1674056973        0.8325943027        0.6415507783
Te            0.3337392623        0.6662607377        0.8555505869
Te            0.6671662105        0.3328337895        0.1417852164
Te            0.8339012668        0.1660987332        0.3582635900
Te            0.6662607377        0.3337392623        0.6444494131
Te            0.8325943027        0.1674056973        0.8584492217
Te            0.6659055753        0.8338358330        0.1390600039
Te            0.8338358330        0.6659055753        0.3609399961
Te            0.6678117334        0.8320201027        0.6441102122
Te            0.8320201027        0.6678117334        0.8558897878
Zr            0.0035946590       -0.0035946590       -0.0015178891
Zr           -0.0035946590        0.0035946590        0.5015178891
Zr           -0.0005625839        0.5074620539       -0.0007193878
Zr            0.0005625839        0.4925379461        0.5007193878
Zr            0.4925379461        0.0005625839       -0.0007193878
Zr            0.5074620539       -0.0005625839        0.5007193878
Zr            0.5012862114        0.4987137886       -0.0012051703
Zr            0.4987137886        0.5012862114        0.5012051703



     Writing output data file ./tmp/CoZrTe2-S3_i02_w24.save/
     NEW-OLD atomic charge density approx. for the potential
     extrapolated charge  402.94492, renormalised to  403.00000

     total cpu time spent up to now is    61379.3 secs

     Self-consistent Calculation

     iteration #  1     ecut=    70.00 Ry     beta= 0.70
     Davidson diagonalization with overlap
     ethr =  1.00E-06,  avg # of iterations =  2.0

     total cpu time spent up to now is    62567.0 secs

     total energy              =  -11729.01338988 Ry
     estimated scf accuracy    <       0.00687153 Ry

     iteration #  2     ecut=    70.00 Ry     beta= 0.70
     Davidson diagonalization with overlap
     ethr =  1.71E-06,  avg # of iterations =  8.9

     total cpu time spent up to now is    64009.9 secs

     total energy              =  -11728.91863559 Ry
     estimated scf accuracy    <       3.93899032 Ry

     iteration #  3     ecut=    70.00 Ry     beta= 0.70
     Davidson diagonalization with overlap
     ethr =  1.71E-06,  avg # of iterations =  7.2

     total cpu time spent up to now is    65396.3 secs

     total energy              =  -11729.00870663 Ry
     estimated scf accuracy    <       0.61814474 Ry

     iteration #  4     ecut=    70.00 Ry     beta= 0.70
     Davidson diagonalization with overlap
     ethr =  1.71E-06,  avg # of iterations =  3.0

     total cpu time spent up to now is    66381.8 secs

     total energy              =  -11729.01962896 Ry
     estimated scf accuracy    <       0.00422548 Ry

     iteration #  5     ecut=    70.00 Ry     beta= 0.70
     Davidson diagonalization with overlap
     ethr =  1.05E-06,  avg # of iterations =  1.0

     total cpu time spent up to now is    67233.4 secs

     total energy              =  -11729.01961727 Ry
     estimated scf accuracy    <       0.00244226 Ry

     iteration #  6     ecut=    70.00 Ry     beta= 0.70
     Davidson diagonalization with overlap
     ethr =  6.06E-07,  avg # of iterations =  1.1

     total cpu time spent up to now is    68117.0 secs

     total energy              =  -11729.01962295 Ry
     estimated scf accuracy    <       0.00123930 Ry

     iteration #  7     ecut=    70.00 Ry     beta= 0.70
     Davidson diagonalization with overlap
     ethr =  3.08E-07,  avg # of iterations =  1.4

     total cpu time spent up to now is    69028.2 secs

     total energy              =  -11729.01962590 Ry
     estimated scf accuracy    <       0.00088261 Ry

     iteration #  8     ecut=    70.00 Ry     beta= 0.70
     Davidson diagonalization with overlap
     ethr =  2.19E-07,  avg # of iterations =  1.4

     total cpu time spent up to now is    69938.6 secs

     total energy              =  -11729.01962027 Ry
     estimated scf accuracy    <       0.00068082 Ry

     iteration #  9     ecut=    70.00 Ry     beta= 0.70
     Davidson diagonalization with overlap
     ethr =  1.69E-07,  avg # of iterations =  1.9

     total cpu time spent up to now is    70854.9 secs

     total energy              =  -11729.01962365 Ry
     estimated scf accuracy    <       0.00037865 Ry

     iteration # 10     ecut=    70.00 Ry     beta= 0.70
     Davidson diagonalization with overlap
     ethr =  9.40E-08,  avg # of iterations =  2.1

     total cpu time spent up to now is    71779.1 secs

     total energy              =  -11729.01960951 Ry
     estimated scf accuracy    <       0.00028291 Ry

     iteration # 11     ecut=    70.00 Ry     beta= 0.70
     Davidson diagonalization with overlap
     ethr =  7.02E-08,  avg # of iterations =  3.5

     total cpu time spent up to now is    72739.9 secs

     total energy              =  -11729.01962264 Ry
     estimated scf accuracy    <       0.00000297 Ry

     iteration # 12     ecut=    70.00 Ry     beta= 0.70
     Davidson diagonalization with overlap
     ethr =  7.37E-10,  avg # of iterations = 10.3

     total cpu time spent up to now is    74239.3 secs

     total energy              =  -11729.01963081 Ry
     estimated scf accuracy    <       0.00001619 Ry

     iteration # 13     ecut=    70.00 Ry     beta= 0.70
     Davidson diagonalization with overlap
     ethr =  7.37E-10,  avg # of iterations =  2.8

     total cpu time spent up to now is    75196.0 secs

     total energy              =  -11729.01963087 Ry
     estimated scf accuracy    <       0.00000770 Ry

     iteration # 14     ecut=    70.00 Ry     beta= 0.70
     Davidson diagonalization with overlap
     ethr =  7.37E-10,  avg # of iterations =  1.9

     total cpu time spent up to now is    76111.5 secs

     total energy              =  -11729.01963105 Ry
     estimated scf accuracy    <       0.00000245 Ry

     iteration # 15     ecut=    70.00 Ry     beta= 0.70
     Davidson diagonalization with overlap
     ethr =  6.08E-10,  avg # of iterations =  1.0

     total cpu time spent up to now is    76958.3 secs

     total energy              =  -11729.01963108 Ry
     estimated scf accuracy    <       0.00000040 Ry

     iteration # 16     ecut=    70.00 Ry     beta= 0.70
     Davidson diagonalization with overlap
     ethr =  9.84E-11,  avg # of iterations =  4.7

     total cpu time spent up to now is    77937.2 secs

     total energy              =  -11729.01963110 Ry
     estimated scf accuracy    <       0.00000012 Ry

     iteration # 17     ecut=    70.00 Ry     beta= 0.70
     Davidson diagonalization with overlap
     ethr =  3.04E-11,  avg # of iterations =  6.4

     total cpu time spent up to now is    78941.4 secs

     total energy              =  -11729.01963110 Ry
     estimated scf accuracy    <       0.00000004 Ry

     iteration # 18     ecut=    70.00 Ry     beta= 0.70
     Davidson diagonalization with overlap
     ethr =  9.20E-12,  avg # of iterations =  6.2

     total cpu time spent up to now is    79968.9 secs

     total energy              =  -11729.01963110 Ry
     estimated scf accuracy    <       0.00000002 Ry

     iteration # 19     ecut=    70.00 Ry     beta= 0.70
     Davidson diagonalization with overlap
     ethr =  4.64E-12,  avg # of iterations =  3.9

     total cpu time spent up to now is    80953.0 secs

     End of self-consistent calculation

     Number of k-points >= 100: set verbosity='high' to print the bands.

     the Fermi energy is    12.3662 ev

!    total energy              =  -11729.01963110 Ry

     total all-electron energy =   -283314.482262 Ry
     estimated scf accuracy    <          7.7E-09 Ry
     smearing contrib. (-TS)   =      -0.00006373 Ry
     internal energy E=F+TS    =  -11729.01956737 Ry

     The total energy is F=E-TS. E is the sum of the following terms:
     one-electron contribution =   -2412.05944353 Ry
     hartree contribution      =    1433.88997330 Ry
     xc contribution           =   -1059.80234174 Ry
     ewald contribution        =   -3009.18540198 Ry
     one-center paw contrib.   =   -6681.86235342 Ry

     convergence has been achieved in  19 iterations

     Forces acting on atoms (cartesian axes, Ry/au):

     atom    1 type  2   force =     0.00000000    0.00000000    0.00000000
     atom    2 type  2   force =     0.00000000    0.00000000    0.00000000
     atom    3 type  2   force =     0.00000000    0.00000000    0.00000000
     atom    4 type  1   force =    -0.00004316    0.00014041    0.00007073
     atom    5 type  1   force =     0.00014318    0.00003283   -0.00007073
     atom    6 type  1   force =    -0.00001176    0.00000811   -0.00004220
     atom    7 type  1   force =     0.00001290   -0.00000613    0.00004220
     atom    8 type  1   force =    -0.00007601    0.00004388   -0.00008727
     atom    9 type  1   force =     0.00012451   -0.00007188   -0.00002038
     atom   10 type  1   force =     0.00017806   -0.00010280    0.00008754
     atom   11 type  1   force =    -0.00017836    0.00010297   -0.00006445
     atom   12 type  1   force =    -0.00012451    0.00007188    0.00002038
     atom   13 type  1   force =     0.00007601   -0.00004388    0.00008727
     atom   14 type  1   force =     0.00017836   -0.00010297    0.00006445
     atom   15 type  1   force =    -0.00017806    0.00010280   -0.00008754
     atom   16 type  1   force =    -0.00014318   -0.00003283    0.00007073
     atom   17 type  1   force =     0.00004316   -0.00014041   -0.00007073
     atom   18 type  1   force =    -0.00001290    0.00000613   -0.00004220
     atom   19 type  1   force =     0.00001176   -0.00000811    0.00004220
     atom   20 type  3   force =    -0.00012254    0.00007075    0.00017903
     atom   21 type  3   force =     0.00012254   -0.00007075   -0.00017903
     atom   22 type  3   force =    -0.00008578    0.00006289   -0.00023002
     atom   23 type  3   force =     0.00008578   -0.00006289    0.00023002
     atom   24 type  3   force =    -0.00009735    0.00004284   -0.00023002
     atom   25 type  3   force =     0.00009735   -0.00004284    0.00023002
     atom   26 type  3   force =    -0.00008493    0.00004903    0.00048467
     atom   27 type  3   force =     0.00008493   -0.00004903   -0.00048467

     Total force =     0.001109     Total SCF correction =     0.000360
     SCF correction compared to forces is large: reduce conv_thr to get better values


     Computing stress (Cartesian axis) and pressure

          total   stress  (Ry/bohr**3)                   (kbar)     P=        0.42
  -0.00000184   0.00001279  -0.00002241           -0.27        1.88       -3.30
   0.00001279   0.00001293   0.00001294            1.88        1.90        1.90
  -0.00002241   0.00001294  -0.00000245           -3.30        1.90       -0.36

     Energy error            =      4.3E-07
     Gradient error          =      4.8E-04
     Cell gradient error     =      2.2E-05


     number of scf cycles    =   3
     number of bfgs steps    =   2

     enthalpy old            =  -11729.0196306729 Ry
     enthalpy new            =  -11729.0196310996 Ry

     CASE: enthalpy_new < enthalpy_old

     new trust radius        =       0.0021806355 bohr
ibrav =      4
 celldm(1) =     14.65709584
 celldm(3) =      1.66860794
Input lattice vectors:
     1.00002018     0.00007891    -0.00013759
    -0.49994175     0.86608234     0.00013759
    -0.00022960     0.00013256     1.66864161
New lattice vectors in INITIAL alat:
     1.00002019     0.00000000     0.00000000
    -0.50001010     0.86604289     0.00000000
     0.00000000     0.00000000     1.66864163
New lattice vectors in NEW alat (for information only):
     1.00000000     0.00000000     0.00000000
    -0.50000000     0.86602540     0.00000000
     0.00000000     0.00000000     1.66860794
Discrepancy in bohr =     0.000159    0.000159    0.000265
     new conv_thr            =       0.0000000100 Ry

     new unit-cell volume =   4550.18150 a.u.^3 (   674.26733 Ang^3 )
     density =      7.26060 g/cm^3

CELL_PARAMETERS (alat= 14.65679987)
   1.000020194   0.000000000   0.000000000
  -0.500010097   0.866042892   0.000000000
   0.000000000   0.000000000   1.668641634

ATOMIC_POSITIONS (crystal)
Co            0.0000000000        0.5000000000        0.7500000000
Co            0.5000000000        0.0000000000        0.7500000000
Co            0.5000000000        0.5000000000        0.2500000000
Te            0.1661668237        0.3340996156        0.1390613028
Te            0.3340996156        0.1661668237        0.3609386972
Te            0.1679772671        0.3321884345        0.6441080524
Te            0.3321884345        0.1679772671        0.8558919476
Te            0.1660959375        0.8339040625        0.1417347422
Te            0.3328378631        0.6671621369        0.3582139092
Te            0.1674107643        0.8325892357        0.6415517889
Te            0.3337333656        0.6662666344        0.8555498195
Te            0.6671621369        0.3328378631        0.1417860908
Te            0.8339040625        0.1660959375        0.3582652578
Te            0.6662666344        0.3337333656        0.6444501805
Te            0.8325892357        0.1674107643        0.8584482111
Te            0.6659003844        0.8338331763        0.1390613028
Te            0.8338331763        0.6659003844        0.3609386972
Te            0.6678115655        0.8320227329        0.6441080524
Te            0.8320227329        0.6678115655        0.8558919476
Zr            0.0035915852       -0.0035915852       -0.0015142741
Zr           -0.0035915852        0.0035915852        0.5015142741
Zr           -0.0005644422        0.5074644455       -0.0007263657
Zr            0.0005644422        0.4925355545        0.5007263657
Zr            0.4925355545        0.0005644422       -0.0007263657
Zr            0.5074644455       -0.0005644422        0.5007263657
Zr            0.5012840522        0.4987159478       -0.0011932494
Zr            0.4987159478        0.5012840522        0.5011932494



     Writing output data file ./tmp/CoZrTe2-S3_i02_w24.save/
     NEW-OLD atomic charge density approx. for the potential
     extrapolated charge  402.97150, renormalised to  403.00000

     total cpu time spent up to now is    83235.2 secs

     Self-consistent Calculation

     iteration #  1     ecut=    70.00 Ry     beta= 0.70
     Davidson diagonalization with overlap
     ethr =  1.00E-06,  avg # of iterations =  2.0

     total cpu time spent up to now is    84396.1 secs

     total energy              =  -11729.01846320 Ry
     estimated scf accuracy    <       0.00126689 Ry

     iteration #  2     ecut=    70.00 Ry     beta= 0.70
     Davidson diagonalization with overlap
     ethr =  3.14E-07,  avg # of iterations =  7.3

     total cpu time spent up to now is    85678.5 secs

     total energy              =  -11729.00281591 Ry
     estimated scf accuracy    <       0.63958838 Ry

     iteration #  3     ecut=    70.00 Ry     beta= 0.70
     Davidson diagonalization with overlap
     ethr =  3.14E-07,  avg # of iterations =  6.8

     total cpu time spent up to now is    86913.8 secs

     total energy              =  -11729.01751138 Ry
     estimated scf accuracy    <       0.11932730 Ry

     iteration #  4     ecut=    70.00 Ry     beta= 0.70
     Davidson diagonalization with overlap
     ethr =  3.14E-07,  avg # of iterations =  3.0

     total cpu time spent up to now is    87890.2 secs

     total energy              =  -11729.01963751 Ry
     estimated scf accuracy    <       0.00111448 Ry

     iteration #  5     ecut=    70.00 Ry     beta= 0.70
     Davidson diagonalization with overlap
     ethr =  2.77E-07,  avg # of iterations =  1.0

     total cpu time spent up to now is    88744.9 secs

     total energy              =  -11729.01963239 Ry
     estimated scf accuracy    <       0.00064909 Ry

     iteration #  6     ecut=    70.00 Ry     beta= 0.70
     Davidson diagonalization with overlap
     ethr =  1.61E-07,  avg # of iterations =  1.0

     total cpu time spent up to now is    89586.2 secs

     total energy              =  -11729.01963275 Ry
     estimated scf accuracy    <       0.00033436 Ry

     iteration #  7     ecut=    70.00 Ry     beta= 0.70
     Davidson diagonalization with overlap
     ethr =  8.30E-08,  avg # of iterations =  1.1

     total cpu time spent up to now is    90471.2 secs

     total energy              =  -11729.01963206 Ry
     estimated scf accuracy    <       0.00022617 Ry

     iteration #  8     ecut=    70.00 Ry     beta= 0.70
     Davidson diagonalization with overlap
     ethr =  5.61E-08,  avg # of iterations =  1.2

     total cpu time spent up to now is    91367.0 secs

     total energy              =  -11729.01963091 Ry
     estimated scf accuracy    <       0.00016101 Ry

     iteration #  9     ecut=    70.00 Ry     beta= 0.70
     Davidson diagonalization with overlap
     ethr =  4.00E-08,  avg # of iterations =  1.5

     total cpu time spent up to now is    92275.8 secs

     total energy              =  -11729.01963134 Ry
     estimated scf accuracy    <       0.00009848 Ry

     iteration # 10     ecut=    70.00 Ry     beta= 0.70
     Davidson diagonalization with overlap
     ethr =  2.44E-08,  avg # of iterations =  1.8

     total cpu time spent up to now is    93190.5 secs

     total energy              =  -11729.01962655 Ry
     estimated scf accuracy    <       0.00008112 Ry

     iteration # 11     ecut=    70.00 Ry     beta= 0.70
     Davidson diagonalization with overlap
     ethr =  2.01E-08,  avg # of iterations =  2.1

     total cpu time spent up to now is    94110.6 secs

     total energy              =  -11729.01962962 Ry
     estimated scf accuracy    <       0.00000048 Ry

     iteration # 12     ecut=    70.00 Ry     beta= 0.70
     Davidson diagonalization with overlap
     ethr =  1.20E-10,  avg # of iterations = 10.9

     total cpu time spent up to now is    95612.5 secs

     total energy              =  -11729.01963100 Ry
     estimated scf accuracy    <       0.00000058 Ry

     iteration # 13     ecut=    70.00 Ry     beta= 0.70
     Davidson diagonalization with overlap
     ethr =  1.20E-10,  avg # of iterations =  2.0

     total cpu time spent up to now is    96532.2 secs

     total energy              =  -11729.01963095 Ry
     estimated scf accuracy    <       0.00000238 Ry

     iteration # 14     ecut=    70.00 Ry     beta= 0.70
     Davidson diagonalization with overlap
     ethr =  1.20E-10,  avg # of iterations =  1.9

     total cpu time spent up to now is    97447.0 secs

     total energy              =  -11729.01963100 Ry
     estimated scf accuracy    <       0.00000047 Ry

     iteration # 15     ecut=    70.00 Ry     beta= 0.70
     Davidson diagonalization with overlap
     ethr =  1.17E-10,  avg # of iterations =  1.4

     total cpu time spent up to now is    98356.6 secs

     total energy              =  -11729.01963101 Ry
     estimated scf accuracy    <       0.00000006 Ry

     iteration # 16     ecut=    70.00 Ry     beta= 0.70
     Davidson diagonalization with overlap
     ethr =  1.38E-11,  avg # of iterations =  4.8

     total cpu time spent up to now is    99341.5 secs

     total energy              =  -11729.01963101 Ry
     estimated scf accuracy    <       0.00000001 Ry

     iteration # 17     ecut=    70.00 Ry     beta= 0.70
     Davidson diagonalization with overlap
     ethr =  3.62E-12,  avg # of iterations =  6.4

     total cpu time spent up to now is   100416.4 secs

     total energy              =  -11729.01963101 Ry
     estimated scf accuracy    <       0.00000005 Ry

     iteration # 18     ecut=    70.00 Ry     beta= 0.70
     Davidson diagonalization with overlap
     ethr =  3.62E-12,  avg # of iterations =  2.4

     total cpu time spent up to now is   101388.4 secs

     total energy              =  -11729.01963101 Ry
     estimated scf accuracy    <       0.00000002 Ry

     iteration # 19     ecut=    70.00 Ry     beta= 0.70
     Davidson diagonalization with overlap
     ethr =  3.62E-12,  avg # of iterations =  2.0

     total cpu time spent up to now is   102323.7 secs

     End of self-consistent calculation

     Number of k-points >= 100: set verbosity='high' to print the bands.

     the Fermi energy is    12.3674 ev

!    total energy              =  -11729.01963101 Ry

     total all-electron energy =   -283314.482262 Ry
     estimated scf accuracy    <          6.6E-09 Ry
     smearing contrib. (-TS)   =      -0.00006347 Ry
     internal energy E=F+TS    =  -11729.01956754 Ry

     The total energy is F=E-TS. E is the sum of the following terms:
     one-electron contribution =   -2411.99457428 Ry
     hartree contribution      =    1433.87558120 Ry
     xc contribution           =   -1059.80403185 Ry
     ewald contribution        =   -3009.23401538 Ry
     one-center paw contrib.   =   -6681.86252721 Ry

     convergence has been achieved in  19 iterations

     Forces acting on atoms (cartesian axes, Ry/au):

     atom    1 type  2   force =     0.00000000    0.00000000   -0.00000000
     atom    2 type  2   force =     0.00000000    0.00000000    0.00000000
     atom    3 type  2   force =     0.00000000    0.00000000    0.00000000
     atom    4 type  1   force =    -0.00009760    0.00012341    0.00010148
     atom    5 type  1   force =     0.00015567   -0.00002282   -0.00010148
     atom    6 type  1   force =     0.00001411    0.00000345   -0.00004340
     atom    7 type  1   force =    -0.00000407    0.00001394    0.00004340
     atom    8 type  1   force =    -0.00006012    0.00003471   -0.00004094
     atom    9 type  1   force =     0.00006738   -0.00003890   -0.00004112
     atom   10 type  1   force =     0.00015785   -0.00009113    0.00007321
     atom   11 type  1   force =    -0.00014897    0.00008601   -0.00004397
     atom   12 type  1   force =    -0.00006738    0.00003890    0.00004112
     atom   13 type  1   force =     0.00006012   -0.00003471    0.00004094
     atom   14 type  1   force =     0.00014897   -0.00008601    0.00004397
     atom   15 type  1   force =    -0.00015785    0.00009113   -0.00007321
     atom   16 type  1   force =    -0.00015567    0.00002282    0.00010148
     atom   17 type  1   force =     0.00009760   -0.00012341   -0.00010148
     atom   18 type  1   force =     0.00000407   -0.00001394   -0.00004340
     atom   19 type  1   force =    -0.00001411   -0.00000345    0.00004340
     atom   20 type  3   force =    -0.00012275    0.00007087    0.00014654
     atom   21 type  3   force =     0.00012275   -0.00007087   -0.00014654
     atom   22 type  3   force =    -0.00008623    0.00005946   -0.00020322
     atom   23 type  3   force =     0.00008623   -0.00005946    0.00020322
     atom   24 type  3   force =    -0.00009461    0.00004495   -0.00020322
     atom   25 type  3   force =     0.00009461   -0.00004495    0.00020322
     atom   26 type  3   force =    -0.00008074    0.00004661    0.00041205
     atom   27 type  3   force =     0.00008074   -0.00004661   -0.00041205

     Total force =     0.000983     Total SCF correction =     0.000318
     SCF correction compared to forces is large: reduce conv_thr to get better values


     Computing stress (Cartesian axis) and pressure

          total   stress  (Ry/bohr**3)                   (kbar)     P=        0.54
  -0.00000106   0.00001279  -0.00002238           -0.16        1.88       -3.29
   0.00001279   0.00001371   0.00001292            1.88        2.02        1.90
  -0.00002238   0.00001292  -0.00000154           -3.29        1.90       -0.23

     Energy error            =      9.0E-08
     Gradient error          =      4.1E-04
     Cell gradient error     =      2.2E-05


     number of scf cycles    =   4
     number of bfgs steps    =   3

     enthalpy old            =  -11729.0196310996 Ry
     enthalpy new            =  -11729.0196310099 Ry

     CASE: enthalpy_new > enthalpy_old

     new trust radius        =       0.0000748619 bohr

     trust_radius < trust_radius_min

     resetting bfgs history

ibrav =      4
 celldm(1) =     14.65672353
 celldm(3) =      1.66859818
Input lattice vectors:
     0.99999458     0.00031982    -0.00056027
    -0.49972032     0.86618062     0.00056027
    -0.00093487     0.00053975     1.66858914
New lattice vectors in INITIAL alat:
     0.99999479     0.00000000     0.00000000
    -0.49999740     0.86602089     0.00000000
     0.00000000     0.00000000     1.66858949
New lattice vectors in NEW alat (for information only):
     1.00000000     0.00000000     0.00000000
    -0.50000000     0.86602540     0.00000000
     0.00000000     0.00000000     1.66859818
Discrepancy in bohr =     0.000645    0.000645    0.001079
     new conv_thr            =       0.0000000100 Ry

     new unit-cell volume =   4549.80815 a.u.^3 (   674.21201 Ang^3 )
     density =      7.26120 g/cm^3

CELL_PARAMETERS (alat= 14.65679987)
   0.999994792   0.000000000   0.000000000
  -0.499997396   0.866020893   0.000000000
   0.000000000   0.000000000   1.668589488

ATOMIC_POSITIONS (crystal)
Co            0.0000000000        0.5000000000        0.7500000000
Co            0.5000000000        0.0000000000        0.7500000000
Co            0.5000000000        0.5000000000        0.2500000000
Te            0.1661667532        0.3341054867        0.1390628961
Te            0.3341054867        0.1661667532        0.3609371039
Te            0.1679794143        0.3321889053        0.6441084868
Te            0.3321889053        0.1679794143        0.8558915132
Te            0.1660952759        0.8339047241        0.1417328416
Te            0.3328394526        0.6671605474        0.3582139503
Te            0.1674137964        0.8325862036        0.6415543580
Te            0.3337311498        0.6662688502        0.8555479515
Te            0.6671605474        0.3328394526        0.1417860497
Te            0.8339047241        0.1660952759        0.3582671584
Te            0.6662688502        0.3337311498        0.6444520485
Te            0.8325862036        0.1674137964        0.8584456420
Te            0.6658945133        0.8338332468        0.1390628961
Te            0.8338332468        0.6658945133        0.3609371039
Te            0.6678110947        0.8320205857        0.6441084868
Te            0.8320205857        0.6678110947        0.8558915132
Zr            0.0035890853       -0.0035890853       -0.0015105685
Zr           -0.0035890853        0.0035890853        0.5015105685
Zr           -0.0005659589        0.5074670086       -0.0007287930
Zr            0.0005659589        0.4925329914        0.5007287930
Zr            0.4925329914        0.0005659589       -0.0007287930
Zr            0.5074670086       -0.0005659589        0.5007287930
Zr            0.5012823483        0.4987176517       -0.0011853526
Zr            0.4987176517        0.5012823483        0.5011853526



     Writing output data file ./tmp/CoZrTe2-S3_i02_w24.save/
     NEW-OLD atomic charge density approx. for the potential
     extrapolated charge  402.96693, renormalised to  403.00000

     total cpu time spent up to now is   104610.9 secs

     Self-consistent Calculation

     iteration #  1     ecut=    70.00 Ry     beta= 0.70
     Davidson diagonalization with overlap
     ethr =  1.00E-06,  avg # of iterations =  2.0

     total cpu time spent up to now is   105774.6 secs

     total energy              =  -11729.01812556 Ry
     estimated scf accuracy    <       0.00162885 Ry

     iteration #  2     ecut=    70.00 Ry     beta= 0.70
     Davidson diagonalization with overlap
     ethr =  4.04E-07,  avg # of iterations =  7.3

     total cpu time spent up to now is   107057.9 secs

     total energy              =  -11728.99747030 Ry
     estimated scf accuracy    <       0.86295382 Ry

     iteration #  3     ecut=    70.00 Ry     beta= 0.70
     Davidson diagonalization with overlap
     ethr =  4.04E-07,  avg # of iterations =  6.9

     total cpu time spent up to now is   108307.4 secs

     total energy              =  -11729.01681658 Ry
     estimated scf accuracy    <       0.15803110 Ry

     iteration #  4     ecut=    70.00 Ry     beta= 0.70
     Davidson diagonalization with overlap
     ethr =  4.04E-07,  avg # of iterations =  3.0

     total cpu time spent up to now is   109284.7 secs

     total energy              =  -11729.01964020 Ry
     estimated scf accuracy    <       0.00150770 Ry

     iteration #  5     ecut=    70.00 Ry     beta= 0.70
     Davidson diagonalization with overlap
     ethr =  3.74E-07,  avg # of iterations =  1.0

     total cpu time spent up to now is   110137.3 secs

     total energy              =  -11729.01963162 Ry
     estimated scf accuracy    <       0.00084608 Ry

     iteration #  6     ecut=    70.00 Ry     beta= 0.70
     Davidson diagonalization with overlap
     ethr =  2.10E-07,  avg # of iterations =  1.0

     total cpu time spent up to now is   110972.4 secs

     total energy              =  -11729.01963332 Ry
     estimated scf accuracy    <       0.00041707 Ry

     iteration #  7     ecut=    70.00 Ry     beta= 0.70
     Davidson diagonalization with overlap
     ethr =  1.03E-07,  avg # of iterations =  1.0

     total cpu time spent up to now is   111831.7 secs

     total energy              =  -11729.01963225 Ry
     estimated scf accuracy    <       0.00030823 Ry

     iteration #  8     ecut=    70.00 Ry     beta= 0.70
     Davidson diagonalization with overlap
     ethr =  7.65E-08,  avg # of iterations =  1.1

     total cpu time spent up to now is   112721.7 secs

     total energy              =  -11729.01963021 Ry
     estimated scf accuracy    <       0.00022167 Ry

     iteration #  9     ecut=    70.00 Ry     beta= 0.70
     Davidson diagonalization with overlap
     ethr =  5.50E-08,  avg # of iterations =  1.3

     total cpu time spent up to now is   113630.8 secs

     total energy              =  -11729.01963106 Ry
     estimated scf accuracy    <       0.00012989 Ry

     iteration # 10     ecut=    70.00 Ry     beta= 0.70
     Davidson diagonalization with overlap
     ethr =  3.22E-08,  avg # of iterations =  1.7

     total cpu time spent up to now is   114543.7 secs

     total energy              =  -11729.01962425 Ry
     estimated scf accuracy    <       0.00011445 Ry

     iteration # 11     ecut=    70.00 Ry     beta= 0.70
     Davidson diagonalization with overlap
     ethr =  2.84E-08,  avg # of iterations =  2.0

     total cpu time spent up to now is   115463.0 secs

     total energy              =  -11729.01962836 Ry
     estimated scf accuracy    <       0.00000074 Ry

     iteration # 12     ecut=    70.00 Ry     beta= 0.70
     Davidson diagonalization with overlap
     ethr =  1.83E-10,  avg # of iterations = 10.5

     total cpu time spent up to now is   116963.5 secs

     total energy              =  -11729.01963018 Ry
     estimated scf accuracy    <       0.00000144 Ry

     iteration # 13     ecut=    70.00 Ry     beta= 0.70
     Davidson diagonalization with overlap
     ethr =  1.83E-10,  avg # of iterations =  2.0

     total cpu time spent up to now is   117897.2 secs

     total energy              =  -11729.01963005 Ry
     estimated scf accuracy    <       0.00000347 Ry

     iteration # 14     ecut=    70.00 Ry     beta= 0.70
     Davidson diagonalization with overlap
     ethr =  1.83E-10,  avg # of iterations =  2.0

     total cpu time spent up to now is   118818.5 secs

     total energy              =  -11729.01963015 Ry
     estimated scf accuracy    <       0.00000269 Ry

     iteration # 15     ecut=    70.00 Ry     beta= 0.70
     Davidson diagonalization with overlap
     ethr =  1.83E-10,  avg # of iterations =  1.1

     total cpu time spent up to now is   119702.0 secs

     total energy              =  -11729.01963020 Ry
     estimated scf accuracy    <       0.00000003 Ry

     iteration # 16     ecut=    70.00 Ry     beta= 0.70
     Davidson diagonalization with overlap
     ethr =  7.88E-12,  avg # of iterations =  6.7

     total cpu time spent up to now is   120782.6 secs

     total energy              =  -11729.01963021 Ry
     estimated scf accuracy    <       0.00000005 Ry

     iteration # 17     ecut=    70.00 Ry     beta= 0.70
     Davidson diagonalization with overlap
     ethr =  7.88E-12,  avg # of iterations =  2.1

     total cpu time spent up to now is   121727.2 secs

     total energy              =  -11729.01963021 Ry
     estimated scf accuracy    <       0.00000002 Ry

     iteration # 18     ecut=    70.00 Ry     beta= 0.70
     Davidson diagonalization with overlap
     ethr =  5.93E-12,  avg # of iterations =  1.9

     total cpu time spent up to now is   122639.8 secs

     End of self-consistent calculation

     Number of k-points >= 100: set verbosity='high' to print the bands.

     the Fermi energy is    12.3688 ev

!    total energy              =  -11729.01963021 Ry

     total all-electron energy =   -283314.482262 Ry
     estimated scf accuracy    <          8.2E-09 Ry
     smearing contrib. (-TS)   =      -0.00006329 Ry
     internal energy E=F+TS    =  -11729.01956691 Ry

     The total energy is F=E-TS. E is the sum of the following terms:
     one-electron contribution =   -2411.88405184 Ry
     hartree contribution      =    1433.83976305 Ry
     xc contribution           =   -1059.80566751 Ry
     ewald contribution        =   -3009.30690827 Ry
     one-center paw contrib.   =   -6681.86270234 Ry

     convergence has been achieved in  18 iterations

     Forces acting on atoms (cartesian axes, Ry/au):

     atom    1 type  2   force =     0.00000000    0.00000000    0.00000000
     atom    2 type  2   force =     0.00000000    0.00000000    0.00000000
     atom    3 type  2   force =     0.00000000    0.00000000    0.00000000
     atom    4 type  1   force =    -0.00008618    0.00012644    0.00012326
     atom    5 type  1   force =     0.00015259   -0.00001142   -0.00012326
     atom    6 type  1   force =     0.00004098    0.00000290   -0.00003257
     atom    7 type  1   force =    -0.00001798    0.00003694    0.00003257
     atom    8 type  1   force =    -0.00006153    0.00003553   -0.00000194
     atom    9 type  1   force =     0.00007744   -0.00004471   -0.00006323
     atom   10 type  1   force =     0.00014315   -0.00008265    0.00008545
     atom   11 type  1   force =    -0.00011973    0.00006913   -0.00004397
     atom   12 type  1   force =    -0.00007744    0.00004471    0.00006323
     atom   13 type  1   force =     0.00006153   -0.00003553    0.00000194
     atom   14 type  1   force =     0.00011973   -0.00006913    0.00004397
     atom   15 type  1   force =    -0.00014315    0.00008265   -0.00008545
     atom   16 type  1   force =    -0.00015259    0.00001142    0.00012326
     atom   17 type  1   force =     0.00008618   -0.00012644   -0.00012326
     atom   18 type  1   force =     0.00001798   -0.00003694   -0.00003257
     atom   19 type  1   force =    -0.00004098   -0.00000290    0.00003257
     atom   20 type  3   force =    -0.00012694    0.00007329    0.00012323
     atom   21 type  3   force =     0.00012694   -0.00007329   -0.00012323
     atom   22 type  3   force =    -0.00008519    0.00005053   -0.00019621
     atom   23 type  3   force =     0.00008519   -0.00005053    0.00019621
     atom   24 type  3   force =    -0.00008636    0.00004851   -0.00019621
     atom   25 type  3   force =     0.00008636   -0.00004851    0.00019621
     atom   26 type  3   force =    -0.00007871    0.00004544    0.00036464
     atom   27 type  3   force =     0.00007871   -0.00004544   -0.00036464

     Total force =     0.000927     Total SCF correction =     0.000241
     SCF correction compared to forces is large: reduce conv_thr to get better values


     Computing stress (Cartesian axis) and pressure

          total   stress  (Ry/bohr**3)                   (kbar)     P=        0.59
  -0.00000079   0.00001279  -0.00002237           -0.12        1.88       -3.29
   0.00001279   0.00001397   0.00001292            1.88        2.06        1.90
  -0.00002237   0.00001292  -0.00000119           -3.29        1.90       -0.17

     Energy error            =      8.9E-07
     Gradient error          =      3.6E-04
     Cell gradient error     =      2.2E-05


     number of scf cycles    =   5
     number of bfgs steps    =   3

     enthalpy old            =  -11729.0196310996 Ry
     enthalpy new            =  -11729.0196302060 Ry

     CASE: enthalpy_new > enthalpy_old


 %%%%%%%%%%%%%%%%%%%%%%%%%%%%%%%%%%%%%%%%%%%%%%%%%%%%%%%%%%%%%%%%%%%%%%%%%%%%%%
     Error in routine bfgs (1):
     dE0s is positive which should never happen
 %%%%%%%%%%%%%%%%%%%%%%%%%%%%%%%%%%%%%%%%%%%%%%%%%%%%%%%%%%%%%%%%%%%%%%%%%%%%%%

     stopping ...
--------------------------------------------------------------------------
MPI_ABORT was invoked on rank 0 in communicator MPI_COMM_WORLD 
with errorcode 1.

NOTE: invoking MPI_ABORT causes Open MPI to kill all MPI processes.
You may or may not see output from other processes, depending on
exactly when Open MPI kills them.
--------------------------------------------------------------------------
