-----------------------------------------------------
-               Supercell program                   -
-----------------------------------------------------
-      Authors:   * Kirill Okhotnikov               -
-                  (kirill.okhotnikov@gmail.com)    -
-                 * Sylvian Cadars                  -
-                  (sylvian.cadars@cnrs-imn.fr)     -
-                 * Thibault Charpentier            -
-                  (Thibault.Charpentier@cea.fr)    -
-----------------------------------------------------
-  please cite:                                     -
-    K. Okhotnikov, T. Charpentier and S. Cadars    -
-    J. Cheminform. 8 (2016) 17 – 33.               -
-----------------------------------------------------

Ni1:p=4
delim_pos 3
delim_count 1
Manual properties
Label	|fixed	|charge	|popul	|
Ni1	|N/A	|N/A	|4	|

Initial system:
  Chemical Formula: Ni1 Te2 Zr1

Supercell system (2x2x2):
  Size a=7.9, b=7.9, c=13.26

Current charge balance option is "try"
Total charge oxidation state (cif):  nan
Total charge cell:   0
Charge balancing:   yes
----------------------------------------------------------------
| Atom Label	| 	charge  	| mult	| occup x mult
| 		| Ox. state	| Used	| (cif)	|		 
----------------------------------------------------------------
|  Ni1		|  nan		|  0	|  1	|  1
|  Te1		|  nan		|  0	|  2	|  2
|  Zr1		|  nan		|  0	|  1	|  1
----------------------------------------------------------------

RMS to calculate: 1e-05 on 1e+18
Combinations to check: 1
rc Ni1: 4 < 4 < 4
rc Te1: 16 < 16 < 16
rc Zr1: 8 < 8 < 8
Curr occup is 4. Total is 8
Curr occup is 16. Total is 16
Curr occup is 8. Total is 8
charge: 0
RMS to calculate: 2e-05 on 0.25
Combinations to check: 1
rc Ni1: 4 < 4 < 4
rc Te1: 16 < 16 < 16
rc Zr1: 8 < 8 < 8
Curr occup is 4. Total is 8
Curr occup is 16. Total is 16
Curr occup is 8. Total is 8
charge: 0
RMS to calculate: 4e-05 on 0.25
Combinations to check: 1
rc Ni1: 4 < 4 < 4
rc Te1: 16 < 16 < 16
rc Zr1: 8 < 8 < 8
Curr occup is 4. Total is 8
Curr occup is 16. Total is 16
Curr occup is 8. Total is 8
charge: 0
RMS to calculate: 8e-05 on 0.25
Combinations to check: 1
rc Ni1: 4 < 4 < 4
rc Te1: 16 < 16 < 16
rc Zr1: 8 < 8 < 8
Curr occup is 4. Total is 8
Curr occup is 16. Total is 16
Curr occup is 8. Total is 8
charge: 0
RMS to calculate: 0.00016 on 0.25
Combinations to check: 1
rc Ni1: 4 < 4 < 4
rc Te1: 16 < 16 < 16
rc Zr1: 8 < 8 < 8
Curr occup is 4. Total is 8
Curr occup is 16. Total is 16
Curr occup is 8. Total is 8
charge: 0
RMS to calculate: 0.00032 on 0.25
Combinations to check: 1
rc Ni1: 4 < 4 < 4
rc Te1: 16 < 16 < 16
rc Zr1: 8 < 8 < 8
Curr occup is 4. Total is 8
Curr occup is 16. Total is 16
Curr occup is 8. Total is 8
charge: 0
RMS to calculate: 0.00064 on 0.25
Combinations to check: 1
rc Ni1: 4 < 4 < 4
rc Te1: 16 < 16 < 16
rc Zr1: 8 < 8 < 8
Curr occup is 4. Total is 8
Curr occup is 16. Total is 16
Curr occup is 8. Total is 8
charge: 0
RMS to calculate: 0.00128 on 0.25
Combinations to check: 1
rc Ni1: 4 < 4 < 4
rc Te1: 16 < 16 < 16
rc Zr1: 8 < 8 < 8
Curr occup is 4. Total is 8
Curr occup is 16. Total is 16
Curr occup is 8. Total is 8
charge: 0
RMS to calculate: 0.00256 on 0.25
Combinations to check: 1
rc Ni1: 4 < 4 < 4
rc Te1: 16 < 16 < 16
rc Zr1: 8 < 8 < 8
Curr occup is 4. Total is 8
Curr occup is 16. Total is 16
Curr occup is 8. Total is 8
charge: 0
RMS to calculate: 0.00512 on 0.25
Combinations to check: 1
rc Ni1: 4 < 4 < 4
rc Te1: 16 < 16 < 16
rc Zr1: 8 < 8 < 8
Curr occup is 4. Total is 8
Curr occup is 16. Total is 16
Curr occup is 8. Total is 8
charge: 0
RMS to calculate: 0.01024 on 0.25
Combinations to check: 1
rc Ni1: 4 < 4 < 4
rc Te1: 16 < 16 < 16
rc Zr1: 8 < 8 < 8
Curr occup is 4. Total is 8
Curr occup is 16. Total is 16
Curr occup is 8. Total is 8
charge: 0
RMS to calculate: 0.02048 on 0.25
Combinations to check: 1
rc Ni1: 4 < 4 < 4
rc Te1: 16 < 16 < 16
rc Zr1: 8 < 8 < 8
Curr occup is 4. Total is 8
Curr occup is 16. Total is 16
Curr occup is 8. Total is 8
charge: 0
RMS to calculate: 0.04096 on 0.25
Combinations to check: 1
rc Ni1: 4 < 4 < 4
rc Te1: 16 < 16 < 16
rc Zr1: 8 < 8 < 8
Curr occup is 4. Total is 8
Curr occup is 16. Total is 16
Curr occup is 8. Total is 8
charge: 0
RMS to calculate: 0.08192 on 0.25
Combinations to check: 1
rc Ni1: 4 < 4 < 4
rc Te1: 16 < 16 < 16
rc Zr1: 8 < 8 < 8
Curr occup is 4. Total is 8
Curr occup is 16. Total is 16
Curr occup is 8. Total is 8
charge: 0
RMS to calculate: 0.16384 on 0.25
Combinations to check: 1
rc Ni1: 4 < 4 < 4
rc Te1: 16 < 16 < 16
rc Zr1: 8 < 8 < 8
Curr occup is 4. Total is 8
Curr occup is 16. Total is 16
Curr occup is 8. Total is 8
charge: 0
Chemical formula of the supercell: Ni4 Te16 Zr8
Total charge of supercell: 0

----------------------------------------------------
 Identification of groups of crystallographic sites 
----------------------------------------------------

 Group 1 (8 atomic positions in supercell):
  * Site #1: Ni1 (occ. 1) -> distributed over 4 positions out of 8 (actual occ.: 0.500).
  Number of combinations for the group is 70
  WARNING: Vacancy introduced in a crystallographic site, which was originally fully-occupied.

 Group 2 (16 atomic positions in supercell):
  * Site #1: Te1 (occ. 1) -> FIXED with occupancy 1.000.

 Group 3 (8 atomic positions in supercell):
  * Site #1: Zr1 (occ. 1) -> FIXED with occupancy 1.000.

Minimal distance between atoms of two distinct groups: 2.81906 A.

-------------------------------------------------
The total number of combinations is 70
-------------------------------------------------
96 symmetry operation found for supercell.
Symmetries operation assigned to groups.
Output files was deleted successfully

Combinations after merge: 6
