Distances between atoms, up to dmax=  6.00 A   (* = with lattice translation)
  #1  #2   bond       d
   1  11  Co-Te    2.60506 A  
   1  14  Co-Te    2.60506 A *
   2  11  Co-Te    2.60506 A *
   2  14  Co-Te    2.60506 A  
   3  11  Co-Te    2.60506 A  
   3  14  Co-Te    2.60506 A  
   2  15  Co-Te    2.62092 A  
   2  10  Co-Te    2.62092 A *
   1  15  Co-Te    2.62092 A *
   1  10  Co-Te    2.62092 A  
   1  19  Co-Te    2.62093 A *
   2   7  Co-Te    2.62093 A  
   2  18  Co-Te    2.62093 A *
   1   6  Co-Te    2.62093 A  
   3  19  Co-Te    2.62093 A  
   3   6  Co-Te    2.62093 A  
   3   7  Co-Te    2.62093 A  
   3  18  Co-Te    2.62093 A  
   8  20  Te-Zr    2.88211 A *
  13  21  Te-Zr    2.88211 A *
   5  21  Te-Zr    2.88211 A  
  16  20  Te-Zr    2.88211 A *
   4  20  Te-Zr    2.88211 A  
  17  21  Te-Zr    2.88211 A *
  12  22  Te-Zr    2.88282 A *
   9  23  Te-Zr    2.88282 A  
   9  25  Te-Zr    2.88282 A *
  12  24  Te-Zr    2.88282 A  
   9  27  Te-Zr    2.88283 A  
  12  26  Te-Zr    2.88283 A  
   4  22  Te-Zr    2.88763 A  
  17  23  Te-Zr    2.88763 A *
   5  25  Te-Zr    2.88763 A  
  16  24  Te-Zr    2.88763 A *
   8  24  Te-Zr    2.88763 A *
  13  25  Te-Zr    2.88763 A  
   8  22  Te-Zr    2.88763 A  
  13  23  Te-Zr    2.88763 A *
  17  27  Te-Zr    2.88764 A  
   4  26  Te-Zr    2.88764 A  
   5  27  Te-Zr    2.88764 A  
  16  26  Te-Zr    2.88764 A  
   6  27  Te-Zr    2.91238 A  
  19  26  Te-Zr    2.91238 A *
  18  27  Te-Zr    2.91238 A  
   7  26  Te-Zr    2.91238 A *
  10  25  Te-Zr    2.91238 A *
  15  24  Te-Zr    2.91238 A *
  10  23  Te-Zr    2.91238 A  
  15  22  Te-Zr    2.91238 A *
  18  25  Te-Zr    2.91238 A *
   7  24  Te-Zr    2.91238 A *
   6  23  Te-Zr    2.91238 A  
  19  22  Te-Zr    2.91238 A *
  10  21  Te-Zr    2.91392 A *
  15  20  Te-Zr    2.91392 A *
  18  21  Te-Zr    2.91392 A *
   7  20  Te-Zr    2.91392 A *
   6  21  Te-Zr    2.91392 A  
  19  20  Te-Zr    2.91392 A *
  14  27  Te-Zr    2.94497 A  
  11  26  Te-Zr    2.94497 A *
  14  23  Te-Zr    2.94498 A *
  11  22  Te-Zr    2.94498 A *
  14  25  Te-Zr    2.94498 A  
  11  24  Te-Zr    2.94498 A *
   3  26  Co-Zr    3.21409 A *
   3  27  Co-Zr    3.21409 A  
   1  23  Co-Zr    3.21411 A  
   2  25  Co-Zr    3.21411 A  
   1  22  Co-Zr    3.21411 A *
   2  24  Co-Zr    3.21411 A *
  10  11  Te-Te    3.49735 A  
  14  15  Te-Te    3.49735 A  
   7  14  Te-Te    3.49736 A  
  11  18  Te-Te    3.49736 A  
   6  11  Te-Te    3.49736 A  
  14  19  Te-Te    3.49736 A  
  10  19  Te-Te    3.50299 A *
   6  15  Te-Te    3.50299 A *
   7  10  Te-Te    3.50299 A *
  15  18  Te-Te    3.50299 A *
   6   7  Te-Te    3.50300 A  
  18  19  Te-Te    3.50300 A  
   9  16  Te-Te    3.76284 A  
   5  12  Te-Te    3.76284 A  
   4   9  Te-Te    3.76284 A  
  12  17  Te-Te    3.76284 A  
   8   9  Te-Te    3.76286 A  
  12  13  Te-Te    3.76286 A  
   4   5  Te-Te    3.78866 A  
  16  17  Te-Te    3.78866 A  
   4  13  Te-Te    3.78868 A *
   8  17  Te-Te    3.78868 A *
   5   8  Te-Te    3.78868 A *
  13  16  Te-Te    3.78868 A *
  22  24  Zr-Zr    3.85076 A *
  23  25  Zr-Zr    3.85076 A *
  22  26  Zr-Zr    3.85079 A *
  23  27  Zr-Zr    3.85079 A  
  25  27  Zr-Zr    3.85079 A *
  24  26  Zr-Zr    3.85079 A  
   7  19  Te-Te    3.86685 A *
   6  18  Te-Te    3.86685 A *
   7  15  Te-Te    3.86686 A *
  10  18  Te-Te    3.86686 A *
   6  10  Te-Te    3.86686 A *
  15  19  Te-Te    3.86686 A *
   4  16  Te-Te    3.87275 A  
   5  17  Te-Te    3.87275 A  
   8  16  Te-Te    3.87275 A  
   5  13  Te-Te    3.87275 A  
   4   8  Te-Te    3.87275 A  
  13  17  Te-Te    3.87275 A  
   1   3  Co-Co    3.88317 A *
   1   3  Co-Co    3.88317 A  
   1   2  Co-Co    3.88317 A *
   1   2  Co-Co    3.88317 A *
   2   3  Co-Co    3.88317 A *
   2   3  Co-Co    3.88317 A  
  20  24  Zr-Zr    3.88321 A *
  21  25  Zr-Zr    3.88321 A  
  20  22  Zr-Zr    3.88321 A  
  21  23  Zr-Zr    3.88321 A *
  20  26  Zr-Zr    3.88323 A  
  21  27  Zr-Zr    3.88323 A *
  20  26  Zr-Zr    3.88323 A *
  21  27  Zr-Zr    3.88323 A  
  11  19  Te-Te    3.88324 A *
   6  14  Te-Te    3.88324 A *
   7  11  Te-Te    3.88324 A *
  14  18  Te-Te    3.88324 A *
   4  12  Te-Te    3.88325 A  
   9  17  Te-Te    3.88325 A  
   5   9  Te-Te    3.88325 A  
  12  16  Te-Te    3.88325 A  
  20  24  Zr-Zr    3.88325 A  
  21  25  Zr-Zr    3.88325 A *
  20  22  Zr-Zr    3.88325 A *
  21  23  Zr-Zr    3.88325 A  
   8  12  Te-Te    3.88325 A *
   9  13  Te-Te    3.88325 A *
   9  13  Te-Te    3.88325 A *
   8  12  Te-Te    3.88325 A *
   4  12  Te-Te    3.88325 A *
   9  17  Te-Te    3.88325 A *
   5   9  Te-Te    3.88325 A *
  12  16  Te-Te    3.88325 A *
  10  14  Te-Te    3.88325 A *
  11  15  Te-Te    3.88325 A *
  10  14  Te-Te    3.88325 A *
  11  15  Te-Te    3.88325 A *
   6  14  Te-Te    3.88326 A  
  11  19  Te-Te    3.88326 A  
   7  11  Te-Te    3.88326 A  
  14  18  Te-Te    3.88326 A  
   5  13  Te-Te    3.89360 A *
   8  16  Te-Te    3.89360 A *
  13  17  Te-Te    3.89360 A *
   4   8  Te-Te    3.89360 A *
   4  16  Te-Te    3.89360 A *
   5  17  Te-Te    3.89360 A *
   7  15  Te-Te    3.89949 A  
  10  18  Te-Te    3.89949 A  
  15  19  Te-Te    3.89949 A  
   6  10  Te-Te    3.89949 A  
   6  18  Te-Te    3.89950 A  
   7  19  Te-Te    3.89950 A  
  22  26  Zr-Zr    3.91556 A  
  23  27  Zr-Zr    3.91556 A *
  24  26  Zr-Zr    3.91556 A *
  25  27  Zr-Zr    3.91556 A  
  22  24  Zr-Zr    3.91559 A *
  23  25  Zr-Zr    3.91559 A *
   6  13  Te-Te    4.30510 A *
   8  19  Te-Te    4.30510 A *
  13  18  Te-Te    4.30510 A *
   7   8  Te-Te    4.30510 A *
   5   6  Te-Te    4.30512 A  
   4   7  Te-Te    4.30512 A *
  16  19  Te-Te    4.30512 A *
  17  18  Te-Te    4.30512 A  
  10  17  Te-Te    4.30513 A *
   4  15  Te-Te    4.30513 A *
   5  10  Te-Te    4.30513 A *
  15  16  Te-Te    4.30513 A *
  13  14  Te-Te    4.32255 A  
   8  11  Te-Te    4.32255 A *
   5  14  Te-Te    4.32258 A  
  11  16  Te-Te    4.32258 A *
  14  17  Te-Te    4.32258 A  
   4  11  Te-Te    4.32258 A *
   9  18  Te-Te    4.33071 A  
   7  12  Te-Te    4.33071 A *
   6   9  Te-Te    4.33071 A  
  12  19  Te-Te    4.33071 A *
   9  10  Te-Te    4.33072 A  
  12  15  Te-Te    4.33072 A *
   2  19  Co-Te    4.67813 A *
   2   6  Co-Te    4.67813 A *
   1   7  Co-Te    4.67813 A *
   1  18  Co-Te    4.67813 A *
   3  10  Co-Te    4.67813 A *
   3  15  Co-Te    4.67813 A *
   3  15  Co-Te    4.67813 A *
   3  10  Co-Te    4.67813 A *
   2   6  Co-Te    4.67814 A  
   2  19  Co-Te    4.67814 A *
   1   7  Co-Te    4.67814 A  
   1  18  Co-Te    4.67814 A *
   3  10  Co-Te    4.69166 A  
   3  15  Co-Te    4.69166 A  
   1   7  Co-Te    4.69166 A *
   1  18  Co-Te    4.69166 A  
   2  19  Co-Te    4.69166 A  
   2   6  Co-Te    4.69166 A *
   4  24  Te-Zr    4.83029 A *
  17  25  Te-Zr    4.83029 A *
  16  22  Te-Zr    4.83029 A *
   5  23  Te-Zr    4.83029 A *
   8  26  Te-Zr    4.83030 A *
  13  27  Te-Zr    4.83030 A *
   8  26  Te-Zr    4.83030 A *
  13  27  Te-Zr    4.83030 A *
   4  24  Te-Zr    4.83031 A  
  17  25  Te-Zr    4.83031 A *
   5  23  Te-Zr    4.83031 A  
  16  22  Te-Zr    4.83031 A *
   9  21  Te-Zr    4.84178 A *
  12  20  Te-Zr    4.84178 A *
   9  21  Te-Zr    4.84179 A *
  12  20  Te-Zr    4.84179 A  
   9  21  Te-Zr    4.84179 A  
  12  20  Te-Zr    4.84179 A *
  18  23  Te-Zr    4.84748 A  
   7  22  Te-Zr    4.84748 A *
   6  25  Te-Zr    4.84748 A *
  19  24  Te-Zr    4.84748 A *
  10  27  Te-Zr    4.84748 A  
  15  26  Te-Zr    4.84748 A *
   8  26  Te-Zr    4.84793 A  
  13  27  Te-Zr    4.84793 A  
   5  23  Te-Zr    4.84794 A *
  16  22  Te-Zr    4.84794 A  
   4  24  Te-Zr    4.84794 A *
  17  25  Te-Zr    4.84794 A  
  15  26  Te-Zr    4.86033 A *
  10  27  Te-Zr    4.86033 A *
  15  26  Te-Zr    4.86033 A *
  10  27  Te-Zr    4.86033 A *
  18  23  Te-Zr    4.86033 A *
   6  25  Te-Zr    4.86033 A  
   7  22  Te-Zr    4.86033 A *
  19  24  Te-Zr    4.86033 A *
   6  25  Te-Zr    4.86034 A *
  19  24  Te-Zr    4.86034 A *
  18  23  Te-Zr    4.86034 A *
   7  22  Te-Zr    4.86034 A *
  14  21  Te-Zr    4.86816 A  
  11  20  Te-Zr    4.86816 A *
  14  21  Te-Zr    4.86816 A *
  11  20  Te-Zr    4.86816 A *
  11  20  Te-Zr    4.86817 A *
  14  21  Te-Zr    4.86817 A *
   1  26  Co-Zr    5.02829 A *
   1  27  Co-Zr    5.02829 A  
   2  26  Co-Zr    5.02829 A *
   2  27  Co-Zr    5.02829 A *
   1  25  Co-Zr    5.02829 A *
   1  24  Co-Zr    5.02829 A *
   2  22  Co-Zr    5.02829 A *
   2  23  Co-Zr    5.02829 A *
   3  23  Co-Zr    5.02830 A  
   3  22  Co-Zr    5.02830 A *
   3  24  Co-Zr    5.02830 A *
   3  25  Co-Zr    5.02830 A *
   2  20  Co-Zr    5.04603 A *
   2  21  Co-Zr    5.04603 A  
   1  20  Co-Zr    5.04603 A *
   1  21  Co-Zr    5.04603 A *
   3  20  Co-Zr    5.04603 A *
   3  20  Co-Zr    5.04603 A *
   3  21  Co-Zr    5.04603 A *
   3  21  Co-Zr    5.04603 A  
   2  20  Co-Zr    5.04604 A *
   2  21  Co-Zr    5.04604 A *
   1  20  Co-Zr    5.04604 A *
   1  21  Co-Zr    5.04604 A  
   1  26  Co-Zr    5.05324 A *
   1  27  Co-Zr    5.05324 A *
   2  26  Co-Zr    5.05324 A *
   2  27  Co-Zr    5.05324 A  
   3  23  Co-Zr    5.05325 A *
   3  22  Co-Zr    5.05325 A *
   3  24  Co-Zr    5.05325 A *
   3  25  Co-Zr    5.05325 A  
   2  23  Co-Zr    5.05326 A *
   1  25  Co-Zr    5.05326 A *
   1  24  Co-Zr    5.05326 A *
   2  22  Co-Zr    5.05326 A *
  11  27  Te-Zr    5.05576 A  
  14  26  Te-Zr    5.05576 A *
  11  23  Te-Zr    5.05576 A  
  14  22  Te-Zr    5.05576 A *
  11  25  Te-Zr    5.05576 A *
  14  24  Te-Zr    5.05576 A *
   7  21  Te-Zr    5.08799 A  
  18  20  Te-Zr    5.08799 A *
  19  21  Te-Zr    5.08799 A *
   6  20  Te-Zr    5.08799 A *
  15  21  Te-Zr    5.08800 A *
  10  20  Te-Zr    5.08800 A *
  19  27  Te-Zr    5.09092 A  
   6  26  Te-Zr    5.09092 A *
   7  27  Te-Zr    5.09092 A  
  18  26  Te-Zr    5.09092 A *
  19  23  Te-Zr    5.09093 A *
   7  25  Te-Zr    5.09093 A  
   6  22  Te-Zr    5.09093 A *
  18  24  Te-Zr    5.09093 A *
  15  25  Te-Zr    5.09093 A  
  10  24  Te-Zr    5.09093 A *
  15  23  Te-Zr    5.09093 A *
  10  22  Te-Zr    5.09093 A *
  11  14  Te-Te    5.21011 A *
  11  14  Te-Te    5.21011 A *
  11  14  Te-Te    5.21013 A  
   7  18  Te-Te    5.21762 A *
   6  19  Te-Te    5.21762 A *
  10  15  Te-Te    5.21762 A *
  10  15  Te-Te    5.24185 A *
  10  15  Te-Te    5.24185 A *
   7  18  Te-Te    5.24185 A *
   6  19  Te-Te    5.24185 A *
   6  19  Te-Te    5.24186 A  
   7  18  Te-Te    5.24186 A  
   9  22  Te-Zr    5.34050 A  
  12  23  Te-Zr    5.34050 A *
   9  24  Te-Zr    5.34050 A *
  12  25  Te-Zr    5.34050 A  
   9  26  Te-Zr    5.34050 A  
  12  27  Te-Zr    5.34050 A  
   5  24  Te-Zr    5.34852 A  
  17  22  Te-Zr    5.34852 A *
  16  25  Te-Zr    5.34852 A *
   4  23  Te-Zr    5.34852 A  
  13  24  Te-Zr    5.34854 A  
   8  25  Te-Zr    5.34854 A *
  13  22  Te-Zr    5.34854 A *
   8  23  Te-Zr    5.34854 A  
   4  27  Te-Zr    5.34854 A  
  17  26  Te-Zr    5.34854 A  
  16  27  Te-Zr    5.34854 A  
   5  26  Te-Zr    5.34854 A  
  16  21  Te-Zr    5.34869 A *
   5  20  Te-Zr    5.34869 A  
  17  20  Te-Zr    5.34869 A *
   4  21  Te-Zr    5.34869 A  
   8  21  Te-Zr    5.34870 A *
  13  20  Te-Zr    5.34870 A *
   9  12  Te-Te    5.39675 A  
   9  12  Te-Te    5.39676 A *
   9  12  Te-Te    5.39676 A *
   4  17  Te-Te    5.41776 A *
   5  16  Te-Te    5.41776 A *
   4  17  Te-Te    5.41776 A  
   5  16  Te-Te    5.41776 A  
   8  13  Te-Te    5.41779 A *
   8  13  Te-Te    5.41779 A *
   5  16  Te-Te    5.43268 A *
   4  17  Te-Te    5.43268 A *
   8  13  Te-Te    5.43271 A *
   2   8  Co-Te    5.50212 A *
   2  13  Co-Te    5.50212 A  
   1   8  Co-Te    5.50212 A *
   1  13  Co-Te    5.50212 A *
   1   4  Co-Te    5.50214 A *
   1  17  Co-Te    5.50214 A *
   2   5  Co-Te    5.50214 A  
   2  16  Co-Te    5.50214 A *
   3   4  Co-Te    5.50214 A *
   3  17  Co-Te    5.50214 A  
   3   5  Co-Te    5.50214 A  
   3  16  Co-Te    5.50214 A *
   3   9  Co-Te    5.52457 A  
   3  12  Co-Te    5.52457 A *
   1   9  Co-Te    5.52457 A  
   1  12  Co-Te    5.52457 A *
   2   9  Co-Te    5.52457 A *
   2  12  Co-Te    5.52457 A *
  10  13  Te-Te    5.79568 A *
   8  15  Te-Te    5.79568 A *
   5  18  Te-Te    5.79569 A *
   7  16  Te-Te    5.79569 A *
   4  19  Te-Te    5.79569 A *
   6  17  Te-Te    5.79569 A *
  10  13  Te-Te    5.79963 A *
   8  15  Te-Te    5.79963 A *
  10  13  Te-Te    5.79963 A *
   8  15  Te-Te    5.79963 A *
   5  18  Te-Te    5.79964 A *
   7  16  Te-Te    5.79964 A *
   4  19  Te-Te    5.79964 A *
   6  17  Te-Te    5.79964 A *
   6  17  Te-Te    5.79964 A  
   4  19  Te-Te    5.79964 A *
   5  18  Te-Te    5.79964 A  
   7  16  Te-Te    5.79964 A *
   9  14  Te-Te    5.82777 A *
  11  12  Te-Te    5.82777 A *
   9  14  Te-Te    5.82777 A *
  11  12  Te-Te    5.82777 A *
   9  14  Te-Te    5.82777 A  
  11  12  Te-Te    5.82777 A *

Nearest neighbors for each atom (up to 4)

 atom   1 species Co : neighbors at    2.605   2.605   2.621   2.621 A
         d(center):10.566 A  angles  :   180.0    96.0    84.0    84.0    96.0   180.0
 atom   2 species Co : neighbors at    2.605   2.605   2.621   2.621 A
         d(center):10.566 A  angles  :   180.0    96.0    84.0    84.0    96.0   180.0
 atom   3 species Co : neighbors at    2.605   2.605   2.621   2.621 A
         d(center):10.566 A  angles  :   180.0    96.0    84.0    84.0    96.0   180.0
 atom   4 species Te : neighbors at    2.882   2.888   2.888   3.763 A
         d(center): 2.849 A  angles  :    84.6    84.6   165.2    85.4   106.1   106.1
 atom   5 species Te : neighbors at    2.882   2.888   2.888   3.763 A
         d(center): 5.301 A  angles  :    84.6    84.6   165.2    85.4   106.1   106.1
 atom   6 species Te : neighbors at    2.621   2.621   2.912   2.912 A
         d(center): 8.766 A  angles  :    95.6   130.6    70.8    70.8   130.6    82.8
 atom   7 species Te : neighbors at    2.621   2.621   2.912   2.912 A
         d(center):11.397 A  angles  :    95.6   130.6    70.8    70.8   130.6    82.8
 atom   8 species Te : neighbors at    2.882   2.888   2.888   3.763 A
         d(center): 6.180 A  angles  :    84.6    84.6   165.2    85.4   106.1   106.1
 atom   9 species Te : neighbors at    2.883   2.883   2.883   3.763 A
         d(center): 6.552 A  angles  :    83.8    83.8   166.0    83.8   106.4   106.4
 atom  10 species Te : neighbors at    2.621   2.621   2.912   2.912 A
         d(center):10.350 A  angles  :    95.6    70.8   130.6   130.6    70.8    82.8
 atom  11 species Te : neighbors at    2.605   2.605   2.605   2.945 A
         d(center):12.021 A  angles  :    96.4    96.4   131.0    96.4   131.0    70.5
 atom  12 species Te : neighbors at    2.883   2.883   2.883   3.763 A
         d(center): 4.822 A  angles  :    83.8    83.8   166.0    83.8   106.4   106.4
 atom  13 species Te : neighbors at    2.882   2.888   2.888   3.763 A
         d(center): 7.627 A  angles  :    84.6    84.6   165.2    85.4   106.1   106.1
 atom  14 species Te : neighbors at    2.605   2.605   2.605   2.945 A
         d(center): 9.610 A  angles  :    96.4    96.4   131.0    96.4   131.0    70.5
 atom  15 species Te : neighbors at    2.621   2.621   2.912   2.912 A
         d(center):12.656 A  angles  :    95.6    70.8   130.6   130.6    70.8    82.8
 atom  16 species Te : neighbors at    2.882   2.888   2.888   3.763 A
         d(center): 6.180 A  angles  :    84.6    84.6   165.2    85.4   106.1   106.1
 atom  17 species Te : neighbors at    2.882   2.888   2.888   3.763 A
         d(center): 7.627 A  angles  :    84.6    84.6   165.2    85.4   106.1   106.1
 atom  18 species Te : neighbors at    2.621   2.621   2.912   2.912 A
         d(center):10.350 A  angles  :    95.6   130.6    70.8    70.8   130.6    82.8
 atom  19 species Te : neighbors at    2.621   2.621   2.912   2.912 A
         d(center):12.656 A  angles  :    95.6   130.6    70.8    70.8   130.6    82.8
 atom  20 species Zr : neighbors at    2.882   2.882   2.882   2.914 A
         d(center): 0.053 A  angles  :    85.0    85.0   178.8    85.0    95.9    95.9
 atom  21 species Zr : neighbors at    2.882   2.882   2.882   2.914 A
         d(center): 6.604 A  angles  :    85.0    85.0   178.8    85.0    95.9    95.9
 atom  22 species Zr : neighbors at    2.883   2.888   2.888   2.912 A
         d(center): 3.884 A  angles  :    84.6    84.6    96.7    84.2    95.8   178.7
 atom  23 species Zr : neighbors at    2.883   2.888   2.888   2.912 A
         d(center): 7.668 A  angles  :    84.6    84.6    96.7    84.2    95.8   178.7
 atom  24 species Zr : neighbors at    2.883   2.888   2.888   2.912 A
         d(center): 3.884 A  angles  :    84.6    84.6    96.7    84.2    95.8   178.7
 atom  25 species Zr : neighbors at    2.883   2.888   2.888   2.912 A
         d(center): 7.668 A  angles  :    84.6    84.6    96.7    84.2    95.8   178.7
 atom  26 species Zr : neighbors at    2.883   2.888   2.888   2.912 A
         d(center): 3.884 A  angles  :    84.6    84.6    96.7    84.2   178.7    95.8
 atom  27 species Zr : neighbors at    2.883   2.888   2.888   2.912 A
         d(center): 7.668 A  angles  :    84.6    84.6    96.7    84.2   178.7    95.8
