
     Program PWSCF v.6.7MaX starts on 20Dec2021 at 14:15: 5 

     This program is part of the open-source Quantum ESPRESSO suite
     for quantum simulation of materials; please cite
         "P. Giannozzi et al., J. Phys.:Condens. Matter 21 395502 (2009);
         "P. Giannozzi et al., J. Phys.:Condens. Matter 29 465901 (2017);
          URL http://www.quantum-espresso.org", 
     in publications or presentations arising from this work. More details at
     http://www.quantum-espresso.org/quote

     Parallel version (MPI), running on    20 processors

     MPI processes distributed on     1 nodes
     K-points division:     npool     =      10
     R & G space division:  proc/nbgrp/npool/nimage =       2
     Waiting for input...
     Reading input from standard input

     Current dimensions of program PWSCF are:
     Max number of different atomic species (ntypx) = 10
     Max number of k-points (npk) =  40000
     Max angular momentum in pseudopotentials (lmaxx) =  3
     file Te.pbe-dn-kjpaw_psl.1.0.0.UPF: wavefunction(s)  5S 5P renormalized
     file Fe.pbe-spn-kjpaw_psl.1.0.0.UPF: wavefunction(s)  3P 3D renormalized
     file Zr.pbe-spn-kjpaw_psl.1.0.0.UPF: wavefunction(s)  4S 4P renormalized

     IMPORTANT: XC functional enforced from input :
     Exchange-correlation= VDW-DF2-B86R
                           (   1   4  26   0   2   0   0)
     Any further DFT definition will be discarded
     Please, verify this is what you really want


     Subspace diagonalization in iterative solution of the eigenvalue problem:
     a serial algorithm will be used


     Parallelization info
     --------------------
     sticks:   dense  smooth     PW     G-vecs:    dense   smooth      PW
     Min        5151    2052    567               705489   178484   25379
     Max        5152    2053    568               705490   178491   25382
     Sum       10303    4105   1135              1410979   356975   50761


     Title: 
     FeZrTe2-S3_i02_w24                                                         


     bravais-lattice index     =            4
     lattice parameter (alat)  =      14.6042  a.u.
     unit-cell volume          =    4510.5971 (a.u.)^3
     number of atoms/cell      =           27
     number of atomic types    =            3
     number of electrons       =       400.00
     number of Kohn-Sham states=          240
     kinetic-energy cutoff     =      70.0000  Ry
     charge density cutoff     =     700.0000  Ry
     scf convergence threshold =      1.0E-06
     mixing beta               =       0.7000
     number of iterations used =            8  plain     mixing
     energy convergence thresh.=      1.0E-05
     force convergence thresh. =      1.0E-04
     press convergence thresh. =      5.0E-01
     Exchange-correlation= VDW-DF2-B86R
                           (   1   4  26   0   2   0   0)
     nstep                     =           50


     celldm(1)=  14.604221  celldm(2)=   0.000000  celldm(3)=   1.672123
     celldm(4)=   0.000000  celldm(5)=   0.000000  celldm(6)=   0.000000

     crystal axes: (cart. coord. in units of alat)
               a(1) = (   1.000000   0.000000   0.000000 )  
               a(2) = (  -0.500000   0.866025   0.000000 )  
               a(3) = (   0.000000   0.000000   1.672123 )  

     reciprocal axes: (cart. coord. in units 2 pi/alat)
               b(1) = (  1.000000  0.577350 -0.000000 )  
               b(2) = (  0.000000  1.154701  0.000000 )  
               b(3) = (  0.000000 -0.000000  0.598042 )  


     PseudoPot. # 1 for Te read from file:
     ../../pseudo/Te.pbe-dn-kjpaw_psl.1.0.0.UPF
     MD5 check sum: 6fcff28523c44509c8b0933d026a09ba
     Pseudo is Projector augmented-wave + core cor, Zval = 16.0
     Generated using "atomic" code by A. Dal Corso  v.6.2 svn rev. 13949:13950
     Shape of augmentation charge: PSQ
     Using radial grid of 1245 points,  6 beta functions with: 
                l(1) =   0
                l(2) =   0
                l(3) =   1
                l(4) =   1
                l(5) =   2
                l(6) =   2
     Q(r) pseudized with 0 coefficients 


     PseudoPot. # 2 for Fe read from file:
     ../../pseudo/Fe.pbe-spn-kjpaw_psl.1.0.0.UPF
     MD5 check sum: ab14500225aa63e38c7c26e86ebbc19d
     Pseudo is Projector augmented-wave + core cor, Zval = 16.0
     Generated using "atomic" code by A. Dal Corso  v.6.2 svn rev. 13949:13950
     Shape of augmentation charge: PSQ
     Using radial grid of 1191 points,  6 beta functions with: 
                l(1) =   0
                l(2) =   0
                l(3) =   1
                l(4) =   1
                l(5) =   2
                l(6) =   2
     Q(r) pseudized with 0 coefficients 


     PseudoPot. # 3 for Zr read from file:
     ../../pseudo/Zr.pbe-spn-kjpaw_psl.1.0.0.UPF
     MD5 check sum: c5f18ff7fd7b8b65997bc48e1dc42bc6
     Pseudo is Projector augmented-wave + core cor, Zval = 12.0
     Generated using "atomic" code by A. Dal Corso  v.6.2 svn rev. 13949:13950
     Shape of augmentation charge: PSQ
     Using radial grid of 1225 points,  6 beta functions with: 
                l(1) =   0
                l(2) =   0
                l(3) =   1
                l(4) =   1
                l(5) =   2
                l(6) =   2
     Q(r) pseudized with 0 coefficients 


     atomic species   valence    mass     pseudopotential
        Te            16.00   127.60000     Te( 1.00)
        Fe            16.00    55.84500     Fe( 1.00)
        Zr            12.00    91.22400     Zr( 1.00)

      4 Sym. Ops., with inversion, found ( 2 have fractional translation)



   Cartesian axes

     site n.     atom                  positions (alat units)
         1           Fe  tau(   1) = (  -0.2500000   0.4330127   1.2540922  )
         2           Fe  tau(   2) = (   0.5000000   0.0000000   1.2540922  )
         3           Fe  tau(   3) = (   0.2500000   0.4330127   0.4180307  )
         4           Te  tau(   4) = (   0.0003863   0.2900532   0.2326616  )
         5           Te  tau(   5) = (   0.2510003   0.1453611   0.6033999  )
         6           Te  tau(   6) = (   0.0017718   0.2870421   1.0799737  )
         7           Te  tau(   7) = (   0.2476998   0.1450555   1.4282107  )
         8           Te  tau(   8) = (  -0.2509016   0.7222083   0.2405245  )
         9           Te  tau(   9) = (   0.0010155   0.5767640   0.5985489  )
        10           Te  tau(  10) = (  -0.2479753   0.7205189   1.0730541  )
        11           Te  tau(  11) = (  -0.0016068   0.5782779   1.4276296  )
        12           Te  tau(  12) = (   0.4989845   0.2892614   0.2375126  )
        13           Te  tau(  13) = (   0.7509016   0.1438171   0.5955370  )
        14           Te  tau(  14) = (   0.5016068   0.2877475   1.0805548  )
        15           Te  tau(  15) = (   0.7479753   0.1455065   1.4351302  )
        16           Te  tau(  16) = (   0.2489997   0.7206643   0.2326616  )
        17           Te  tau(  17) = (   0.4996137   0.5759722   0.6033999  )
        18           Te  tau(  18) = (   0.2523002   0.7209699   1.0799737  )
        19           Te  tau(  19) = (   0.4982282   0.5789833   1.4282107  )
        20           Zr  tau(  20) = (   0.0069738  -0.0040263  -0.0025409  )
        21           Zr  tau(  21) = (  -0.0069738   0.0040263   0.8386024  )
        22           Zr  tau(  22) = (  -0.2544006   0.4416415  -0.0002735  )
        23           Zr  tau(  23) = (  -0.2455994   0.4243839   0.8363350  )
        24           Zr  tau(  24) = (   0.4903269  -0.0005034  -0.0002735  )
        25           Zr  tau(  25) = (   0.5096731   0.0005034   0.8363350  )
        26           Zr  tau(  26) = (   0.2522975   0.4316863  -0.0048335  )
        27           Zr  tau(  27) = (   0.2477025   0.4343391   0.8408950  )

     number of k points=   114  Marzari-Vanderbilt smearing, width (Ry)=  0.0050

     Number of k-points >= 100: set verbosity='high' to print them.

     Dense  grid:  1410979 G-vectors     FFT dimensions: ( 125, 125, 216)

     Smooth grid:   356975 G-vectors     FFT dimensions: (  80,  80, 144)

     Estimated max dynamical RAM per process >       2.14 GB

     Estimated total dynamical RAM >      42.79 GB

     Initial potential from superposition of free atoms

     starting charge  399.97803, renormalised to  400.00000


     %%%%%%%%%%%%%%%%%%%%%%%%%%%%%%%%%%%%%%%%%%%%%%%%%%%%%%%%%%%%%%%%%%%%%%%%
     %                                                                      %
     % You are using vdW-DF, which was implemented by the Thonhauser group. %
     % Please cite the following two papers that made this development      %
     % possible and the two reviews that describe the various versions:     %
     %                                                                      %
     %   T. Thonhauser et al., PRL 115, 136402 (2015).                      %
     %   T. Thonhauser et al., PRB 76, 125112 (2007).                       %
     %   K. Berland et al., Rep. Prog. Phys. 78, 066501 (2015).             %
     %   D.C. Langreth et al., J. Phys.: Condens. Matter 21, 084203 (2009). %
     %                                                                      %
     %                                                                      %
     % If you are calculating the stress with vdW-DF, please also cite:     %
     %                                                                      %
     %   R. Sabatini et al., J. Phys.: Condens. Matter 24, 424209 (2012).   %
     %                                                                      %
     %%%%%%%%%%%%%%%%%%%%%%%%%%%%%%%%%%%%%%%%%%%%%%%%%%%%%%%%%%%%%%%%%%%%%%%%


     Starting wfcs are  278 randomized atomic wfcs
     Checking if some PAW data can be deallocated... 

     total cpu time spent up to now is      673.4 secs

     Self-consistent Calculation

     iteration #  1     ecut=    70.00 Ry     beta= 0.70
     Davidson diagonalization with overlap
     ethr =  1.00E-02,  avg # of iterations =  2.0

     total cpu time spent up to now is     1665.4 secs

     total energy              =  -11575.97759344 Ry
     estimated scf accuracy    <      13.10110153 Ry

     iteration #  2     ecut=    70.00 Ry     beta= 0.70
     Davidson diagonalization with overlap
     ethr =  3.28E-03,  avg # of iterations =  7.2

     total cpu time spent up to now is     2860.8 secs

     total energy              =  -11580.67950081 Ry
     estimated scf accuracy    <     244.32055961 Ry

     iteration #  3     ecut=    70.00 Ry     beta= 0.70
     Davidson diagonalization with overlap
     ethr =  3.28E-03,  avg # of iterations =  5.9

     total cpu time spent up to now is     4217.8 secs

     total energy              =  -11584.64180654 Ry
     estimated scf accuracy    <      77.94625971 Ry

     iteration #  4     ecut=    70.00 Ry     beta= 0.70
     Davidson diagonalization with overlap
     ethr =  3.28E-03,  avg # of iterations =  7.1

     total cpu time spent up to now is     5384.2 secs

     total energy              =  -11585.90079978 Ry
     estimated scf accuracy    <      70.28671184 Ry

     iteration #  5     ecut=    70.00 Ry     beta= 0.70
     Davidson diagonalization with overlap
     ethr =  3.28E-03,  avg # of iterations =  3.9

     total cpu time spent up to now is     6317.6 secs

     total energy              =  -11586.44488983 Ry
     estimated scf accuracy    <      23.66983120 Ry

     iteration #  6     ecut=    70.00 Ry     beta= 0.70
     Davidson diagonalization with overlap
     ethr =  3.28E-03,  avg # of iterations =  2.0

     total cpu time spent up to now is     7221.7 secs

     total energy              =  -11586.75351618 Ry
     estimated scf accuracy    <       3.52032380 Ry

     iteration #  7     ecut=    70.00 Ry     beta= 0.70
     Davidson diagonalization with overlap
     ethr =  8.80E-04,  avg # of iterations =  5.1

     total cpu time spent up to now is     8178.7 secs

     total energy              =  -11586.84405989 Ry
     estimated scf accuracy    <       1.50266754 Ry

     iteration #  8     ecut=    70.00 Ry     beta= 0.70
     Davidson diagonalization with overlap
     ethr =  3.76E-04,  avg # of iterations =  5.6

     total cpu time spent up to now is     9147.2 secs

     total energy              =  -11586.80617530 Ry
     estimated scf accuracy    <       1.74930774 Ry

     iteration #  9     ecut=    70.00 Ry     beta= 0.70
     Davidson diagonalization with overlap
     ethr =  3.76E-04,  avg # of iterations =  2.1

     total cpu time spent up to now is    10056.2 secs

     total energy              =  -11586.79956347 Ry
     estimated scf accuracy    <       0.46680858 Ry

     iteration # 10     ecut=    70.00 Ry     beta= 0.70
     Davidson diagonalization with overlap
     ethr =  1.17E-04,  avg # of iterations =  9.1

     total cpu time spent up to now is    11173.7 secs

     total energy              =  -11586.86593776 Ry
     estimated scf accuracy    <       0.36288229 Ry

     iteration # 11     ecut=    70.00 Ry     beta= 0.70
     Davidson diagonalization with overlap
     ethr =  9.07E-05,  avg # of iterations =  2.1

     total cpu time spent up to now is    12088.1 secs

     total energy              =  -11586.88102546 Ry
     estimated scf accuracy    <       0.00323057 Ry

     iteration # 12     ecut=    70.00 Ry     beta= 0.70
     Davidson diagonalization with overlap
     c_bands:  1 eigenvalues not converged
     c_bands:  5 eigenvalues not converged
     c_bands:  1 eigenvalues not converged
     c_bands:  2 eigenvalues not converged
     c_bands:  1 eigenvalues not converged
     c_bands:  2 eigenvalues not converged
     ethr =  8.08E-07,  avg # of iterations = 17.2

     total cpu time spent up to now is    14288.0 secs

     total energy              =  -11586.88672081 Ry
     estimated scf accuracy    <       0.00392892 Ry

     iteration # 13     ecut=    70.00 Ry     beta= 0.70
     Davidson diagonalization with overlap
     ethr =  8.08E-07,  avg # of iterations =  4.5

     total cpu time spent up to now is    15283.8 secs

     total energy              =  -11586.88699688 Ry
     estimated scf accuracy    <       0.00047286 Ry

     iteration # 14     ecut=    70.00 Ry     beta= 0.70
     Davidson diagonalization with overlap
     ethr =  1.18E-07,  avg # of iterations =  4.0

     total cpu time spent up to now is    16323.8 secs

     total energy              =  -11586.88688831 Ry
     estimated scf accuracy    <       0.00410553 Ry

     iteration # 15     ecut=    70.00 Ry     beta= 0.70
     Davidson diagonalization with overlap
     ethr =  1.18E-07,  avg # of iterations =  2.1

     total cpu time spent up to now is    17276.5 secs

     total energy              =  -11586.88698703 Ry
     estimated scf accuracy    <       0.00423149 Ry

     iteration # 16     ecut=    70.00 Ry     beta= 0.70
     Davidson diagonalization with overlap
     ethr =  1.18E-07,  avg # of iterations =  2.0

     total cpu time spent up to now is    18203.1 secs

     total energy              =  -11586.88710213 Ry
     estimated scf accuracy    <       0.00008133 Ry

     iteration # 17     ecut=    70.00 Ry     beta= 0.70
     Davidson diagonalization with overlap
     ethr =  2.03E-08,  avg # of iterations =  5.7

     total cpu time spent up to now is    19384.1 secs

     total energy              =  -11586.88711110 Ry
     estimated scf accuracy    <       0.00011550 Ry

     iteration # 18     ecut=    70.00 Ry     beta= 0.70
     Davidson diagonalization with overlap
     ethr =  2.03E-08,  avg # of iterations =  2.0

     total cpu time spent up to now is    20353.9 secs

     total energy              =  -11586.88712577 Ry
     estimated scf accuracy    <       0.00000767 Ry

     iteration # 19     ecut=    70.00 Ry     beta= 0.70
     Davidson diagonalization with overlap
     ethr =  1.92E-09,  avg # of iterations =  5.7

     total cpu time spent up to now is    22003.9 secs

     total energy              =  -11586.88712982 Ry
     estimated scf accuracy    <       0.00000773 Ry

     iteration # 20     ecut=    70.00 Ry     beta= 0.70
     Davidson diagonalization with overlap
     ethr =  1.92E-09,  avg # of iterations =  1.6

     total cpu time spent up to now is    22901.4 secs

     End of self-consistent calculation

     Number of k-points >= 100: set verbosity='high' to print the bands.

     the Fermi energy is    12.5998 ev

!    total energy              =  -11586.88713060 Ry

     total all-electron energy =   -282590.704298 Ry
     estimated scf accuracy    <       0.00000020 Ry
     smearing contrib. (-TS)   =      -0.00036532 Ry
     internal energy E=F+TS    =  -11586.88676528 Ry

     The total energy is F=E-TS. E is the sum of the following terms:
     one-electron contribution =   -2233.36339602 Ry
     hartree contribution      =    1334.15956953 Ry
     xc contribution           =   -1049.96500246 Ry
     ewald contribution        =   -2978.00063492 Ry
     one-center paw contrib.   =   -6659.71730141 Ry

     convergence has been achieved in  20 iterations

     Forces acting on atoms (cartesian axes, Ry/au):

     atom    1 type  2   force =     0.00000000    0.00000000    0.00000000
     atom    2 type  2   force =     0.00000000   -0.00000000    0.00000000
     atom    3 type  2   force =     0.00000000    0.00000000    0.00000000
     atom    4 type  1   force =     0.00027024    0.00021435    0.00017230
     atom    5 type  1   force =     0.00005052    0.00034121   -0.00017230
     atom    6 type  1   force =    -0.00038294    0.00020038   -0.00004825
     atom    7 type  1   force =     0.00036501   -0.00023144    0.00004825
     atom    8 type  1   force =    -0.00027069    0.00015628    0.00005075
     atom    9 type  1   force =     0.00040138   -0.00023174   -0.00013378
     atom   10 type  1   force =     0.00042322   -0.00024435    0.00010999
     atom   11 type  1   force =    -0.00038373    0.00022155   -0.00011237
     atom   12 type  1   force =    -0.00040138    0.00023174    0.00013378
     atom   13 type  1   force =     0.00027069   -0.00015628   -0.00005075
     atom   14 type  1   force =     0.00038373   -0.00022155    0.00011237
     atom   15 type  1   force =    -0.00042322    0.00024435   -0.00010999
     atom   16 type  1   force =    -0.00005052   -0.00034121    0.00017230
     atom   17 type  1   force =    -0.00027024   -0.00021435   -0.00017230
     atom   18 type  1   force =    -0.00036501    0.00023144   -0.00004825
     atom   19 type  1   force =     0.00038294   -0.00020038    0.00004825
     atom   20 type  3   force =    -0.00015435    0.00008911    0.00014732
     atom   21 type  3   force =     0.00015435   -0.00008911   -0.00014732
     atom   22 type  3   force =    -0.00019565    0.00014811   -0.00058160
     atom   23 type  3   force =     0.00019565   -0.00014811    0.00058160
     atom   24 type  3   force =    -0.00022609    0.00009538   -0.00058160
     atom   25 type  3   force =     0.00022609   -0.00009538    0.00058160
     atom   26 type  3   force =    -0.00006636    0.00003831    0.00095983
     atom   27 type  3   force =     0.00006636   -0.00003831   -0.00095983

     Total force =     0.002548     Total SCF correction =     0.001342
     SCF correction compared to forces is large: reduce conv_thr to get better values


     Computing stress (Cartesian axis) and pressure

          total   stress  (Ry/bohr**3)                   (kbar)     P=        0.79
  -0.00000339   0.00002276  -0.00002544           -0.50        3.35       -3.74
   0.00002276   0.00002290   0.00001469            3.35        3.37        2.16
  -0.00002544   0.00001469  -0.00000348           -3.74        2.16       -0.51


     BFGS Geometry Optimization
     Energy error            =      0.0E+00
     Gradient error          =      9.6E-04
     Cell gradient error     =      2.5E-05


     number of scf cycles    =   1
     number of bfgs steps    =   0

     enthalpy new            =  -11586.8871306015 Ry

     new trust radius        =       0.0119121112 bohr
ibrav =      4
 celldm(1) =     14.60299038
 celldm(3) =      1.67211886
Input lattice vectors:
     0.99991536     0.00056911    -0.00063596
    -0.49946482     0.86623666     0.00063596
    -0.00106341     0.00061396     1.67197749
New lattice vectors in INITIAL alat:
     0.99991572     0.00000000     0.00000000
    -0.49995786     0.86595242     0.00000000
     0.00000000     0.00000000     1.67197794
New lattice vectors in NEW alat (for information only):
     1.00000000     0.00000000     0.00000000
    -0.50000000     0.86602540     0.00000000
     0.00000000     0.00000000     1.67211886
Discrepancy in bohr =     0.000853    0.000853    0.001228
     new conv_thr            =       0.0000010000 Ry

     new unit-cell volume =   4509.44584 a.u.^3 (   668.23093 Ang^3 )
     density =      7.30317 g/cm^3

CELL_PARAMETERS (alat= 14.60422118)
   0.999915723   0.000000000   0.000000000
  -0.499957862   0.865952418   0.000000000
   0.000000000   0.000000000   1.671977943

ATOMIC_POSITIONS (crystal)
Fe           -0.0000000000        0.5000000000        0.7500000000
Fe            0.5000000000       -0.0000000000        0.7500000000
Fe            0.5000000000        0.5000000000        0.2500000000
Te            0.1678755553        0.3349415034        0.1391484850
Te            0.3349415034        0.1678755553        0.3608515150
Te            0.1674773537        0.3314634735        0.6458678404
Te            0.3314634735        0.1674773537        0.8541321596
Te            0.1660532732        0.8339467268        0.1438458737
Te            0.3340286481        0.6659713519        0.3579519744
Te            0.1680357637        0.8319642363        0.6417361179
Te            0.3322446416        0.6677553584        0.8537780564
Te            0.6659713519        0.3340286481        0.1420480256
Te            0.8339467268        0.1660532732        0.3561541263
Te            0.6677553584        0.3322446416        0.6462219436
Te            0.8319642363        0.1680357637        0.8582638821
Te            0.6650584966        0.8321244447        0.1391484850
Te            0.8321244447        0.6650584966        0.3608515150
Te            0.6685365265        0.8325226463        0.6458678404
Te            0.8325226463        0.6685365265        0.8541321596
Zr            0.0046421303       -0.0046421303       -0.0015135476
Zr           -0.0046421303        0.0046421303        0.5015135476
Zr            0.0005737367        0.5099754088       -0.0001873986
Zr           -0.0005737367        0.4900245912        0.5001873986
Zr            0.4900245912       -0.0005737367       -0.0001873986
Zr            0.5099754088        0.0005737367        0.5001873986
Zr            0.5015286202        0.4984713798       -0.0028513537
Zr            0.4984713798        0.5015286202        0.5028513537



     Writing output data file ./tmp/FeZrTe2-S3_i02_w24.save/
     NEW-OLD atomic charge density approx. for the potential
     extrapolated charge  399.89788, renormalised to  400.00000

     total cpu time spent up to now is    25167.9 secs

     Self-consistent Calculation

     iteration #  1     ecut=    70.00 Ry     beta= 0.70
     Davidson diagonalization with overlap
     ethr =  1.00E-06,  avg # of iterations =  2.0

     total cpu time spent up to now is    26366.8 secs

     total energy              =  -11586.87563477 Ry
     estimated scf accuracy    <       0.01245704 Ry

     iteration #  2     ecut=    70.00 Ry     beta= 0.70
     Davidson diagonalization with overlap
     c_bands:  2 eigenvalues not converged
     ethr =  3.11E-06,  avg # of iterations = 13.0

     total cpu time spent up to now is    27868.1 secs

     total energy              =  -11586.62919588 Ry
     estimated scf accuracy    <      10.93113551 Ry

     iteration #  3     ecut=    70.00 Ry     beta= 0.70
     Davidson diagonalization with overlap
     c_bands:  1 eigenvalues not converged
     ethr =  3.11E-06,  avg # of iterations = 10.5

     total cpu time spent up to now is    29363.7 secs

     total energy              =  -11586.86090131 Ry
     estimated scf accuracy    <       1.27693055 Ry

     iteration #  4     ecut=    70.00 Ry     beta= 0.70
     Davidson diagonalization with overlap
     ethr =  3.11E-06,  avg # of iterations =  5.0

     total cpu time spent up to now is    30400.9 secs

     total energy              =  -11586.88703964 Ry
     estimated scf accuracy    <       0.00751317 Ry

     iteration #  5     ecut=    70.00 Ry     beta= 0.70
     Davidson diagonalization with overlap
     ethr =  1.88E-06,  avg # of iterations =  1.9

     total cpu time spent up to now is    31301.1 secs

     total energy              =  -11586.88711591 Ry
     estimated scf accuracy    <       0.00389381 Ry

     iteration #  6     ecut=    70.00 Ry     beta= 0.70
     Davidson diagonalization with overlap
     ethr =  9.73E-07,  avg # of iterations =  1.2

     total cpu time spent up to now is    32194.6 secs

     total energy              =  -11586.88712808 Ry
     estimated scf accuracy    <       0.00247206 Ry

     iteration #  7     ecut=    70.00 Ry     beta= 0.70
     Davidson diagonalization with overlap
     ethr =  6.18E-07,  avg # of iterations =  1.3

     total cpu time spent up to now is    33084.4 secs

     total energy              =  -11586.88711426 Ry
     estimated scf accuracy    <       0.00181349 Ry

     iteration #  8     ecut=    70.00 Ry     beta= 0.70
     Davidson diagonalization with overlap
     ethr =  4.53E-07,  avg # of iterations =  1.5

     total cpu time spent up to now is    33979.5 secs

     total energy              =  -11586.88711350 Ry
     estimated scf accuracy    <       0.00108768 Ry

     iteration #  9     ecut=    70.00 Ry     beta= 0.70
     Davidson diagonalization with overlap
     ethr =  2.72E-07,  avg # of iterations =  1.9

     total cpu time spent up to now is    34882.1 secs

     total energy              =  -11586.88711736 Ry
     estimated scf accuracy    <       0.00072320 Ry

     iteration # 10     ecut=    70.00 Ry     beta= 0.70
     Davidson diagonalization with overlap
     ethr =  1.81E-07,  avg # of iterations =  2.9

     total cpu time spent up to now is    35801.2 secs

     total energy              =  -11586.88708931 Ry
     estimated scf accuracy    <       0.00054267 Ry

     iteration # 11     ecut=    70.00 Ry     beta= 0.70
     Davidson diagonalization with overlap
     ethr =  1.36E-07,  avg # of iterations =  3.9

     total cpu time spent up to now is    36738.3 secs

     total energy              =  -11586.88711242 Ry
     estimated scf accuracy    <       0.00000882 Ry

     iteration # 12     ecut=    70.00 Ry     beta= 0.70
     Davidson diagonalization with overlap
     ethr =  2.21E-09,  avg # of iterations =  7.3

     total cpu time spent up to now is    38131.8 secs

     total energy              =  -11586.88712692 Ry
     estimated scf accuracy    <       0.00000290 Ry

     iteration # 13     ecut=    70.00 Ry     beta= 0.70
     Davidson diagonalization with overlap
     ethr =  7.24E-10,  avg # of iterations =  2.1

     total cpu time spent up to now is    39047.3 secs

     total energy              =  -11586.88712693 Ry
     estimated scf accuracy    <       0.00000130 Ry

     iteration # 14     ecut=    70.00 Ry     beta= 0.70
     Davidson diagonalization with overlap
     ethr =  3.26E-10,  avg # of iterations =  2.1

     total cpu time spent up to now is    39963.0 secs

     End of self-consistent calculation

     Number of k-points >= 100: set verbosity='high' to print the bands.

     the Fermi energy is    12.6041 ev

!    total energy              =  -11586.88712676 Ry

     total all-electron energy =   -282590.704295 Ry
     estimated scf accuracy    <       0.00000031 Ry
     smearing contrib. (-TS)   =      -0.00036542 Ry
     internal energy E=F+TS    =  -11586.88676134 Ry

     The total energy is F=E-TS. E is the sum of the following terms:
     one-electron contribution =   -2233.19178401 Ry
     hartree contribution      =    1334.14544483 Ry
     xc contribution           =   -1049.97267342 Ry
     ewald contribution        =   -2978.14952856 Ry
     one-center paw contrib.   =   -6659.71822017 Ry

     convergence has been achieved in  14 iterations

     Forces acting on atoms (cartesian axes, Ry/au):

     atom    1 type  2   force =    -0.00000000   -0.00000000    0.00000000
     atom    2 type  2   force =     0.00000000    0.00000000    0.00000000
     atom    3 type  2   force =     0.00000000    0.00000000    0.00000000
     atom    4 type  1   force =     0.00008299    0.00010138    0.00009444
     atom    5 type  1   force =     0.00004630    0.00012256   -0.00009444
     atom    6 type  1   force =    -0.00020874   -0.00000241    0.00006863
     atom    7 type  1   force =     0.00010228   -0.00018198   -0.00006863
     atom    8 type  1   force =    -0.00024742    0.00014285   -0.00015691
     atom    9 type  1   force =     0.00021409   -0.00012360   -0.00001505
     atom   10 type  1   force =     0.00018371   -0.00010606    0.00020104
     atom   11 type  1   force =    -0.00022599    0.00013048   -0.00014621
     atom   12 type  1   force =    -0.00021409    0.00012360    0.00001505
     atom   13 type  1   force =     0.00024742   -0.00014285    0.00015691
     atom   14 type  1   force =     0.00022599   -0.00013048    0.00014621
     atom   15 type  1   force =    -0.00018371    0.00010606   -0.00020104
     atom   16 type  1   force =    -0.00004630   -0.00012256    0.00009444
     atom   17 type  1   force =    -0.00008299   -0.00010138   -0.00009444
     atom   18 type  1   force =    -0.00010228    0.00018198    0.00006863
     atom   19 type  1   force =     0.00020874    0.00000241   -0.00006863
     atom   20 type  3   force =    -0.00022669    0.00013088    0.00019148
     atom   21 type  3   force =     0.00022669   -0.00013088   -0.00019148
     atom   22 type  3   force =    -0.00013621    0.00004902   -0.00037637
     atom   23 type  3   force =     0.00013621   -0.00004902    0.00037637
     atom   24 type  3   force =    -0.00011056    0.00009345   -0.00037637
     atom   25 type  3   force =     0.00011056   -0.00009345    0.00037637
     atom   26 type  3   force =    -0.00008701    0.00005024    0.00075089
     atom   27 type  3   force =     0.00008701   -0.00005024   -0.00075089

     Total force =     0.001729     Total SCF correction =     0.002501
     SCF correction compared to forces is large: reduce conv_thr to get better values


     Computing stress (Cartesian axis) and pressure

          total   stress  (Ry/bohr**3)                   (kbar)     P=        1.68
   0.00000266   0.00002267  -0.00002535            0.39        3.34       -3.73
   0.00002267   0.00002884   0.00001464            3.34        4.24        2.15
  -0.00002535   0.00001464   0.00000274           -3.73        2.15        0.40

     Energy error            =      3.8E-06
     Gradient error          =      7.5E-04
     Cell gradient error     =      2.9E-05


     number of scf cycles    =   2
     number of bfgs steps    =   1

     enthalpy old            =  -11586.8871306015 Ry
     enthalpy new            =  -11586.8871267552 Ry

     CASE: enthalpy_new > enthalpy_old

     new trust radius        =       0.0000590872 bohr

     trust_radius < trust_radius_min

     resetting bfgs history

ibrav =      4
 celldm(1) =     14.60299028
 celldm(3) =      1.67211886
Input lattice vectors:
     0.99991535     0.00056916    -0.00063602
    -0.49946477     0.86623668     0.00063602
    -0.00106349     0.00061401     1.67197748
New lattice vectors in INITIAL alat:
     0.99991572     0.00000000     0.00000000
    -0.49995786     0.86595241     0.00000000
     0.00000000     0.00000000     1.67197793
New lattice vectors in NEW alat (for information only):
     1.00000000     0.00000000     0.00000000
    -0.50000000     0.86602540     0.00000000
     0.00000000     0.00000000     1.67211886
Discrepancy in bohr =     0.000853    0.000853    0.001228
     new conv_thr            =       0.0000010000 Ry

     new unit-cell volume =   4509.44575 a.u.^3 (   668.23092 Ang^3 )
     density =      7.30317 g/cm^3

CELL_PARAMETERS (alat= 14.60422118)
   0.999915716   0.000000000   0.000000000
  -0.499957858   0.865952412   0.000000000
   0.000000000   0.000000000   1.671977931

ATOMIC_POSITIONS (crystal)
Fe            0.0000000000        0.5000000000        0.7500000000
Fe            0.5000000000       -0.0000000000        0.7500000000
Fe            0.5000000000        0.5000000000        0.2500000000
Te            0.1678755598        0.3349415063        0.1391484862
Te            0.3349415063        0.1678755598        0.3608515138
Te            0.1674773506        0.3314634761        0.6458678401
Te            0.3314634761        0.1674773506        0.8541321599
Te            0.1660532711        0.8339467289        0.1438458740
Te            0.3340286511        0.6659713489        0.3579519734
Te            0.1680357669        0.8319642331        0.6417361187
Te            0.3322446386        0.6677553614        0.8537780556
Te            0.6659713489        0.3340286511        0.1420480266
Te            0.8339467289        0.1660532711        0.3561541260
Te            0.6677553614        0.3322446386        0.6462219444
Te            0.8319642331        0.1680357669        0.8582638813
Te            0.6650584937        0.8321244402        0.1391484862
Te            0.8321244402        0.6650584937        0.3608515138
Te            0.6685365239        0.8325226494        0.6458678401
Te            0.8325226494        0.6685365239        0.8541321599
Zr            0.0046421291       -0.0046421291       -0.0015135465
Zr           -0.0046421291        0.0046421291        0.5015135465
Zr            0.0005737354        0.5099754108       -0.0001874027
Zr           -0.0005737354        0.4900245892        0.5001874027
Zr            0.4900245892       -0.0005737354       -0.0001874027
Zr            0.5099754108        0.0005737354        0.5001874027
Zr            0.5015286197        0.4984713803       -0.0028513469
Zr            0.4984713803        0.5015286197        0.5028513469



     Writing output data file ./tmp/FeZrTe2-S3_i02_w24.save/
     NEW-OLD atomic charge density approx. for the potential

     total cpu time spent up to now is    42231.3 secs

     Self-consistent Calculation

     iteration #  1     ecut=    70.00 Ry     beta= 0.70
     Davidson diagonalization with overlap
     ethr =  1.00E-06,  avg # of iterations =  2.0

     Threshold (ethr) on eigenvalues was too large:
     Diagonalizing with lowered threshold

     Davidson diagonalization with overlap
     ethr =  9.56E-08,  avg # of iterations =  1.0

     total cpu time spent up to now is    43972.4 secs

     total energy              =  -11586.88679450 Ry
     estimated scf accuracy    <       0.00038509 Ry

     iteration #  2     ecut=    70.00 Ry     beta= 0.70
     Davidson diagonalization with overlap
     ethr =  9.63E-08,  avg # of iterations =  7.4

     total cpu time spent up to now is    45193.5 secs

     total energy              =  -11586.88005610 Ry
     estimated scf accuracy    <       0.32351348 Ry

     iteration #  3     ecut=    70.00 Ry     beta= 0.70
     Davidson diagonalization with overlap
     ethr =  9.63E-08,  avg # of iterations =  6.9

     total cpu time spent up to now is    46376.6 secs

     total energy              =  -11586.88697022 Ry
     estimated scf accuracy    <       0.00459559 Ry

     iteration #  4     ecut=    70.00 Ry     beta= 0.70
     Davidson diagonalization with overlap
     ethr =  9.63E-08,  avg # of iterations =  2.2

     total cpu time spent up to now is    47296.9 secs

     total energy              =  -11586.88712348 Ry
     estimated scf accuracy    <       0.00000953 Ry

     iteration #  5     ecut=    70.00 Ry     beta= 0.70
     Davidson diagonalization with overlap
     ethr =  2.38E-09,  avg # of iterations =  6.8

     total cpu time spent up to now is    48472.0 secs

     End of self-consistent calculation

     Number of k-points >= 100: set verbosity='high' to print the bands.

     the Fermi energy is    12.6041 ev

!    total energy              =  -11586.88712685 Ry

     total all-electron energy =   -282590.704295 Ry
     estimated scf accuracy    <       0.00000018 Ry
     smearing contrib. (-TS)   =      -0.00036531 Ry
     internal energy E=F+TS    =  -11586.88676154 Ry

     The total energy is F=E-TS. E is the sum of the following terms:
     one-electron contribution =   -2233.18156481 Ry
     hartree contribution      =    1334.13332977 Ry
     xc contribution           =   -1049.97105088 Ry
     ewald contribution        =   -2978.14953231 Ry
     one-center paw contrib.   =   -6659.71794332 Ry

     convergence has been achieved in   5 iterations

     Forces acting on atoms (cartesian axes, Ry/au):

     atom    1 type  2   force =    -0.00000000   -0.00000000    0.00000000
     atom    2 type  2   force =     0.00000000    0.00000000    0.00000000
     atom    3 type  2   force =     0.00000000    0.00000000    0.00000000
     atom    4 type  1   force =     0.00025398    0.00023669    0.00031341
     atom    5 type  1   force =     0.00007799    0.00033830   -0.00031341
     atom    6 type  1   force =    -0.00022884    0.00007730   -0.00004648
     atom    7 type  1   force =     0.00018136   -0.00015953    0.00004648
     atom    8 type  1   force =    -0.00021766    0.00012567   -0.00004668
     atom    9 type  1   force =     0.00038436   -0.00022191   -0.00018750
     atom   10 type  1   force =     0.00025303   -0.00014609    0.00017686
     atom   11 type  1   force =    -0.00025116    0.00014501   -0.00003534
     atom   12 type  1   force =    -0.00038436    0.00022191    0.00018750
     atom   13 type  1   force =     0.00021766   -0.00012567    0.00004668
     atom   14 type  1   force =     0.00025116   -0.00014501    0.00003534
     atom   15 type  1   force =    -0.00025303    0.00014609   -0.00017686
     atom   16 type  1   force =    -0.00007799   -0.00033830    0.00031341
     atom   17 type  1   force =    -0.00025398   -0.00023669   -0.00031341
     atom   18 type  1   force =    -0.00018136    0.00015953   -0.00004648
     atom   19 type  1   force =     0.00022884   -0.00007730    0.00004648
     atom   20 type  3   force =    -0.00027641    0.00015959    0.00011358
     atom   21 type  3   force =     0.00027641   -0.00015959   -0.00011358
     atom   22 type  3   force =    -0.00011304    0.00000209   -0.00045279
     atom   23 type  3   force =     0.00011304   -0.00000209    0.00045279
     atom   24 type  3   force =    -0.00005832    0.00009685   -0.00045279
     atom   25 type  3   force =     0.00005832   -0.00009685    0.00045279
     atom   26 type  3   force =    -0.00010901    0.00006294    0.00064797
     atom   27 type  3   force =     0.00010901   -0.00006294   -0.00064797

     Total force =     0.002022     Total SCF correction =     0.001838
     SCF correction compared to forces is large: reduce conv_thr to get better values


     Computing stress (Cartesian axis) and pressure

          total   stress  (Ry/bohr**3)                   (kbar)     P=        1.20
  -0.00000061   0.00002266  -0.00002539           -0.09        3.33       -3.73
   0.00002266   0.00002555   0.00001466            3.33        3.76        2.16
  -0.00002539   0.00001466  -0.00000041           -3.73        2.16       -0.06

     Energy error            =      3.7E-06
     Gradient error          =      6.5E-04
     Cell gradient error     =      2.6E-05


     number of scf cycles    =   3
     number of bfgs steps    =   1

     enthalpy old            =  -11586.8871306015 Ry
     enthalpy new            =  -11586.8871268524 Ry

     CASE: enthalpy_new > enthalpy_old

     new trust radius        =       0.0000605385 bohr

     trust_radius < trust_radius_min

     resetting bfgs history

     Message from routine bfgs:
     history already reset at previous step: stopping
ibrav =      4
 celldm(1) =     14.60299028
 celldm(3) =      1.67211886
Input lattice vectors:
     0.99991535     0.00056916    -0.00063602
    -0.49946477     0.86623668     0.00063602
    -0.00106349     0.00061401     1.67197748
New lattice vectors in INITIAL alat:
     0.99991572     0.00000000     0.00000000
    -0.49995786     0.86595241     0.00000000
     0.00000000     0.00000000     1.67197793
New lattice vectors in NEW alat (for information only):
     1.00000000     0.00000000     0.00000000
    -0.50000000     0.86602540     0.00000000
     0.00000000     0.00000000     1.67211886
Discrepancy in bohr =     0.000853    0.000853    0.001228
     new conv_thr            =       0.0000010000 Ry

     new unit-cell volume =   4509.44575 a.u.^3 (   668.23092 Ang^3 )
     density =      7.30317 g/cm^3

CELL_PARAMETERS (alat= 14.60422118)
   0.999915716   0.000000000   0.000000000
  -0.499957858   0.865952412   0.000000000
   0.000000000   0.000000000   1.671977931

ATOMIC_POSITIONS (crystal)
Fe            0.0000000000        0.5000000000        0.7500000000
Fe            0.5000000000       -0.0000000000        0.7500000000
Fe            0.5000000000        0.5000000000        0.2500000000
Te            0.1678755598        0.3349415063        0.1391484862
Te            0.3349415063        0.1678755598        0.3608515138
Te            0.1674773506        0.3314634761        0.6458678401
Te            0.3314634761        0.1674773506        0.8541321599
Te            0.1660532711        0.8339467289        0.1438458740
Te            0.3340286511        0.6659713489        0.3579519734
Te            0.1680357669        0.8319642331        0.6417361187
Te            0.3322446386        0.6677553614        0.8537780556
Te            0.6659713489        0.3340286511        0.1420480266
Te            0.8339467289        0.1660532711        0.3561541260
Te            0.6677553614        0.3322446386        0.6462219444
Te            0.8319642331        0.1680357669        0.8582638813
Te            0.6650584937        0.8321244402        0.1391484862
Te            0.8321244402        0.6650584937        0.3608515138
Te            0.6685365239        0.8325226494        0.6458678401
Te            0.8325226494        0.6685365239        0.8541321599
Zr            0.0046421291       -0.0046421291       -0.0015135465
Zr           -0.0046421291        0.0046421291        0.5015135465
Zr            0.0005737354        0.5099754108       -0.0001874027
Zr           -0.0005737354        0.4900245892        0.5001874027
Zr            0.4900245892       -0.0005737354       -0.0001874027
Zr            0.5099754108        0.0005737354        0.5001874027
Zr            0.5015286197        0.4984713803       -0.0028513469
Zr            0.4984713803        0.5015286197        0.5028513469



     Writing output data file ./tmp/FeZrTe2-S3_i02_w24.save/
     NEW-OLD atomic charge density approx. for the potential

     total cpu time spent up to now is    50738.4 secs

     Self-consistent Calculation

     iteration #  1     ecut=    70.00 Ry     beta= 0.70
     Davidson diagonalization with overlap
     ethr =  1.00E-06,  avg # of iterations =  2.0

     Threshold (ethr) on eigenvalues was too large:
     Diagonalizing with lowered threshold

     Davidson diagonalization with overlap
     ethr =  2.31E-09,  avg # of iterations =  1.0

     total cpu time spent up to now is    52451.9 secs

     total energy              =  -11586.88711920 Ry
     estimated scf accuracy    <       0.00000969 Ry

     iteration #  2     ecut=    70.00 Ry     beta= 0.70
     Davidson diagonalization with overlap
     ethr =  2.42E-09,  avg # of iterations =  7.0

     total cpu time spent up to now is    53665.1 secs

     total energy              =  -11586.88699088 Ry
     estimated scf accuracy    <       0.00577723 Ry

     iteration #  3     ecut=    70.00 Ry     beta= 0.70
     Davidson diagonalization with overlap
     ethr =  2.42E-09,  avg # of iterations =  6.5

     total cpu time spent up to now is    54816.4 secs

     total energy              =  -11586.88711953 Ry
     estimated scf accuracy    <       0.00011841 Ry

     iteration #  4     ecut=    70.00 Ry     beta= 0.70
     Davidson diagonalization with overlap
     ethr =  2.42E-09,  avg # of iterations =  4.3

     total cpu time spent up to now is    55845.8 secs

     total energy              =  -11586.88712446 Ry
     estimated scf accuracy    <       0.00006154 Ry

     iteration #  5     ecut=    70.00 Ry     beta= 0.70
     Davidson diagonalization with overlap
     ethr =  2.42E-09,  avg # of iterations =  2.1

     total cpu time spent up to now is    56765.7 secs

     End of self-consistent calculation

     Number of k-points >= 100: set verbosity='high' to print the bands.

     the Fermi energy is    12.6043 ev

!    total energy              =  -11586.88712663 Ry

     total all-electron energy =   -282590.704295 Ry
     estimated scf accuracy    <       0.00000045 Ry
     smearing contrib. (-TS)   =      -0.00036544 Ry
     internal energy E=F+TS    =  -11586.88676119 Ry

     The total energy is F=E-TS. E is the sum of the following terms:
     one-electron contribution =   -2233.17424960 Ry
     hartree contribution      =    1334.12614658 Ry
     xc contribution           =   -1049.97095171 Ry
     ewald contribution        =   -2978.14953231 Ry
     one-center paw contrib.   =   -6659.71817415 Ry

     convergence has been achieved in   5 iterations

     Forces acting on atoms (cartesian axes, Ry/au):

     atom    1 type  2   force =     0.00000000   -0.00000000    0.00000000
     atom    2 type  2   force =     0.00000000    0.00000000    0.00000000
     atom    3 type  2   force =     0.00000000   -0.00000000    0.00000000
     atom    4 type  1   force =     0.00035505    0.00025215    0.00009236
     atom    5 type  1   force =     0.00004084    0.00043356   -0.00009236
     atom    6 type  1   force =    -0.00019913    0.00004142   -0.00002119
     atom    7 type  1   force =     0.00013544   -0.00015175    0.00002119
     atom    8 type  1   force =    -0.00025122    0.00014504   -0.00031952
     atom    9 type  1   force =     0.00048988   -0.00028283    0.00003556
     atom   10 type  1   force =     0.00021982   -0.00012691    0.00029031
     atom   11 type  1   force =    -0.00022640    0.00013071   -0.00010643
     atom   12 type  1   force =    -0.00048988    0.00028283   -0.00003556
     atom   13 type  1   force =     0.00025122   -0.00014504    0.00031952
     atom   14 type  1   force =     0.00022640   -0.00013071    0.00010643
     atom   15 type  1   force =    -0.00021982    0.00012691   -0.00029031
     atom   16 type  1   force =    -0.00004084   -0.00043356    0.00009236
     atom   17 type  1   force =    -0.00035505   -0.00025215   -0.00009236
     atom   18 type  1   force =    -0.00013544    0.00015175   -0.00002119
     atom   19 type  1   force =     0.00019913   -0.00004142    0.00002119
     atom   20 type  3   force =    -0.00031994    0.00018472    0.00017395
     atom   21 type  3   force =     0.00031994   -0.00018472   -0.00017395
     atom   22 type  3   force =    -0.00009251   -0.00003216   -0.00040220
     atom   23 type  3   force =     0.00009251    0.00003216    0.00040220
     atom   24 type  3   force =    -0.00001840    0.00009619   -0.00040220
     atom   25 type  3   force =     0.00001840   -0.00009619    0.00040220
     atom   26 type  3   force =    -0.00012931    0.00007466    0.00068160
     atom   27 type  3   force =     0.00012931   -0.00007466   -0.00068160

     Total force =     0.002103     Total SCF correction =     0.003702
     SCF correction compared to forces is large: reduce conv_thr to get better values


     Computing stress (Cartesian axis) and pressure

          total   stress  (Ry/bohr**3)                   (kbar)     P=        1.01
  -0.00000184   0.00002264  -0.00002540           -0.27        3.33       -3.74
   0.00002264   0.00002430   0.00001466            3.33        3.57        2.16
  -0.00002540   0.00001466  -0.00000177           -3.74        2.16       -0.26

     Message from routine bfgs:
     history already reset at previous step: stopping
     Energy error            =      4.0E-06
     Gradient error          =      6.8E-04
     Cell gradient error     =      2.5E-05

ibrav =      4
 celldm(1) =     14.60299028
 celldm(3) =      1.67211886
Input lattice vectors:
     0.99991572     0.00000000     0.00000000
    -0.49995786     0.86595241     0.00000000
     0.00000000     0.00000000     1.67197793
New lattice vectors in INITIAL alat:
     0.99991572     0.00000000     0.00000000
    -0.49995786     0.86595241     0.00000000
     0.00000000     0.00000000     1.67197793
New lattice vectors in NEW alat (for information only):
     1.00000000     0.00000000     0.00000000
    -0.50000000     0.86602540     0.00000000
     0.00000000     0.00000000     1.67211886
Discrepancy in bohr =     0.000000    0.000000    0.000000

     bfgs converged in   4 scf cycles and   1 bfgs steps
     (criteria: energy <  1.0E-05 Ry, force <  1.0E-04Ry/Bohr, cell <  5.0E-01kbar)

     End of BFGS Geometry Optimization

     Final enthalpy =  -11586.8871266303 Ry

     File ./tmp/FeZrTe2-S3_i02_w24.bfgs deleted, as requested
Begin final coordinates
     new unit-cell volume =   4509.44575 a.u.^3 (   668.23092 Ang^3 )
     density =      7.30317 g/cm^3

CELL_PARAMETERS (alat= 14.60422118)
   0.999915716   0.000000000   0.000000000
  -0.499957858   0.865952412   0.000000000
   0.000000000   0.000000000   1.671977931

ATOMIC_POSITIONS (crystal)
Fe            0.0000000000        0.5000000000        0.7500000000
Fe            0.5000000000       -0.0000000000        0.7500000000
Fe            0.5000000000        0.5000000000        0.2500000000
Te            0.1678755598        0.3349415063        0.1391484862
Te            0.3349415063        0.1678755598        0.3608515138
Te            0.1674773506        0.3314634761        0.6458678401
Te            0.3314634761        0.1674773506        0.8541321599
Te            0.1660532711        0.8339467289        0.1438458740
Te            0.3340286511        0.6659713489        0.3579519734
Te            0.1680357669        0.8319642331        0.6417361187
Te            0.3322446386        0.6677553614        0.8537780556
Te            0.6659713489        0.3340286511        0.1420480266
Te            0.8339467289        0.1660532711        0.3561541260
Te            0.6677553614        0.3322446386        0.6462219444
Te            0.8319642331        0.1680357669        0.8582638813
Te            0.6650584937        0.8321244402        0.1391484862
Te            0.8321244402        0.6650584937        0.3608515138
Te            0.6685365239        0.8325226494        0.6458678401
Te            0.8325226494        0.6685365239        0.8541321599
Zr            0.0046421291       -0.0046421291       -0.0015135465
Zr           -0.0046421291        0.0046421291        0.5015135465
Zr            0.0005737354        0.5099754108       -0.0001874027
Zr           -0.0005737354        0.4900245892        0.5001874027
Zr            0.4900245892       -0.0005737354       -0.0001874027
Zr            0.5099754108        0.0005737354        0.5001874027
Zr            0.5015286197        0.4984713803       -0.0028513469
Zr            0.4984713803        0.5015286197        0.5028513469
End final coordinates



     Writing output data file ./tmp/FeZrTe2-S3_i02_w24.save/

     Final scf calculation at the relaxed structure.
     The G-vectors are recalculated for the final unit cell
     Results may differ from those at the preceding step.

     Parallelization info
     --------------------
     sticks:   dense  smooth     PW     G-vecs:    dense   smooth      PW
     Min        5145    2052    567               705297   178438   25379
     Max        5146    2053    568               705298   178441   25382
     Sum       10291    4105   1135              1410595   356879   50761


     Title: 
     FeZrTe2-S3_i02_w24                                                         


     bravais-lattice index     =            4
     lattice parameter (alat)  =      14.6042  a.u.
     unit-cell volume          =    4509.4457 (a.u.)^3
     number of atoms/cell      =           27
     number of atomic types    =            3
     number of electrons       =       400.00
     number of Kohn-Sham states=          240
     kinetic-energy cutoff     =      70.0000  Ry
     charge density cutoff     =     700.0000  Ry
     scf convergence threshold =      1.0E-06
     mixing beta               =       0.7000
     number of iterations used =            8  plain     mixing
     press convergence thresh. =      5.0E-01
     Exchange-correlation= VDW-DF2-B86R
                           (   1   4  26   0   2   0   0)

     celldm(1)=  14.604221  celldm(2)=   0.000000  celldm(3)=   1.672123
     celldm(4)=   0.000000  celldm(5)=   0.000000  celldm(6)=   0.000000

     crystal axes: (cart. coord. in units of alat)
               a(1) = (   0.999916   0.000000   0.000000 )  
               a(2) = (  -0.499958   0.865952   0.000000 )  
               a(3) = (   0.000000   0.000000   1.671978 )  

     reciprocal axes: (cart. coord. in units 2 pi/alat)
               b(1) = (  1.000084  0.577399 -0.000000 )  
               b(2) = (  0.000000  1.154798  0.000000 )  
               b(3) = (  0.000000 -0.000000  0.598094 )  


     PseudoPot. # 1 for Te read from file:
     ../../pseudo/Te.pbe-dn-kjpaw_psl.1.0.0.UPF
     MD5 check sum: 6fcff28523c44509c8b0933d026a09ba
     Pseudo is Projector augmented-wave + core cor, Zval = 16.0
     Generated using "atomic" code by A. Dal Corso  v.6.2 svn rev. 13949:13950
     Shape of augmentation charge: PSQ
     Using radial grid of 1245 points,  6 beta functions with: 
                l(1) =   0
                l(2) =   0
                l(3) =   1
                l(4) =   1
                l(5) =   2
                l(6) =   2
     Q(r) pseudized with 0 coefficients 


     PseudoPot. # 2 for Fe read from file:
     ../../pseudo/Fe.pbe-spn-kjpaw_psl.1.0.0.UPF
     MD5 check sum: ab14500225aa63e38c7c26e86ebbc19d
     Pseudo is Projector augmented-wave + core cor, Zval = 16.0
     Generated using "atomic" code by A. Dal Corso  v.6.2 svn rev. 13949:13950
     Shape of augmentation charge: PSQ
     Using radial grid of 1191 points,  6 beta functions with: 
                l(1) =   0
                l(2) =   0
                l(3) =   1
                l(4) =   1
                l(5) =   2
                l(6) =   2
     Q(r) pseudized with 0 coefficients 


     PseudoPot. # 3 for Zr read from file:
     ../../pseudo/Zr.pbe-spn-kjpaw_psl.1.0.0.UPF
     MD5 check sum: c5f18ff7fd7b8b65997bc48e1dc42bc6
     Pseudo is Projector augmented-wave + core cor, Zval = 12.0
     Generated using "atomic" code by A. Dal Corso  v.6.2 svn rev. 13949:13950
     Shape of augmentation charge: PSQ
     Using radial grid of 1225 points,  6 beta functions with: 
                l(1) =   0
                l(2) =   0
                l(3) =   1
                l(4) =   1
                l(5) =   2
                l(6) =   2
     Q(r) pseudized with 0 coefficients 


     atomic species   valence    mass     pseudopotential
        Te            16.00   127.60000     Te( 1.00)
        Fe            16.00    55.84500     Fe( 1.00)
        Zr            12.00    91.22400     Zr( 1.00)

      4 Sym. Ops., with inversion, found ( 2 have fractional translation)



   Cartesian axes

     site n.     atom                  positions (alat units)
         1           Fe  tau(   1) = (  -0.2499789   0.4329762   1.2539834  )
         2           Fe  tau(   2) = (   0.4999579  -0.0000000   1.2539834  )
         3           Fe  tau(   3) = (   0.2499789   0.4329762   0.4179945  )
         4           Te  tau(   4) = (   0.0004048   0.2900434   0.2326532  )
         5           Te  tau(   5) = (   0.2509826   0.1453722   0.6033358  )
         6           Te  tau(   6) = (   0.0017455   0.2870316   1.0798768  )
         7           Te  tau(   7) = (   0.2477039   0.1450274   1.4280901  )
         8           Te  tau(   8) = (  -0.2508989   0.7221582   0.2405071  )
         9           Te  tau(   9) = (   0.0010429   0.5766995   0.5984878  )
        10           Te  tau(  10) = (  -0.2479255   0.7204414   1.0729686  )
        11           Te  tau(  11) = (  -0.0016329   0.5782444   1.4274981  )
        12           Te  tau(  12) = (   0.4989150   0.2892529   0.2375012  )
        13           Te  tau(  13) = (   0.7508568   0.1437942   0.5954818  )
        14           Te  tau(  14) = (   0.5015908   0.2877080   1.0804688  )
        15           Te  tau(  15) = (   0.7478833   0.1455110   1.4349983  )
        16           Te  tau(  16) = (   0.2489753   0.7205802   0.2326532  )
        17           Te  tau(  17) = (   0.4995531   0.5759090   0.6033358  )
        18           Te  tau(  18) = (   0.2522539   0.7209250   1.0798768  )
        19           Te  tau(  19) = (   0.4982124   0.5789208   1.4280901  )
        20           Zr  tau(  20) = (   0.0069626  -0.0040199  -0.0025306  )
        21           Zr  tau(  21) = (  -0.0069626   0.0040199   0.8385196  )
        22           Zr  tau(  22) = (  -0.2543925   0.4416144  -0.0003133  )
        23           Zr  tau(  23) = (  -0.2455653   0.4243380   0.8363023  )
        24           Zr  tau(  24) = (   0.4902701  -0.0004968  -0.0003133  )
        25           Zr  tau(  25) = (   0.5096456   0.0004968   0.8363023  )
        26           Zr  tau(  26) = (   0.2522717   0.4316525  -0.0047674  )
        27           Zr  tau(  27) = (   0.2476862   0.4342999   0.8407564  )

     number of k points=   114  Marzari-Vanderbilt smearing, width (Ry)=  0.0050

     Number of k-points >= 100: set verbosity='high' to print them.

     Dense  grid:  1410595 G-vectors     FFT dimensions: ( 125, 125, 216)

     Smooth grid:   356879 G-vectors     FFT dimensions: (  80,  80, 144)

     Estimated max dynamical RAM per process >       2.15 GB

     Estimated total dynamical RAM >      43.09 GB

     Initial potential from superposition of free atoms

     starting charge  399.97803, renormalised to  400.00000
     Starting wfcs are  278 randomized atomic wfcs
     Checking if some PAW data can be deallocated... 

     total cpu time spent up to now is    59289.4 secs

     Self-consistent Calculation

     iteration #  1     ecut=    70.00 Ry     beta= 0.70
     Davidson diagonalization with overlap
     c_bands:  5 eigenvalues not converged
     c_bands:  2 eigenvalues not converged
     c_bands:  1 eigenvalues not converged
     c_bands:  1 eigenvalues not converged
     c_bands:  2 eigenvalues not converged
     c_bands:  3 eigenvalues not converged
     c_bands:  1 eigenvalues not converged
     c_bands:  5 eigenvalues not converged
     c_bands:  3 eigenvalues not converged
     c_bands:  5 eigenvalues not converged
     c_bands:  1 eigenvalues not converged
     ethr =  1.00E-06,  avg # of iterations = 40.4

     total cpu time spent up to now is    69199.8 secs

     total energy              =  -11576.96444471 Ry
     estimated scf accuracy    <      12.39639630 Ry

     iteration #  2     ecut=    70.00 Ry     beta= 0.70
     Davidson diagonalization with overlap
     ethr =  3.10E-03,  avg # of iterations =  7.1

     total cpu time spent up to now is    70388.0 secs

     total energy              =  -11580.76505054 Ry
     estimated scf accuracy    <     235.17737996 Ry

     iteration #  3     ecut=    70.00 Ry     beta= 0.70
     Davidson diagonalization with overlap
     ethr =  3.10E-03,  avg # of iterations =  6.1

     total cpu time spent up to now is    71753.2 secs

     total energy              =  -11584.46774580 Ry
     estimated scf accuracy    <      72.36863062 Ry

     iteration #  4     ecut=    70.00 Ry     beta= 0.70
     Davidson diagonalization with overlap
     ethr =  3.10E-03,  avg # of iterations =  6.9

     total cpu time spent up to now is    72936.6 secs

     total energy              =  -11585.66021444 Ry
     estimated scf accuracy    <      71.10951131 Ry

     iteration #  5     ecut=    70.00 Ry     beta= 0.70
     Davidson diagonalization with overlap
     ethr =  3.10E-03,  avg # of iterations =  3.4

     total cpu time spent up to now is    73867.7 secs

     total energy              =  -11586.34590440 Ry
     estimated scf accuracy    <      20.40949762 Ry

     iteration #  6     ecut=    70.00 Ry     beta= 0.70
     Davidson diagonalization with overlap
     ethr =  3.10E-03,  avg # of iterations =  2.0

     total cpu time spent up to now is    74769.9 secs

     total energy              =  -11586.70613303 Ry
     estimated scf accuracy    <       1.38603091 Ry

     iteration #  7     ecut=    70.00 Ry     beta= 0.70
     Davidson diagonalization with overlap
     ethr =  3.47E-04,  avg # of iterations =  7.7

     total cpu time spent up to now is    75853.4 secs

     total energy              =  -11586.85131803 Ry
     estimated scf accuracy    <       0.13691062 Ry

     iteration #  8     ecut=    70.00 Ry     beta= 0.70
     Davidson diagonalization with overlap
     ethr =  3.42E-05,  avg # of iterations = 11.2

     total cpu time spent up to now is    77139.0 secs

     total energy              =  -11586.85693271 Ry
     estimated scf accuracy    <       0.29974890 Ry

     iteration #  9     ecut=    70.00 Ry     beta= 0.70
     Davidson diagonalization with overlap
     ethr =  3.42E-05,  avg # of iterations =  2.7

     total cpu time spent up to now is    78130.8 secs

     total energy              =  -11586.87808876 Ry
     estimated scf accuracy    <       0.05590854 Ry

     iteration # 10     ecut=    70.00 Ry     beta= 0.70
     Davidson diagonalization with overlap
     ethr =  1.40E-05,  avg # of iterations =  2.4

     total cpu time spent up to now is    79090.5 secs

     total energy              =  -11586.88188445 Ry
     estimated scf accuracy    <       0.05894206 Ry

     iteration # 11     ecut=    70.00 Ry     beta= 0.70
     Davidson diagonalization with overlap
     ethr =  1.40E-05,  avg # of iterations =  1.2

     total cpu time spent up to now is    79977.5 secs

     total energy              =  -11586.88581258 Ry
     estimated scf accuracy    <       0.01018679 Ry

     iteration # 12     ecut=    70.00 Ry     beta= 0.70
     Davidson diagonalization with overlap
     c_bands:  1 eigenvalues not converged
     ethr =  2.55E-06,  avg # of iterations = 12.6

     total cpu time spent up to now is    81091.0 secs

     total energy              =  -11586.88633156 Ry
     estimated scf accuracy    <       0.01051959 Ry

     iteration # 13     ecut=    70.00 Ry     beta= 0.70
     Davidson diagonalization with overlap
     ethr =  2.55E-06,  avg # of iterations =  1.9

     total cpu time spent up to now is    81996.9 secs

     total energy              =  -11586.88663629 Ry
     estimated scf accuracy    <       0.00139482 Ry

     iteration # 14     ecut=    70.00 Ry     beta= 0.70
     Davidson diagonalization with overlap
     ethr =  3.49E-07,  avg # of iterations =  6.2

     total cpu time spent up to now is    83241.6 secs

     total energy              =  -11586.88700938 Ry
     estimated scf accuracy    <       0.00046230 Ry

     iteration # 15     ecut=    70.00 Ry     beta= 0.70
     Davidson diagonalization with overlap
     ethr =  1.16E-07,  avg # of iterations =  3.0

     total cpu time spent up to now is    84257.3 secs

     total energy              =  -11586.88702065 Ry
     estimated scf accuracy    <       0.00015476 Ry

     iteration # 16     ecut=    70.00 Ry     beta= 0.70
     Davidson diagonalization with overlap
     ethr =  3.87E-08,  avg # of iterations =  4.6

     total cpu time spent up to now is    85311.8 secs

     total energy              =  -11586.88701431 Ry
     estimated scf accuracy    <       0.00142939 Ry

     iteration # 17     ecut=    70.00 Ry     beta= 0.70
     Davidson diagonalization with overlap
     ethr =  3.87E-08,  avg # of iterations =  2.0

     total cpu time spent up to now is    86227.8 secs

     total energy              =  -11586.88705093 Ry
     estimated scf accuracy    <       0.00013157 Ry

     iteration # 18     ecut=    70.00 Ry     beta= 0.70
     Davidson diagonalization with overlap
     ethr =  3.29E-08,  avg # of iterations =  2.0

     total cpu time spent up to now is    87132.3 secs

     total energy              =  -11586.88706136 Ry
     estimated scf accuracy    <       0.00000418 Ry

     iteration # 19     ecut=    70.00 Ry     beta= 0.70
     Davidson diagonalization with overlap
     ethr =  1.05E-09,  avg # of iterations =  7.1

     total cpu time spent up to now is    89371.6 secs

     total energy              =  -11586.88706786 Ry
     estimated scf accuracy    <       0.00000484 Ry

     iteration # 20     ecut=    70.00 Ry     beta= 0.70
     Davidson diagonalization with overlap
     ethr =  1.05E-09,  avg # of iterations =  2.0

     total cpu time spent up to now is    90299.6 secs

     total energy              =  -11586.88706798 Ry
     estimated scf accuracy    <       0.00000724 Ry

     iteration # 21     ecut=    70.00 Ry     beta= 0.70
     Davidson diagonalization with overlap
     ethr =  1.05E-09,  avg # of iterations =  1.0

     total cpu time spent up to now is    91143.9 secs

     End of self-consistent calculation

     Number of k-points >= 100: set verbosity='high' to print the bands.

     the Fermi energy is    12.6041 ev

!    total energy              =  -11586.88706797 Ry

     total all-electron energy =   -282590.704236 Ry
     estimated scf accuracy    <       0.00000068 Ry
     smearing contrib. (-TS)   =      -0.00036559 Ry
     internal energy E=F+TS    =  -11586.88670238 Ry

     The total energy is F=E-TS. E is the sum of the following terms:
     one-electron contribution =   -2233.18758104 Ry
     hartree contribution      =    1334.14289379 Ry
     xc contribution           =   -1049.97321870 Ry
     ewald contribution        =   -2978.14953231 Ry
     one-center paw contrib.   =   -6659.71926412 Ry

     convergence has been achieved in  21 iterations

     Forces acting on atoms (cartesian axes, Ry/au):

     atom    1 type  2   force =     0.00000000    0.00000000    0.00000000
     atom    2 type  2   force =     0.00000000    0.00000000    0.00000000
     atom    3 type  2   force =    -0.00000000   -0.00000000    0.00000000
     atom    4 type  1   force =     0.00012857    0.00010682    0.00022001
     atom    5 type  1   force =     0.00002823    0.00016476   -0.00022001
     atom    6 type  1   force =    -0.00024444   -0.00013231    0.00007150
     atom    7 type  1   force =     0.00000764   -0.00027785   -0.00007150
     atom    8 type  1   force =    -0.00027025    0.00015603   -0.00005295
     atom    9 type  1   force =     0.00025644   -0.00014805   -0.00017402
     atom   10 type  1   force =     0.00010571   -0.00006103    0.00012261
     atom   11 type  1   force =    -0.00026481    0.00015289   -0.00012893
     atom   12 type  1   force =    -0.00025644    0.00014805    0.00017402
     atom   13 type  1   force =     0.00027025   -0.00015603    0.00005295
     atom   14 type  1   force =     0.00026481   -0.00015289    0.00012893
     atom   15 type  1   force =    -0.00010571    0.00006103   -0.00012261
     atom   16 type  1   force =    -0.00002823   -0.00016476    0.00022001
     atom   17 type  1   force =    -0.00012857   -0.00010682   -0.00022001
     atom   18 type  1   force =    -0.00000764    0.00027785    0.00007150
     atom   19 type  1   force =     0.00024444    0.00013231   -0.00007150
     atom   20 type  3   force =    -0.00018027    0.00010408    0.00017442
     atom   21 type  3   force =     0.00018027   -0.00010408   -0.00017442
     atom   22 type  3   force =    -0.00014866    0.00009287   -0.00041298
     atom   23 type  3   force =     0.00014866   -0.00009287    0.00041298
     atom   24 type  3   force =    -0.00015476    0.00008231   -0.00041298
     atom   25 type  3   force =     0.00015476   -0.00008231    0.00041298
     atom   26 type  3   force =    -0.00007792    0.00004499    0.00068000
     atom   27 type  3   force =     0.00007792   -0.00004499   -0.00068000

     Total force =     0.001801     Total SCF correction =     0.002431
     SCF correction compared to forces is large: reduce conv_thr to get better values


     Computing stress (Cartesian axis) and pressure

          total   stress  (Ry/bohr**3)                   (kbar)     P=        1.35
   0.00000038   0.00002271  -0.00002533            0.06        3.34       -3.73
   0.00002271   0.00002660   0.00001462            3.34        3.91        2.15
  -0.00002533   0.00001462   0.00000060           -3.73        2.15        0.09


     Writing output data file ./tmp/FeZrTe2-S3_i02_w24.save/

     init_run     :   1277.88s CPU   1333.58s WALL (       2 calls)
     electrons    :  76226.55s CPU  81147.30s WALL (       5 calls)
     update_pot   :   1109.71s CPU   1115.06s WALL (       3 calls)
     forces       :   1710.37s CPU   1723.78s WALL (       5 calls)
     stress       :   7528.67s CPU   7576.83s WALL (       5 calls)

     Called by init_run:
     wfcinit      :    661.37s CPU    711.96s WALL (       2 calls)
     potinit      :    235.97s CPU    239.79s WALL (       2 calls)
     hinit0       :    369.43s CPU    369.93s WALL (       2 calls)

     Called by electrons:
     c_bands      :  66144.12s CPU  70249.75s WALL (      67 calls)
     sum_band     :   8288.96s CPU   8976.80s WALL (      67 calls)
     v_of_rho     :   1696.95s CPU   1803.43s WALL (      70 calls)
     newd         :    109.17s CPU    128.18s WALL (      70 calls)
     PAW_pot      :     64.15s CPU     65.78s WALL (      73 calls)
     mix_rho      :     48.03s CPU     52.55s WALL (      67 calls)
     vdW_kernel   :     14.06s CPU     14.09s WALL (       1 calls)

     Called by c_bands:
     init_us_2    :    244.95s CPU    246.71s WALL (    1788 calls)
     cegterg      :  62398.03s CPU  66489.29s WALL (     818 calls)

     Called by *egterg:
     cdiaghg      :   1068.76s CPU   1134.11s WALL (    4788 calls)
     h_psi        :  35644.44s CPU  39554.56s WALL (    4886 calls)
     s_psi        :   5290.25s CPU   5304.86s WALL (    4886 calls)
     g_psi        :    128.67s CPU    129.17s WALL (    4044 calls)

     Called by h_psi:
     h_psi:calbec :   5375.11s CPU   5391.09s WALL (    4886 calls)
     vloc_psi     :  24849.63s CPU  28678.16s WALL (    4886 calls)
     add_vuspsi   :   5293.63s CPU   5307.98s WALL (    4886 calls)

     General routines
     calbec       :   8027.98s CPU   8052.75s WALL (    6026 calls)
     fft          :   1077.32s CPU   1139.52s WALL (    5250 calls)
     ffts         :      7.27s CPU      7.79s WALL (     137 calls)
     fftw         :  24452.97s CPU  28893.78s WALL ( 1256524 calls)
     interpolate  :     18.95s CPU     21.27s WALL (      70 calls)

     Parallel routines
     fft_scatt_xy :   5515.57s CPU   6430.35s WALL ( 1261911 calls)
     fft_scatt_yz :   4596.54s CPU   5250.90s WALL ( 1261911 calls)

     PWSCF        :   1d 0h26m CPU   1d 1h51m WALL


   This run was terminated on:  16: 6: 8  21Dec2021            

=------------------------------------------------------------------------------=
   JOB DONE.
=------------------------------------------------------------------------------=
