Distances between atoms, up to dmax=  6.00 A   (* = with lattice translation)
  #1  #2   bond       d
   3  24  Te-Zr    2.89978 A  
  14  24  Te-Zr    2.89978 A  
   2  24  Te-Zr    2.89978 A  
  15  24  Te-Zr    2.89978 A  
  12  21  Te-Zr    2.89989 A *
   5  21  Te-Zr    2.89989 A *
  12  19  Te-Zr    2.89989 A *
   5  19  Te-Zr    2.89989 A  
   6  24  Te-Zr    2.89992 A  
  11  24  Te-Zr    2.89992 A  
  15  18  Te-Zr    2.89992 A *
   2  18  Te-Zr    2.89992 A  
   3  18  Te-Zr    2.89992 A  
  14  18  Te-Zr    2.89992 A *
  12  17  Te-Zr    2.89993 A *
   5  17  Te-Zr    2.89993 A *
   8  19  Te-Zr    2.89995 A *
   9  19  Te-Zr    2.89995 A *
   8  21  Te-Zr    2.89995 A *
   9  21  Te-Zr    2.89995 A  
   8  23  Te-Zr    2.89998 A *
   9  23  Te-Zr    2.89998 A  
   7  18  Te-Zr    2.89999 A *
  10  18  Te-Zr    2.89999 A *
  15  22  Te-Zr    2.90003 A *
   3  20  Te-Zr    2.90003 A  
   2  22  Te-Zr    2.90003 A  
  14  20  Te-Zr    2.90003 A *
   1  19  Te-Zr    2.90004 A  
  13  21  Te-Zr    2.90004 A *
   4  21  Te-Zr    2.90004 A *
  16  19  Te-Zr    2.90004 A *
  13  17  Te-Zr    2.90007 A *
   4  17  Te-Zr    2.90007 A *
   1  17  Te-Zr    2.90007 A  
  16  17  Te-Zr    2.90007 A *
   1  23  Te-Zr    2.90007 A  
  16  23  Te-Zr    2.90007 A *
  13  23  Te-Zr    2.90007 A  
   4  23  Te-Zr    2.90007 A *
   7  22  Te-Zr    2.90015 A *
  10  22  Te-Zr    2.90015 A  
   7  20  Te-Zr    2.90015 A  
  10  20  Te-Zr    2.90015 A *
   6  20  Te-Zr    2.90020 A  
  11  20  Te-Zr    2.90020 A *
   6  22  Te-Zr    2.90020 A *
  11  22  Te-Zr    2.90020 A  
   4  11  Te-Te    3.80613 A  
   6  13  Te-Te    3.80613 A  
  11  16  Te-Te    3.80613 A  
   1   6  Te-Te    3.80613 A  
   7  16  Te-Te    3.80617 A *
   1  10  Te-Te    3.80617 A *
   4   7  Te-Te    3.80617 A *
  10  13  Te-Te    3.80617 A *
   3   4  Te-Te    3.80638 A  
   1   2  Te-Te    3.80638 A  
  15  16  Te-Te    3.80638 A  
  13  14  Te-Te    3.80638 A  
   9  10  Te-Te    3.80641 A  
   7   8  Te-Te    3.80641 A  
  11  12  Te-Te    3.80652 A  
   5   6  Te-Te    3.80652 A  
   2   9  Te-Te    3.80658 A  
   8  15  Te-Te    3.80658 A  
   3   8  Te-Te    3.80658 A  
   9  14  Te-Te    3.80658 A  
   5  14  Te-Te    3.80677 A *
   3  12  Te-Te    3.80677 A *
  12  15  Te-Te    3.80677 A *
   2   5  Te-Te    3.80677 A *
   3  11  Te-Te    3.93445 A  
   6  14  Te-Te    3.93445 A  
   2   6  Te-Te    3.93445 A  
  11  15  Te-Te    3.93445 A  
   2  14  Te-Te    3.93463 A  
   3  15  Te-Te    3.93463 A  
   7  15  Te-Te    3.93465 A *
   2  10  Te-Te    3.93465 A *
  10  14  Te-Te    3.93465 A *
   3   7  Te-Te    3.93465 A *
   4  12  Te-Te    3.93479 A  
   5  13  Te-Te    3.93479 A  
  12  16  Te-Te    3.93479 A  
   1   5  Te-Te    3.93479 A  
   8  16  Te-Te    3.93479 A *
   1   9  Te-Te    3.93479 A *
   9  13  Te-Te    3.93479 A *
   4   8  Te-Te    3.93479 A *
   1  13  Te-Te    3.93484 A *
   4  16  Te-Te    3.93484 A *
  17  21  Zr-Zr    3.93484 A *
  17  21  Zr-Zr    3.93484 A  
  18  22  Zr-Zr    3.93484 A *
  18  22  Zr-Zr    3.93484 A  
  19  23  Zr-Zr    3.93484 A *
  19  23  Zr-Zr    3.93484 A  
  20  24  Zr-Zr    3.93484 A *
  20  24  Zr-Zr    3.93484 A  
  17  19  Zr-Zr    3.93484 A *
  17  19  Zr-Zr    3.93484 A  
  17  23  Zr-Zr    3.93484 A *
  17  23  Zr-Zr    3.93484 A  
  18  20  Zr-Zr    3.93484 A *
  18  20  Zr-Zr    3.93484 A  
  18  24  Zr-Zr    3.93484 A *
  18  24  Zr-Zr    3.93484 A  
  19  21  Zr-Zr    3.93484 A *
  19  21  Zr-Zr    3.93484 A *
  20  22  Zr-Zr    3.93484 A *
  20  22  Zr-Zr    3.93484 A *
  21  23  Zr-Zr    3.93484 A *
  21  23  Zr-Zr    3.93484 A  
  22  24  Zr-Zr    3.93484 A *
  22  24  Zr-Zr    3.93484 A  
   5   9  Te-Te    3.93484 A *
   8  12  Te-Te    3.93484 A *
   5   9  Te-Te    3.93484 A *
   8  12  Te-Te    3.93484 A *
   6  10  Te-Te    3.93484 A *
   6  10  Te-Te    3.93484 A *
   7  11  Te-Te    3.93484 A *
   7  11  Te-Te    3.93484 A *
   1  13  Te-Te    3.93485 A  
   4  16  Te-Te    3.93485 A  
   1   9  Te-Te    3.93489 A  
   8  16  Te-Te    3.93489 A  
   4   8  Te-Te    3.93489 A  
   9  13  Te-Te    3.93489 A  
   4  12  Te-Te    3.93490 A *
   5  13  Te-Te    3.93490 A *
   1   5  Te-Te    3.93490 A *
  12  16  Te-Te    3.93490 A *
   2  10  Te-Te    3.93504 A  
   7  15  Te-Te    3.93504 A  
   3   7  Te-Te    3.93504 A  
  10  14  Te-Te    3.93504 A  
   3  15  Te-Te    3.93506 A *
   2  14  Te-Te    3.93506 A *
   3  11  Te-Te    3.93523 A *
   6  14  Te-Te    3.93523 A *
  11  15  Te-Te    3.93523 A *
   2   6  Te-Te    3.93523 A *
   2   3  Te-Te    4.26070 A  
  14  15  Te-Te    4.26070 A  
   5   8  Te-Te    4.26088 A *
   9  12  Te-Te    4.26088 A *
   6  15  Te-Te    4.26105 A  
   2  11  Te-Te    4.26105 A  
   3   6  Te-Te    4.26105 A  
  11  14  Te-Te    4.26105 A  
   1  12  Te-Te    4.26106 A *
   5  16  Te-Te    4.26106 A *
  12  13  Te-Te    4.26106 A *
   4   5  Te-Te    4.26106 A *
   4   9  Te-Te    4.26113 A *
   8  13  Te-Te    4.26113 A *
   1   8  Te-Te    4.26113 A *
   9  16  Te-Te    4.26113 A *
   3  10  Te-Te    4.26117 A *
   7  14  Te-Te    4.26117 A *
  10  15  Te-Te    4.26117 A *
   2   7  Te-Te    4.26117 A *
   1   4  Te-Te    4.26129 A *
  13  16  Te-Te    4.26129 A *
   6   7  Te-Te    4.26158 A  
  10  11  Te-Te    4.26158 A  
   3  22  Te-Zr    4.88785 A  
   2  20  Te-Zr    4.88785 A  
  14  22  Te-Zr    4.88785 A *
  15  20  Te-Zr    4.88785 A *
   5  23  Te-Zr    4.88795 A  
  12  23  Te-Zr    4.88795 A *
   2  20  Te-Zr    4.88797 A *
  15  20  Te-Zr    4.88797 A  
   3  22  Te-Zr    4.88797 A *
  14  22  Te-Zr    4.88797 A  
   8  17  Te-Zr    4.88799 A *
   9  17  Te-Zr    4.88799 A *
   6  18  Te-Zr    4.88800 A *
  11  18  Te-Zr    4.88800 A  
   6  18  Te-Zr    4.88800 A  
  11  18  Te-Zr    4.88800 A *
   5  23  Te-Zr    4.88801 A *
  12  23  Te-Zr    4.88801 A *
   5  23  Te-Zr    4.88801 A *
  12  23  Te-Zr    4.88801 A *
   9  17  Te-Zr    4.88804 A  
   8  17  Te-Zr    4.88804 A *
   8  17  Te-Zr    4.88804 A *
   9  17  Te-Zr    4.88804 A *
   7  24  Te-Zr    4.88804 A *
  10  24  Te-Zr    4.88804 A *
  10  24  Te-Zr    4.88804 A *
   7  24  Te-Zr    4.88804 A *
   1  21  Te-Zr    4.88807 A *
  16  21  Te-Zr    4.88807 A *
   4  19  Te-Zr    4.88807 A *
  13  19  Te-Zr    4.88807 A *
   4  19  Te-Zr    4.88807 A *
  13  19  Te-Zr    4.88807 A  
   1  21  Te-Zr    4.88807 A *
  16  21  Te-Zr    4.88807 A *
   1  21  Te-Zr    4.88810 A  
   4  19  Te-Zr    4.88810 A *
  13  19  Te-Zr    4.88810 A *
  16  21  Te-Zr    4.88810 A *
   3  22  Te-Zr    4.88815 A *
  14  22  Te-Zr    4.88815 A *
  15  20  Te-Zr    4.88815 A *
   2  20  Te-Zr    4.88815 A *
   7  24  Te-Zr    4.88823 A  
  10  24  Te-Zr    4.88823 A  
   6  18  Te-Zr    4.88833 A *
  11  18  Te-Zr    4.88833 A *
  11  23  Te-Zr    5.36146 A *
   6  23  Te-Zr    5.36146 A  
   7  17  Te-Zr    5.36152 A *
  10  17  Te-Zr    5.36152 A *
   7  21  Te-Zr    5.36161 A *
  10  21  Te-Zr    5.36161 A  
   7  19  Te-Zr    5.36161 A *
  10  19  Te-Zr    5.36161 A *
  11  19  Te-Zr    5.36161 A *
   6  19  Te-Zr    5.36161 A  
  11  21  Te-Zr    5.36161 A *
   6  21  Te-Zr    5.36161 A *
   4  22  Te-Zr    5.36162 A  
  16  20  Te-Zr    5.36162 A *
   1  20  Te-Zr    5.36162 A  
  13  22  Te-Zr    5.36162 A *
   4  18  Te-Zr    5.36164 A  
  13  18  Te-Zr    5.36164 A *
  16  18  Te-Zr    5.36164 A *
   1  18  Te-Zr    5.36164 A  
  16  24  Te-Zr    5.36164 A  
   1  24  Te-Zr    5.36164 A  
   4  24  Te-Zr    5.36164 A  
  13  24  Te-Zr    5.36164 A  
   8  20  Te-Zr    5.36177 A  
   9  20  Te-Zr    5.36177 A *
   9  22  Te-Zr    5.36177 A  
   8  22  Te-Zr    5.36177 A *
   3  23  Te-Zr    5.36178 A *
  14  23  Te-Zr    5.36178 A  
   2  23  Te-Zr    5.36178 A  
  15  23  Te-Zr    5.36178 A *
   8  24  Te-Zr    5.36179 A  
   9  24  Te-Zr    5.36179 A  
  12  22  Te-Zr    5.36185 A  
   5  22  Te-Zr    5.36185 A *
  12  20  Te-Zr    5.36185 A *
   5  20  Te-Zr    5.36185 A  
  15  17  Te-Zr    5.36186 A *
   2  17  Te-Zr    5.36186 A  
   3  17  Te-Zr    5.36186 A *
  14  17  Te-Zr    5.36186 A *
  12  18  Te-Zr    5.36187 A *
   5  18  Te-Zr    5.36187 A *
   2  21  Te-Zr    5.36191 A  
   3  19  Te-Zr    5.36191 A *
  14  19  Te-Zr    5.36191 A *
  15  21  Te-Zr    5.36191 A *
   6   9  Te-Te    5.47442 A  
   8  11  Te-Te    5.47442 A  
   1  14  Te-Te    5.47455 A  
   3  16  Te-Te    5.47455 A  
   2  13  Te-Te    5.47455 A  
   4  15  Te-Te    5.47455 A  
   7  12  Te-Te    5.47456 A *
   5  10  Te-Te    5.47456 A *
   8  11  Te-Te    5.47468 A *
   6   9  Te-Te    5.47468 A *
   6   9  Te-Te    5.47468 A *
   8  11  Te-Te    5.47468 A *
   7  12  Te-Te    5.47469 A *
   5  10  Te-Te    5.47469 A *
   7  12  Te-Te    5.47469 A *
   5  10  Te-Te    5.47469 A *
   4  15  Te-Te    5.47470 A *
   2  13  Te-Te    5.47470 A *
   1  14  Te-Te    5.47470 A *
   3  16  Te-Te    5.47470 A *
   3  16  Te-Te    5.47478 A *
   4  15  Te-Te    5.47478 A *
   1  14  Te-Te    5.47478 A *
   2  13  Te-Te    5.47478 A *
   3  14  Te-Te    5.79955 A  
   2  15  Te-Te    5.79955 A  
   5  12  Te-Te    5.79978 A *
   5  12  Te-Te    5.79978 A *
   6  11  Te-Te    5.79984 A  
   2  15  Te-Te    5.79985 A *
   3  14  Te-Te    5.79985 A *
   5  12  Te-Te    5.79987 A *
   8   9  Te-Te    5.79989 A *
   8   9  Te-Te    5.79989 A *
   8   9  Te-Te    5.79997 A *
   7  10  Te-Te    5.79997 A *
   2  15  Te-Te    5.80006 A *
   3  14  Te-Te    5.80006 A *
   1  16  Te-Te    5.80008 A *
   4  13  Te-Te    5.80008 A *
   4  13  Te-Te    5.80014 A *
   1  16  Te-Te    5.80014 A *
   1  16  Te-Te    5.80014 A *
   4  13  Te-Te    5.80014 A *
   7  10  Te-Te    5.80030 A *
   7  10  Te-Te    5.80030 A *
   6  11  Te-Te    5.80039 A *
   6  11  Te-Te    5.80039 A *

Nearest neighbors for each atom (up to 4)

 atom   1 species Te : neighbors at    2.900   2.900   2.900   3.806 A
         d(center): 2.900 A  angles  :    85.4    85.4   105.4    85.4   165.1   105.4
 atom   2 species Te : neighbors at    2.900   2.900   2.900   3.806 A
         d(center): 5.362 A  angles  :    85.4    85.4   105.4    85.4   105.4   165.1
 atom   3 species Te : neighbors at    2.900   2.900   2.900   3.806 A
         d(center): 8.761 A  angles  :    85.4    85.4   105.4    85.4   105.4   165.1
 atom   4 species Te : neighbors at    2.900   2.900   2.900   3.806 A
         d(center):11.738 A  angles  :    85.4    85.4   105.4    85.4   165.1   105.4
 atom   5 species Te : neighbors at    2.900   2.900   2.900   3.807 A
         d(center): 6.275 A  angles  :    85.4    85.4   105.4    85.4   105.4   165.1
 atom   6 species Te : neighbors at    2.900   2.900   2.900   3.806 A
         d(center): 6.650 A  angles  :    85.4    85.4   105.4    85.4   165.1   105.4
 atom   7 species Te : neighbors at    2.900   2.900   2.900   3.806 A
         d(center):10.379 A  angles  :    85.4    85.4   105.4    85.4   165.1   105.4
 atom   8 species Te : neighbors at    2.900   2.900   2.900   3.806 A
         d(center):12.380 A  angles  :    85.4    85.4   105.4    85.4   105.4   165.1
 atom   9 species Te : neighbors at    2.900   2.900   2.900   3.806 A
         d(center): 4.888 A  angles  :    85.4    85.4   105.4    85.4   105.4   165.1
 atom  10 species Te : neighbors at    2.900   2.900   2.900   3.806 A
         d(center): 7.727 A  angles  :    85.4    85.4   105.4    85.4   165.1   105.4
 atom  11 species Te : neighbors at    2.900   2.900   2.900   3.806 A
         d(center): 9.604 A  angles  :    85.4    85.4   105.4    85.4   165.1   105.4
 atom  12 species Te : neighbors at    2.900   2.900   2.900   3.807 A
         d(center):12.990 A  angles  :    85.4    85.4   105.4    85.4   105.4   165.1
 atom  13 species Te : neighbors at    2.900   2.900   2.900   3.806 A
         d(center): 6.275 A  angles  :    85.4    85.4   105.4    85.4   165.1   105.4
 atom  14 species Te : neighbors at    2.900   2.900   2.900   3.806 A
         d(center): 7.727 A  angles  :    85.4    85.4   105.4    85.4   105.4   165.1
 atom  15 species Te : neighbors at    2.900   2.900   2.900   3.806 A
         d(center):10.379 A  angles  :    85.4    85.4   105.4    85.4   105.4   165.1
 atom  16 species Te : neighbors at    2.900   2.900   2.900   3.806 A
         d(center):12.990 A  angles  :    85.4    85.4   105.4    85.4   165.1   105.4
 atom  17 species Zr : neighbors at    2.900   2.900   2.900   2.900 A
         d(center): 0.000 A  angles  :   180.0    94.6    85.4    85.4    94.6   180.0
 atom  18 species Zr : neighbors at    2.900   2.900   2.900   2.900 A
         d(center): 6.659 A  angles  :   180.0    94.6    85.4    85.4    94.6   180.0
 atom  19 species Zr : neighbors at    2.900   2.900   2.900   2.900 A
         d(center): 3.935 A  angles  :   180.0    85.4    94.6    94.6    85.4   180.0
 atom  20 species Zr : neighbors at    2.900   2.900   2.900   2.900 A
         d(center): 7.735 A  angles  :   180.0    85.4    94.6    94.6    85.4   180.0
 atom  21 species Zr : neighbors at    2.900   2.900   2.900   2.900 A
         d(center): 3.935 A  angles  :   180.0    94.6    85.4    85.4    94.6   180.0
 atom  22 species Zr : neighbors at    2.900   2.900   2.900   2.900 A
         d(center): 7.735 A  angles  :   180.0    94.6    85.4    85.4    94.6   180.0
 atom  23 species Zr : neighbors at    2.900   2.900   2.900   2.900 A
         d(center): 3.935 A  angles  :   180.0    94.6    85.4    85.4    94.6   180.0
 atom  24 species Zr : neighbors at    2.900   2.900   2.900   2.900 A
         d(center): 7.735 A  angles  :   180.0    94.6    85.4    85.4    94.6   180.0
