Distances between atoms, up to dmax=  6.00 A   (* = with lattice translation)
  #1  #2   bond       d
   6  10  Cu-Te    2.74089 A  
   6  14  Cu-Te    2.74089 A  
   4  14  Cu-Te    2.74091 A *
   4  10  Cu-Te    2.74092 A  
   4  21  Cu-Te    2.74112 A *
   4  17  Cu-Te    2.74113 A  
   6  21  Cu-Te    2.74115 A  
   6  17  Cu-Te    2.74116 A  
   6  22  Cu-Te    2.74388 A  
   4  18  Cu-Te    2.74390 A  
   4  13  Cu-Te    2.74411 A *
   6   9  Cu-Te    2.74412 A  
   2  14  Cu-Te    2.75969 A  
   1  10  Cu-Te    2.75973 A  
   1  21  Cu-Te    2.75993 A *
   2  17  Cu-Te    2.75995 A *
   2  18  Cu-Te    2.76448 A *
   2  22  Cu-Te    2.76448 A *
   1  22  Cu-Te    2.76451 A *
   1  18  Cu-Te    2.76452 A *
   2   9  Cu-Te    2.76472 A  
   1   9  Cu-Te    2.76473 A  
   2  13  Cu-Te    2.76474 A  
   1  13  Cu-Te    2.76474 A *
   5  15  Cu-Te    2.76869 A  
   5  19  Cu-Te    2.76870 A  
   3  15  Cu-Te    2.76872 A  
   3  19  Cu-Te    2.76872 A *
   3   8  Cu-Te    2.76882 A  
   5   8  Cu-Te    2.76885 A  
   3  12  Cu-Te    2.76886 A *
   5  12  Cu-Te    2.76889 A  
   5   7  Cu-Te    2.79130 A  
   3  11  Cu-Te    2.79133 A *
   3  16  Cu-Te    2.79155 A  
   5  20  Cu-Te    2.79156 A  
  14  25  Te-Zr    2.89333 A *
  10  23  Te-Zr    2.89337 A *
  17  26  Te-Zr    2.89342 A *
  21  24  Te-Zr    2.89343 A *
  11  25  Te-Zr    2.89708 A  
   7  25  Te-Zr    2.89709 A  
  11  23  Te-Zr    2.89710 A *
   7  23  Te-Zr    2.89710 A  
  16  26  Te-Zr    2.89715 A *
  20  26  Te-Zr    2.89716 A *
  16  24  Te-Zr    2.89718 A *
  20  24  Te-Zr    2.89718 A *
  16  28  Te-Zr    2.90882 A  
  20  30  Te-Zr    2.90884 A  
  11  27  Te-Zr    2.90884 A *
   7  29  Te-Zr    2.90884 A  
  15  25  Te-Zr    2.92294 A *
  19  23  Te-Zr    2.92295 A *
  12  26  Te-Zr    2.92304 A  
   8  24  Te-Zr    2.92306 A  
  18  25  Te-Zr    2.92852 A *
  22  25  Te-Zr    2.92853 A *
  18  23  Te-Zr    2.92853 A *
  22  23  Te-Zr    2.92854 A *
  13  26  Te-Zr    2.92860 A  
   9  26  Te-Zr    2.92861 A  
  13  24  Te-Zr    2.92862 A *
   9  24  Te-Zr    2.92863 A  
  19  29  Te-Zr    2.93044 A  
  19  27  Te-Zr    2.93046 A *
  15  29  Te-Zr    2.93046 A  
  15  27  Te-Zr    2.93046 A  
  12  28  Te-Zr    2.93047 A *
   8  28  Te-Zr    2.93047 A  
   8  30  Te-Zr    2.93048 A  
  12  30  Te-Zr    2.93048 A  
  14  29  Te-Zr    2.93054 A *
  10  29  Te-Zr    2.93054 A *
  14  27  Te-Zr    2.93055 A *
  10  27  Te-Zr    2.93055 A *
  21  28  Te-Zr    2.93057 A *
  17  28  Te-Zr    2.93058 A  
  21  30  Te-Zr    2.93059 A  
  17  30  Te-Zr    2.93059 A  
  18  27  Te-Zr    2.96710 A *
  22  29  Te-Zr    2.96710 A *
  13  28  Te-Zr    2.96716 A *
   9  30  Te-Zr    2.96718 A  
   5  29  Cu-Zr    3.23773 A  
   3  27  Cu-Zr    3.23776 A  
   3  28  Cu-Zr    3.23819 A  
   5  30  Cu-Zr    3.23822 A  
   2  25  Cu-Zr    3.27979 A *
   1  23  Cu-Zr    3.27986 A *
   1  24  Cu-Zr    3.28029 A  
   2  26  Cu-Zr    3.28035 A  
   6  29  Cu-Zr    3.34208 A *
   4  27  Cu-Zr    3.34210 A *
   4  28  Cu-Zr    3.34263 A  
   6  30  Cu-Zr    3.34267 A  
  11  20  Te-Te    3.67976 A *
   7  16  Te-Te    3.67977 A *
  14  21  Te-Te    3.75618 A  
  10  17  Te-Te    3.75620 A  
  15  20  Te-Te    3.76740 A  
  19  20  Te-Te    3.76740 A  
  15  16  Te-Te    3.76742 A  
  16  19  Te-Te    3.76742 A *
   7  12  Te-Te    3.76743 A  
  11  12  Te-Te    3.76744 A  
   7   8  Te-Te    3.76744 A  
   8  11  Te-Te    3.76745 A *
   9  14  Te-Te    3.78906 A  
  13  14  Te-Te    3.78907 A  
   9  10  Te-Te    3.78908 A  
  10  13  Te-Te    3.78910 A *
  17  18  Te-Te    3.78913 A  
  17  22  Te-Te    3.78913 A  
  21  22  Te-Te    3.78914 A  
  18  21  Te-Te    3.78914 A *
   9  18  Te-Te    3.82473 A *
  13  22  Te-Te    3.82474 A *
  12  19  Te-Te    3.83675 A  
   8  15  Te-Te    3.83678 A  
  11  15  Te-Te    3.89730 A *
   7  15  Te-Te    3.89731 A *
  11  19  Te-Te    3.89735 A *
   7  19  Te-Te    3.89736 A *
  12  20  Te-Te    3.89741 A *
  12  16  Te-Te    3.89742 A *
   8  20  Te-Te    3.89743 A *
   8  16  Te-Te    3.89745 A *
  25  27  Zr-Zr    3.91467 A *
  25  29  Zr-Zr    3.91467 A  
  24  28  Zr-Zr    3.91468 A *
  24  30  Zr-Zr    3.91468 A *
  26  28  Zr-Zr    3.91468 A *
  26  30  Zr-Zr    3.91468 A *
  23  27  Zr-Zr    3.91470 A  
  23  29  Zr-Zr    3.91470 A  
  13  21  Te-Te    3.96582 A  
   9  21  Te-Te    3.96584 A  
  13  17  Te-Te    3.96586 A *
   9  17  Te-Te    3.96587 A  
  10  22  Te-Te    3.96590 A  
  10  18  Te-Te    3.96590 A  
  14  22  Te-Te    3.96590 A  
  14  18  Te-Te    3.96591 A *
   3   5  Cu-Cu    3.99292 A  
   9  13  Te-Te    3.99293 A  
  16  20  Te-Te    3.99294 A  
   1   4  Cu-Cu    3.99294 A *
   1   6  Cu-Cu    3.99294 A *
   7  11  Te-Te    3.99295 A  
   2   6  Cu-Cu    3.99295 A *
   2   4  Cu-Cu    3.99295 A *
   8  12  Te-Te    3.99295 A *
  17  21  Te-Te    3.99296 A *
  27  29  Zr-Zr    3.99296 A *
  15  19  Te-Te    3.99296 A  
  18  22  Te-Te    3.99296 A  
  10  14  Te-Te    3.99296 A  
   4   6  Cu-Cu    3.99297 A  
   1   2  Cu-Cu    3.99297 A  
  24  26  Zr-Zr    3.99297 A *
  28  30  Zr-Zr    3.99297 A  
  23  25  Zr-Zr    3.99297 A *
  23  25  Zr-Zr    3.99297 A  
  28  30  Zr-Zr    3.99297 A *
  24  26  Zr-Zr    3.99297 A  
   1   2  Cu-Cu    3.99297 A *
   4   6  Cu-Cu    3.99297 A *
  10  14  Te-Te    3.99298 A *
  18  22  Te-Te    3.99298 A *
  15  19  Te-Te    3.99298 A *
  27  29  Zr-Zr    3.99299 A  
  17  21  Te-Te    3.99299 A  
   8  12  Te-Te    3.99299 A  
   2   4  Cu-Cu    3.99300 A *
   2   6  Cu-Cu    3.99300 A  
   7  11  Te-Te    3.99300 A *
   1   6  Cu-Cu    3.99300 A  
   1   4  Cu-Cu    3.99300 A  
  16  20  Te-Te    3.99300 A *
   9  13  Te-Te    3.99301 A *
   3   5  Cu-Cu    3.99302 A *
  14  18  Te-Te    4.02018 A *
  14  22  Te-Te    4.02019 A *
  10  18  Te-Te    4.02019 A *
  10  22  Te-Te    4.02020 A *
   9  17  Te-Te    4.02022 A *
  13  17  Te-Te    4.02024 A *
   9  21  Te-Te    4.02026 A *
  13  21  Te-Te    4.02027 A *
  23  29  Zr-Zr    4.07273 A *
  23  27  Zr-Zr    4.07273 A *
  26  30  Zr-Zr    4.07275 A  
  26  28  Zr-Zr    4.07275 A *
  24  30  Zr-Zr    4.07275 A  
  24  28  Zr-Zr    4.07276 A  
  25  29  Zr-Zr    4.07276 A *
  25  27  Zr-Zr    4.07276 A *
   8  16  Te-Te    4.08931 A  
   8  20  Te-Te    4.08933 A  
  12  16  Te-Te    4.08933 A *
  12  20  Te-Te    4.08935 A  
   7  19  Te-Te    4.08940 A  
  11  19  Te-Te    4.08941 A  
   7  15  Te-Te    4.08944 A  
  11  15  Te-Te    4.08946 A *
  15  18  Te-Te    4.23341 A *
  15  22  Te-Te    4.23341 A *
  19  22  Te-Te    4.23345 A *
  18  19  Te-Te    4.23345 A *
  12  13  Te-Te    4.23359 A  
   8  13  Te-Te    4.23361 A *
   9  12  Te-Te    4.23361 A  
   8   9  Te-Te    4.23364 A  
  11  22  Te-Te    4.23854 A *
   7  18  Te-Te    4.23855 A *
   9  16  Te-Te    4.23876 A *
  13  20  Te-Te    4.23876 A *
  10  15  Te-Te    4.28611 A *
  14  19  Te-Te    4.28612 A *
  12  21  Te-Te    4.28619 A  
   8  17  Te-Te    4.28620 A  
  11  14  Te-Te    4.29961 A *
   7  14  Te-Te    4.29962 A *
  10  11  Te-Te    4.29962 A *
   7  10  Te-Te    4.29962 A *
  16  17  Te-Te    4.29972 A  
  16  21  Te-Te    4.29974 A *
  17  20  Te-Te    4.29974 A  
  20  21  Te-Te    4.29977 A  
   5  11  Cu-Te    4.78471 A *
   3   7  Cu-Te    4.78472 A *
   3  20  Cu-Te    4.78480 A *
   5  16  Cu-Te    4.78482 A *
   2  10  Cu-Te    4.83248 A *
   1  14  Cu-Te    4.83249 A *
   2  21  Cu-Te    4.83262 A  
   1  17  Cu-Te    4.83263 A  
   6  18  Cu-Te    4.84486 A  
   4  22  Cu-Te    4.84487 A  
   6  18  Cu-Te    4.84487 A *
   4  22  Cu-Te    4.84488 A *
   4   9  Cu-Te    4.84498 A *
   6  13  Cu-Te    4.84498 A  
   4   9  Cu-Te    4.84500 A  
   6  13  Cu-Te    4.84502 A *
   2  10  Cu-Te    4.85384 A  
   2  10  Cu-Te    4.85385 A *
   1  14  Cu-Te    4.85385 A  
   1  14  Cu-Te    4.85386 A *
   1  17  Cu-Te    4.85396 A *
   1  17  Cu-Te    4.85397 A *
   2  21  Cu-Te    4.85398 A *
   2  21  Cu-Te    4.85399 A *
   6  18  Cu-Te    4.86824 A *
   4  22  Cu-Te    4.86825 A *
   4   9  Cu-Te    4.86837 A *
   6  13  Cu-Te    4.86839 A *
   5  11  Cu-Te    4.87187 A *
   3   7  Cu-Te    4.87188 A  
   5  11  Cu-Te    4.87189 A  
   3   7  Cu-Te    4.87190 A *
   3  20  Cu-Te    4.87198 A  
   5  16  Cu-Te    4.87199 A  
   3  20  Cu-Te    4.87205 A *
   5  16  Cu-Te    4.87206 A *
  11  29  Te-Zr    4.92169 A *
   7  27  Te-Zr    4.92170 A *
  20  28  Te-Zr    4.92177 A *
  16  30  Te-Zr    4.92177 A *
  18  29  Te-Zr    4.93093 A *
  22  27  Te-Zr    4.93094 A *
   9  28  Te-Zr    4.93100 A *
  13  30  Te-Zr    4.93101 A *
  10  25  Te-Zr    4.93104 A *
  10  25  Te-Zr    4.93105 A *
  14  23  Te-Zr    4.93106 A *
  14  23  Te-Zr    4.93107 A *
  17  24  Te-Zr    4.93108 A *
  17  24  Te-Zr    4.93109 A *
  21  26  Te-Zr    4.93110 A *
  21  26  Te-Zr    4.93111 A *
  16  30  Te-Zr    4.94013 A  
  11  29  Te-Zr    4.94014 A  
   7  27  Te-Zr    4.94014 A *
  20  28  Te-Zr    4.94015 A  
  16  30  Te-Zr    4.94016 A *
  20  28  Te-Zr    4.94017 A *
   7  27  Te-Zr    4.94017 A  
  11  29  Te-Zr    4.94017 A *
  15  23  Te-Zr    4.94845 A *
  15  23  Te-Zr    4.94846 A *
  19  25  Te-Zr    4.94850 A *
  19  25  Te-Zr    4.94851 A *
  12  24  Te-Zr    4.94853 A *
   8  26  Te-Zr    4.94853 A *
   8  26  Te-Zr    4.94854 A  
  12  24  Te-Zr    4.94855 A  
   8  26  Te-Zr    4.95751 A *
  19  25  Te-Zr    4.95751 A  
  12  24  Te-Zr    4.95751 A *
  15  23  Te-Zr    4.95755 A  
  21  26  Te-Zr    4.97099 A  
  14  23  Te-Zr    4.97100 A *
  17  24  Te-Zr    4.97100 A  
  10  25  Te-Zr    4.97101 A *
  22  27  Te-Zr    4.97468 A *
  18  29  Te-Zr    4.97468 A *
  18  29  Te-Zr    4.97468 A *
  22  27  Te-Zr    4.97469 A *
  13  30  Te-Zr    4.97471 A  
   9  28  Te-Zr    4.97472 A *
  13  30  Te-Zr    4.97474 A *
   9  28  Te-Zr    4.97475 A  
   6  25  Cu-Zr    5.13806 A *
   4  25  Cu-Zr    5.13807 A *
   6  23  Cu-Zr    5.13809 A *
   4  23  Cu-Zr    5.13811 A *
   4  24  Cu-Zr    5.13840 A *
   4  26  Cu-Zr    5.13841 A *
   6  24  Cu-Zr    5.13842 A *
   6  26  Cu-Zr    5.13843 A *
   5  27  Cu-Zr    5.14068 A  
   3  29  Cu-Zr    5.14070 A  
   5  27  Cu-Zr    5.14071 A *
   3  29  Cu-Zr    5.14072 A *
   3  30  Cu-Zr    5.14096 A  
   5  28  Cu-Zr    5.14098 A  
   3  30  Cu-Zr    5.14100 A *
   5  28  Cu-Zr    5.14102 A *
   5  23  Cu-Zr    5.15089 A  
   5  25  Cu-Zr    5.15091 A  
   3  23  Cu-Zr    5.15091 A  
   3  25  Cu-Zr    5.15093 A *
   3  26  Cu-Zr    5.15125 A *
   5  26  Cu-Zr    5.15127 A *
   3  24  Cu-Zr    5.15128 A *
   5  24  Cu-Zr    5.15130 A *
   2  23  Cu-Zr    5.16730 A *
   2  23  Cu-Zr    5.16730 A *
   1  25  Cu-Zr    5.16731 A *
   1  25  Cu-Zr    5.16731 A *
   1  26  Cu-Zr    5.16761 A  
   1  26  Cu-Zr    5.16761 A *
   2  24  Cu-Zr    5.16763 A *
   2  24  Cu-Zr    5.16763 A  
   2  27  Cu-Zr    5.17526 A *
   2  29  Cu-Zr    5.17526 A *
   1  27  Cu-Zr    5.17530 A *
   1  29  Cu-Zr    5.17530 A *
   1  28  Cu-Zr    5.17556 A *
   1  30  Cu-Zr    5.17557 A *
   2  28  Cu-Zr    5.17560 A *
   2  30  Cu-Zr    5.17560 A *
   6  23  Cu-Zr    5.19633 A *
   6  25  Cu-Zr    5.19633 A *
   4  23  Cu-Zr    5.19635 A *
   4  25  Cu-Zr    5.19635 A *
   4  24  Cu-Zr    5.19668 A  
   4  26  Cu-Zr    5.19669 A *
   6  24  Cu-Zr    5.19670 A  
   6  26  Cu-Zr    5.19671 A  
   6  27  Cu-Zr    5.20704 A *
   6  27  Cu-Zr    5.20704 A *
   4  29  Cu-Zr    5.20706 A *
   4  29  Cu-Zr    5.20707 A *
   4  30  Cu-Zr    5.20740 A  
   4  30  Cu-Zr    5.20741 A *
   6  28  Cu-Zr    5.20742 A  
   6  28  Cu-Zr    5.20742 A *
   5  23  Cu-Zr    5.20908 A *
   5  25  Cu-Zr    5.20909 A *
   3  23  Cu-Zr    5.20910 A *
   3  25  Cu-Zr    5.20911 A *
   3  24  Cu-Zr    5.20933 A  
   3  26  Cu-Zr    5.20934 A *
   5  24  Cu-Zr    5.20935 A  
   5  26  Cu-Zr    5.20935 A  
   2  27  Cu-Zr    5.23864 A *
   2  29  Cu-Zr    5.23865 A *
   1  27  Cu-Zr    5.23867 A *
   1  29  Cu-Zr    5.23867 A *
   1  28  Cu-Zr    5.23901 A  
   1  30  Cu-Zr    5.23901 A  
   2  28  Cu-Zr    5.23903 A *
   2  30  Cu-Zr    5.23903 A  
   8  27  Te-Zr    5.26433 A  
  12  27  Te-Zr    5.26433 A *
   8  29  Te-Zr    5.26434 A  
  12  29  Te-Zr    5.26434 A  
  19  30  Te-Zr    5.26439 A  
  19  28  Te-Zr    5.26440 A *
  15  30  Te-Zr    5.26442 A  
  15  28  Te-Zr    5.26443 A  
   8  23  Te-Zr    5.28002 A  
  12  25  Te-Zr    5.28003 A  
  15  26  Te-Zr    5.28008 A *
  19  24  Te-Zr    5.28008 A *
  20  29  Te-Zr    5.30012 A  
  16  27  Te-Zr    5.30014 A  
   7  30  Te-Zr    5.30021 A  
  11  28  Te-Zr    5.30022 A *
  20  23  Te-Zr    5.30381 A *
  20  25  Te-Zr    5.30382 A *
  16  23  Te-Zr    5.30383 A *
  16  25  Te-Zr    5.30385 A *
   7  26  Te-Zr    5.30388 A  
  11  26  Te-Zr    5.30389 A  
   7  24  Te-Zr    5.30390 A  
  11  24  Te-Zr    5.30391 A *
   9  25  Te-Zr    5.31287 A *
  13  25  Te-Zr    5.31288 A *
   9  23  Te-Zr    5.31291 A *
  13  23  Te-Zr    5.31293 A *
  22  24  Te-Zr    5.31299 A *
  18  24  Te-Zr    5.31300 A *
  22  26  Te-Zr    5.31300 A *
  18  26  Te-Zr    5.31300 A *
  17  25  Te-Zr    5.32719 A *
  21  23  Te-Zr    5.32721 A *
  14  26  Te-Zr    5.32725 A  
  10  24  Te-Zr    5.32725 A  
   9  29  Te-Zr    5.34765 A *
  13  27  Te-Zr    5.34765 A *
  22  30  Te-Zr    5.34779 A  
  18  28  Te-Zr    5.34779 A  
  21  27  Te-Zr    5.36475 A *
  21  29  Te-Zr    5.36475 A *
  17  27  Te-Zr    5.36475 A *
  17  29  Te-Zr    5.36476 A *
  14  28  Te-Zr    5.36484 A *
  14  30  Te-Zr    5.36484 A  
  10  30  Te-Zr    5.36485 A  
  10  28  Te-Zr    5.36485 A  
  12  15  Te-Te    5.41124 A *
   8  19  Te-Te    5.41126 A *
   7  20  Te-Te    5.42993 A *
  11  16  Te-Te    5.42995 A *
   7  20  Te-Te    5.42997 A *
  11  16  Te-Te    5.42999 A *
  10  21  Te-Te    5.48204 A *
  10  21  Te-Te    5.48204 A  
  14  17  Te-Te    5.48204 A *
  14  17  Te-Te    5.48205 A  
   9  22  Te-Te    5.48800 A  
  13  18  Te-Te    5.48801 A *
  14  17  Te-Te    5.51964 A *
  10  21  Te-Te    5.51966 A *
   9  22  Te-Te    5.52921 A *
  13  18  Te-Te    5.52922 A *
   9  22  Te-Te    5.52924 A *
  13  18  Te-Te    5.52926 A *
   8  19  Te-Te    5.53754 A *
   8  19  Te-Te    5.53754 A  
  12  15  Te-Te    5.53758 A *
  12  15  Te-Te    5.53758 A  
   5  22  Cu-Te    5.55906 A *
   3  18  Cu-Te    5.55908 A *
   3  13  Cu-Te    5.55955 A *
   5   9  Cu-Te    5.55960 A  
   2  15  Cu-Te    5.56245 A *
   1  19  Cu-Te    5.56253 A *
   1   8  Cu-Te    5.56305 A  
   2  12  Cu-Te    5.56308 A  
   5  10  Cu-Te    5.58016 A *
   5  14  Cu-Te    5.58019 A *
   3  10  Cu-Te    5.58020 A *
   3  14  Cu-Te    5.58022 A *
   3  17  Cu-Te    5.58068 A  
   3  21  Cu-Te    5.58070 A *
   5  17  Cu-Te    5.58071 A  
   5  21  Cu-Te    5.58073 A  
   7  20  Te-Te    5.58286 A  
  11  16  Te-Te    5.58288 A *
   2  11  Cu-Te    5.58316 A *
   2   7  Cu-Te    5.58317 A *
   1  11  Cu-Te    5.58321 A *
   1   7  Cu-Te    5.58322 A *
   1  16  Cu-Te    5.58370 A *
   1  20  Cu-Te    5.58372 A *
   2  16  Cu-Te    5.58373 A *
   2  20  Cu-Te    5.58374 A *
   6  15  Cu-Te    5.59346 A *
   6  19  Cu-Te    5.59348 A *
   4  15  Cu-Te    5.59349 A *
   4  19  Cu-Te    5.59351 A *
   4  12  Cu-Te    5.59403 A *
   4   8  Cu-Te    5.59403 A  
   6  12  Cu-Te    5.59406 A  
   6   8  Cu-Te    5.59407 A  
   6   7  Cu-Te    5.62075 A *
   4  11  Cu-Te    5.62077 A *
   4  16  Cu-Te    5.62127 A  
   6  20  Cu-Te    5.62132 A  
  14  15  Te-Te    5.81628 A *
  10  19  Te-Te    5.81632 A *
  12  17  Te-Te    5.81646 A *
   8  21  Te-Te    5.81648 A *
  11  18  Te-Te    5.82313 A *
   7  22  Te-Te    5.82315 A *
  11  18  Te-Te    5.82316 A *
   7  22  Te-Te    5.82317 A *
  13  16  Te-Te    5.82328 A *
   9  20  Te-Te    5.82329 A *
  13  16  Te-Te    5.82333 A *
   9  20  Te-Te    5.82334 A *
  10  19  Te-Te    5.85785 A *
  14  15  Te-Te    5.85786 A *
  10  19  Te-Te    5.85787 A *
  14  15  Te-Te    5.85788 A *
   8  21  Te-Te    5.85791 A *
  12  17  Te-Te    5.85792 A *
   8  21  Te-Te    5.85793 A  
  12  17  Te-Te    5.85794 A  
  11  18  Te-Te    5.87575 A *
   7  22  Te-Te    5.87576 A *
  13  16  Te-Te    5.87580 A *
   9  20  Te-Te    5.87584 A  

Nearest neighbors for each atom (up to 4)

 atom   1 species Cu : neighbors at    2.760   2.760   2.765   2.765 A
         d(center): 9.870 A  angles  :   180.0    93.4    93.4    86.6    86.6    92.5
 atom   2 species Cu : neighbors at    2.760   2.760   2.764   2.764 A
         d(center):10.647 A  angles  :   180.0    93.4    93.4    86.6    86.6    92.5
 atom   3 species Cu : neighbors at    2.769   2.769   2.769   2.769 A
         d(center): 5.173 A  angles  :    92.3    87.7   180.0   180.0    87.7    92.3
 atom   4 species Cu : neighbors at    2.741   2.741   2.741   2.741 A
         d(center):10.647 A  angles  :    93.5    86.5   180.0   180.0    86.5    93.5
 atom   5 species Cu : neighbors at    2.769   2.769   2.769   2.769 A
         d(center): 5.173 A  angles  :    92.3    87.7   180.0   180.0    87.7    92.3
 atom   6 species Cu : neighbors at    2.741   2.741   2.741   2.741 A
         d(center):10.647 A  angles  :    93.5   180.0    86.5    86.5   180.0    93.5
 atom   7 species Te : neighbors at    2.791   2.897   2.897   2.909 A
         d(center): 2.907 A  angles  :   129.8   129.8    69.2    87.1    84.8    84.8
 atom   8 species Te : neighbors at    2.769   2.769   2.923   2.930 A
         d(center): 5.289 A  angles  :    92.3   132.5    69.2   132.5   128.8    88.2
 atom   9 species Te : neighbors at    2.744   2.765   2.765   2.929 A
         d(center): 8.671 A  angles  :    92.9    92.9   132.7    92.5    70.3   130.3
 atom  10 species Te : neighbors at    2.741   2.741   2.760   2.893 A
         d(center):11.598 A  angles  :    93.5    93.1   131.5    93.1   131.5    70.9
 atom  11 species Te : neighbors at    2.791   2.897   2.897   2.909 A
         d(center): 6.351 A  angles  :   129.8   129.8    69.2    87.1    84.8    84.8
 atom  12 species Te : neighbors at    2.769   2.769   2.923   2.930 A
         d(center): 6.627 A  angles  :    92.3   132.5    69.2   132.5   128.8    88.2
 atom  13 species Te : neighbors at    2.744   2.765   2.765   2.929 A
         d(center):10.347 A  angles  :    92.9    92.9   132.7    92.5    70.3   130.3
 atom  14 species Te : neighbors at    2.741   2.741   2.760   2.893 A
         d(center):12.266 A  angles  :    93.5    93.1   131.5    93.1   131.5    70.9
 atom  15 species Te : neighbors at    2.769   2.769   2.923   2.930 A
         d(center): 4.994 A  angles  :    92.3   132.5    69.2   132.5   128.8    88.2
 atom  16 species Te : neighbors at    2.792   2.897   2.897   2.909 A
         d(center): 7.789 A  angles  :   129.8   129.8    69.2    87.1    84.8    84.8
 atom  17 species Te : neighbors at    2.741   2.741   2.760   2.893 A
         d(center): 9.553 A  angles  :    93.5    93.1   131.5    93.1   131.5    70.9
 atom  18 species Te : neighbors at    2.744   2.764   2.765   2.929 A
         d(center):12.907 A  angles  :    92.9    92.9   132.7    92.5    70.3   130.3
 atom  19 species Te : neighbors at    2.769   2.769   2.923   2.930 A
         d(center): 6.394 A  angles  :    92.3   132.5    69.2   132.5   128.8    88.2
 atom  20 species Te : neighbors at    2.792   2.897   2.897   2.909 A
         d(center): 7.789 A  angles  :   129.8   129.8    69.2    87.1    84.8    84.8
 atom  21 species Te : neighbors at    2.741   2.741   2.760   2.893 A
         d(center):10.354 A  angles  :    93.5    93.1   131.5    93.1   131.5    70.9
 atom  22 species Te : neighbors at    2.744   2.764   2.765   2.929 A
         d(center):12.907 A  angles  :    92.9    92.9   132.7    92.5    70.3   130.3
 atom  23 species Zr : neighbors at    2.893   2.897   2.897   2.923 A
         d(center): 0.045 A  angles  :    95.9    95.9   180.0    87.1    84.1    84.1
 atom  24 species Zr : neighbors at    2.893   2.897   2.897   2.923 A
         d(center): 6.590 A  angles  :    95.9    95.9   180.0    87.1    84.1    84.1
 atom  25 species Zr : neighbors at    2.893   2.897   2.897   2.923 A
         d(center): 3.993 A  angles  :    95.9    95.9   180.0    87.1    84.1    84.1
 atom  26 species Zr : neighbors at    2.893   2.897   2.897   2.923 A
         d(center): 7.705 A  angles  :    95.9    95.9   180.0    87.1    84.1    84.1
 atom  27 species Zr : neighbors at    2.909   2.930   2.930   2.931 A
         d(center): 3.952 A  angles  :    88.9    88.9    94.8    85.9    94.0   176.3
 atom  28 species Zr : neighbors at    2.909   2.930   2.930   2.931 A
         d(center): 7.674 A  angles  :    88.9    88.9    94.8    85.9    94.0   176.3
 atom  29 species Zr : neighbors at    2.909   2.930   2.930   2.931 A
         d(center): 3.952 A  angles  :    88.9    88.9    94.8    85.9    94.0   176.3
 atom  30 species Zr : neighbors at    2.909   2.930   2.930   2.931 A
         d(center): 7.674 A  angles  :    88.9    88.9    94.8    85.9   176.3    94.0
