Distances between atoms, up to dmax=  6.00 A   (* = with lattice translation)
  #1  #2   bond       d
   2  22  Te-Zr    2.90030 A  
  14  20  Te-Zr    2.90030 A *
  15  22  Te-Zr    2.90030 A *
   3  20  Te-Zr    2.90030 A  
  11  20  Te-Zr    2.90030 A *
   6  20  Te-Zr    2.90030 A  
   6  22  Te-Zr    2.90030 A *
  11  22  Te-Zr    2.90030 A  
   7  22  Te-Zr    2.90030 A *
  10  22  Te-Zr    2.90030 A  
   7  20  Te-Zr    2.90030 A  
  10  20  Te-Zr    2.90030 A *
   1  23  Te-Zr    2.90032 A  
  16  23  Te-Zr    2.90032 A *
   4  23  Te-Zr    2.90032 A *
  13  23  Te-Zr    2.90032 A  
  11  24  Te-Zr    2.90033 A  
   6  24  Te-Zr    2.90033 A  
   3  24  Te-Zr    2.90033 A  
  14  24  Te-Zr    2.90033 A  
  15  24  Te-Zr    2.90033 A  
   2  24  Te-Zr    2.90033 A  
   9  23  Te-Zr    2.90033 A  
   8  23  Te-Zr    2.90033 A *
   5  21  Te-Zr    2.90033 A *
  12  21  Te-Zr    2.90033 A *
  12  19  Te-Zr    2.90033 A *
   5  19  Te-Zr    2.90033 A  
   7  18  Te-Zr    2.90033 A *
  10  18  Te-Zr    2.90033 A *
  16  19  Te-Zr    2.90034 A *
  13  21  Te-Zr    2.90034 A *
   4  21  Te-Zr    2.90034 A *
   1  19  Te-Zr    2.90034 A  
   4  17  Te-Zr    2.90034 A *
  13  17  Te-Zr    2.90034 A *
  16  17  Te-Zr    2.90034 A *
   1  17  Te-Zr    2.90034 A  
  12  17  Te-Zr    2.90034 A *
   5  17  Te-Zr    2.90034 A *
   8  19  Te-Zr    2.90035 A *
   9  19  Te-Zr    2.90035 A *
   9  21  Te-Zr    2.90035 A  
   8  21  Te-Zr    2.90035 A *
  15  18  Te-Zr    2.90035 A *
   2  18  Te-Zr    2.90035 A  
   3  18  Te-Zr    2.90035 A  
  14  18  Te-Zr    2.90035 A *
   8  15  Te-Te    3.80580 A  
   2   9  Te-Te    3.80580 A  
   3   8  Te-Te    3.80580 A  
   9  14  Te-Te    3.80580 A  
   5  14  Te-Te    3.80583 A *
   3  12  Te-Te    3.80583 A *
   2   5  Te-Te    3.80583 A *
  12  15  Te-Te    3.80583 A *
   7   8  Te-Te    3.80583 A  
   9  10  Te-Te    3.80583 A  
   5   6  Te-Te    3.80584 A  
  11  12  Te-Te    3.80584 A  
   1   2  Te-Te    3.80585 A  
  13  14  Te-Te    3.80585 A  
   3   4  Te-Te    3.80585 A  
  15  16  Te-Te    3.80585 A  
   6  13  Te-Te    3.80586 A  
   4  11  Te-Te    3.80586 A  
   1   6  Te-Te    3.80586 A  
  11  16  Te-Te    3.80586 A  
   1  10  Te-Te    3.80587 A *
   7  16  Te-Te    3.80587 A *
  10  13  Te-Te    3.80587 A *
   4   7  Te-Te    3.80587 A *
   2  10  Te-Te    3.93594 A  
   7  15  Te-Te    3.93594 A  
  10  14  Te-Te    3.93594 A  
   3   7  Te-Te    3.93594 A  
   3  11  Te-Te    3.93596 A *
   6  14  Te-Te    3.93596 A *
   2   6  Te-Te    3.93596 A *
  11  15  Te-Te    3.93596 A *
   2  14  Te-Te    3.93596 A  
   3  15  Te-Te    3.93596 A  
   4  16  Te-Te    3.93598 A  
   1  13  Te-Te    3.93598 A  
   1   9  Te-Te    3.93598 A  
   8  16  Te-Te    3.93598 A  
   4   8  Te-Te    3.93598 A  
   9  13  Te-Te    3.93598 A  
   4  12  Te-Te    3.93599 A  
   5  13  Te-Te    3.93599 A  
  12  16  Te-Te    3.93599 A  
   1   5  Te-Te    3.93599 A  
  17  21  Zr-Zr    3.93600 A *
  17  21  Zr-Zr    3.93600 A  
  18  22  Zr-Zr    3.93600 A *
  18  22  Zr-Zr    3.93600 A  
  19  23  Zr-Zr    3.93600 A *
  19  23  Zr-Zr    3.93600 A  
  20  24  Zr-Zr    3.93600 A *
  20  24  Zr-Zr    3.93600 A  
  17  19  Zr-Zr    3.93600 A *
  17  19  Zr-Zr    3.93600 A  
  17  23  Zr-Zr    3.93600 A *
  17  23  Zr-Zr    3.93600 A  
  18  20  Zr-Zr    3.93600 A *
  18  20  Zr-Zr    3.93600 A  
  18  24  Zr-Zr    3.93600 A *
  18  24  Zr-Zr    3.93600 A  
  19  21  Zr-Zr    3.93600 A *
  19  21  Zr-Zr    3.93600 A *
  20  22  Zr-Zr    3.93600 A *
  20  22  Zr-Zr    3.93600 A *
  21  23  Zr-Zr    3.93600 A *
  21  23  Zr-Zr    3.93600 A  
  22  24  Zr-Zr    3.93600 A *
  22  24  Zr-Zr    3.93600 A  
   6  10  Te-Te    3.93600 A *
   7  11  Te-Te    3.93600 A *
   6  10  Te-Te    3.93600 A *
   7  11  Te-Te    3.93600 A *
   8  12  Te-Te    3.93600 A *
   5   9  Te-Te    3.93600 A *
   5   9  Te-Te    3.93600 A *
   8  12  Te-Te    3.93600 A *
   4  12  Te-Te    3.93601 A *
   5  13  Te-Te    3.93601 A *
   1   5  Te-Te    3.93601 A *
  12  16  Te-Te    3.93601 A *
   1   9  Te-Te    3.93602 A *
   8  16  Te-Te    3.93602 A *
   4   8  Te-Te    3.93602 A *
   9  13  Te-Te    3.93602 A *
   1  13  Te-Te    3.93603 A *
   4  16  Te-Te    3.93603 A *
   3  15  Te-Te    3.93604 A *
   2  14  Te-Te    3.93604 A *
   3  11  Te-Te    3.93604 A  
   6  14  Te-Te    3.93604 A  
  11  15  Te-Te    3.93604 A  
   2   6  Te-Te    3.93604 A  
   2  10  Te-Te    3.93607 A *
   7  15  Te-Te    3.93607 A *
   3   7  Te-Te    3.93607 A *
  10  14  Te-Te    3.93607 A *
   6   7  Te-Te    4.26085 A  
  10  11  Te-Te    4.26085 A  
   2  11  Te-Te    4.26089 A  
   6  15  Te-Te    4.26089 A  
  11  14  Te-Te    4.26089 A  
   3   6  Te-Te    4.26089 A  
   7  14  Te-Te    4.26091 A *
   3  10  Te-Te    4.26091 A *
   2   7  Te-Te    4.26091 A *
  10  15  Te-Te    4.26091 A *
   1   4  Te-Te    4.26094 A *
  13  16  Te-Te    4.26094 A *
   4   9  Te-Te    4.26095 A *
   8  13  Te-Te    4.26095 A *
   9  16  Te-Te    4.26095 A *
   1   8  Te-Te    4.26095 A *
   5  16  Te-Te    4.26096 A *
   1  12  Te-Te    4.26096 A *
   4   5  Te-Te    4.26096 A *
  12  13  Te-Te    4.26096 A *
   2   3  Te-Te    4.26096 A  
  14  15  Te-Te    4.26096 A  
   9  12  Te-Te    4.26096 A *
   5   8  Te-Te    4.26096 A *
   7  24  Te-Zr    4.88914 A  
  10  24  Te-Zr    4.88914 A  
   6  18  Te-Zr    4.88914 A *
  11  18  Te-Zr    4.88914 A *
   2  20  Te-Zr    4.88914 A *
  15  20  Te-Zr    4.88914 A  
   3  22  Te-Zr    4.88914 A *
  14  22  Te-Zr    4.88914 A  
   4  19  Te-Zr    4.88917 A *
  13  19  Te-Zr    4.88917 A  
   1  21  Te-Zr    4.88917 A *
  16  21  Te-Zr    4.88917 A *
   5  23  Te-Zr    4.88917 A  
  12  23  Te-Zr    4.88917 A *
   3  22  Te-Zr    4.88917 A *
  14  22  Te-Zr    4.88917 A *
   2  20  Te-Zr    4.88917 A *
  15  20  Te-Zr    4.88917 A *
   1  21  Te-Zr    4.88917 A  
   4  19  Te-Zr    4.88917 A *
  16  21  Te-Zr    4.88917 A *
  13  19  Te-Zr    4.88917 A *
   6  18  Te-Zr    4.88917 A *
  11  18  Te-Zr    4.88917 A  
  11  18  Te-Zr    4.88917 A *
   6  18  Te-Zr    4.88917 A  
   9  17  Te-Zr    4.88918 A  
   8  17  Te-Zr    4.88918 A *
   9  17  Te-Zr    4.88918 A *
   8  17  Te-Zr    4.88918 A *
   7  24  Te-Zr    4.88918 A *
  10  24  Te-Zr    4.88918 A *
   7  24  Te-Zr    4.88918 A *
  10  24  Te-Zr    4.88918 A *
   5  23  Te-Zr    4.88918 A *
  12  23  Te-Zr    4.88918 A *
   5  23  Te-Zr    4.88918 A *
  12  23  Te-Zr    4.88918 A *
  16  21  Te-Zr    4.88919 A *
   1  21  Te-Zr    4.88919 A *
  13  19  Te-Zr    4.88919 A *
   4  19  Te-Zr    4.88919 A *
   9  17  Te-Zr    4.88919 A *
   8  17  Te-Zr    4.88919 A *
  15  20  Te-Zr    4.88920 A *
   2  20  Te-Zr    4.88920 A  
   3  22  Te-Zr    4.88920 A  
  14  22  Te-Zr    4.88920 A *
   8  24  Te-Zr    5.36059 A  
   9  24  Te-Zr    5.36059 A  
   8  20  Te-Zr    5.36060 A  
   9  20  Te-Zr    5.36060 A *
   8  22  Te-Zr    5.36060 A *
   9  22  Te-Zr    5.36060 A  
   1  24  Te-Zr    5.36060 A  
  16  24  Te-Zr    5.36060 A  
  13  24  Te-Zr    5.36060 A  
   4  24  Te-Zr    5.36060 A  
   5  22  Te-Zr    5.36060 A *
  12  22  Te-Zr    5.36060 A  
   5  20  Te-Zr    5.36060 A  
  12  20  Te-Zr    5.36060 A *
   2  21  Te-Zr    5.36060 A  
   3  19  Te-Zr    5.36060 A *
  14  19  Te-Zr    5.36060 A *
  15  21  Te-Zr    5.36060 A *
   5  18  Te-Zr    5.36060 A *
  12  18  Te-Zr    5.36060 A *
  13  22  Te-Zr    5.36061 A *
   1  20  Te-Zr    5.36061 A  
   4  22  Te-Zr    5.36061 A  
  16  20  Te-Zr    5.36061 A *
  13  18  Te-Zr    5.36061 A *
   4  18  Te-Zr    5.36061 A  
   1  18  Te-Zr    5.36061 A  
  16  18  Te-Zr    5.36061 A *
   3  23  Te-Zr    5.36062 A *
  14  23  Te-Zr    5.36062 A  
   2  23  Te-Zr    5.36062 A  
  15  23  Te-Zr    5.36062 A *
   2  17  Te-Zr    5.36063 A  
  15  17  Te-Zr    5.36063 A *
   3  17  Te-Zr    5.36063 A *
  14  17  Te-Zr    5.36063 A *
  10  21  Te-Zr    5.36063 A  
   7  21  Te-Zr    5.36063 A *
  10  19  Te-Zr    5.36063 A *
   7  19  Te-Zr    5.36063 A *
   6  19  Te-Zr    5.36064 A  
  11  19  Te-Zr    5.36064 A *
   6  21  Te-Zr    5.36064 A *
  11  21  Te-Zr    5.36064 A *
  10  17  Te-Zr    5.36065 A *
   7  17  Te-Zr    5.36065 A *
   6  23  Te-Zr    5.36065 A  
  11  23  Te-Zr    5.36065 A *
   1  14  Te-Te    5.47505 A *
   2  13  Te-Te    5.47505 A *
   3  16  Te-Te    5.47505 A *
   4  15  Te-Te    5.47505 A *
   1  14  Te-Te    5.47507 A  
   3  16  Te-Te    5.47507 A  
   2  13  Te-Te    5.47507 A  
   4  15  Te-Te    5.47507 A  
   5  10  Te-Te    5.47507 A *
   7  12  Te-Te    5.47507 A *
   5  10  Te-Te    5.47507 A *
   7  12  Te-Te    5.47507 A *
   6   9  Te-Te    5.47508 A *
   8  11  Te-Te    5.47508 A *
   6   9  Te-Te    5.47508 A *
   8  11  Te-Te    5.47508 A *
   8  11  Te-Te    5.47510 A  
   6   9  Te-Te    5.47510 A  
   2  13  Te-Te    5.47511 A *
   4  15  Te-Te    5.47511 A *
   1  14  Te-Te    5.47511 A *
   3  16  Te-Te    5.47511 A *
   5  10  Te-Te    5.47512 A *
   7  12  Te-Te    5.47512 A *
   3  14  Te-Te    5.80060 A *
   2  15  Te-Te    5.80060 A *
   6  11  Te-Te    5.80060 A *
   6  11  Te-Te    5.80060 A *
   7  10  Te-Te    5.80060 A *
   7  10  Te-Te    5.80060 A *
   1  16  Te-Te    5.80065 A *
   4  13  Te-Te    5.80065 A *
   6  11  Te-Te    5.80065 A  
   3  14  Te-Te    5.80065 A  
   2  15  Te-Te    5.80065 A  
   8   9  Te-Te    5.80066 A *
   5  12  Te-Te    5.80067 A *
   5  12  Te-Te    5.80067 A *
   7  10  Te-Te    5.80067 A *
   1  16  Te-Te    5.80068 A *
   4  13  Te-Te    5.80068 A *
   4  13  Te-Te    5.80068 A *
   1  16  Te-Te    5.80068 A *
   5  12  Te-Te    5.80069 A *
   8   9  Te-Te    5.80069 A *
   8   9  Te-Te    5.80069 A *
   2  15  Te-Te    5.80071 A *
   3  14  Te-Te    5.80071 A *

Nearest neighbors for each atom (up to 4)

 atom   1 species Te : neighbors at    2.900   2.900   2.900   3.806 A
         d(center): 2.900 A  angles  :    85.5    85.5   105.3    85.5   165.1   105.3
 atom   2 species Te : neighbors at    2.900   2.900   2.900   3.806 A
         d(center): 5.361 A  angles  :    85.5    85.5   105.3    85.5   105.3   165.1
 atom   3 species Te : neighbors at    2.900   2.900   2.900   3.806 A
         d(center): 8.759 A  angles  :    85.5    85.5   105.3    85.5   105.3   165.1
 atom   4 species Te : neighbors at    2.900   2.900   2.900   3.806 A
         d(center):11.735 A  angles  :    85.5    85.5   105.3    85.5   165.1   105.3
 atom   5 species Te : neighbors at    2.900   2.900   2.900   3.806 A
         d(center): 6.277 A  angles  :    85.5    85.5   165.1    85.5   105.3   105.3
 atom   6 species Te : neighbors at    2.900   2.900   2.900   3.806 A
         d(center): 6.650 A  angles  :    85.5    85.5   105.3    85.5   105.3   165.1
 atom   7 species Te : neighbors at    2.900   2.900   2.900   3.806 A
         d(center):10.378 A  angles  :    85.5    85.5   105.3    85.5   105.3   165.1
 atom   8 species Te : neighbors at    2.900   2.900   2.900   3.806 A
         d(center):12.377 A  angles  :    85.5    85.5   105.3    85.5   165.1   105.3
 atom   9 species Te : neighbors at    2.900   2.900   2.900   3.806 A
         d(center): 4.889 A  angles  :    85.5    85.5   105.3    85.5   165.1   105.3
 atom  10 species Te : neighbors at    2.900   2.900   2.900   3.806 A
         d(center): 7.728 A  angles  :    85.5    85.5   105.3    85.5   105.3   165.1
 atom  11 species Te : neighbors at    2.900   2.900   2.900   3.806 A
         d(center): 9.603 A  angles  :    85.5    85.5   105.3    85.5   105.3   165.1
 atom  12 species Te : neighbors at    2.900   2.900   2.900   3.806 A
         d(center):12.988 A  angles  :    85.5    85.5   165.1    85.5   105.3   105.3
 atom  13 species Te : neighbors at    2.900   2.900   2.900   3.806 A
         d(center): 6.277 A  angles  :    85.5    85.5   105.3    85.5   165.1   105.3
 atom  14 species Te : neighbors at    2.900   2.900   2.900   3.806 A
         d(center): 7.728 A  angles  :    85.5    85.5   105.3    85.5   105.3   165.1
 atom  15 species Te : neighbors at    2.900   2.900   2.900   3.806 A
         d(center):10.378 A  angles  :    85.5    85.5   105.3    85.5   105.3   165.1
 atom  16 species Te : neighbors at    2.900   2.900   2.900   3.806 A
         d(center):12.988 A  angles  :    85.5    85.5   105.3    85.5   165.1   105.3
 atom  17 species Zr : neighbors at    2.900   2.900   2.900   2.900 A
         d(center): 0.000 A  angles  :   180.0    85.5    94.5    94.5    85.5   180.0
 atom  18 species Zr : neighbors at    2.900   2.900   2.900   2.900 A
         d(center): 6.657 A  angles  :   180.0    85.5    94.5    94.5    85.5   180.0
 atom  19 species Zr : neighbors at    2.900   2.900   2.900   2.900 A
         d(center): 3.936 A  angles  :   180.0    85.5    94.5    94.5    85.5   180.0
 atom  20 species Zr : neighbors at    2.900   2.900   2.900   2.900 A
         d(center): 7.734 A  angles  :   180.0    94.5    85.5    85.5    94.5   180.0
 atom  21 species Zr : neighbors at    2.900   2.900   2.900   2.900 A
         d(center): 3.936 A  angles  :   180.0    85.5    94.5    94.5    85.5   180.0
 atom  22 species Zr : neighbors at    2.900   2.900   2.900   2.900 A
         d(center): 7.734 A  angles  :   180.0    85.5    94.5    94.5    85.5   180.0
 atom  23 species Zr : neighbors at    2.900   2.900   2.900   2.900 A
         d(center): 3.936 A  angles  :   180.0    94.5    85.5    85.5    94.5   180.0
 atom  24 species Zr : neighbors at    2.900   2.900   2.900   2.900 A
         d(center): 7.734 A  angles  :   180.0    85.5    94.5    94.5    85.5   180.0
