Distances between atoms, up to dmax=  6.00 A   (* = with lattice translation)
  #1  #2   bond       d
   4  15  Cu-Te    2.73137 A  
   4  12  Cu-Te    2.73137 A  
   1  15  Cu-Te    2.74759 A *
   1  12  Cu-Te    2.74759 A  
   2  15  Cu-Te    2.74759 A  
   2  12  Cu-Te    2.74759 A *
   4   7  Cu-Te    2.75075 A  
   4  20  Cu-Te    2.75075 A  
   4  19  Cu-Te    2.75075 A  
   4   8  Cu-Te    2.75075 A  
   2  19  Cu-Te    2.76984 A *
   2   8  Cu-Te    2.76984 A  
   1   7  Cu-Te    2.76984 A  
   1  20  Cu-Te    2.76984 A *
   2  11  Cu-Te    2.77013 A *
   2  16  Cu-Te    2.77013 A  
   1  11  Cu-Te    2.77013 A  
   1  16  Cu-Te    2.77013 A *
   3  18  Cu-Te    2.77372 A  
   3   5  Cu-Te    2.77372 A  
   3   6  Cu-Te    2.77372 A  
   3  17  Cu-Te    2.77372 A  
   3  13  Cu-Te    2.77919 A  
   3  10  Cu-Te    2.77919 A  
  14  22  Te-Zr    2.86908 A *
   9  21  Te-Zr    2.86908 A *
   6  22  Te-Zr    2.89053 A  
  17  21  Te-Zr    2.89053 A *
   5  21  Te-Zr    2.89053 A  
  18  22  Te-Zr    2.89053 A *
  10  24  Te-Zr    2.89458 A  
  13  23  Te-Zr    2.89458 A *
  10  26  Te-Zr    2.89458 A *
  13  25  Te-Zr    2.89458 A  
   8  21  Te-Zr    2.89502 A *
  19  22  Te-Zr    2.89502 A *
  20  21  Te-Zr    2.89502 A *
   7  22  Te-Zr    2.89502 A  
   9  25  Te-Zr    2.90067 A *
  14  26  Te-Zr    2.90067 A  
  14  24  Te-Zr    2.90067 A *
   9  23  Te-Zr    2.90067 A  
   8  25  Te-Zr    2.90283 A *
  19  26  Te-Zr    2.90283 A *
  20  23  Te-Zr    2.90283 A *
   7  24  Te-Zr    2.90283 A  
  10  28  Te-Zr    2.90539 A  
  13  27  Te-Zr    2.90539 A  
  12  23  Te-Zr    2.92218 A *
  15  24  Te-Zr    2.92218 A *
  12  25  Te-Zr    2.92218 A *
  15  26  Te-Zr    2.92218 A  
   6  26  Te-Zr    2.92521 A  
  17  25  Te-Zr    2.92521 A *
  18  24  Te-Zr    2.92521 A *
   5  23  Te-Zr    2.92521 A  
  16  21  Te-Zr    2.93005 A *
  11  22  Te-Zr    2.93005 A *
   5  27  Te-Zr    2.93144 A  
  18  28  Te-Zr    2.93144 A  
   6  28  Te-Zr    2.93144 A  
  17  27  Te-Zr    2.93144 A  
  16  25  Te-Zr    2.93414 A *
  11  26  Te-Zr    2.93414 A *
  16  23  Te-Zr    2.93414 A *
  11  24  Te-Zr    2.93414 A  
  20  27  Te-Zr    2.93597 A *
   7  28  Te-Zr    2.93597 A  
   8  27  Te-Zr    2.93597 A *
  19  28  Te-Zr    2.93597 A  
  12  27  Te-Zr    2.95717 A *
  15  28  Te-Zr    2.95717 A  
   3  27  Cu-Zr    3.26816 A  
   3  28  Cu-Zr    3.26816 A  
   1  24  Cu-Zr    3.29699 A  
   2  26  Cu-Zr    3.29699 A  
   1  23  Cu-Zr    3.29699 A *
   2  25  Cu-Zr    3.29699 A *
   4  28  Cu-Zr    3.35232 A  
   4  27  Cu-Zr    3.35232 A *
   9  10  Te-Te    3.72534 A  
  13  14  Te-Te    3.72534 A  
   7   8  Te-Te    3.74051 A  
  19  20  Te-Te    3.74051 A  
   5  14  Te-Te    3.76536 A *
   9  18  Te-Te    3.76536 A *
  14  17  Te-Te    3.76536 A *
   6   9  Te-Te    3.76536 A *
   7  16  Te-Te    3.77321 A *
  11  20  Te-Te    3.77321 A *
  16  19  Te-Te    3.77321 A *
   8  11  Te-Te    3.77321 A *
   6  13  Te-Te    3.79859 A  
  10  17  Te-Te    3.79859 A  
  13  18  Te-Te    3.79859 A  
   5  10  Te-Te    3.79859 A  
   8  15  Te-Te    3.81243 A  
  12  19  Te-Te    3.81243 A  
  15  20  Te-Te    3.81243 A  
   7  12  Te-Te    3.81243 A  
   5   6  Te-Te    3.82901 A  
  17  18  Te-Te    3.82901 A  
  11  12  Te-Te    3.83852 A  
  15  16  Te-Te    3.83852 A  
  11  19  Te-Te    3.87090 A *
   8  16  Te-Te    3.87090 A *
   7  11  Te-Te    3.87090 A *
  16  20  Te-Te    3.87090 A *
  10  18  Te-Te    3.87695 A *
   5  13  Te-Te    3.87695 A *
  13  17  Te-Te    3.87695 A *
   6  10  Te-Te    3.87695 A *
   7  19  Te-Te    3.89293 A *
   8  20  Te-Te    3.89293 A *
  21  25  Zr-Zr    3.89350 A  
  22  26  Zr-Zr    3.89350 A *
  22  24  Zr-Zr    3.89350 A  
  21  23  Zr-Zr    3.89350 A *
  24  28  Zr-Zr    3.89780 A  
  23  27  Zr-Zr    3.89780 A *
  25  27  Zr-Zr    3.89780 A  
  26  28  Zr-Zr    3.89780 A *
   5  17  Te-Te    3.91310 A *
   6  18  Te-Te    3.91310 A *
   9  17  Te-Te    3.92941 A  
   6  14  Te-Te    3.92941 A  
  14  18  Te-Te    3.92941 A  
   5   9  Te-Te    3.92941 A  
   7  15  Te-Te    3.93946 A  
  12  20  Te-Te    3.93946 A  
   8  12  Te-Te    3.93946 A  
  15  19  Te-Te    3.93946 A  
  23  25  Zr-Zr    3.95885 A *
  24  26  Zr-Zr    3.95885 A *
   1   4  Cu-Cu    3.96359 A *
   1   4  Cu-Cu    3.96359 A  
   1   2  Cu-Cu    3.96359 A *
   1   2  Cu-Cu    3.96359 A *
   2   4  Cu-Cu    3.96359 A *
   2   4  Cu-Cu    3.96359 A  
  21  27  Zr-Zr    3.96361 A  
  22  28  Zr-Zr    3.96361 A  
  21  27  Zr-Zr    3.96361 A *
  22  28  Zr-Zr    3.96361 A *
   9  13  Te-Te    3.96371 A *
  10  14  Te-Te    3.96371 A *
   9  13  Te-Te    3.96371 A *
  10  14  Te-Te    3.96371 A *
  11  15  Te-Te    3.96379 A *
  12  16  Te-Te    3.96379 A *
  11  15  Te-Te    3.96379 A *
  12  16  Te-Te    3.96379 A *
  24  26  Zr-Zr    3.96832 A *
  23  25  Zr-Zr    3.96832 A *
   7  15  Te-Te    3.98848 A *
  12  20  Te-Te    3.98848 A *
   8  12  Te-Te    3.98848 A *
  15  19  Te-Te    3.98848 A *
   6  14  Te-Te    3.99840 A *
   9  17  Te-Te    3.99840 A *
   5   9  Te-Te    3.99840 A *
  14  18  Te-Te    3.99840 A *
   6  18  Te-Te    4.01408 A  
   5  17  Te-Te    4.01408 A  
  23  27  Zr-Zr    4.03057 A  
  24  28  Zr-Zr    4.03057 A *
  26  28  Zr-Zr    4.03057 A  
  25  27  Zr-Zr    4.03057 A *
   7  19  Te-Te    4.03424 A  
   8  20  Te-Te    4.03424 A  
  21  25  Zr-Zr    4.03520 A *
  22  26  Zr-Zr    4.03520 A  
  21  23  Zr-Zr    4.03520 A  
  22  24  Zr-Zr    4.03520 A *
   5  13  Te-Te    4.05038 A  
  10  18  Te-Te    4.05038 A  
   6  10  Te-Te    4.05038 A  
  13  17  Te-Te    4.05038 A  
   8  16  Te-Te    4.05638 A  
  11  19  Te-Te    4.05638 A  
  16  20  Te-Te    4.05638 A  
   7  11  Te-Te    4.05638 A  
   5  16  Te-Te    4.22157 A *
  11  18  Te-Te    4.22157 A *
  16  17  Te-Te    4.22157 A *
   6  11  Te-Te    4.22157 A *
  12  17  Te-Te    4.26460 A *
   6  15  Te-Te    4.26460 A  
   5  12  Te-Te    4.26460 A *
  15  18  Te-Te    4.26460 A  
  10  11  Te-Te    4.26518 A  
  13  16  Te-Te    4.26518 A *
   6   7  Te-Te    4.26659 A  
   5   8  Te-Te    4.26659 A *
  17  20  Te-Te    4.26659 A *
  18  19  Te-Te    4.26659 A  
   9  12  Te-Te    4.26840 A *
  14  15  Te-Te    4.26840 A  
   9  20  Te-Te    4.27681 A *
   7  14  Te-Te    4.27681 A *
   8   9  Te-Te    4.27681 A *
  14  19  Te-Te    4.27681 A *
   8  13  Te-Te    4.32106 A *
  10  19  Te-Te    4.32106 A  
  13  20  Te-Te    4.32106 A *
   7  10  Te-Te    4.32106 A  
   2   7  Cu-Te    4.78448 A  
   2  20  Cu-Te    4.78448 A *
   1   8  Cu-Te    4.78448 A  
   1  19  Cu-Te    4.78448 A *
   3   9  Cu-Te    4.79526 A  
   3  14  Cu-Te    4.79526 A  
   4  11  Cu-Te    4.79937 A *
   4  16  Cu-Te    4.79937 A *
   4  11  Cu-Te    4.79937 A *
   4  16  Cu-Te    4.79937 A *
   2   7  Cu-Te    4.80645 A *
   2  20  Cu-Te    4.80645 A *
   1  19  Cu-Te    4.80645 A *
   1   8  Cu-Te    4.80645 A *
   3  14  Cu-Te    4.82692 A *
   3   9  Cu-Te    4.82692 A *
   3   9  Cu-Te    4.82692 A *
   3  14  Cu-Te    4.82692 A *
   1  19  Cu-Te    4.86437 A  
   1   8  Cu-Te    4.86437 A *
   2   7  Cu-Te    4.86437 A *
   2  20  Cu-Te    4.86437 A  
   4  11  Cu-Te    4.87169 A  
   4  16  Cu-Te    4.87169 A  
  20  25  Te-Zr    4.88241 A *
   7  26  Te-Zr    4.88241 A *
   8  23  Te-Zr    4.88241 A *
  19  24  Te-Zr    4.88241 A *
  10  22  Te-Zr    4.89154 A *
  13  21  Te-Zr    4.89154 A *
  14  28  Te-Zr    4.89866 A *
   9  27  Te-Zr    4.89866 A *
   9  27  Te-Zr    4.89866 A *
  14  28  Te-Zr    4.89866 A *
  18  26  Te-Zr    4.90767 A *
   5  25  Te-Zr    4.90767 A *
  17  23  Te-Zr    4.90767 A *
   6  24  Te-Zr    4.90767 A *
  10  22  Te-Zr    4.90876 A *
  13  21  Te-Zr    4.90876 A  
  13  21  Te-Zr    4.90876 A *
  10  22  Te-Zr    4.90876 A  
  12  21  Te-Zr    4.91189 A *
  15  22  Te-Zr    4.91189 A *
   5  25  Te-Zr    4.91608 A  
  18  26  Te-Zr    4.91608 A *
   6  24  Te-Zr    4.91608 A  
  17  23  Te-Zr    4.91608 A *
  20  25  Te-Zr    4.91803 A *
   7  26  Te-Zr    4.91803 A  
   8  23  Te-Zr    4.91803 A *
  19  24  Te-Zr    4.91803 A *
   9  27  Te-Zr    4.92163 A  
  14  28  Te-Zr    4.92163 A  
  11  28  Te-Zr    4.92322 A *
  16  27  Te-Zr    4.92322 A *
  11  28  Te-Zr    4.92322 A *
  16  27  Te-Zr    4.92322 A *
  11  28  Te-Zr    4.94037 A  
  16  27  Te-Zr    4.94037 A *
   8  23  Te-Zr    4.94324 A *
  19  24  Te-Zr    4.94324 A  
  20  25  Te-Zr    4.94324 A *
   7  26  Te-Zr    4.94324 A *
   6  24  Te-Zr    4.94449 A *
  17  23  Te-Zr    4.94449 A  
   5  25  Te-Zr    4.94449 A *
  18  26  Te-Zr    4.94449 A  
  12  21  Te-Zr    4.95100 A *
  15  22  Te-Zr    4.95100 A  
  12  21  Te-Zr    4.95100 A *
  15  22  Te-Zr    4.95100 A *
   3  21  Cu-Zr    5.12926 A *
   3  22  Cu-Zr    5.12926 A  
   3  21  Cu-Zr    5.12926 A  
   3  22  Cu-Zr    5.12926 A *
   4  24  Cu-Zr    5.13020 A  
   4  23  Cu-Zr    5.13020 A *
   4  25  Cu-Zr    5.13020 A *
   4  26  Cu-Zr    5.13020 A *
   3  24  Cu-Zr    5.14729 A  
   3  23  Cu-Zr    5.14729 A *
   3  25  Cu-Zr    5.14729 A  
   3  26  Cu-Zr    5.14729 A *
   2  23  Cu-Zr    5.15377 A *
   2  24  Cu-Zr    5.15377 A *
   1  25  Cu-Zr    5.15377 A *
   1  26  Cu-Zr    5.15377 A *
   1  26  Cu-Zr    5.15742 A *
   1  25  Cu-Zr    5.15742 A *
   2  23  Cu-Zr    5.15742 A *
   2  24  Cu-Zr    5.15742 A *
   1  28  Cu-Zr    5.16555 A  
   1  27  Cu-Zr    5.16555 A *
   2  28  Cu-Zr    5.16555 A *
   2  27  Cu-Zr    5.16555 A *
   2  22  Cu-Zr    5.17211 A *
   2  21  Cu-Zr    5.17211 A *
   1  21  Cu-Zr    5.17211 A *
   1  22  Cu-Zr    5.17211 A  
   4  23  Cu-Zr    5.18086 A *
   4  24  Cu-Zr    5.18086 A *
   4  26  Cu-Zr    5.18086 A  
   4  25  Cu-Zr    5.18086 A *
   3  23  Cu-Zr    5.19778 A  
   3  24  Cu-Zr    5.19778 A *
   3  25  Cu-Zr    5.19778 A *
   3  26  Cu-Zr    5.19778 A  
   4  21  Cu-Zr    5.19927 A *
   4  22  Cu-Zr    5.19927 A  
   4  22  Cu-Zr    5.19927 A *
   4  21  Cu-Zr    5.19927 A *
   1  27  Cu-Zr    5.21663 A *
   1  28  Cu-Zr    5.21663 A *
   2  28  Cu-Zr    5.21663 A  
   2  27  Cu-Zr    5.21663 A *
   2  22  Cu-Zr    5.22630 A  
   2  21  Cu-Zr    5.22630 A *
   1  21  Cu-Zr    5.22630 A *
   1  22  Cu-Zr    5.22630 A *
   6  21  Te-Zr    5.27543 A  
  17  22  Te-Zr    5.27543 A *
   5  22  Te-Zr    5.27543 A  
  18  21  Te-Zr    5.27543 A *
   9  22  Te-Zr    5.30521 A *
  14  21  Te-Zr    5.30521 A *
   5  28  Te-Zr    5.30617 A  
  18  27  Te-Zr    5.30617 A  
   6  27  Te-Zr    5.30617 A  
  17  28  Te-Zr    5.30617 A  
  17  26  Te-Zr    5.31781 A *
   5  24  Te-Zr    5.31781 A  
   6  25  Te-Zr    5.31781 A  
  18  23  Te-Zr    5.31781 A *
  15  23  Te-Zr    5.31974 A *
  12  24  Te-Zr    5.31974 A  
  15  25  Te-Zr    5.31974 A *
  12  26  Te-Zr    5.31974 A *
  13  28  Te-Zr    5.32619 A  
  10  27  Te-Zr    5.32619 A  
  13  24  Te-Zr    5.33182 A *
  10  23  Te-Zr    5.33182 A  
  13  26  Te-Zr    5.33182 A  
  10  25  Te-Zr    5.33182 A *
  11  25  Te-Zr    5.33651 A *
  16  26  Te-Zr    5.33651 A  
  11  23  Te-Zr    5.33651 A *
  16  24  Te-Zr    5.33651 A *
   9  26  Te-Zr    5.34333 A *
  14  25  Te-Zr    5.34333 A  
   9  24  Te-Zr    5.34333 A  
  14  23  Te-Zr    5.34333 A *
  15  27  Te-Zr    5.35275 A *
  12  28  Te-Zr    5.35275 A  
  19  25  Te-Zr    5.35331 A *
   8  26  Te-Zr    5.35331 A  
   7  23  Te-Zr    5.35331 A *
  20  24  Te-Zr    5.35331 A *
  11  21  Te-Zr    5.35794 A *
  16  22  Te-Zr    5.35794 A *
  19  21  Te-Zr    5.37000 A *
   8  22  Te-Zr    5.37000 A  
   7  21  Te-Zr    5.37000 A *
  20  22  Te-Zr    5.37000 A *
   7  27  Te-Zr    5.38418 A *
  20  28  Te-Zr    5.38418 A  
  19  27  Te-Zr    5.38418 A *
   8  28  Te-Zr    5.38418 A  
   8  19  Te-Te    5.39873 A *
   7  20  Te-Te    5.39873 A *
  11  16  Te-Te    5.41255 A *
  10  13  Te-Te    5.42504 A *
  10  13  Te-Te    5.42504 A *
   6  17  Te-Te    5.43039 A *
   5  18  Te-Te    5.43039 A *
   9  14  Te-Te    5.45411 A *
   9  14  Te-Te    5.45411 A *
  12  15  Te-Te    5.46274 A  
   6  17  Te-Te    5.47482 A *
   5  18  Te-Te    5.47482 A *
  12  15  Te-Te    5.49518 A *
  12  15  Te-Te    5.49518 A *
   7  20  Te-Te    5.50150 A  
   8  19  Te-Te    5.50150 A  
   9  14  Te-Te    5.50969 A *
   8  19  Te-Te    5.53969 A *
   7  20  Te-Te    5.53969 A *
  11  16  Te-Te    5.54027 A *
  11  16  Te-Te    5.54027 A *
   5  18  Te-Te    5.54744 A  
   6  17  Te-Te    5.54744 A  
  10  13  Te-Te    5.55838 A  
   2   6  Cu-Te    5.58560 A  
   2  17  Cu-Te    5.58560 A *
   1   5  Cu-Te    5.58560 A *
   1  18  Cu-Te    5.58560 A *
   3  12  Cu-Te    5.59293 A *
   3  15  Cu-Te    5.59293 A  
   1  10  Cu-Te    5.60048 A  
   1  13  Cu-Te    5.60048 A *
   2  10  Cu-Te    5.60048 A *
   2  13  Cu-Te    5.60048 A *
   2  14  Cu-Te    5.60353 A  
   2   9  Cu-Te    5.60353 A *
   1  14  Cu-Te    5.60353 A *
   1   9  Cu-Te    5.60353 A *
   3  20  Cu-Te    5.60774 A *
   3   7  Cu-Te    5.60774 A  
   3   8  Cu-Te    5.60774 A *
   3  19  Cu-Te    5.60774 A  
   4   5  Cu-Te    5.61428 A *
   4  18  Cu-Te    5.61428 A  
   4   6  Cu-Te    5.61428 A  
   4  17  Cu-Te    5.61428 A *
   4  10  Cu-Te    5.63307 A  
   4  13  Cu-Te    5.63307 A *
   8  17  Te-Te    5.78249 A *
   6  19  Te-Te    5.78249 A *
   5  20  Te-Te    5.78249 A *
   7  18  Te-Te    5.78249 A *
   9  16  Te-Te    5.79879 A *
  11  14  Te-Te    5.79879 A *
  12  13  Te-Te    5.81488 A *
  10  15  Te-Te    5.81488 A *
  12  13  Te-Te    5.81488 A *
  10  15  Te-Te    5.81488 A *
   8  17  Te-Te    5.82802 A *
   6  19  Te-Te    5.82802 A *
   5  20  Te-Te    5.82802 A *
   7  18  Te-Te    5.82802 A *
   9  16  Te-Te    5.83273 A *
  11  14  Te-Te    5.83273 A *
   9  16  Te-Te    5.83273 A *
  11  14  Te-Te    5.83273 A *
  10  15  Te-Te    5.86236 A  
  12  13  Te-Te    5.86236 A *
   5  20  Te-Te    5.86494 A *
   7  18  Te-Te    5.86494 A  
   6  19  Te-Te    5.86494 A  
   8  17  Te-Te    5.86494 A *

Nearest neighbors for each atom (up to 4)

 atom   1 species Cu : neighbors at    2.748   2.748   2.770   2.770 A
         d(center):10.692 A  angles  :   180.0    92.6    87.4    87.4    92.6   180.0
 atom   2 species Cu : neighbors at    2.748   2.748   2.770   2.770 A
         d(center):10.692 A  angles  :   180.0    92.6    87.4    87.4    92.6   180.0
 atom   3 species Cu : neighbors at    2.774   2.774   2.774   2.774 A
         d(center): 5.164 A  angles  :   180.0    92.7    87.3    87.3    92.7   180.0
 atom   4 species Cu : neighbors at    2.731   2.731   2.751   2.751 A
         d(center):10.692 A  angles  :   180.0    91.9    88.1    88.1    91.9   180.0
 atom   5 species Te : neighbors at    2.774   2.891   2.925   2.931 A
         d(center): 2.907 A  angles  :   129.8   131.6    69.8    87.9    85.8    87.0
 atom   6 species Te : neighbors at    2.774   2.891   2.925   2.931 A
         d(center): 5.334 A  angles  :   129.8   131.6    69.8    87.9    85.8    87.0
 atom   7 species Te : neighbors at    2.751   2.770   2.895   2.903 A
         d(center): 8.716 A  angles  :    91.8   134.1   130.3   131.8    71.0    84.4
 atom   8 species Te : neighbors at    2.751   2.770   2.895   2.903 A
         d(center):11.654 A  angles  :    91.8   134.1   130.3   131.8    71.0    84.4
 atom   9 species Te : neighbors at    2.869   2.901   2.901   3.725 A
         d(center): 6.303 A  angles  :    84.9    84.9   164.2    86.1   106.5   106.5
 atom  10 species Te : neighbors at    2.779   2.895   2.895   2.905 A
         d(center): 6.656 A  angles  :   130.2   130.2    70.1    86.5    84.4    84.4
 atom  11 species Te : neighbors at    2.770   2.770   2.930   2.934 A
         d(center):10.383 A  angles  :    91.4   132.9    70.6   132.9   129.4    87.0
 atom  12 species Te : neighbors at    2.731   2.748   2.748   2.922 A
         d(center):12.320 A  angles  :    92.7    92.7   132.8    92.3    71.0   130.7
 atom  13 species Te : neighbors at    2.779   2.895   2.895   2.905 A
         d(center): 4.948 A  angles  :   130.2   130.2    70.1    86.5    84.4    84.4
 atom  14 species Te : neighbors at    2.869   2.901   2.901   3.725 A
         d(center): 7.720 A  angles  :    84.9    84.9   164.2    86.1   106.5   106.5
 atom  15 species Te : neighbors at    2.731   2.748   2.748   2.922 A
         d(center): 9.580 A  angles  :    92.7    92.7   132.8    92.3    71.0   130.7
 atom  16 species Te : neighbors at    2.770   2.770   2.930   2.934 A
         d(center):12.972 A  angles  :    91.4   132.9    70.6   132.9   129.4    87.0
 atom  17 species Te : neighbors at    2.774   2.891   2.925   2.931 A
         d(center): 6.346 A  angles  :   129.8   131.6    69.8    87.9    85.8    87.0
 atom  18 species Te : neighbors at    2.774   2.891   2.925   2.931 A
         d(center): 7.763 A  angles  :   129.8   131.6    69.8    87.9    85.8    87.0
 atom  19 species Te : neighbors at    2.751   2.770   2.895   2.903 A
         d(center):10.390 A  angles  :    91.8   134.1   130.3   131.8    71.0    84.4
 atom  20 species Te : neighbors at    2.751   2.770   2.895   2.903 A
         d(center):12.953 A  angles  :    91.8   134.1   130.3   131.8    71.0    84.4
 atom  21 species Zr : neighbors at    2.869   2.891   2.891   2.895 A
         d(center): 0.068 A  angles  :    87.9    87.9    95.8    85.2   176.3    95.0
 atom  22 species Zr : neighbors at    2.869   2.891   2.891   2.895 A
         d(center): 6.566 A  angles  :    87.9    87.9    95.8    85.2   176.3    95.0
 atom  23 species Zr : neighbors at    2.895   2.901   2.903   2.922 A
         d(center): 3.999 A  angles  :    86.3    96.4   177.1    94.9    94.3    86.4
 atom  24 species Zr : neighbors at    2.895   2.901   2.903   2.922 A
         d(center): 7.709 A  angles  :    86.3    96.4   177.1    94.9    94.3    86.4
 atom  25 species Zr : neighbors at    2.895   2.901   2.903   2.922 A
         d(center): 3.928 A  angles  :    86.3    96.4   177.1    94.9    94.3    86.4
 atom  26 species Zr : neighbors at    2.895   2.901   2.903   2.922 A
         d(center): 7.745 A  angles  :    86.3    96.4   177.1    94.9    94.3    86.4
 atom  27 species Zr : neighbors at    2.905   2.931   2.931   2.936 A
         d(center): 3.964 A  angles  :    87.9    87.9    95.4    86.4   176.7    93.3
 atom  28 species Zr : neighbors at    2.905   2.931   2.931   2.936 A
         d(center): 7.680 A  angles  :    87.9    87.9    95.4    86.4   176.7    93.3
