Distances between atoms, up to dmax=  6.00 A   (* = with lattice translation)
  #1  #2   bond       d
   3  16  Co-Te    2.59563 A  
   3  13  Co-Te    2.59563 A *
   5  13  Co-Te    2.59565 A  
   5  16  Co-Te    2.59565 A  
   1  13  Co-Te    2.60101 A  
   1  16  Co-Te    2.60101 A *
   3   9  Co-Te    2.60842 A  
   3  20  Co-Te    2.60842 A *
   5  20  Co-Te    2.60843 A  
   5   9  Co-Te    2.60843 A  
   3  12  Co-Te    2.60872 A *
   3  17  Co-Te    2.60872 A  
   5   8  Co-Te    2.60872 A  
   5  21  Co-Te    2.60872 A  
   2  11  Co-Te    2.61631 A *
   2  14  Co-Te    2.61631 A  
   4  14  Co-Te    2.61632 A  
   4  11  Co-Te    2.61632 A  
   1   8  Co-Te    2.61926 A  
   1  21  Co-Te    2.61926 A *
   1  12  Co-Te    2.61927 A  
   1  17  Co-Te    2.61927 A *
   2   7  Co-Te    2.62543 A  
   2  18  Co-Te    2.62543 A *
   4   7  Co-Te    2.62546 A  
   4  18  Co-Te    2.62546 A  
   2  10  Co-Te    2.63139 A *
   2  15  Co-Te    2.63139 A  
   4  19  Co-Te    2.63140 A  
   4   6  Co-Te    2.63140 A  
  10  26  Te-Zr    2.87375 A *
  15  27  Te-Zr    2.87375 A  
  19  29  Te-Zr    2.87377 A  
   6  28  Te-Zr    2.87377 A  
   6  22  Te-Zr    2.88395 A  
  19  23  Te-Zr    2.88395 A *
  10  22  Te-Zr    2.88396 A *
  15  23  Te-Zr    2.88396 A *
   6  24  Te-Zr    2.88560 A  
  19  25  Te-Zr    2.88560 A *
  15  25  Te-Zr    2.88560 A *
  10  24  Te-Zr    2.88560 A  
  20  23  Te-Zr    2.88639 A *
   9  22  Te-Zr    2.88639 A *
  20  27  Te-Zr    2.89202 A *
   9  26  Te-Zr    2.89202 A *
  20  29  Te-Zr    2.89203 A  
   9  28  Te-Zr    2.89203 A *
  11  25  Te-Zr    2.89454 A  
  14  24  Te-Zr    2.89454 A *
   8  23  Te-Zr    2.90195 A  
  21  22  Te-Zr    2.90195 A *
  12  23  Te-Zr    2.90195 A *
  17  22  Te-Zr    2.90195 A *
   8  25  Te-Zr    2.90267 A  
  21  24  Te-Zr    2.90267 A *
  17  24  Te-Zr    2.90267 A *
  12  25  Te-Zr    2.90267 A  
  11  27  Te-Zr    2.90762 A *
  14  26  Te-Zr    2.90762 A  
  14  28  Te-Zr    2.90763 A  
  11  29  Te-Zr    2.90763 A  
   7  27  Te-Zr    2.90772 A  
  18  26  Te-Zr    2.90772 A *
   7  29  Te-Zr    2.90774 A  
  18  28  Te-Zr    2.90774 A  
  12  27  Te-Zr    2.90888 A *
  17  26  Te-Zr    2.90888 A *
   8  29  Te-Zr    2.90890 A  
  21  28  Te-Zr    2.90890 A *
   7  23  Te-Zr    2.91044 A  
  18  22  Te-Zr    2.91044 A *
  16  27  Te-Zr    2.91602 A  
  13  26  Te-Zr    2.91602 A *
  13  28  Te-Zr    2.91603 A *
  16  29  Te-Zr    2.91603 A  
  13  24  Te-Zr    2.92970 A *
  16  25  Te-Zr    2.92970 A *
   5  29  Co-Zr    3.22954 A  
   5  28  Co-Zr    3.22954 A *
   3  27  Co-Zr    3.22955 A  
   3  26  Co-Zr    3.22955 A *
   1  25  Co-Zr    3.23820 A  
   1  24  Co-Zr    3.23820 A *
   2  27  Co-Zr    3.24658 A  
   2  26  Co-Zr    3.24658 A  
   4  28  Co-Zr    3.24659 A  
   4  29  Co-Zr    3.24659 A  
  13  20  Te-Te    3.49902 A  
   9  16  Te-Te    3.49902 A  
  16  17  Te-Te    3.51117 A  
  12  13  Te-Te    3.51117 A  
   8  13  Te-Te    3.51118 A  
  16  21  Te-Te    3.51118 A  
   9  12  Te-Te    3.51642 A *
  17  20  Te-Te    3.51642 A *
   8   9  Te-Te    3.51642 A  
  20  21  Te-Te    3.51642 A  
   8  17  Te-Te    3.54754 A *
  12  21  Te-Te    3.54754 A *
   7  14  Te-Te    3.55478 A  
  11  18  Te-Te    3.55478 A  
  10  11  Te-Te    3.55732 A  
  14  15  Te-Te    3.55732 A  
  14  19  Te-Te    3.55733 A  
   6  11  Te-Te    3.55733 A  
   6  15  Te-Te    3.57196 A *
  10  19  Te-Te    3.57196 A *
   7  10  Te-Te    3.57928 A *
  15  18  Te-Te    3.57928 A *
  18  19  Te-Te    3.57930 A  
   6   7  Te-Te    3.57930 A  
  22  26  Zr-Zr    3.80800 A  
  23  27  Zr-Zr    3.80800 A *
  23  29  Zr-Zr    3.80800 A *
  22  28  Zr-Zr    3.80800 A  
  26  28  Zr-Zr    3.82194 A  
  27  29  Zr-Zr    3.82194 A *
  12  16  Te-Te    3.84149 A *
  13  17  Te-Te    3.84149 A *
  13  21  Te-Te    3.84152 A  
   8  16  Te-Te    3.84152 A  
  25  27  Zr-Zr    3.84206 A *
  24  26  Zr-Zr    3.84206 A *
  25  29  Zr-Zr    3.84207 A *
  24  28  Zr-Zr    3.84207 A  
   6  14  Te-Te    3.84643 A *
  11  19  Te-Te    3.84643 A *
  10  14  Te-Te    3.84645 A *
  11  15  Te-Te    3.84645 A *
   8  12  Te-Te    3.84977 A *
  17  21  Te-Te    3.84977 A *
   7  15  Te-Te    3.85006 A  
  10  18  Te-Te    3.85006 A  
   7  19  Te-Te    3.85009 A  
   6  18  Te-Te    3.85009 A  
   8  20  Te-Te    3.85035 A *
   9  21  Te-Te    3.85035 A *
   9  17  Te-Te    3.85038 A *
  12  20  Te-Te    3.85038 A *
   6  10  Te-Te    3.85076 A *
  15  19  Te-Te    3.85076 A *
   1   5  Co-Co    3.85213 A *
   1   5  Co-Co    3.85213 A  
   1   3  Co-Co    3.85213 A *
   1   3  Co-Co    3.85213 A *
   2   4  Co-Co    3.85213 A *
   2   4  Co-Co    3.85213 A  
   3   5  Co-Co    3.85213 A *
   3   5  Co-Co    3.85213 A  
   9  13  Te-Te    3.85215 A *
  16  20  Te-Te    3.85215 A *
   7  11  Te-Te    3.85220 A *
  14  18  Te-Te    3.85220 A *
   9  13  Te-Te    3.85220 A  
  16  20  Te-Te    3.85220 A  
  23  25  Zr-Zr    3.85221 A  
  22  24  Zr-Zr    3.85221 A *
  22  24  Zr-Zr    3.85222 A  
  23  25  Zr-Zr    3.85222 A *
  14  18  Te-Te    3.85225 A  
   7  11  Te-Te    3.85225 A  
   6  10  Te-Te    3.85350 A  
  15  19  Te-Te    3.85350 A  
   9  17  Te-Te    3.85399 A  
  12  20  Te-Te    3.85399 A  
   9  21  Te-Te    3.85402 A  
   8  20  Te-Te    3.85402 A  
   6  18  Te-Te    3.85418 A *
   7  19  Te-Te    3.85418 A *
   7  15  Te-Te    3.85420 A *
  10  18  Te-Te    3.85420 A *
   8  12  Te-Te    3.85450 A  
  17  21  Te-Te    3.85450 A  
  10  14  Te-Te    3.85798 A *
  11  15  Te-Te    3.85798 A *
   6  14  Te-Te    3.85801 A  
  11  19  Te-Te    3.85801 A  
  24  28  Zr-Zr    3.86236 A *
  25  29  Zr-Zr    3.86236 A  
  24  26  Zr-Zr    3.86236 A *
  25  27  Zr-Zr    3.86236 A *
   8  16  Te-Te    3.86305 A *
  13  21  Te-Te    3.86305 A *
  13  17  Te-Te    3.86308 A *
  12  16  Te-Te    3.86308 A *
  26  28  Zr-Zr    3.88233 A *
  27  29  Zr-Zr    3.88233 A  
  22  28  Zr-Zr    3.89628 A *
  23  29  Zr-Zr    3.89628 A  
  22  26  Zr-Zr    3.89629 A *
  23  27  Zr-Zr    3.89629 A  
   7  12  Te-Te    4.31591 A *
  17  18  Te-Te    4.31591 A *
   7   8  Te-Te    4.31594 A  
  18  21  Te-Te    4.31594 A *
  12  19  Te-Te    4.31861 A *
   6  17  Te-Te    4.31861 A *
   8  15  Te-Te    4.31862 A *
  10  21  Te-Te    4.31862 A *
   9  10  Te-Te    4.33232 A *
  15  20  Te-Te    4.33232 A *
   6   9  Te-Te    4.33234 A *
  19  20  Te-Te    4.33234 A  
  11  12  Te-Te    4.33600 A  
  14  17  Te-Te    4.33600 A *
   8  11  Te-Te    4.33602 A  
  14  21  Te-Te    4.33602 A *
   7  16  Te-Te    4.34047 A  
  13  18  Te-Te    4.34047 A *
  15  16  Te-Te    4.34814 A  
  10  13  Te-Te    4.34814 A *
  16  19  Te-Te    4.34815 A  
   6  13  Te-Te    4.34815 A *
  11  20  Te-Te    4.36199 A  
   9  14  Te-Te    4.36199 A *
   1   9  Co-Te    4.64571 A *
   1  20  Co-Te    4.64571 A *
   1   9  Co-Te    4.64573 A  
   1  20  Co-Te    4.64573 A *
   3   8  Co-Te    4.65137 A  
   3  21  Co-Te    4.65137 A *
   5  12  Co-Te    4.65137 A *
   5  17  Co-Te    4.65137 A *
   5  12  Co-Te    4.65332 A  
   5  17  Co-Te    4.65332 A  
   3   8  Co-Te    4.65333 A *
   3  21  Co-Te    4.65333 A  
   1   9  Co-Te    4.65863 A *
   1  20  Co-Te    4.65863 A  
   2   6  Co-Te    4.65978 A *
   2  19  Co-Te    4.65978 A *
   4  10  Co-Te    4.65979 A *
   4  15  Co-Te    4.65979 A *
   3   8  Co-Te    4.66320 A *
   3  21  Co-Te    4.66320 A *
   5  12  Co-Te    4.66321 A *
   5  17  Co-Te    4.66321 A *
   4  10  Co-Te    4.66453 A *
   4  15  Co-Te    4.66453 A *
   2  19  Co-Te    4.66454 A *
   2   6  Co-Te    4.66454 A  
   4  10  Co-Te    4.66566 A  
   4  15  Co-Te    4.66566 A  
   2   6  Co-Te    4.66567 A *
   2  19  Co-Te    4.66567 A  
  10  28  Te-Zr    4.79331 A *
  15  29  Te-Zr    4.79331 A *
  19  27  Te-Zr    4.79332 A *
   6  26  Te-Zr    4.79332 A  
   8  27  Te-Zr    4.80250 A *
  21  26  Te-Zr    4.80250 A *
  12  29  Te-Zr    4.80251 A *
  17  28  Te-Zr    4.80251 A *
   7  25  Te-Zr    4.81108 A *
  18  24  Te-Zr    4.81108 A  
   7  25  Te-Zr    4.81332 A *
  18  24  Te-Zr    4.81332 A *
   7  25  Te-Zr    4.81333 A  
  18  24  Te-Zr    4.81333 A *
  14  22  Te-Zr    4.81429 A  
  11  23  Te-Zr    4.81429 A *
  12  29  Te-Zr    4.81593 A  
  17  28  Te-Zr    4.81593 A *
   8  27  Te-Zr    4.81595 A *
  21  26  Te-Zr    4.81595 A *
  15  29  Te-Zr    4.81861 A  
  10  28  Te-Zr    4.81861 A  
   6  26  Te-Zr    4.81862 A *
  19  27  Te-Zr    4.81862 A  
  16  23  Te-Zr    4.82493 A *
  13  22  Te-Zr    4.82493 A *
  16  23  Te-Zr    4.82495 A *
  13  22  Te-Zr    4.82495 A *
   9  24  Te-Zr    4.82816 A *
  20  25  Te-Zr    4.82816 A *
   9  24  Te-Zr    4.82819 A *
  20  25  Te-Zr    4.82819 A *
  11  23  Te-Zr    4.83310 A *
  14  22  Te-Zr    4.83310 A *
  11  23  Te-Zr    4.83312 A  
  14  22  Te-Zr    4.83312 A *
   9  24  Te-Zr    4.83389 A *
  20  25  Te-Zr    4.83389 A  
   6  26  Te-Zr    4.83585 A *
  19  27  Te-Zr    4.83585 A *
  10  28  Te-Zr    4.83587 A *
  15  29  Te-Zr    4.83587 A *
  12  29  Te-Zr    4.83814 A *
  17  28  Te-Zr    4.83814 A *
   8  27  Te-Zr    4.83816 A  
  21  26  Te-Zr    4.83816 A *
  13  22  Te-Zr    4.84257 A *
  16  23  Te-Zr    4.84257 A  
   5  23  Co-Zr    5.01349 A *
   5  22  Co-Zr    5.01349 A *
   3  22  Co-Zr    5.01349 A *
   3  23  Co-Zr    5.01349 A *
   5  27  Co-Zr    5.01523 A *
   5  26  Co-Zr    5.01523 A *
   3  28  Co-Zr    5.01523 A *
   3  29  Co-Zr    5.01523 A *
   1  29  Co-Zr    5.01580 A *
   1  28  Co-Zr    5.01580 A *
   1  27  Co-Zr    5.01580 A *
   1  26  Co-Zr    5.01580 A *
   1  23  Co-Zr    5.02476 A *
   1  22  Co-Zr    5.02476 A *
   1  22  Co-Zr    5.02476 A *
   1  23  Co-Zr    5.02476 A  
   4  27  Co-Zr    5.02622 A *
   4  26  Co-Zr    5.02622 A  
   2  28  Co-Zr    5.02623 A  
   2  29  Co-Zr    5.02623 A *
   4  22  Co-Zr    5.02850 A  
   4  23  Co-Zr    5.02850 A *
   2  22  Co-Zr    5.02850 A  
   2  23  Co-Zr    5.02850 A *
   4  24  Co-Zr    5.02881 A *
   4  25  Co-Zr    5.02881 A  
   2  24  Co-Zr    5.02882 A *
   2  25  Co-Zr    5.02882 A *
   5  24  Co-Zr    5.02915 A *
   5  25  Co-Zr    5.02915 A  
   3  24  Co-Zr    5.02916 A *
   3  25  Co-Zr    5.02916 A *
   2  25  Co-Zr    5.03526 A *
   2  24  Co-Zr    5.03526 A *
   4  24  Co-Zr    5.03526 A  
   4  25  Co-Zr    5.03526 A *
   3  25  Co-Zr    5.03560 A *
   3  24  Co-Zr    5.03560 A *
   5  24  Co-Zr    5.03561 A *
   5  25  Co-Zr    5.03561 A *
   3  23  Co-Zr    5.03600 A  
   3  22  Co-Zr    5.03600 A *
   5  22  Co-Zr    5.03600 A *
   5  23  Co-Zr    5.03600 A  
   1  28  Co-Zr    5.03781 A *
   1  29  Co-Zr    5.03781 A  
   1  27  Co-Zr    5.03781 A *
   1  26  Co-Zr    5.03781 A *
   3  29  Co-Zr    5.03837 A  
   3  28  Co-Zr    5.03837 A *
   5  27  Co-Zr    5.03837 A  
   5  26  Co-Zr    5.03837 A *
   2  28  Co-Zr    5.04931 A *
   2  29  Co-Zr    5.04931 A  
   4  26  Co-Zr    5.04931 A *
   4  27  Co-Zr    5.04931 A  
   2  22  Co-Zr    5.05094 A *
   2  23  Co-Zr    5.05094 A  
   4  22  Co-Zr    5.05094 A *
   4  23  Co-Zr    5.05094 A  
  13  27  Te-Zr    5.08245 A *
  16  26  Te-Zr    5.08245 A *
  13  29  Te-Zr    5.08246 A  
  16  28  Te-Zr    5.08246 A *
  13  25  Te-Zr    5.09110 A  
  16  24  Te-Zr    5.09110 A *
   9  23  Te-Zr    5.09656 A  
  20  22  Te-Zr    5.09656 A *
  21  29  Te-Zr    5.09991 A  
   8  28  Te-Zr    5.09991 A *
  17  27  Te-Zr    5.09992 A  
  12  26  Te-Zr    5.09992 A *
  21  23  Te-Zr    5.10881 A *
   8  22  Te-Zr    5.10881 A *
  17  23  Te-Zr    5.10883 A *
  12  22  Te-Zr    5.10883 A *
   9  27  Te-Zr    5.10919 A  
  20  26  Te-Zr    5.10919 A *
   9  29  Te-Zr    5.10919 A  
  20  28  Te-Zr    5.10919 A *
  11  24  Te-Zr    5.12173 A  
  14  25  Te-Zr    5.12173 A *
   8  24  Te-Zr    5.12518 A *
  21  25  Te-Zr    5.12518 A *
  12  24  Te-Zr    5.12519 A *
  17  25  Te-Zr    5.12519 A *
  14  27  Te-Zr    5.12996 A  
  11  26  Te-Zr    5.12996 A *
  14  29  Te-Zr    5.12997 A  
  11  28  Te-Zr    5.12997 A  
  18  27  Te-Zr    5.13922 A *
   7  26  Te-Zr    5.13922 A  
  18  29  Te-Zr    5.13924 A  
   7  28  Te-Zr    5.13924 A  
   6  25  Te-Zr    5.14222 A  
  19  24  Te-Zr    5.14222 A *
  10  25  Te-Zr    5.14223 A  
  15  24  Te-Zr    5.14223 A *
   7  22  Te-Zr    5.14993 A  
  18  23  Te-Zr    5.14993 A *
   6  23  Te-Zr    5.15717 A  
  19  22  Te-Zr    5.15717 A *
  10  23  Te-Zr    5.15717 A *
  15  22  Te-Zr    5.15717 A *
  10  27  Te-Zr    5.16435 A *
  15  26  Te-Zr    5.16435 A  
   6  29  Te-Zr    5.16436 A  
  19  28  Te-Zr    5.16436 A  
  13  16  Te-Te    5.19125 A *
  13  16  Te-Te    5.19130 A  
   9  20  Te-Te    5.19377 A *
  13  16  Te-Te    5.20202 A *
   9  20  Te-Te    5.21683 A *
   9  20  Te-Te    5.21687 A  
  12  17  Te-Te    5.21744 A *
   8  21  Te-Te    5.21745 A  
  11  14  Te-Te    5.22408 A *
  11  14  Te-Te    5.23262 A *
  11  14  Te-Te    5.23264 A  
   8  21  Te-Te    5.23503 A *
  12  17  Te-Te    5.23507 A *
   8  21  Te-Te    5.23852 A *
  12  17  Te-Te    5.23854 A *
   7  18  Te-Te    5.25087 A *
   7  18  Te-Te    5.25091 A  
   6  19  Te-Te    5.25236 A *
  10  15  Te-Te    5.25236 A *
   6  19  Te-Te    5.25436 A *
  10  15  Te-Te    5.25438 A *
  10  15  Te-Te    5.26277 A *
   6  19  Te-Te    5.26280 A  
   7  18  Te-Te    5.26735 A *
   3   7  Co-Te    5.54008 A  
   3  18  Co-Te    5.54008 A *
   5   7  Co-Te    5.54009 A  
   5  18  Co-Te    5.54009 A *
   1   6  Co-Te    5.54076 A *
   1  19  Co-Te    5.54076 A *
   1  10  Co-Te    5.54076 A *
   1  15  Co-Te    5.54076 A *
   3  15  Co-Te    5.54275 A  
   3  10  Co-Te    5.54275 A *
   5  19  Co-Te    5.54276 A  
   5   6  Co-Te    5.54276 A *
   2  12  Co-Te    5.56088 A *
   2  17  Co-Te    5.56088 A *
   4   8  Co-Te    5.56090 A  
   4  21  Co-Te    5.56090 A *
   1  11  Co-Te    5.56305 A  
   1  14  Co-Te    5.56305 A *
   3  11  Co-Te    5.56506 A *
   3  14  Co-Te    5.56506 A *
   5  11  Co-Te    5.56507 A  
   5  14  Co-Te    5.56507 A *
   2   9  Co-Te    5.58428 A *
   2  20  Co-Te    5.58428 A *
   4  20  Co-Te    5.58428 A  
   4   9  Co-Te    5.58428 A *
   2  16  Co-Te    5.59428 A  
   2  13  Co-Te    5.59428 A *
   4  16  Co-Te    5.59429 A  
   4  13  Co-Te    5.59429 A *
  10  17  Te-Te    5.78252 A *
  12  15  Te-Te    5.78252 A *
   8  19  Te-Te    5.78256 A  
   6  21  Te-Te    5.78256 A *
   8  19  Te-Te    5.78576 A *
   6  21  Te-Te    5.78576 A *
  10  17  Te-Te    5.78576 A *
  12  15  Te-Te    5.78576 A *
   8  19  Te-Te    5.78824 A *
   6  21  Te-Te    5.78824 A *
  12  15  Te-Te    5.78824 A *
  10  17  Te-Te    5.78824 A *
   7  20  Te-Te    5.79663 A *
   9  18  Te-Te    5.79663 A *
   7  20  Te-Te    5.79951 A *
   9  18  Te-Te    5.79951 A *
   7  20  Te-Te    5.79955 A  
   9  18  Te-Te    5.79955 A *
  11  16  Te-Te    5.82325 A *
  13  14  Te-Te    5.82325 A *
  11  16  Te-Te    5.82328 A  
  13  14  Te-Te    5.82328 A *
  11  16  Te-Te    5.82422 A *
  13  14  Te-Te    5.82422 A *

Nearest neighbors for each atom (up to 4)

 atom   1 species Co : neighbors at    2.601   2.601   2.619   2.619 A
         d(center):10.450 A  angles  :   180.0    84.5    95.5    95.5    84.5   180.0
 atom   2 species Co : neighbors at    2.616   2.616   2.625   2.625 A
         d(center): 5.032 A  angles  :   180.0    94.6    85.4    85.4    94.6   180.0
 atom   3 species Co : neighbors at    2.596   2.596   2.608   2.608 A
         d(center):10.450 A  angles  :   180.0    84.5    95.5    95.5    84.5   180.0
 atom   4 species Co : neighbors at    2.616   2.616   2.625   2.625 A
         d(center): 5.032 A  angles  :   180.0    85.4    94.6    94.6    85.4   180.0
 atom   5 species Co : neighbors at    2.596   2.596   2.608   2.608 A
         d(center):10.450 A  angles  :   180.0    84.5    95.5    95.5    84.5   180.0
 atom   6 species Te : neighbors at    2.631   2.874   2.884   2.886 A
         d(center): 2.883 A  angles  :    72.1   131.4   131.7    82.8    83.7    83.8
 atom   7 species Te : neighbors at    2.625   2.625   2.908   2.908 A
         d(center): 5.147 A  angles  :    94.4    71.6   131.7   131.7    71.6    83.8
 atom   8 species Te : neighbors at    2.609   2.619   2.902   2.903 A
         d(center): 8.630 A  angles  :    94.9   132.0   131.6   131.0    71.6    83.2
 atom   9 species Te : neighbors at    2.608   2.608   2.886   2.892 A
         d(center):11.289 A  angles  :    95.2   131.6    71.7   131.6   131.4    82.4
 atom  10 species Te : neighbors at    2.631   2.874   2.884   2.886 A
         d(center): 6.164 A  angles  :    72.1   131.4   131.7    82.8    83.7    83.8
 atom  11 species Te : neighbors at    2.616   2.616   2.895   2.908 A
         d(center): 6.407 A  angles  :    94.8   131.6    71.8   131.6   130.9    83.5
 atom  12 species Te : neighbors at    2.609   2.619   2.902   2.903 A
         d(center):10.207 A  angles  :    94.9   132.0   131.6   131.0    71.6    83.2
 atom  13 species Te : neighbors at    2.596   2.596   2.601   2.916 A
         d(center):11.918 A  angles  :    95.8    95.7    71.5    95.7   132.1   130.7
 atom  14 species Te : neighbors at    2.616   2.616   2.895   2.908 A
         d(center): 4.825 A  angles  :    94.8   131.6    71.8   131.6   130.9    83.5
 atom  15 species Te : neighbors at    2.631   2.874   2.884   2.886 A
         d(center): 7.496 A  angles  :    72.1   131.4   131.7    82.8    83.7    83.8
 atom  16 species Te : neighbors at    2.596   2.596   2.601   2.916 A
         d(center): 9.478 A  angles  :    95.8    95.7    71.5    95.7   132.1   130.7
 atom  17 species Te : neighbors at    2.609   2.619   2.902   2.903 A
         d(center):12.551 A  angles  :    94.9   132.0   131.6   131.0    71.6    83.2
 atom  18 species Te : neighbors at    2.625   2.625   2.908   2.908 A
         d(center): 6.160 A  angles  :    94.4    71.6   131.7   131.7    71.6    83.8
 atom  19 species Te : neighbors at    2.631   2.874   2.884   2.886 A
         d(center): 7.496 A  angles  :    72.1   131.4   131.7    82.8    83.7    83.8
 atom  20 species Te : neighbors at    2.608   2.608   2.886   2.892 A
         d(center):10.226 A  angles  :    95.2   131.6    71.7   131.6   131.4    82.4
 atom  21 species Te : neighbors at    2.609   2.619   2.902   2.903 A
         d(center):12.551 A  angles  :    94.9   132.0   131.6   131.0    71.6    83.2
 atom  22 species Zr : neighbors at    2.884   2.884   2.886   2.902 A
         d(center): 0.021 A  angles  :    83.8    97.3   179.2    97.3    96.6    83.4
 atom  23 species Zr : neighbors at    2.884   2.884   2.886   2.902 A
         d(center): 6.488 A  angles  :    83.8    97.3   179.2    97.3    96.6    83.4
 atom  24 species Zr : neighbors at    2.886   2.886   2.895   2.903 A
         d(center): 3.852 A  angles  :    83.8    83.4   179.6    83.4    96.5    96.8
 atom  25 species Zr : neighbors at    2.886   2.886   2.895   2.903 A
         d(center): 7.535 A  angles  :    83.8    83.4   179.6    83.4    96.5    96.8
 atom  26 species Zr : neighbors at    2.874   2.892   2.908   2.908 A
         d(center): 3.823 A  angles  :    97.4    83.7    83.5    97.5   179.0    83.0
 atom  27 species Zr : neighbors at    2.874   2.892   2.908   2.908 A
         d(center): 7.557 A  angles  :    97.4    83.7    83.5    97.5   179.0    83.0
 atom  28 species Zr : neighbors at    2.874   2.892   2.908   2.908 A
         d(center): 3.823 A  angles  :    97.4    83.7    83.5    97.5   179.0    83.0
 atom  29 species Zr : neighbors at    2.874   2.892   2.908   2.908 A
         d(center): 7.557 A  angles  :    97.4    83.7    83.5    97.5   179.0    83.0
