Distances between atoms, up to dmax=  6.00 A   (* = with lattice translation)
  #1  #2   bond       d
   1  20  Fe-Te    2.56972 A *
   1   9  Fe-Te    2.56972 A  
   1  21  Fe-Te    2.56972 A *
   1   8  Fe-Te    2.56972 A  
   2  13  Fe-Te    2.56973 A  
   2  16  Fe-Te    2.56973 A *
   3  13  Fe-Te    2.56973 A *
   3  16  Fe-Te    2.56973 A  
   3   9  Fe-Te    2.56975 A  
   2   8  Fe-Te    2.56975 A  
   3  20  Fe-Te    2.56975 A *
   2  21  Fe-Te    2.56975 A *
   5  13  Fe-Te    2.57943 A  
   5  16  Fe-Te    2.57943 A  
   5  21  Fe-Te    2.57945 A  
   5   8  Fe-Te    2.57945 A  
   5  20  Fe-Te    2.57945 A  
   5   9  Fe-Te    2.57945 A  
   1  12  Fe-Te    2.60446 A *
   1  17  Fe-Te    2.60446 A *
   3  12  Fe-Te    2.60449 A *
   3  17  Fe-Te    2.60449 A  
   2  12  Fe-Te    2.60449 A  
   2  17  Fe-Te    2.60449 A *
   4  14  Fe-Te    2.63812 A  
   4  11  Fe-Te    2.63812 A  
   4  19  Fe-Te    2.63813 A  
   4   6  Fe-Te    2.63813 A  
   4  18  Fe-Te    2.63813 A  
   4   7  Fe-Te    2.63813 A  
  15  23  Te-Zr    2.86184 A *
  10  22  Te-Zr    2.86184 A *
  15  27  Te-Zr    2.86188 A  
  10  26  Te-Zr    2.86188 A *
  10  24  Te-Zr    2.86188 A  
  15  25  Te-Zr    2.86188 A *
  14  28  Te-Zr    2.87998 A  
  11  29  Te-Zr    2.87998 A  
   6  28  Te-Zr    2.87998 A  
  19  29  Te-Zr    2.87998 A  
  18  28  Te-Zr    2.87998 A  
   7  29  Te-Zr    2.87998 A  
   7  23  Te-Zr    2.90738 A  
  18  22  Te-Zr    2.90738 A *
   6  22  Te-Zr    2.90738 A  
  19  23  Te-Zr    2.90738 A *
  11  25  Te-Zr    2.90741 A  
  14  24  Te-Zr    2.90741 A *
  11  27  Te-Zr    2.90741 A *
  14  26  Te-Zr    2.90741 A  
   7  27  Te-Zr    2.90742 A  
  18  26  Te-Zr    2.90742 A *
   6  24  Te-Zr    2.90742 A  
  19  25  Te-Zr    2.90742 A *
   9  22  Te-Zr    2.92037 A *
  20  23  Te-Zr    2.92037 A *
  21  22  Te-Zr    2.92037 A *
   8  23  Te-Zr    2.92037 A  
   8  25  Te-Zr    2.92040 A  
  21  24  Te-Zr    2.92040 A *
   9  26  Te-Zr    2.92040 A *
  20  27  Te-Zr    2.92040 A *
  13  24  Te-Zr    2.92040 A *
  16  25  Te-Zr    2.92040 A *
  13  26  Te-Zr    2.92040 A *
  16  27  Te-Zr    2.92040 A  
   8  29  Te-Zr    2.92674 A  
  21  28  Te-Zr    2.92674 A *
  20  29  Te-Zr    2.92674 A  
   9  28  Te-Zr    2.92674 A *
  16  29  Te-Zr    2.92674 A  
  13  28  Te-Zr    2.92674 A *
  17  22  Te-Zr    2.95423 A *
  12  23  Te-Zr    2.95423 A *
  17  26  Te-Zr    2.95425 A *
  12  27  Te-Zr    2.95425 A *
  17  24  Te-Zr    2.95425 A *
  12  25  Te-Zr    2.95425 A  
   5  28  Fe-Zr    3.14983 A *
   5  29  Fe-Zr    3.14983 A  
   2  24  Fe-Zr    3.18963 A *
   2  25  Fe-Zr    3.18963 A  
   3  26  Fe-Zr    3.18963 A *
   3  27  Fe-Zr    3.18963 A  
   1  22  Fe-Zr    3.18965 A *
   1  23  Fe-Zr    3.18965 A  
   4  28  Fe-Zr    3.27892 A  
   4  29  Fe-Zr    3.27892 A  
  20  21  Te-Te    3.39154 A  
   8   9  Te-Te    3.39154 A  
   9  16  Te-Te    3.39156 A  
  13  20  Te-Te    3.39156 A  
  16  21  Te-Te    3.39156 A  
   8  13  Te-Te    3.39156 A  
   8  17  Te-Te    3.42905 A *
  12  21  Te-Te    3.42905 A *
   9  12  Te-Te    3.42905 A *
  17  20  Te-Te    3.42905 A *
  12  13  Te-Te    3.42906 A  
  16  17  Te-Te    3.42906 A  
   6  15  Te-Te    3.61057 A *
  10  19  Te-Te    3.61057 A *
   7  10  Te-Te    3.61057 A *
  15  18  Te-Te    3.61057 A *
  14  15  Te-Te    3.61060 A  
  10  11  Te-Te    3.61060 A  
  18  19  Te-Te    3.62567 A  
   6   7  Te-Te    3.62567 A  
   7  14  Te-Te    3.62570 A  
  11  18  Te-Te    3.62570 A  
   6  11  Te-Te    3.62570 A  
  14  19  Te-Te    3.62570 A  
  23  27  Zr-Zr    3.76653 A *
  22  26  Zr-Zr    3.76653 A  
  23  25  Zr-Zr    3.76653 A  
  22  24  Zr-Zr    3.76653 A *
  25  27  Zr-Zr    3.76653 A *
  24  26  Zr-Zr    3.76653 A *
  11  19  Te-Te    3.83317 A  
   6  14  Te-Te    3.83317 A  
  14  18  Te-Te    3.83317 A  
   7  11  Te-Te    3.83317 A  
   6  18  Te-Te    3.83322 A  
   7  19  Te-Te    3.83322 A  
   8  20  Te-Te    3.86152 A *
   9  21  Te-Te    3.86152 A *
   8  16  Te-Te    3.86156 A *
  13  21  Te-Te    3.86156 A *
   9  13  Te-Te    3.86156 A *
  16  20  Te-Te    3.86156 A *
   1   3  Fe-Fe    3.87445 A *
   1   3  Fe-Fe    3.87445 A  
   2   5  Fe-Fe    3.87445 A *
   2   5  Fe-Fe    3.87445 A  
   1   2  Fe-Fe    3.87445 A *
   1   2  Fe-Fe    3.87445 A  
   1   5  Fe-Fe    3.87445 A *
   1   5  Fe-Fe    3.87445 A  
   2   3  Fe-Fe    3.87445 A *
   2   3  Fe-Fe    3.87445 A *
   3   5  Fe-Fe    3.87445 A *
   3   5  Fe-Fe    3.87445 A  
   7  15  Te-Te    3.87489 A *
  10  18  Te-Te    3.87489 A *
  15  19  Te-Te    3.87489 A *
   6  10  Te-Te    3.87489 A *
  12  20  Te-Te    3.87492 A *
   9  17  Te-Te    3.87492 A *
   8  12  Te-Te    3.87492 A *
  17  21  Te-Te    3.87492 A *
  10  14  Te-Te    3.87494 A *
  11  15  Te-Te    3.87494 A *
  10  14  Te-Te    3.87494 A *
  11  15  Te-Te    3.87494 A *
  12  16  Te-Te    3.87496 A *
  13  17  Te-Te    3.87496 A *
  12  16  Te-Te    3.87496 A *
  13  17  Te-Te    3.87496 A *
   7  15  Te-Te    3.87499 A  
  10  18  Te-Te    3.87499 A  
   6  10  Te-Te    3.87499 A  
  15  19  Te-Te    3.87499 A  
   9  17  Te-Te    3.87501 A  
  12  20  Te-Te    3.87501 A  
   8  12  Te-Te    3.87501 A  
  17  21  Te-Te    3.87501 A  
  25  29  Zr-Zr    3.87515 A *
  24  28  Zr-Zr    3.87515 A  
  26  28  Zr-Zr    3.87515 A *
  27  29  Zr-Zr    3.87515 A  
  22  28  Zr-Zr    3.87515 A *
  23  29  Zr-Zr    3.87515 A  
  22  28  Zr-Zr    3.87515 A  
  23  29  Zr-Zr    3.87515 A *
  24  28  Zr-Zr    3.87515 A *
  25  29  Zr-Zr    3.87515 A  
  26  28  Zr-Zr    3.87515 A  
  27  29  Zr-Zr    3.87515 A *
  13  21  Te-Te    3.88734 A  
   8  16  Te-Te    3.88734 A  
  16  20  Te-Te    3.88734 A  
   9  13  Te-Te    3.88734 A  
   9  21  Te-Te    3.88738 A  
   8  20  Te-Te    3.88738 A  
   6  18  Te-Te    3.91568 A *
   7  19  Te-Te    3.91568 A *
   6  14  Te-Te    3.91574 A *
  11  19  Te-Te    3.91574 A *
   7  11  Te-Te    3.91574 A *
  14  18  Te-Te    3.91574 A *
  24  26  Zr-Zr    3.98237 A *
  25  27  Zr-Zr    3.98237 A *
  22  26  Zr-Zr    3.98237 A *
  23  27  Zr-Zr    3.98237 A  
  23  25  Zr-Zr    3.98237 A *
  22  24  Zr-Zr    3.98237 A  
   6  17  Te-Te    4.30089 A *
  12  19  Te-Te    4.30089 A *
  17  18  Te-Te    4.30089 A *
   7  12  Te-Te    4.30089 A *
  11  12  Te-Te    4.30092 A  
  14  17  Te-Te    4.30092 A *
  18  21  Te-Te    4.33783 A *
   7   8  Te-Te    4.33783 A  
   6   9  Te-Te    4.33783 A *
  19  20  Te-Te    4.33783 A  
   9  14  Te-Te    4.33786 A *
  11  20  Te-Te    4.33786 A  
   8  11  Te-Te    4.33786 A  
  14  21  Te-Te    4.33786 A *
  13  18  Te-Te    4.33788 A *
   7  16  Te-Te    4.33788 A  
   6  13  Te-Te    4.33788 A *
  16  19  Te-Te    4.33788 A  
  10  21  Te-Te    4.38688 A *
   8  15  Te-Te    4.38688 A *
   9  10  Te-Te    4.38688 A *
  15  20  Te-Te    4.38688 A *
  10  13  Te-Te    4.38692 A *
  15  16  Te-Te    4.38692 A  
   3   8  Fe-Te    4.64380 A *
   3  21  Fe-Te    4.64380 A *
   2   9  Fe-Te    4.64380 A *
   2  20  Fe-Te    4.64380 A *
   1  13  Fe-Te    4.64381 A *
   1  16  Fe-Te    4.64381 A *
   3  21  Fe-Te    4.65454 A *
   3   8  Fe-Te    4.65454 A  
   2   9  Fe-Te    4.65454 A  
   2  20  Fe-Te    4.65454 A *
   1  13  Fe-Te    4.65455 A *
   1  16  Fe-Te    4.65455 A  
   1  16  Fe-Te    4.65455 A *
   1  13  Fe-Te    4.65455 A  
   2   9  Fe-Te    4.65458 A *
   2  20  Fe-Te    4.65458 A  
   3   8  Fe-Te    4.65458 A *
   3  21  Fe-Te    4.65458 A  
   5  12  Fe-Te    4.66847 A *
   5  17  Fe-Te    4.66847 A *
   5  12  Fe-Te    4.66847 A *
   5  17  Fe-Te    4.66847 A *
   5  12  Fe-Te    4.66850 A  
   5  17  Fe-Te    4.66850 A  
   4  10  Fe-Te    4.68160 A *
   4  15  Fe-Te    4.68160 A *
   4  10  Fe-Te    4.68160 A *
   4  15  Fe-Te    4.68160 A *
   4  10  Fe-Te    4.68164 A  
   4  15  Fe-Te    4.68164 A  
   7  25  Te-Zr    4.78441 A  
  18  24  Te-Zr    4.78441 A *
  19  27  Te-Zr    4.78441 A *
   6  26  Te-Zr    4.78441 A  
  11  23  Te-Zr    4.78443 A *
  14  22  Te-Zr    4.78443 A  
  11  23  Te-Zr    4.78443 A  
  14  22  Te-Zr    4.78443 A *
   7  25  Te-Zr    4.78446 A *
  18  24  Te-Zr    4.78446 A  
   6  26  Te-Zr    4.78446 A *
  19  27  Te-Zr    4.78446 A  
   8  27  Te-Zr    4.80346 A *
  21  26  Te-Zr    4.80346 A *
   9  24  Te-Zr    4.80346 A *
  20  25  Te-Zr    4.80346 A *
  13  22  Te-Zr    4.80348 A *
  16  23  Te-Zr    4.80348 A *
  12  29  Te-Zr    4.82828 A *
  17  28  Te-Zr    4.82828 A *
  12  29  Te-Zr    4.82828 A *
  17  28  Te-Zr    4.82828 A *
  17  28  Te-Zr    4.82832 A *
  12  29  Te-Zr    4.82832 A  
  10  28  Te-Zr    4.86043 A *
  15  29  Te-Zr    4.86043 A *
  15  29  Te-Zr    4.86043 A *
  10  28  Te-Zr    4.86043 A *
  15  29  Te-Zr    4.86047 A  
  10  28  Te-Zr    4.86047 A  
  21  26  Te-Zr    4.89993 A *
   8  27  Te-Zr    4.89993 A  
   9  24  Te-Zr    4.89993 A *
  20  25  Te-Zr    4.89993 A *
  13  22  Te-Zr    4.89996 A *
  16  23  Te-Zr    4.89996 A  
  16  23  Te-Zr    4.89996 A *
  13  22  Te-Zr    4.89996 A *
   9  24  Te-Zr    4.89997 A *
  20  25  Te-Zr    4.89997 A  
   8  27  Te-Zr    4.89997 A *
  21  26  Te-Zr    4.89997 A *
   6  26  Te-Zr    4.90375 A *
  19  27  Te-Zr    4.90375 A *
   7  25  Te-Zr    4.90375 A *
  18  24  Te-Zr    4.90375 A *
  11  23  Te-Zr    4.90376 A *
  14  22  Te-Zr    4.90376 A *
  13  29  Te-Zr    4.95822 A  
  16  28  Te-Zr    4.95822 A *
  21  29  Te-Zr    4.95824 A  
   8  28  Te-Zr    4.95824 A *
   9  29  Te-Zr    4.95824 A  
  20  28  Te-Zr    4.95824 A *
   3  24  Fe-Zr    4.97665 A *
   3  25  Fe-Zr    4.97665 A *
   2  26  Fe-Zr    4.97665 A *
   2  27  Fe-Zr    4.97665 A *
   1  26  Fe-Zr    4.97665 A *
   1  27  Fe-Zr    4.97665 A *
   1  24  Fe-Zr    4.97665 A *
   1  25  Fe-Zr    4.97665 A  
   3  22  Fe-Zr    4.97665 A *
   3  23  Fe-Zr    4.97665 A *
   2  22  Fe-Zr    4.97665 A *
   2  23  Fe-Zr    4.97665 A  
   2  28  Fe-Zr    4.99327 A *
   2  29  Fe-Zr    4.99327 A *
   3  28  Fe-Zr    4.99327 A *
   3  29  Fe-Zr    4.99327 A  
   1  28  Fe-Zr    4.99327 A *
   1  28  Fe-Zr    4.99327 A *
   1  29  Fe-Zr    4.99327 A *
   1  29  Fe-Zr    4.99327 A  
   2  28  Fe-Zr    4.99328 A *
   2  29  Fe-Zr    4.99328 A  
   3  28  Fe-Zr    4.99328 A *
   3  29  Fe-Zr    4.99328 A *
  13  25  Te-Zr    5.00258 A  
  16  24  Te-Zr    5.00258 A *
  13  27  Te-Zr    5.00258 A *
  16  26  Te-Zr    5.00258 A *
  20  22  Te-Zr    5.00260 A *
   9  23  Te-Zr    5.00260 A  
   8  22  Te-Zr    5.00260 A *
  21  23  Te-Zr    5.00260 A *
   9  27  Te-Zr    5.00261 A  
  20  26  Te-Zr    5.00261 A *
   8  24  Te-Zr    5.00261 A *
  21  25  Te-Zr    5.00261 A *
   5  24  Fe-Zr    5.01848 A *
   5  25  Fe-Zr    5.01848 A *
   5  26  Fe-Zr    5.01848 A *
   5  27  Fe-Zr    5.01848 A  
   5  24  Fe-Zr    5.01848 A *
   5  25  Fe-Zr    5.01848 A  
   5  27  Fe-Zr    5.01848 A *
   5  26  Fe-Zr    5.01848 A *
   5  22  Fe-Zr    5.01849 A *
   5  23  Fe-Zr    5.01849 A  
   5  22  Fe-Zr    5.01849 A *
   5  23  Fe-Zr    5.01849 A *
  12  22  Te-Zr    5.01863 A *
  17  23  Te-Zr    5.01863 A *
  12  26  Te-Zr    5.01863 A *
  17  27  Te-Zr    5.01863 A  
  12  24  Te-Zr    5.01863 A *
  17  25  Te-Zr    5.01863 A *
   4  22  Fe-Zr    5.05084 A *
   4  23  Fe-Zr    5.05084 A  
   4  22  Fe-Zr    5.05084 A  
   4  23  Fe-Zr    5.05084 A *
   4  24  Fe-Zr    5.05084 A  
   4  25  Fe-Zr    5.05084 A *
   4  26  Fe-Zr    5.05084 A *
   4  27  Fe-Zr    5.05084 A  
   4  24  Fe-Zr    5.05084 A *
   4  25  Fe-Zr    5.05084 A  
   4  27  Fe-Zr    5.05084 A *
   4  26  Fe-Zr    5.05084 A  
   1  26  Fe-Zr    5.05997 A *
   1  27  Fe-Zr    5.05997 A  
   1  25  Fe-Zr    5.05997 A *
   1  24  Fe-Zr    5.05997 A *
   2  26  Fe-Zr    5.05997 A *
   2  27  Fe-Zr    5.05997 A *
   3  25  Fe-Zr    5.05997 A *
   3  24  Fe-Zr    5.05997 A *
   3  22  Fe-Zr    5.05997 A *
   3  23  Fe-Zr    5.05997 A  
   2  22  Fe-Zr    5.05997 A *
   2  23  Fe-Zr    5.05997 A *
   9  20  Te-Te    5.13944 A *
   8  21  Te-Te    5.13944 A *
  13  16  Te-Te    5.13946 A *
  13  16  Te-Te    5.13946 A *
   8  21  Te-Te    5.13951 A *
   9  20  Te-Te    5.13951 A *
  13  16  Te-Te    5.15886 A  
   8  21  Te-Te    5.15890 A  
   9  20  Te-Te    5.15890 A  
  10  23  Te-Zr    5.15956 A *
  15  22  Te-Zr    5.15956 A *
  15  26  Te-Zr    5.15959 A  
  10  27  Te-Zr    5.15959 A *
  10  25  Te-Zr    5.15959 A  
  15  24  Te-Zr    5.15959 A *
   7  22  Te-Zr    5.17546 A  
  18  23  Te-Zr    5.17546 A *
  19  22  Te-Zr    5.17546 A *
   6  23  Te-Zr    5.17546 A  
  14  25  Te-Zr    5.17547 A *
  11  24  Te-Zr    5.17547 A  
  14  27  Te-Zr    5.17547 A  
  11  26  Te-Zr    5.17547 A *
   6  25  Te-Zr    5.17549 A  
  19  24  Te-Zr    5.17549 A *
   7  26  Te-Zr    5.17549 A  
  18  27  Te-Zr    5.17549 A *
  11  28  Te-Zr    5.20842 A  
  14  29  Te-Zr    5.20842 A  
  19  28  Te-Zr    5.20844 A  
   6  29  Te-Zr    5.20844 A  
   7  28  Te-Zr    5.20844 A  
  18  29  Te-Zr    5.20844 A  
  12  17  Te-Te    5.20892 A *
  12  17  Te-Te    5.20898 A *
  12  17  Te-Te    5.20898 A *
  10  15  Te-Te    5.25585 A *
  10  15  Te-Te    5.25592 A *
  10  15  Te-Te    5.25592 A *
  11  14  Te-Te    5.27624 A  
   6  19  Te-Te    5.27627 A  
   7  18  Te-Te    5.27627 A  
   7  18  Te-Te    5.33648 A *
   6  19  Te-Te    5.33648 A *
  11  14  Te-Te    5.33653 A *
  11  14  Te-Te    5.33653 A *
   6  19  Te-Te    5.33656 A *
   7  18  Te-Te    5.33656 A *
   5   6  Fe-Te    5.46129 A *
   5  19  Fe-Te    5.46129 A  
   5  18  Fe-Te    5.46129 A *
   5   7  Fe-Te    5.46129 A  
   5  11  Fe-Te    5.46129 A  
   5  14  Fe-Te    5.46129 A *
   1  18  Fe-Te    5.47590 A *
   1   7  Fe-Te    5.47590 A  
   1   6  Fe-Te    5.47590 A *
   1  19  Fe-Te    5.47590 A *
   2  11  Fe-Te    5.47592 A  
   2  14  Fe-Te    5.47592 A *
   3  11  Fe-Te    5.47592 A *
   3  14  Fe-Te    5.47592 A *
   2   6  Fe-Te    5.47592 A *
   2  19  Fe-Te    5.47592 A *
   3   7  Fe-Te    5.47592 A  
   3  18  Fe-Te    5.47592 A *
   1  10  Fe-Te    5.52278 A *
   1  15  Fe-Te    5.52278 A *
   3  10  Fe-Te    5.52280 A *
   3  15  Fe-Te    5.52280 A  
   2  10  Fe-Te    5.52280 A *
   2  15  Fe-Te    5.52280 A *
   4  21  Fe-Te    5.62456 A *
   4   8  Fe-Te    5.62456 A  
   4   9  Fe-Te    5.62456 A *
   4  20  Fe-Te    5.62456 A  
   4  16  Fe-Te    5.62458 A  
   4  13  Fe-Te    5.62458 A *
   6  21  Te-Te    5.80671 A *
   8  19  Te-Te    5.80671 A  
   9  18  Te-Te    5.80671 A *
   7  20  Te-Te    5.80671 A  
  11  16  Te-Te    5.80672 A  
  13  14  Te-Te    5.80672 A *
  10  17  Te-Te    5.81547 A *
  12  15  Te-Te    5.81547 A *
  10  17  Te-Te    5.81553 A *
  12  15  Te-Te    5.81553 A *
  10  17  Te-Te    5.81553 A *
  12  15  Te-Te    5.81553 A *
   7  20  Te-Te    5.82557 A *
   9  18  Te-Te    5.82557 A *
   6  21  Te-Te    5.82557 A *
   8  19  Te-Te    5.82557 A *
  11  16  Te-Te    5.82563 A *
  13  14  Te-Te    5.82563 A *
  11  16  Te-Te    5.82563 A *
  13  14  Te-Te    5.82563 A *
   6  21  Te-Te    5.82563 A *
   8  19  Te-Te    5.82563 A *
   9  18  Te-Te    5.82563 A *
   7  20  Te-Te    5.82563 A *

Nearest neighbors for each atom (up to 4)

 atom   1 species Fe : neighbors at    2.570   2.570   2.570   2.570 A
         d(center): 9.643 A  angles  :   180.0    82.6    97.4    97.4    82.6   180.0
 atom   2 species Fe : neighbors at    2.570   2.570   2.570   2.570 A
         d(center):10.392 A  angles  :   180.0    82.6    97.4    97.4    82.6   180.0
 atom   3 species Fe : neighbors at    2.570   2.570   2.570   2.570 A
         d(center):10.392 A  angles  :   180.0    97.4    82.6    82.6    97.4   180.0
 atom   4 species Fe : neighbors at    2.638   2.638   2.638   2.638 A
         d(center): 5.034 A  angles  :   180.0    86.8    93.2    93.2    86.8   180.0
 atom   5 species Fe : neighbors at    2.579   2.579   2.579   2.579 A
         d(center):10.392 A  angles  :   180.0    97.8    82.2    82.2    97.8   180.0
 atom   6 species Te : neighbors at    2.638   2.880   2.907   2.907 A
         d(center): 2.867 A  angles  :    72.8   131.2   131.2    84.1    84.1    86.5
 atom   7 species Te : neighbors at    2.638   2.880   2.907   2.907 A
         d(center): 5.166 A  angles  :    72.8   131.2   131.2    84.1    84.1    86.5
 atom   8 species Te : neighbors at    2.570   2.570   2.579   2.920 A
         d(center): 8.664 A  angles  :    97.9    97.6    70.7    97.6   129.9   131.6
 atom   9 species Te : neighbors at    2.570   2.570   2.579   2.920 A
         d(center):11.141 A  angles  :    97.9    97.6    70.7    97.6   129.9   131.6
 atom  10 species Te : neighbors at    2.862   2.862   2.862   3.611 A
         d(center): 6.196 A  angles  :    82.3    82.3   105.6    82.3   169.3   105.6
 atom  11 species Te : neighbors at    2.638   2.880   2.907   2.907 A
         d(center): 6.445 A  angles  :    72.8   131.2   131.2    84.1    84.1    86.5
 atom  12 species Te : neighbors at    2.604   2.604   2.604   2.954 A
         d(center):10.201 A  angles  :    96.1    96.1    69.7    96.1   131.0   131.0
 atom  13 species Te : neighbors at    2.570   2.570   2.579   2.920 A
         d(center):11.797 A  angles  :    97.9    97.6    70.7    97.6   129.9   131.6
 atom  14 species Te : neighbors at    2.638   2.880   2.907   2.907 A
         d(center): 4.803 A  angles  :    72.8   131.2   131.2    84.1    84.1    86.5
 atom  15 species Te : neighbors at    2.862   2.862   2.862   3.611 A
         d(center): 7.492 A  angles  :    82.3    82.3   105.6    82.3   169.3   105.6
 atom  16 species Te : neighbors at    2.570   2.570   2.579   2.920 A
         d(center): 9.494 A  angles  :    97.9    97.6    70.7    97.6   129.9   131.6
 atom  17 species Te : neighbors at    2.604   2.604   2.604   2.954 A
         d(center):12.471 A  angles  :    96.1    96.1    69.7    96.1   131.0   131.0
 atom  18 species Te : neighbors at    2.638   2.880   2.907   2.907 A
         d(center): 6.158 A  angles  :    72.8   131.2   131.2    84.1    84.1    86.5
 atom  19 species Te : neighbors at    2.638   2.880   2.907   2.907 A
         d(center): 7.509 A  angles  :    72.8   131.2   131.2    84.1    84.1    86.5
 atom  20 species Te : neighbors at    2.570   2.570   2.579   2.920 A
         d(center):10.257 A  angles  :    97.9    97.6    70.7    97.6   129.9   131.6
 atom  21 species Te : neighbors at    2.570   2.570   2.579   2.920 A
         d(center):12.419 A  angles  :    97.9    97.6    70.7    97.6   129.9   131.6
 atom  22 species Zr : neighbors at    2.862   2.907   2.907   2.920 A
         d(center): 0.067 A  angles  :    84.4    84.4    98.7    84.7   176.9    96.2
 atom  23 species Zr : neighbors at    2.862   2.907   2.907   2.920 A
         d(center): 6.454 A  angles  :    84.4    84.4    98.7    84.7   176.9    96.2
 atom  24 species Zr : neighbors at    2.862   2.907   2.907   2.920 A
         d(center): 3.929 A  angles  :    84.4    84.4    98.7    84.7    96.2   176.9
 atom  25 species Zr : neighbors at    2.862   2.907   2.907   2.920 A
         d(center): 7.500 A  angles  :    84.4    84.4    98.7    84.7    96.2   176.9
 atom  26 species Zr : neighbors at    2.862   2.907   2.907   2.920 A
         d(center): 3.821 A  angles  :    84.4    84.4    98.7    84.7    96.2   176.9
 atom  27 species Zr : neighbors at    2.862   2.907   2.907   2.920 A
         d(center): 7.556 A  angles  :    84.4    84.4    98.7    84.7    96.2   176.9
 atom  28 species Zr : neighbors at    2.880   2.880   2.880   2.927 A
         d(center): 3.875 A  angles  :    83.4    83.4    96.7    83.4   179.9    96.7
 atom  29 species Zr : neighbors at    2.880   2.880   2.880   2.927 A
         d(center): 7.561 A  angles  :    83.4    83.4    96.7    83.4   179.9    96.7
