\relax 
\providecommand\hyper@newdestlabel[2]{}
\providecommand\HyperFirstAtBeginDocument{\AtBeginDocument}
\HyperFirstAtBeginDocument{\ifx\hyper@anchor\@undefined
\global\let\oldcontentsline\contentsline
\gdef\contentsline#1#2#3#4{\oldcontentsline{#1}{#2}{#3}}
\global\let\oldnewlabel\newlabel
\gdef\newlabel#1#2{\newlabelxx{#1}#2}
\gdef\newlabelxx#1#2#3#4#5#6{\oldnewlabel{#1}{{#2}{#3}}}
\AtEndDocument{\ifx\hyper@anchor\@undefined
\let\contentsline\oldcontentsline
\let\newlabel\oldnewlabel
\fi}
\fi}
\global\let\hyper@last\relax 
\gdef\HyperFirstAtBeginDocument#1{#1}
\providecommand\HyField@AuxAddToFields[1]{}
\providecommand\HyField@AuxAddToCoFields[2]{}
\citation{chhowalla2013,manzeli2017}
\citation{novoselov2005}
\citation{podzorov2004,radisavljevic2011,xiao2012,zhang2014,mak2014}
\citation{lopez2013}
\citation{miao2021}
\citation{lucatto2019}
\citation{whittingham2004}
\citation{voiry2016}
\citation{lee2010}
\citation{kar2020}
\citation{kar2020}
\citation{tian2020}
\citation{correa2022}
\citation{ou2021}
\citation{suen2021}
\citation{wang2019}
\citation{pincheira2020}
\citation{da2020}
\citation{machado2017}
\citation{correa2022}
\citation{correa2022}
\citation{ren2021}
\citation{morozova2021}
\citation{zhang2020}
\citation{zhang2020}
\newlabel{FirstPage}{{}{1}{}{section*.1}{}}
\@writefile{toc}{\contentsline {title}{Structural, electronic, and thermodynamic properties of intercalated transition metal dichalcogenide ZrTe$_2$ from ab initio statistical thermodynamic models}{1}{section*.2}\protected@file@percent }
\@writefile{toc}{\contentsline {abstract}{Abstract}{1}{section*.1}\protected@file@percent }
\@writefile{toc}{\contentsline {section}{\numberline {I}Introduction}{1}{section*.3}\protected@file@percent }
\citation{sher1987}
\@writefile{toc}{\contentsline {section}{\numberline {II}Methodology}{2}{section*.4}\protected@file@percent }
\newlabel{sec:methods}{{II}{2}{}{section*.4}{}}
\@writefile{toc}{\contentsline {subsection}{\numberline {A}Generalized Quasichemical Approximation}{2}{section*.5}\protected@file@percent }
\newlabel{sec:gqca}{{II\,A}{2}{}{section*.5}{}}
\newlabel{eq:M}{{1}{2}{}{equation.2.1}{}}
\newlabel{eq:x_j}{{2}{2}{}{equation.2.2}{}}
\@writefile{lot}{\contentsline {table}{\numberline {I}{\ignorespaces The 22 symmetrically-independent cluster classes of M$_x$ZrTe$_2$ alloys for trigonal 8-atom supercells. The "M atom'' column indicates the spatial configuration of the intercalating species for each $j$ class. The site label it's found in Fig.\nobreakspace  {}\ref  {fig:cell}.}}{2}{table.1}\protected@file@percent }
\newlabel{tab:GQCA}{{I}{2}{The 22 symmetrically-independent cluster classes of M$_x$ZrTe$_2$ alloys for trigonal 8-atom supercells. The "M atom'' column indicates the spatial configuration of the intercalating species for each $j$ class. The site label it's found in Fig.~\ref {fig:cell}}{table.1}{}}
\newlabel{eq:normalization}{{3}{2}{}{equation.2.3}{}}
\newlabel{eq:average}{{4}{2}{}{equation.2.4}{}}
\newlabel{eq:delta_U_2}{{5}{2}{}{equation.2.5}{}}
\newlabel{eq:delta_S}{{7}{2}{}{equation.2.7}{}}
\newlabel{eq:W}{{8}{2}{}{equation.2.8}{}}
\citation{kullback1951}
\citation{chen1995,teles2000,guilhon2015,guilhon2017}
\bibdata{first-draftNotes,refs}
\bibcite{chhowalla2013}{{1}{2013}{{Chhowalla\ \emph  {et~al.}}}{{Chhowalla, Shin, Eda, Li, Loh,\ and\ Zhang}}}
\newlabel{eq:xj}{{12}{3}{}{equation.2.12}{}}
\@writefile{toc}{\contentsline {subsection}{\numberline {B}Crystal Orbital Hamilton Populations}{3}{section*.6}\protected@file@percent }
\@writefile{toc}{\contentsline {subsection}{\numberline {C}Computational methods}{3}{section*.7}\protected@file@percent }
\@writefile{toc}{\contentsline {section}{\numberline {III}Results and Discussion}{3}{section*.8}\protected@file@percent }
\@writefile{toc}{\contentsline {section}{\numberline {IV}Conclusions}{3}{section*.9}\protected@file@percent }
\@writefile{toc}{\contentsline {section}{\numberline {}Author Contributions}{3}{section*.10}\protected@file@percent }
\@writefile{toc}{\contentsline {section}{\numberline {}Acknowledments}{3}{section*.11}\protected@file@percent }
\bibcite{manzeli2017}{{2}{2017}{{Manzeli\ \emph  {et~al.}}}{{Manzeli, Ovchinnikov, Pasquier, Yazyev,\ and\ Kis}}}
\bibcite{novoselov2005}{{3}{2005}{{Novoselov\ \emph  {et~al.}}}{{Novoselov, Jiang, Schedin, Booth, Khotkevich, Morozov,\ and\ Geim}}}
\bibcite{podzorov2004}{{4}{2004}{{Podzorov\ \emph  {et~al.}}}{{Podzorov, Gershenson, Kloc, Zeis,\ and\ Bucher}}}
\bibcite{radisavljevic2011}{{5}{2011}{{Radisavljevic\ \emph  {et~al.}}}{{Radisavljevic, Radenovic, Brivio, Giacometti,\ and\ Kis}}}
\bibcite{xiao2012}{{6}{2012}{{Xiao\ \emph  {et~al.}}}{{Xiao, Liu, Feng, Xu,\ and\ Yao}}}
\bibcite{zhang2014}{{7}{2014}{{Zhang\ \emph  {et~al.}}}{{Zhang, Oka, Suzuki, Ye,\ and\ Iwasa}}}
\bibcite{mak2014}{{8}{2014}{{Mak\ \emph  {et~al.}}}{{Mak, McGill, Park,\ and\ McEuen}}}
\bibcite{lopez2013}{{9}{2013}{{Lopez-Sanchez\ \emph  {et~al.}}}{{Lopez-Sanchez, Lembke, Kayci, Radenovic,\ and\ Kis}}}
\bibcite{miao2021}{{10}{2021}{{Miao\ \emph  {et~al.}}}{{Miao, Liang,\ and\ Cheng}}}
\bibcite{lucatto2019}{{11}{2019}{{Lucatto\ \emph  {et~al.}}}{{Lucatto, Koda, Bechstedt, Marques,\ and\ Teles}}}
\bibcite{whittingham2004}{{12}{2004}{{Whittingham}}{{}}}
\bibcite{voiry2016}{{13}{2016}{{Voiry\ \emph  {et~al.}}}{{Voiry, Yang,\ and\ Chhowalla}}}
\bibcite{lee2010}{{14}{2010}{{Lee\ \emph  {et~al.}}}{{Lee, Li, Kalb, Liu, Berger, Carpick,\ and\ Hone}}}
\bibcite{kar2020}{{15}{2020}{{Kar\ \emph  {et~al.}}}{{Kar, Chatterjee, Harnagea, Kushnirenko, Fedorov, Shrivastava, B{\"u}chner, Mahadevan,\ and\ Thirupathaiah}}}
\bibcite{tian2020}{{16}{2020}{{Tian\ \emph  {et~al.}}}{{Tian, Ghassemi,\ and\ Ross~Jr}}}
\bibcite{correa2022}{{17}{2022}{{Correa\ \emph  {et~al.}}}{{Correa, Ferreira, de~Faria, Dorini, da~Luz, Fisk, Torikachvili, Eleno,\ and\ Machado}}}
\bibcite{ou2021}{{18}{2021}{{Ou\ \emph  {et~al.}}}{{Ou, Yanez, Xiao, Stanley, Ghosh, Zheng, Huang, Pillsbury, Richardella, Liu \emph  {et~al.}}}}
\bibcite{suen2021}{{19}{2021}{{Suen\ \emph  {et~al.}}}{{Suen, Cai, Li, Zhang, Yang, Wang, He, Chai, Zhou, Wong \emph  {et~al.}}}}
\bibcite{wang2019}{{20}{2019}{{Wang\ \emph  {et~al.}}}{{Wang, Chan, Suen, Lau,\ and\ Dai}}}
\bibcite{pincheira2020}{{21}{2020}{{Pincheira\ \emph  {et~al.}}}{{Pincheira, da~Silva~Neto, Maldonado, de~Ara{\'u}jo, Jawaid, Busch, Ritter, Vaia,\ and\ Gomes}}}
\bibcite{da2020}{{22}{2020}{{da~Silva-Neto\ \emph  {et~al.}}}{{da~Silva-Neto, Barbosa-Silva, de~Ara{\'u}jo, de~Matos, Jawaid, Ritter, Vaia,\ and\ Gomes}}}
\bibcite{machado2017}{{23}{2017}{{Machado\ \emph  {et~al.}}}{{Machado, Baptista, De~Lima, Chaia, Grant, Corr{\^e}a, Renosto, Scaramussa, Jardim, Torikachvili \emph  {et~al.}}}}
\bibcite{ren2021}{{24}{2021}{{Ren\ \emph  {et~al.}}}{{Ren, Han, Fan, Li, Wang, Zheng, Zhang, Ma, Xue,\ and\ Song}}}
\bibcite{morozova2021}{{25}{2021}{{Morozova\ \emph  {et~al.}}}{{Morozova, Korobeynikov, Shkvarina, Titov, Titov,\ and\ Ovsyannikov}}}
\bibcite{zhang2020}{{26}{2020}{{Zhang\ \emph  {et~al.}}}{{Zhang, Muhammad, Wang, Cui, Li, Wang, Wu, Liu, Zhu, Liu \emph  {et~al.}}}}
\bibcite{sher1987}{{27}{1987}{{Sher\ \emph  {et~al.}}}{{Sher, van Schilfgaarde, Chen,\ and\ Chen}}}
\bibcite{kullback1951}{{28}{1951}{{Kullback\ and\ Leibler}}{{}}}
\bibcite{chen1995}{{29}{1995}{{Chen\ and\ Sher}}{{}}}
\bibcite{teles2000}{{30}{2000}{{Teles\ \emph  {et~al.}}}{{Teles, Furthm{\"u}ller, Scolfaro, Leite,\ and\ Bechstedt}}}
\bibcite{guilhon2015}{{31}{2015}{{Guilhon\ \emph  {et~al.}}}{{Guilhon, Teles, Marques, Pel{\'a},\ and\ Bechstedt}}}
\bibcite{guilhon2017}{{32}{2017}{{Guilhon\ \emph  {et~al.}}}{{Guilhon, Bechstedt, Botti, Marques,\ and\ Teles}}}
\bibstyle{apsrev4-1}
\@writefile{toc}{\contentsline {section}{\numberline {}References}{4}{section*.12}\protected@file@percent }
\newlabel{LastBibItem}{{32}{4}{}{section*.12}{}}
\@writefile{lof}{\contentsline {figure}{\numberline {1}{\ignorespaces Lattice parameters}}{5}{figure.1}\protected@file@percent }
\newlabel{fig:lat-par}{{1}{5}{Lattice parameters}{figure.1}{}}
\@writefile{lof}{\contentsline {figure}{\numberline {2}{\ignorespaces Helmholtz free energy}}{6}{figure.2}\protected@file@percent }
\newlabel{fig:stability}{{2}{6}{Helmholtz free energy}{figure.2}{}}
\newlabel{LastPage}{{}{6}{}{}{}}
\gdef \@abspage@last{6}
