Distances between atoms, up to dmax=  6.00 A   (* = with lattice translation)
  #1  #2   bond       d
   1  19  Co-Te    2.59544 A *
   1   7  Co-Te    2.59544 A  
   2  15  Co-Te    2.59545 A *
   3  15  Co-Te    2.59545 A  
   3  19  Co-Te    2.59546 A *
   2   7  Co-Te    2.59546 A  
   1  11  Co-Te    2.59547 A *
   3  11  Co-Te    2.59548 A *
   2  11  Co-Te    2.59548 A  
   4   7  Co-Te    2.59548 A  
   4  19  Co-Te    2.59548 A  
   4  15  Co-Te    2.59548 A  
   1   8  Co-Te    2.59549 A  
   1  20  Co-Te    2.59549 A *
   2  20  Co-Te    2.59549 A *
   3   8  Co-Te    2.59549 A  
   4  20  Co-Te    2.59550 A  
   4   8  Co-Te    2.59550 A  
   2  12  Co-Te    2.59550 A  
   3  12  Co-Te    2.59550 A *
   1  16  Co-Te    2.59550 A *
   4  12  Co-Te    2.59551 A  
   3  16  Co-Te    2.59551 A  
   2  16  Co-Te    2.59551 A *
  18  24  Te-Zr    2.88405 A *
   6  26  Te-Zr    2.88405 A  
  17  25  Te-Zr    2.88405 A *
   5  23  Te-Zr    2.88405 A  
  10  24  Te-Zr    2.88405 A  
  10  26  Te-Zr    2.88405 A *
  13  23  Te-Zr    2.88406 A *
  13  25  Te-Zr    2.88406 A  
   6  22  Te-Zr    2.88406 A  
  18  22  Te-Zr    2.88406 A *
  18  28  Te-Zr    2.88406 A  
   6  28  Te-Zr    2.88406 A  
  14  26  Te-Zr    2.88406 A  
  14  24  Te-Zr    2.88406 A *
  10  28  Te-Zr    2.88407 A  
   9  25  Te-Zr    2.88407 A *
   9  23  Te-Zr    2.88407 A  
  17  21  Te-Zr    2.88407 A *
   5  21  Te-Zr    2.88407 A  
  14  22  Te-Zr    2.88407 A *
   5  27  Te-Zr    2.88408 A  
  17  27  Te-Zr    2.88408 A  
   9  21  Te-Zr    2.88409 A *
  13  27  Te-Zr    2.88409 A  
  15  28  Te-Zr    2.93045 A  
   7  28  Te-Zr    2.93046 A  
  19  28  Te-Zr    2.93046 A  
  11  22  Te-Zr    2.93046 A *
  15  24  Te-Zr    2.93047 A *
  15  26  Te-Zr    2.93047 A  
  19  22  Te-Zr    2.93047 A *
   7  22  Te-Zr    2.93047 A  
  12  27  Te-Zr    2.93047 A *
  11  26  Te-Zr    2.93048 A *
  11  24  Te-Zr    2.93048 A  
  19  26  Te-Zr    2.93048 A *
   7  24  Te-Zr    2.93048 A  
  16  21  Te-Zr    2.93048 A *
  20  27  Te-Zr    2.93049 A *
   8  27  Te-Zr    2.93049 A *
   8  21  Te-Zr    2.93049 A *
  20  21  Te-Zr    2.93049 A *
  12  23  Te-Zr    2.93049 A *
  12  25  Te-Zr    2.93049 A *
  16  25  Te-Zr    2.93050 A *
  16  23  Te-Zr    2.93050 A *
  20  23  Te-Zr    2.93051 A *
   8  25  Te-Zr    2.93051 A *
   4  28  Co-Zr    3.21060 A  
   2  24  Co-Zr    3.21061 A  
   3  26  Co-Zr    3.21061 A  
   1  22  Co-Zr    3.21062 A  
   4  27  Co-Zr    3.21065 A *
   1  21  Co-Zr    3.21073 A *
   2  23  Co-Zr    3.21075 A *
   3  25  Co-Zr    3.21075 A *
   7   8  Te-Te    3.45547 A  
  19  20  Te-Te    3.45547 A  
  11  20  Te-Te    3.45547 A *
   8  11  Te-Te    3.45547 A *
   7  16  Te-Te    3.45547 A *
  16  19  Te-Te    3.45547 A *
   8  15  Te-Te    3.45549 A  
  15  20  Te-Te    3.45549 A  
  12  19  Te-Te    3.45549 A  
   7  12  Te-Te    3.45549 A  
  11  12  Te-Te    3.45549 A  
  15  16  Te-Te    3.45550 A  
  13  14  Te-Te    3.78463 A  
   5  14  Te-Te    3.78464 A *
  14  17  Te-Te    3.78464 A *
   9  10  Te-Te    3.78464 A  
   9  18  Te-Te    3.78465 A *
   6   9  Te-Te    3.78465 A *
   6  13  Te-Te    3.78466 A  
  13  18  Te-Te    3.78466 A  
  10  17  Te-Te    3.78466 A  
   5  10  Te-Te    3.78466 A  
   5   6  Te-Te    3.78467 A  
  17  18  Te-Te    3.78467 A  
   6  18  Te-Te    3.87368 A  
   8  20  Te-Te    3.87369 A *
  12  20  Te-Te    3.87369 A *
   8  12  Te-Te    3.87369 A *
   7  19  Te-Te    3.87369 A *
   5  17  Te-Te    3.87370 A  
  24  26  Zr-Zr    3.87370 A *
  22  26  Zr-Zr    3.87370 A *
  22  24  Zr-Zr    3.87370 A  
  10  18  Te-Te    3.87370 A  
   6  10  Te-Te    3.87370 A  
  11  19  Te-Te    3.87370 A *
   7  11  Te-Te    3.87370 A *
   6  14  Te-Te    3.87371 A  
  14  18  Te-Te    3.87371 A  
   5  13  Te-Te    3.87371 A  
  13  17  Te-Te    3.87371 A  
  23  25  Zr-Zr    3.87371 A *
   2   3  Co-Co    3.87371 A *
   9  17  Te-Te    3.87371 A  
   5   9  Te-Te    3.87371 A  
  23  27  Zr-Zr    3.87371 A  
  25  27  Zr-Zr    3.87371 A *
   8  16  Te-Te    3.87372 A *
  16  20  Te-Te    3.87372 A *
   7  15  Te-Te    3.87372 A *
  15  19  Te-Te    3.87372 A *
  21  25  Zr-Zr    3.87372 A  
  21  23  Zr-Zr    3.87372 A *
   2   4  Co-Co    3.87372 A *
   3   4  Co-Co    3.87372 A  
   1   3  Co-Co    3.87372 A *
   1   2  Co-Co    3.87372 A  
  24  28  Zr-Zr    3.87373 A *
  26  28  Zr-Zr    3.87373 A  
  11  15  Te-Te    3.87373 A *
  11  15  Te-Te    3.87373 A *
   1   4  Co-Co    3.87373 A *
   1   4  Co-Co    3.87373 A  
  12  16  Te-Te    3.87373 A *
  12  16  Te-Te    3.87373 A *
   9  13  Te-Te    3.87373 A *
   9  13  Te-Te    3.87373 A *
  21  27  Zr-Zr    3.87373 A *
  21  27  Zr-Zr    3.87373 A  
  22  28  Zr-Zr    3.87373 A *
  22  28  Zr-Zr    3.87373 A  
  10  14  Te-Te    3.87373 A *
  10  14  Te-Te    3.87373 A *
  24  28  Zr-Zr    3.87373 A  
  26  28  Zr-Zr    3.87373 A *
   1   3  Co-Co    3.87373 A  
   1   2  Co-Co    3.87373 A *
   2   4  Co-Co    3.87373 A  
   3   4  Co-Co    3.87373 A *
  21  25  Zr-Zr    3.87373 A *
  21  23  Zr-Zr    3.87373 A  
   7  15  Te-Te    3.87374 A  
  15  19  Te-Te    3.87374 A  
   8  16  Te-Te    3.87374 A  
  16  20  Te-Te    3.87374 A  
  23  27  Zr-Zr    3.87374 A *
  25  27  Zr-Zr    3.87374 A  
   9  17  Te-Te    3.87374 A *
   5   9  Te-Te    3.87374 A *
   2   3  Co-Co    3.87374 A *
  23  25  Zr-Zr    3.87374 A *
   5  13  Te-Te    3.87374 A *
  13  17  Te-Te    3.87374 A *
   6  14  Te-Te    3.87375 A *
  14  18  Te-Te    3.87375 A *
  11  19  Te-Te    3.87375 A  
   7  11  Te-Te    3.87375 A  
  10  18  Te-Te    3.87375 A *
   6  10  Te-Te    3.87375 A *
  22  26  Zr-Zr    3.87375 A  
  22  24  Zr-Zr    3.87375 A *
  24  26  Zr-Zr    3.87375 A *
   5  17  Te-Te    3.87376 A *
   7  19  Te-Te    3.87376 A  
  12  20  Te-Te    3.87376 A  
   8  12  Te-Te    3.87376 A  
   8  20  Te-Te    3.87377 A  
   6  18  Te-Te    3.87377 A *
  11  18  Te-Te    4.33586 A *
   6  11  Te-Te    4.33586 A *
   6  15  Te-Te    4.33586 A  
  15  18  Te-Te    4.33586 A  
  10  11  Te-Te    4.33586 A  
   6   7  Te-Te    4.33588 A  
  18  19  Te-Te    4.33588 A  
  10  19  Te-Te    4.33588 A  
   7  10  Te-Te    4.33588 A  
  14  15  Te-Te    4.33590 A  
   5  16  Te-Te    4.33591 A *
  16  17  Te-Te    4.33591 A *
  13  16  Te-Te    4.33591 A *
  12  17  Te-Te    4.33592 A *
   5  12  Te-Te    4.33592 A *
   7  14  Te-Te    4.33592 A *
  14  19  Te-Te    4.33592 A *
   5   8  Te-Te    4.33592 A *
  17  20  Te-Te    4.33592 A *
   8  13  Te-Te    4.33593 A *
  13  20  Te-Te    4.33593 A *
   9  12  Te-Te    4.33593 A *
   9  20  Te-Te    4.33595 A *
   8   9  Te-Te    4.33595 A *
   3   7  Co-Te    4.66283 A *
   2  19  Co-Te    4.66283 A *
   3   7  Co-Te    4.66284 A  
   2  19  Co-Te    4.66284 A *
   1  15  Co-Te    4.66284 A *
   1  12  Co-Te    4.66285 A *
   1  15  Co-Te    4.66286 A  
   1  15  Co-Te    4.66286 A *
   3  20  Co-Te    4.66286 A *
   2   8  Co-Te    4.66286 A *
   4  11  Co-Te    4.66286 A *
   4  11  Co-Te    4.66286 A *
   4  16  Co-Te    4.66287 A *
   4  16  Co-Te    4.66287 A *
   2  19  Co-Te    4.66287 A  
   3   7  Co-Te    4.66287 A *
   4  11  Co-Te    4.66288 A  
   4  16  Co-Te    4.66288 A  
   2   8  Co-Te    4.66288 A *
   3  20  Co-Te    4.66288 A  
   2   8  Co-Te    4.66288 A  
   3  20  Co-Te    4.66288 A *
   1  12  Co-Te    4.66288 A *
   1  12  Co-Te    4.66288 A  
   6  24  Te-Zr    4.82941 A *
  18  26  Te-Zr    4.82941 A  
  10  22  Te-Zr    4.82942 A *
  10  22  Te-Zr    4.82942 A  
  17  23  Te-Zr    4.82942 A  
   5  25  Te-Zr    4.82942 A *
   6  24  Te-Zr    4.82943 A  
  18  26  Te-Zr    4.82943 A *
  13  21  Te-Zr    4.82944 A  
  13  21  Te-Zr    4.82944 A *
  17  23  Te-Zr    4.82944 A *
   5  25  Te-Zr    4.82944 A  
  13  21  Te-Zr    4.82946 A *
  10  22  Te-Zr    4.82946 A *
   5  25  Te-Zr    4.82946 A *
  17  23  Te-Zr    4.82946 A *
   9  27  Te-Zr    4.82947 A  
  14  28  Te-Zr    4.82947 A  
  18  26  Te-Zr    4.82947 A *
   6  24  Te-Zr    4.82947 A *
  14  28  Te-Zr    4.82948 A *
  14  28  Te-Zr    4.82948 A *
   9  27  Te-Zr    4.82949 A *
   9  27  Te-Zr    4.82949 A *
  11  28  Te-Zr    4.85727 A *
  11  28  Te-Zr    4.85727 A *
  16  27  Te-Zr    4.85729 A *
  16  27  Te-Zr    4.85729 A *
   7  26  Te-Zr    4.85729 A *
  19  24  Te-Zr    4.85729 A *
  15  22  Te-Zr    4.85729 A *
  11  28  Te-Zr    4.85729 A  
  12  21  Te-Zr    4.85730 A *
  20  25  Te-Zr    4.85730 A *
   8  23  Te-Zr    4.85730 A *
  16  27  Te-Zr    4.85731 A *
   7  26  Te-Zr    4.85732 A  
  19  24  Te-Zr    4.85732 A *
  15  22  Te-Zr    4.85732 A  
  15  22  Te-Zr    4.85732 A *
  20  25  Te-Zr    4.85733 A *
   8  23  Te-Zr    4.85733 A *
  12  21  Te-Zr    4.85733 A *
  12  21  Te-Zr    4.85733 A *
  19  24  Te-Zr    4.85734 A  
   7  26  Te-Zr    4.85734 A *
   8  23  Te-Zr    4.85735 A *
  20  25  Te-Zr    4.85735 A *
   2  28  Co-Zr    5.03124 A *
   3  28  Co-Zr    5.03124 A  
   2  28  Co-Zr    5.03125 A  
   3  28  Co-Zr    5.03125 A *
   1  28  Co-Zr    5.03125 A *
   1  28  Co-Zr    5.03125 A  
   2  26  Co-Zr    5.03127 A *
   3  24  Co-Zr    5.03127 A *
   3  22  Co-Zr    5.03127 A *
   2  22  Co-Zr    5.03127 A  
   1  26  Co-Zr    5.03128 A *
   1  24  Co-Zr    5.03128 A  
   3  22  Co-Zr    5.03129 A  
   2  22  Co-Zr    5.03129 A *
   2  26  Co-Zr    5.03130 A *
   3  24  Co-Zr    5.03130 A *
   1  26  Co-Zr    5.03130 A  
   1  24  Co-Zr    5.03130 A *
   4  24  Co-Zr    5.03130 A *
   4  26  Co-Zr    5.03130 A  
   4  24  Co-Zr    5.03130 A  
   4  26  Co-Zr    5.03130 A *
   4  22  Co-Zr    5.03131 A *
   4  22  Co-Zr    5.03131 A  
   1  27  Co-Zr    5.03132 A *
   1  27  Co-Zr    5.03132 A *
   2  27  Co-Zr    5.03132 A *
   3  27  Co-Zr    5.03132 A *
   2  27  Co-Zr    5.03133 A *
   3  27  Co-Zr    5.03133 A *
   4  21  Co-Zr    5.03134 A *
   4  21  Co-Zr    5.03134 A *
   4  23  Co-Zr    5.03134 A *
   4  25  Co-Zr    5.03134 A *
   4  23  Co-Zr    5.03135 A *
   4  25  Co-Zr    5.03135 A *
   3  21  Co-Zr    5.03136 A *
   2  21  Co-Zr    5.03136 A *
   3  21  Co-Zr    5.03136 A *
   2  21  Co-Zr    5.03136 A *
   1  25  Co-Zr    5.03136 A *
   1  23  Co-Zr    5.03136 A *
   1  25  Co-Zr    5.03136 A *
   1  23  Co-Zr    5.03136 A *
   2  25  Co-Zr    5.03137 A *
   3  23  Co-Zr    5.03137 A *
   2  25  Co-Zr    5.03137 A *
   3  23  Co-Zr    5.03137 A *
  20  28  Te-Zr    5.04991 A  
   8  28  Te-Zr    5.04991 A  
  12  28  Te-Zr    5.04992 A  
   7  27  Te-Zr    5.04993 A *
  19  27  Te-Zr    5.04993 A *
  15  27  Te-Zr    5.04994 A *
   8  22  Te-Zr    5.04994 A  
  20  22  Te-Zr    5.04994 A *
  20  24  Te-Zr    5.04995 A *
   8  26  Te-Zr    5.04995 A  
  12  24  Te-Zr    5.04995 A  
  12  26  Te-Zr    5.04995 A *
  19  21  Te-Zr    5.04996 A *
   7  21  Te-Zr    5.04996 A *
  16  22  Te-Zr    5.04996 A *
  16  26  Te-Zr    5.04997 A  
  16  24  Te-Zr    5.04997 A *
  19  25  Te-Zr    5.04998 A *
   7  23  Te-Zr    5.04998 A *
  11  21  Te-Zr    5.04999 A *
  15  23  Te-Zr    5.04999 A *
  15  25  Te-Zr    5.04999 A *
  11  25  Te-Zr    5.05001 A *
  11  23  Te-Zr    5.05001 A *
   8  19  Te-Te    5.19093 A *
   7  20  Te-Te    5.19093 A *
   8  19  Te-Te    5.19095 A *
   7  20  Te-Te    5.19095 A *
  12  15  Te-Te    5.19095 A *
  12  15  Te-Te    5.19095 A *
  11  16  Te-Te    5.19097 A *
   7  20  Te-Te    5.19098 A  
   8  19  Te-Te    5.19098 A  
  12  15  Te-Te    5.19099 A  
  11  16  Te-Te    5.19099 A *
  11  16  Te-Te    5.19099 A *
  14  25  Te-Zr    5.36268 A  
  14  23  Te-Zr    5.36268 A *
   9  26  Te-Zr    5.36268 A *
   9  24  Te-Zr    5.36268 A  
   9  22  Te-Zr    5.36269 A *
  14  21  Te-Zr    5.36270 A *
   5  24  Te-Zr    5.36271 A  
  17  26  Te-Zr    5.36271 A *
  17  22  Te-Zr    5.36272 A *
   5  22  Te-Zr    5.36272 A  
  13  24  Te-Zr    5.36272 A *
  13  26  Te-Zr    5.36272 A  
  10  23  Te-Zr    5.36273 A  
  10  25  Te-Zr    5.36273 A *
   6  25  Te-Zr    5.36273 A  
  18  23  Te-Zr    5.36273 A *
   6  21  Te-Zr    5.36275 A  
  18  21  Te-Zr    5.36275 A *
   5  28  Te-Zr    5.36276 A  
  17  28  Te-Zr    5.36276 A  
  13  28  Te-Zr    5.36276 A  
  10  27  Te-Zr    5.36278 A  
  18  27  Te-Zr    5.36278 A  
   6  27  Te-Zr    5.36278 A  
   9  14  Te-Te    5.41561 A *
   9  14  Te-Te    5.41561 A *
   9  14  Te-Te    5.41563 A *
   5  18  Te-Te    5.41564 A  
   6  17  Te-Te    5.41564 A  
  10  13  Te-Te    5.41565 A  
   5  18  Te-Te    5.41567 A *
   6  17  Te-Te    5.41567 A *
  10  13  Te-Te    5.41568 A *
  10  13  Te-Te    5.41568 A *
   6  17  Te-Te    5.41570 A *
   5  18  Te-Te    5.41570 A *
   2  18  Co-Te    5.50621 A *
   3   6  Co-Te    5.50621 A  
   2  10  Co-Te    5.50622 A  
   3  10  Co-Te    5.50622 A *
   1   6  Co-Te    5.50622 A  
   1  18  Co-Te    5.50622 A *
   4  18  Co-Te    5.50623 A  
   4   6  Co-Te    5.50623 A  
   4  10  Co-Te    5.50624 A  
   3  14  Co-Te    5.50625 A  
   2  14  Co-Te    5.50625 A *
   1  14  Co-Te    5.50627 A *
   4   5  Co-Te    5.50630 A *
   4  17  Co-Te    5.50630 A *
   4  13  Co-Te    5.50631 A *
   2  13  Co-Te    5.50634 A *
   3  13  Co-Te    5.50634 A *
   1  17  Co-Te    5.50634 A *
   1   5  Co-Te    5.50634 A *
   2   5  Co-Te    5.50635 A *
   3  17  Co-Te    5.50635 A *
   1   9  Co-Te    5.50638 A *
   3   9  Co-Te    5.50638 A *
   2   9  Co-Te    5.50638 A *
  10  15  Te-Te    5.81424 A  
  10  15  Te-Te    5.81425 A *
  10  15  Te-Te    5.81425 A *
   7  18  Te-Te    5.81425 A  
   6  19  Te-Te    5.81425 A  
   6  19  Te-Te    5.81426 A *
   7  18  Te-Te    5.81426 A *
   6  19  Te-Te    5.81426 A *
   7  18  Te-Te    5.81426 A *
  11  14  Te-Te    5.81427 A *
  11  14  Te-Te    5.81427 A *
  11  14  Te-Te    5.81427 A *
  12  13  Te-Te    5.81428 A *
  12  13  Te-Te    5.81428 A *
   8  17  Te-Te    5.81429 A *
   5  20  Te-Te    5.81429 A *
   5  20  Te-Te    5.81429 A *
   8  17  Te-Te    5.81429 A *
   5  20  Te-Te    5.81430 A *
   8  17  Te-Te    5.81430 A *
  12  13  Te-Te    5.81430 A *
   9  16  Te-Te    5.81430 A *
   9  16  Te-Te    5.81430 A *
   9  16  Te-Te    5.81430 A *

Nearest neighbors for each atom (up to 4)

 atom   1 species Co : neighbors at    2.595   2.595   2.595   2.595 A
         d(center): 9.837 A  angles  :    96.5    96.5   180.0    96.5    83.5    83.5
 atom   2 species Co : neighbors at    2.595   2.595   2.595   2.595 A
         d(center):10.572 A  angles  :    96.5    96.5    83.5    96.5   180.0    83.5
 atom   3 species Co : neighbors at    2.595   2.595   2.595   2.595 A
         d(center):10.572 A  angles  :    96.5    96.5    83.5    96.5   180.0    83.5
 atom   4 species Co : neighbors at    2.595   2.595   2.595   2.596 A
         d(center):10.573 A  angles  :    96.5    96.5   180.0    96.5    83.5    83.5
 atom   5 species Te : neighbors at    2.884   2.884   2.884   3.785 A
         d(center): 2.841 A  angles  :    84.4    84.4   106.3    84.4   106.3   165.4
 atom   6 species Te : neighbors at    2.884   2.884   2.884   3.785 A
         d(center): 5.301 A  angles  :    84.4    84.4   106.3    84.4   106.3   165.4
 atom   7 species Te : neighbors at    2.595   2.595   2.595   2.930 A
         d(center): 8.809 A  angles  :    96.5    96.5   131.0    96.5   131.0    70.7
 atom   8 species Te : neighbors at    2.595   2.595   2.596   2.930 A
         d(center):11.376 A  angles  :    96.5    96.5   131.0    96.5   131.0    70.7
 atom   9 species Te : neighbors at    2.884   2.884   2.884   3.785 A
         d(center): 6.171 A  angles  :    84.4    84.4   106.3    84.4   106.3   165.4
 atom  10 species Te : neighbors at    2.884   2.884   2.884   3.785 A
         d(center): 6.565 A  angles  :    84.4    84.4   106.3    84.4   106.3   165.4
 atom  11 species Te : neighbors at    2.595   2.595   2.595   2.930 A
         d(center):10.373 A  angles  :    96.5    96.5    70.7    96.5   131.0   131.0
 atom  12 species Te : neighbors at    2.596   2.596   2.596   2.930 A
         d(center):12.018 A  angles  :    96.5    96.5   131.0    96.5   131.0    70.7
 atom  13 species Te : neighbors at    2.884   2.884   2.884   3.785 A
         d(center): 4.804 A  angles  :    84.4    84.4   106.3    84.4   106.3   165.4
 atom  14 species Te : neighbors at    2.884   2.884   2.884   3.785 A
         d(center): 7.623 A  angles  :    84.4    84.4   106.3    84.4   106.3   165.4
 atom  15 species Te : neighbors at    2.595   2.595   2.595   2.930 A
         d(center): 9.623 A  angles  :    96.5    96.5   131.0    96.5   131.0    70.7
 atom  16 species Te : neighbors at    2.596   2.596   2.596   2.930 A
         d(center):12.627 A  angles  :    96.5    96.5    70.7    96.5   131.1   131.1
 atom  17 species Te : neighbors at    2.884   2.884   2.884   3.785 A
         d(center): 6.171 A  angles  :    84.4    84.4   106.3    84.4   106.3   165.4
 atom  18 species Te : neighbors at    2.884   2.884   2.884   3.785 A
         d(center): 7.623 A  angles  :    84.4    84.4   106.3    84.4   106.3   165.4
 atom  19 species Te : neighbors at    2.595   2.595   2.595   2.930 A
         d(center):10.373 A  angles  :    96.5    96.5   131.0    96.5   131.0    70.7
 atom  20 species Te : neighbors at    2.595   2.595   2.596   2.930 A
         d(center):12.627 A  angles  :    96.5    96.5   131.0    96.5   131.0    70.7
 atom  21 species Zr : neighbors at    2.884   2.884   2.884   2.930 A
         d(center): 0.068 A  angles  :    84.4    84.4    96.4    84.4    96.4   178.9
 atom  22 species Zr : neighbors at    2.884   2.884   2.884   2.930 A
         d(center): 6.627 A  angles  :    84.4    84.4    96.4    84.4    96.4   178.9
 atom  23 species Zr : neighbors at    2.884   2.884   2.884   2.930 A
         d(center): 3.874 A  angles  :    84.4    84.4    96.4    84.4   178.9    96.4
 atom  24 species Zr : neighbors at    2.884   2.884   2.884   2.930 A
         d(center): 7.676 A  angles  :    84.4    84.4    96.4    84.4   178.9    96.4
 atom  25 species Zr : neighbors at    2.884   2.884   2.884   2.930 A
         d(center): 3.874 A  angles  :    84.4    84.4    96.4    84.4   178.9    96.4
 atom  26 species Zr : neighbors at    2.884   2.884   2.884   2.930 A
         d(center): 7.676 A  angles  :    84.4    84.4    96.4    84.4   178.9    96.4
 atom  27 species Zr : neighbors at    2.884   2.884   2.884   2.930 A
         d(center): 3.874 A  angles  :    84.4    84.4    96.4    84.4    96.4   178.9
 atom  28 species Zr : neighbors at    2.884   2.884   2.884   2.930 A
         d(center): 7.676 A  angles  :    84.4    84.4    96.4    84.4    96.4   178.9
