Distances between atoms, up to dmax=  6.00 A   (* = with lattice translation)
  #1  #2   bond       d
   1  11  Cu-Te    2.74375 A  
   1  14  Cu-Te    2.74375 A *
   2  14  Cu-Te    2.74375 A  
   2  11  Cu-Te    2.74375 A *
   3  14  Cu-Te    2.74376 A  
   3  11  Cu-Te    2.74376 A  
   2  10  Cu-Te    2.76760 A *
   2  15  Cu-Te    2.76760 A  
   1  10  Cu-Te    2.76760 A  
   1  15  Cu-Te    2.76760 A *
   2   7  Cu-Te    2.76761 A  
   2  18  Cu-Te    2.76761 A *
   1  19  Cu-Te    2.76761 A *
   1   6  Cu-Te    2.76761 A  
   3  19  Cu-Te    2.76761 A  
   3   6  Cu-Te    2.76761 A  
   3  18  Cu-Te    2.76761 A  
   3   7  Cu-Te    2.76761 A  
  13  21  Te-Zr    2.88031 A *
   8  20  Te-Zr    2.88031 A *
  16  20  Te-Zr    2.88031 A *
   5  21  Te-Zr    2.88031 A  
   4  20  Te-Zr    2.88031 A  
  17  21  Te-Zr    2.88031 A *
  12  22  Te-Zr    2.88461 A *
   9  23  Te-Zr    2.88461 A  
  12  24  Te-Zr    2.88461 A  
   9  25  Te-Zr    2.88461 A *
  12  26  Te-Zr    2.88463 A  
   9  27  Te-Zr    2.88463 A  
   4  22  Te-Zr    2.91047 A  
  17  23  Te-Zr    2.91047 A *
   5  25  Te-Zr    2.91047 A  
  16  24  Te-Zr    2.91047 A *
   8  24  Te-Zr    2.91047 A *
  13  25  Te-Zr    2.91047 A  
   8  22  Te-Zr    2.91047 A  
  13  23  Te-Zr    2.91047 A *
   4  26  Te-Zr    2.91048 A  
  17  27  Te-Zr    2.91048 A  
  16  26  Te-Zr    2.91048 A  
   5  27  Te-Zr    2.91048 A  
  15  20  Te-Zr    2.91834 A *
  10  21  Te-Zr    2.91834 A *
   7  20  Te-Zr    2.91834 A *
  18  21  Te-Zr    2.91834 A *
  19  20  Te-Zr    2.91834 A *
   6  21  Te-Zr    2.91834 A  
  15  24  Te-Zr    2.92406 A *
  10  25  Te-Zr    2.92406 A *
  15  22  Te-Zr    2.92406 A *
  10  23  Te-Zr    2.92406 A  
  19  26  Te-Zr    2.92407 A *
   6  27  Te-Zr    2.92407 A  
  18  27  Te-Zr    2.92407 A  
   7  26  Te-Zr    2.92407 A *
   7  24  Te-Zr    2.92407 A *
  18  25  Te-Zr    2.92407 A *
  19  22  Te-Zr    2.92407 A *
   6  23  Te-Zr    2.92407 A  
  14  27  Te-Zr    2.94337 A  
  11  26  Te-Zr    2.94337 A *
  11  22  Te-Zr    2.94338 A *
  14  23  Te-Zr    2.94338 A *
  11  24  Te-Zr    2.94338 A *
  14  25  Te-Zr    2.94338 A  
   3  27  Cu-Zr    3.32409 A  
   3  26  Cu-Zr    3.32409 A *
   1  22  Cu-Zr    3.32411 A *
   1  23  Cu-Zr    3.32411 A  
   2  24  Cu-Zr    3.32411 A *
   2  25  Cu-Zr    3.32411 A  
  10  19  Te-Te    3.76688 A *
   6  15  Te-Te    3.76688 A *
   7  10  Te-Te    3.76688 A *
  15  18  Te-Te    3.76688 A *
   6   7  Te-Te    3.76689 A  
  18  19  Te-Te    3.76689 A  
   5  12  Te-Te    3.79912 A  
   9  16  Te-Te    3.79912 A  
   4   9  Te-Te    3.79912 A  
  12  17  Te-Te    3.79912 A  
   8   9  Te-Te    3.79915 A  
  12  13  Te-Te    3.79915 A  
  10  11  Te-Te    3.83065 A  
  14  15  Te-Te    3.83065 A  
   7  14  Te-Te    3.83067 A  
  11  18  Te-Te    3.83067 A  
  14  19  Te-Te    3.83067 A  
   6  11  Te-Te    3.83067 A  
  16  17  Te-Te    3.83416 A  
   4   5  Te-Te    3.83416 A  
   8  17  Te-Te    3.83418 A *
   4  13  Te-Te    3.83418 A *
   5   8  Te-Te    3.83418 A *
  13  16  Te-Te    3.83418 A *
   6  18  Te-Te    3.86856 A *
   7  19  Te-Te    3.86856 A *
  10  18  Te-Te    3.86857 A *
   7  15  Te-Te    3.86857 A *
   6  10  Te-Te    3.86857 A *
  15  19  Te-Te    3.86857 A *
  22  24  Zr-Zr    3.90264 A *
  23  25  Zr-Zr    3.90264 A *
  22  26  Zr-Zr    3.90266 A *
  23  27  Zr-Zr    3.90266 A  
  24  26  Zr-Zr    3.90266 A  
  25  27  Zr-Zr    3.90266 A *
   4  16  Te-Te    3.92295 A  
   5  17  Te-Te    3.92295 A  
   5  13  Te-Te    3.92295 A  
   8  16  Te-Te    3.92295 A  
   4   8  Te-Te    3.92295 A  
  13  17  Te-Te    3.92295 A  
   1   3  Cu-Cu    3.96216 A *
   1   3  Cu-Cu    3.96216 A  
   1   2  Cu-Cu    3.96216 A *
   1   2  Cu-Cu    3.96216 A *
   2   3  Cu-Cu    3.96216 A *
   2   3  Cu-Cu    3.96216 A  
   4  12  Te-Te    3.96224 A  
   9  17  Te-Te    3.96224 A  
  12  16  Te-Te    3.96224 A  
   5   9  Te-Te    3.96224 A  
   8  12  Te-Te    3.96224 A *
   9  13  Te-Te    3.96224 A *
   8  12  Te-Te    3.96224 A *
   9  13  Te-Te    3.96224 A *
   4  12  Te-Te    3.96224 A *
   9  17  Te-Te    3.96224 A *
   5   9  Te-Te    3.96224 A *
  12  16  Te-Te    3.96224 A *
  11  19  Te-Te    3.96252 A *
   6  14  Te-Te    3.96252 A *
   7  11  Te-Te    3.96252 A *
  14  18  Te-Te    3.96252 A *
  10  14  Te-Te    3.96253 A *
  11  15  Te-Te    3.96253 A *
  11  15  Te-Te    3.96253 A *
  10  14  Te-Te    3.96253 A *
   6  14  Te-Te    3.96254 A  
  11  19  Te-Te    3.96254 A  
  14  18  Te-Te    3.96254 A  
   7  11  Te-Te    3.96254 A  
  21  25  Zr-Zr    3.96293 A  
  20  24  Zr-Zr    3.96293 A *
  20  22  Zr-Zr    3.96293 A  
  21  23  Zr-Zr    3.96293 A *
  20  26  Zr-Zr    3.96295 A  
  21  27  Zr-Zr    3.96295 A *
  20  26  Zr-Zr    3.96295 A *
  21  27  Zr-Zr    3.96295 A  
  20  24  Zr-Zr    3.96297 A  
  21  25  Zr-Zr    3.96297 A *
  20  22  Zr-Zr    3.96297 A *
  21  23  Zr-Zr    3.96297 A  
   5  13  Te-Te    4.00138 A *
   8  16  Te-Te    4.00138 A *
   4   8  Te-Te    4.00138 A *
  13  17  Te-Te    4.00138 A *
   4  16  Te-Te    4.00138 A *
   5  17  Te-Te    4.00138 A *
  22  26  Zr-Zr    4.02166 A  
  23  27  Zr-Zr    4.02166 A *
  24  26  Zr-Zr    4.02166 A *
  25  27  Zr-Zr    4.02166 A  
  22  24  Zr-Zr    4.02169 A *
  23  25  Zr-Zr    4.02169 A *
   7  15  Te-Te    4.05576 A  
  10  18  Te-Te    4.05576 A  
  15  19  Te-Te    4.05576 A  
   6  10  Te-Te    4.05576 A  
   6  18  Te-Te    4.05577 A  
   7  19  Te-Te    4.05577 A  
   8  11  Te-Te    4.25336 A *
  13  14  Te-Te    4.25336 A  
  11  16  Te-Te    4.25338 A *
   5  14  Te-Te    4.25338 A  
   4  11  Te-Te    4.25338 A *
  14  17  Te-Te    4.25338 A  
   6  13  Te-Te    4.25620 A *
   8  19  Te-Te    4.25620 A *
   7   8  Te-Te    4.25620 A *
  13  18  Te-Te    4.25620 A *
  16  19  Te-Te    4.25622 A *
   5   6  Te-Te    4.25622 A  
   4   7  Te-Te    4.25622 A *
  17  18  Te-Te    4.25622 A  
   4  15  Te-Te    4.25622 A *
  10  17  Te-Te    4.25622 A *
  15  16  Te-Te    4.25622 A *
   5  10  Te-Te    4.25622 A *
   7  12  Te-Te    4.30160 A *
   9  18  Te-Te    4.30160 A  
  12  19  Te-Te    4.30160 A *
   6   9  Te-Te    4.30160 A  
  12  15  Te-Te    4.30161 A *
   9  10  Te-Te    4.30161 A  
   2   6  Cu-Te    4.79453 A *
   2  19  Cu-Te    4.79453 A *
   1   7  Cu-Te    4.79453 A *
   1  18  Cu-Te    4.79453 A *
   3  10  Cu-Te    4.79453 A *
   3  15  Cu-Te    4.79453 A *
   3  10  Cu-Te    4.79453 A *
   3  15  Cu-Te    4.79453 A *
   2   6  Cu-Te    4.79454 A  
   2  19  Cu-Te    4.79454 A *
   1   7  Cu-Te    4.79454 A  
   1  18  Cu-Te    4.79454 A *
   3  10  Cu-Te    4.87126 A  
   3  15  Cu-Te    4.87126 A  
   1   7  Cu-Te    4.87127 A *
   1  18  Cu-Te    4.87127 A  
   2   6  Cu-Te    4.87127 A *
   2  19  Cu-Te    4.87127 A  
   9  21  Te-Zr    4.89130 A *
  12  20  Te-Zr    4.89130 A *
  12  20  Te-Zr    4.89131 A  
   9  21  Te-Zr    4.89131 A *
   9  21  Te-Zr    4.89131 A  
  12  20  Te-Zr    4.89131 A *
   4  24  Te-Zr    4.90783 A *
  17  25  Te-Zr    4.90783 A *
  16  22  Te-Zr    4.90783 A *
   5  23  Te-Zr    4.90783 A *
  13  27  Te-Zr    4.90784 A *
   8  26  Te-Zr    4.90784 A *
   8  26  Te-Zr    4.90784 A *
  13  27  Te-Zr    4.90784 A *
   4  24  Te-Zr    4.90784 A  
  16  22  Te-Zr    4.90784 A *
  17  25  Te-Zr    4.90784 A *
   5  23  Te-Zr    4.90784 A  
  15  26  Te-Zr    4.91001 A *
  10  27  Te-Zr    4.91001 A *
  10  27  Te-Zr    4.91001 A *
  15  26  Te-Zr    4.91001 A *
   6  25  Te-Zr    4.91001 A  
  19  24  Te-Zr    4.91001 A *
   7  22  Te-Zr    4.91001 A *
  18  23  Te-Zr    4.91001 A *
  19  24  Te-Zr    4.91002 A *
   6  25  Te-Zr    4.91002 A *
   7  22  Te-Zr    4.91002 A *
  18  23  Te-Zr    4.91002 A *
   8  26  Te-Zr    4.92418 A  
  13  27  Te-Zr    4.92418 A  
   5  23  Te-Zr    4.92419 A *
  16  22  Te-Zr    4.92419 A  
  17  25  Te-Zr    4.92419 A  
   4  24  Te-Zr    4.92419 A *
   7  22  Te-Zr    4.93745 A *
  18  23  Te-Zr    4.93745 A  
  19  24  Te-Zr    4.93745 A *
   6  25  Te-Zr    4.93745 A *
  15  26  Te-Zr    4.93745 A *
  10  27  Te-Zr    4.93745 A  
  11  20  Te-Zr    4.94630 A *
  14  21  Te-Zr    4.94630 A  
  11  20  Te-Zr    4.94630 A *
  14  21  Te-Zr    4.94630 A *
  11  20  Te-Zr    4.94630 A *
  14  21  Te-Zr    4.94630 A *
   1  27  Cu-Zr    5.14904 A  
   1  26  Cu-Zr    5.14904 A *
   2  26  Cu-Zr    5.14904 A *
   2  27  Cu-Zr    5.14904 A *
   1  24  Cu-Zr    5.14904 A *
   1  25  Cu-Zr    5.14904 A *
   2  22  Cu-Zr    5.14904 A *
   2  23  Cu-Zr    5.14904 A *
   3  23  Cu-Zr    5.14905 A  
   3  22  Cu-Zr    5.14905 A *
   3  24  Cu-Zr    5.14905 A *
   3  25  Cu-Zr    5.14905 A *
   1  27  Cu-Zr    5.19462 A *
   1  26  Cu-Zr    5.19462 A *
   2  26  Cu-Zr    5.19462 A *
   2  27  Cu-Zr    5.19462 A  
   3  22  Cu-Zr    5.19463 A *
   3  23  Cu-Zr    5.19463 A *
   3  24  Cu-Zr    5.19463 A *
   3  25  Cu-Zr    5.19463 A  
   2  22  Cu-Zr    5.19464 A *
   2  23  Cu-Zr    5.19464 A *
   1  24  Cu-Zr    5.19464 A *
   1  25  Cu-Zr    5.19464 A *
   2  20  Cu-Zr    5.21771 A *
   2  21  Cu-Zr    5.21771 A  
   1  20  Cu-Zr    5.21771 A *
   1  21  Cu-Zr    5.21771 A *
   3  21  Cu-Zr    5.21771 A *
   3  20  Cu-Zr    5.21771 A *
   3  20  Cu-Zr    5.21771 A *
   3  21  Cu-Zr    5.21771 A  
   2  20  Cu-Zr    5.21772 A *
   2  21  Cu-Zr    5.21772 A *
   1  20  Cu-Zr    5.21772 A *
   1  21  Cu-Zr    5.21772 A  
   5  20  Te-Zr    5.30924 A  
  16  21  Te-Zr    5.30924 A *
   4  21  Te-Zr    5.30924 A  
  17  20  Te-Zr    5.30924 A *
   8  21  Te-Zr    5.30925 A *
  13  20  Te-Zr    5.30925 A *
  11  27  Te-Zr    5.33780 A  
  14  26  Te-Zr    5.33780 A *
  14  22  Te-Zr    5.33781 A *
  11  23  Te-Zr    5.33781 A  
  14  24  Te-Zr    5.33781 A *
  11  25  Te-Zr    5.33781 A *
   5  24  Te-Zr    5.35150 A  
  17  22  Te-Zr    5.35150 A *
   4  23  Te-Zr    5.35150 A  
  16  25  Te-Zr    5.35150 A *
   8  25  Te-Zr    5.35152 A *
  13  24  Te-Zr    5.35152 A  
   8  23  Te-Zr    5.35152 A  
  13  22  Te-Zr    5.35152 A *
  17  26  Te-Zr    5.35152 A  
   4  27  Te-Zr    5.35152 A  
   5  26  Te-Zr    5.35152 A  
  16  27  Te-Zr    5.35152 A  
   9  22  Te-Zr    5.36944 A  
  12  23  Te-Zr    5.36944 A *
   9  24  Te-Zr    5.36944 A *
  12  25  Te-Zr    5.36944 A  
   9  26  Te-Zr    5.36945 A  
  12  27  Te-Zr    5.36945 A  
  19  27  Te-Zr    5.37293 A  
   6  26  Te-Zr    5.37293 A *
   7  27  Te-Zr    5.37293 A  
  18  26  Te-Zr    5.37293 A *
   7  25  Te-Zr    5.37294 A  
  18  24  Te-Zr    5.37294 A *
   6  22  Te-Zr    5.37294 A *
  19  23  Te-Zr    5.37294 A *
  10  24  Te-Zr    5.37294 A *
  15  25  Te-Zr    5.37294 A  
  10  22  Te-Zr    5.37294 A *
  15  23  Te-Zr    5.37294 A *
  18  20  Te-Zr    5.39560 A *
   7  21  Te-Zr    5.39560 A  
   6  20  Te-Zr    5.39560 A *
  19  21  Te-Zr    5.39560 A *
  10  20  Te-Zr    5.39560 A *
  15  21  Te-Zr    5.39560 A *
  10  15  Te-Te    5.39955 A *
   7  18  Te-Te    5.39955 A *
   6  19  Te-Te    5.39955 A *
   4  17  Te-Te    5.48546 A *
   5  16  Te-Te    5.48546 A *
   4  17  Te-Te    5.48546 A  
   5  16  Te-Te    5.48546 A  
   8  13  Te-Te    5.48549 A *
   8  13  Te-Te    5.48549 A *
  11  14  Te-Te    5.48750 A *
  11  14  Te-Te    5.48750 A *
  11  14  Te-Te    5.48751 A  
   9  12  Te-Te    5.49318 A  
   9  12  Te-Te    5.49319 A *
   9  12  Te-Te    5.49319 A *
  10  15  Te-Te    5.53521 A *
  10  15  Te-Te    5.53521 A *
   7  18  Te-Te    5.53521 A *
   6  19  Te-Te    5.53521 A *
   6  19  Te-Te    5.53522 A  
   7  18  Te-Te    5.53522 A  
   5  16  Te-Te    5.54182 A *
   4  17  Te-Te    5.54182 A *
   8  13  Te-Te    5.54185 A *
   2   8  Cu-Te    5.59881 A *
   2  13  Cu-Te    5.59881 A  
   1   8  Cu-Te    5.59881 A *
   1  13  Cu-Te    5.59881 A *
   1   4  Cu-Te    5.59884 A *
   1  17  Cu-Te    5.59884 A *
   2  16  Cu-Te    5.59884 A *
   2   5  Cu-Te    5.59884 A  
   3   4  Cu-Te    5.59884 A *
   3  17  Cu-Te    5.59884 A  
   3   5  Cu-Te    5.59884 A  
   3  16  Cu-Te    5.59884 A *
   3  12  Cu-Te    5.61242 A *
   3   9  Cu-Te    5.61242 A  
   1  12  Cu-Te    5.61242 A *
   1   9  Cu-Te    5.61242 A  
   2  12  Cu-Te    5.61242 A *
   2   9  Cu-Te    5.61242 A *
   8  15  Te-Te    5.79611 A *
  10  13  Te-Te    5.79611 A *
   7  16  Te-Te    5.79612 A *
   5  18  Te-Te    5.79612 A *
   4  19  Te-Te    5.79612 A *
   6  17  Te-Te    5.79612 A *
  11  12  Te-Te    5.82788 A *
   9  14  Te-Te    5.82788 A *
  11  12  Te-Te    5.82788 A *
   9  14  Te-Te    5.82788 A *
   9  14  Te-Te    5.82788 A  
  11  12  Te-Te    5.82788 A *
   8  15  Te-Te    5.83317 A *
  10  13  Te-Te    5.83317 A *
   8  15  Te-Te    5.83317 A *
  10  13  Te-Te    5.83317 A *
   7  16  Te-Te    5.83317 A *
   5  18  Te-Te    5.83317 A *
   4  19  Te-Te    5.83317 A *
   6  17  Te-Te    5.83317 A *
   4  19  Te-Te    5.83318 A *
   6  17  Te-Te    5.83318 A  
   7  16  Te-Te    5.83318 A *
   5  18  Te-Te    5.83318 A  

Nearest neighbors for each atom (up to 4)

 atom   1 species Cu : neighbors at    2.744   2.744   2.768   2.768 A
         d(center):10.726 A  angles  :   180.0    88.1    91.9    91.9    88.1   180.0
 atom   2 species Cu : neighbors at    2.744   2.744   2.768   2.768 A
         d(center):10.726 A  angles  :   180.0    91.9    88.1    88.1    91.9   180.0
 atom   3 species Cu : neighbors at    2.744   2.744   2.768   2.768 A
         d(center):10.726 A  angles  :   180.0    88.1    91.9    91.9    88.1   180.0
 atom   4 species Te : neighbors at    2.880   2.910   2.910   3.799 A
         d(center): 2.924 A  angles  :    86.4    86.4   163.3    87.4   105.5   105.5
 atom   5 species Te : neighbors at    2.880   2.910   2.910   3.799 A
         d(center): 5.374 A  angles  :    86.4    86.4   163.3    87.4   105.5   105.5
 atom   6 species Te : neighbors at    2.768   2.768   2.918   2.924 A
         d(center): 8.741 A  angles  :    91.4   133.2   129.5   133.2    71.4    85.4
 atom   7 species Te : neighbors at    2.768   2.768   2.918   2.924 A
         d(center):11.700 A  angles  :    91.4   133.2   129.5   133.2    71.4    85.4
 atom   8 species Te : neighbors at    2.880   2.910   2.910   3.799 A
         d(center): 6.296 A  angles  :    86.4    86.4   163.3    87.4   105.5   105.5
 atom   9 species Te : neighbors at    2.885   2.885   2.885   3.799 A
         d(center): 6.662 A  angles  :    85.1    85.1   165.2    85.1   105.6   105.6
 atom  10 species Te : neighbors at    2.768   2.768   2.918   2.924 A
         d(center):10.419 A  angles  :    91.4   133.2    71.4   133.2   129.5    85.4
 atom  11 species Te : neighbors at    2.744   2.744   2.744   2.943 A
         d(center):12.361 A  angles  :    92.4    92.4   131.9    92.4   131.9    71.4
 atom  12 species Te : neighbors at    2.885   2.885   2.885   3.799 A
         d(center): 4.917 A  angles  :    85.1    85.1   165.2    85.1   105.6   105.6
 atom  13 species Te : neighbors at    2.880   2.910   2.910   3.799 A
         d(center): 7.744 A  angles  :    86.4    86.4   163.3    87.4   105.5   105.5
 atom  14 species Te : neighbors at    2.744   2.744   2.744   2.943 A
         d(center): 9.612 A  angles  :    92.4    92.4   131.9    92.4   131.9    71.4
 atom  15 species Te : neighbors at    2.768   2.768   2.918   2.924 A
         d(center):13.001 A  angles  :    91.4   133.2    71.4   133.2   129.5    85.4
 atom  16 species Te : neighbors at    2.880   2.910   2.910   3.799 A
         d(center): 6.296 A  angles  :    86.4    86.4   163.3    87.4   105.5   105.5
 atom  17 species Te : neighbors at    2.880   2.910   2.910   3.799 A
         d(center): 7.744 A  angles  :    86.4    86.4   163.3    87.4   105.5   105.5
 atom  18 species Te : neighbors at    2.768   2.768   2.918   2.924 A
         d(center):10.419 A  angles  :    91.4   133.2   129.5   133.2    71.4    85.4
 atom  19 species Te : neighbors at    2.768   2.768   2.918   2.924 A
         d(center):13.001 A  angles  :    91.4   133.2   129.5   133.2    71.4    85.4
 atom  20 species Zr : neighbors at    2.880   2.880   2.880   2.918 A
         d(center): 0.072 A  angles  :    88.0    88.0   176.6    88.0    94.4    94.4
 atom  21 species Zr : neighbors at    2.880   2.880   2.880   2.918 A
         d(center): 6.573 A  angles  :    88.0    88.0   176.6    88.0    94.4    94.4
 atom  22 species Zr : neighbors at    2.885   2.910   2.910   2.924 A
         d(center): 3.962 A  angles  :    86.3    86.3    95.6    84.7    93.7   177.5
 atom  23 species Zr : neighbors at    2.885   2.910   2.910   2.924 A
         d(center): 7.736 A  angles  :    86.3    86.3    95.6    84.7    93.7   177.5
 atom  24 species Zr : neighbors at    2.885   2.910   2.910   2.924 A
         d(center): 3.962 A  angles  :    86.3    86.3    95.6    84.7    93.7   177.5
 atom  25 species Zr : neighbors at    2.885   2.910   2.910   2.924 A
         d(center): 7.736 A  angles  :    86.3    86.3    95.6    84.7    93.7   177.5
 atom  26 species Zr : neighbors at    2.885   2.910   2.910   2.924 A
         d(center): 3.962 A  angles  :    86.3    86.3    95.6    84.7   177.5    93.7
 atom  27 species Zr : neighbors at    2.885   2.910   2.910   2.924 A
         d(center): 7.736 A  angles  :    86.3    86.3    95.6    84.7   177.5    93.7
