Distances between atoms, up to dmax=  6.00 A   (* = with lattice translation)
  #1  #2   bond       d
   5  16  Cu-Te    2.73881 A  
   5  13  Cu-Te    2.73881 A  
   5   8  Cu-Te    2.73883 A  
   5  21  Cu-Te    2.73883 A  
   5  20  Cu-Te    2.73883 A  
   5   9  Cu-Te    2.73883 A  
   1  20  Cu-Te    2.75670 A *
   1   9  Cu-Te    2.75670 A  
   1   8  Cu-Te    2.75670 A  
   1  21  Cu-Te    2.75670 A *
   2  16  Cu-Te    2.75671 A *
   2  13  Cu-Te    2.75671 A  
   3  16  Cu-Te    2.75671 A  
   3  13  Cu-Te    2.75671 A *
   2   8  Cu-Te    2.75674 A  
   2  21  Cu-Te    2.75674 A *
   3  20  Cu-Te    2.75674 A *
   3   9  Cu-Te    2.75674 A  
   1  12  Cu-Te    2.76004 A *
   1  17  Cu-Te    2.76004 A *
   3  12  Cu-Te    2.76007 A *
   3  17  Cu-Te    2.76007 A  
   2  12  Cu-Te    2.76007 A  
   2  17  Cu-Te    2.76007 A *
   4  14  Cu-Te    2.78901 A  
   4  11  Cu-Te    2.78901 A  
   4  19  Cu-Te    2.78903 A  
   4   6  Cu-Te    2.78903 A  
   4   7  Cu-Te    2.78903 A  
   4  18  Cu-Te    2.78903 A  
  10  22  Te-Zr    2.88633 A *
  15  23  Te-Zr    2.88633 A *
  10  26  Te-Zr    2.88637 A *
  15  27  Te-Zr    2.88637 A  
  10  24  Te-Zr    2.88637 A  
  15  25  Te-Zr    2.88637 A *
  18  22  Te-Zr    2.91197 A *
   7  23  Te-Zr    2.91197 A  
   6  22  Te-Zr    2.91197 A  
  19  23  Te-Zr    2.91197 A *
  11  25  Te-Zr    2.91200 A  
  14  24  Te-Zr    2.91200 A *
  11  27  Te-Zr    2.91200 A *
  14  26  Te-Zr    2.91200 A  
   7  27  Te-Zr    2.91201 A  
  18  26  Te-Zr    2.91201 A *
   6  24  Te-Zr    2.91201 A  
  19  25  Te-Zr    2.91201 A *
  20  23  Te-Zr    2.91383 A *
   9  22  Te-Zr    2.91383 A *
   8  23  Te-Zr    2.91383 A  
  21  22  Te-Zr    2.91383 A *
  21  24  Te-Zr    2.91386 A *
   8  25  Te-Zr    2.91386 A  
   9  26  Te-Zr    2.91386 A *
  20  27  Te-Zr    2.91386 A *
  13  24  Te-Zr    2.91386 A *
  16  25  Te-Zr    2.91386 A *
  13  26  Te-Zr    2.91386 A *
  16  27  Te-Zr    2.91386 A  
  11  29  Te-Zr    2.91949 A  
  14  28  Te-Zr    2.91949 A  
  19  29  Te-Zr    2.91949 A  
   6  28  Te-Zr    2.91949 A  
  18  28  Te-Zr    2.91949 A  
   7  29  Te-Zr    2.91949 A  
  12  23  Te-Zr    2.94894 A *
  17  22  Te-Zr    2.94894 A *
  12  27  Te-Zr    2.94896 A *
  17  26  Te-Zr    2.94896 A *
  12  25  Te-Zr    2.94896 A  
  17  24  Te-Zr    2.94896 A *
  21  28  Te-Zr    2.94904 A *
   8  29  Te-Zr    2.94904 A  
   9  28  Te-Zr    2.94904 A *
  20  29  Te-Zr    2.94904 A  
  13  28  Te-Zr    2.94905 A *
  16  29  Te-Zr    2.94905 A  
   4  28  Cu-Zr    3.23892 A  
   4  29  Cu-Zr    3.23892 A  
   2  25  Cu-Zr    3.32116 A  
   3  27  Cu-Zr    3.32116 A  
   2  24  Cu-Zr    3.32116 A *
   3  26  Cu-Zr    3.32116 A *
   1  23  Cu-Zr    3.32117 A  
   1  22  Cu-Zr    3.32117 A *
   5  28  Cu-Zr    3.37723 A *
   5  29  Cu-Zr    3.37723 A  
  10  19  Te-Te    3.74681 A *
   6  15  Te-Te    3.74681 A *
   7  10  Te-Te    3.74681 A *
  15  18  Te-Te    3.74681 A *
  10  11  Te-Te    3.74684 A  
  14  15  Te-Te    3.74684 A  
   8   9  Te-Te    3.78890 A  
  20  21  Te-Te    3.78890 A  
   9  16  Te-Te    3.78891 A  
  13  20  Te-Te    3.78891 A  
   8  13  Te-Te    3.78891 A  
  16  21  Te-Te    3.78891 A  
   6   7  Te-Te    3.81692 A  
  18  19  Te-Te    3.81692 A  
   7  14  Te-Te    3.81696 A  
  11  18  Te-Te    3.81696 A  
  14  19  Te-Te    3.81696 A  
   6  11  Te-Te    3.81696 A  
   8  17  Te-Te    3.81962 A *
  12  21  Te-Te    3.81962 A *
   9  12  Te-Te    3.81962 A *
  17  20  Te-Te    3.81962 A *
  12  13  Te-Te    3.81963 A  
  16  17  Te-Te    3.81963 A  
   6  18  Te-Te    3.89346 A *
   7  19  Te-Te    3.89346 A *
   6  14  Te-Te    3.89351 A *
  11  19  Te-Te    3.89351 A *
   7  11  Te-Te    3.89351 A *
  14  18  Te-Te    3.89351 A *
  22  26  Zr-Zr    3.90510 A  
  23  27  Zr-Zr    3.90510 A *
  22  24  Zr-Zr    3.90510 A *
  23  25  Zr-Zr    3.90510 A  
  24  26  Zr-Zr    3.90510 A *
  25  27  Zr-Zr    3.90510 A *
   8  16  Te-Te    3.95584 A  
  13  21  Te-Te    3.95584 A  
   9  13  Te-Te    3.95584 A  
  16  20  Te-Te    3.95584 A  
   9  21  Te-Te    3.95588 A  
   8  20  Te-Te    3.95588 A  
   1   3  Cu-Cu    3.98056 A *
   1   3  Cu-Cu    3.98056 A  
   2   5  Cu-Cu    3.98056 A *
   2   5  Cu-Cu    3.98056 A  
   1   2  Cu-Cu    3.98056 A *
   1   2  Cu-Cu    3.98056 A  
   1   5  Cu-Cu    3.98056 A *
   1   5  Cu-Cu    3.98056 A  
   2   3  Cu-Cu    3.98056 A *
   2   3  Cu-Cu    3.98056 A *
   3   5  Cu-Cu    3.98056 A *
   3   5  Cu-Cu    3.98056 A  
   9  17  Te-Te    3.98057 A *
  12  20  Te-Te    3.98057 A *
   8  12  Te-Te    3.98057 A *
  17  21  Te-Te    3.98057 A *
  12  16  Te-Te    3.98062 A *
  13  17  Te-Te    3.98062 A *
  12  16  Te-Te    3.98062 A *
  13  17  Te-Te    3.98062 A *
   9  17  Te-Te    3.98066 A  
  12  20  Te-Te    3.98066 A  
   8  12  Te-Te    3.98066 A  
  17  21  Te-Te    3.98066 A  
   7  15  Te-Te    3.98084 A *
  10  18  Te-Te    3.98084 A *
   6  10  Te-Te    3.98084 A *
  15  19  Te-Te    3.98084 A *
  10  14  Te-Te    3.98089 A *
  11  15  Te-Te    3.98089 A *
  11  15  Te-Te    3.98089 A *
  10  14  Te-Te    3.98089 A *
   7  15  Te-Te    3.98094 A  
  10  18  Te-Te    3.98094 A  
   6  10  Te-Te    3.98094 A  
  15  19  Te-Te    3.98094 A  
  24  28  Zr-Zr    3.98119 A  
  25  29  Zr-Zr    3.98119 A *
  26  28  Zr-Zr    3.98119 A *
  27  29  Zr-Zr    3.98119 A  
  22  28  Zr-Zr    3.98119 A *
  23  29  Zr-Zr    3.98119 A  
  23  29  Zr-Zr    3.98119 A *
  22  28  Zr-Zr    3.98119 A  
  24  28  Zr-Zr    3.98120 A *
  25  29  Zr-Zr    3.98120 A  
  26  28  Zr-Zr    3.98120 A  
  27  29  Zr-Zr    3.98120 A *
   8  20  Te-Te    4.00523 A *
   9  21  Te-Te    4.00523 A *
   8  16  Te-Te    4.00528 A *
  13  21  Te-Te    4.00528 A *
   9  13  Te-Te    4.00528 A *
  16  20  Te-Te    4.00528 A *
  24  26  Zr-Zr    4.05601 A *
  25  27  Zr-Zr    4.05601 A *
  22  26  Zr-Zr    4.05601 A *
  23  27  Zr-Zr    4.05601 A  
  22  24  Zr-Zr    4.05601 A  
  23  25  Zr-Zr    4.05601 A *
   6  14  Te-Te    4.06760 A  
  11  19  Te-Te    4.06760 A  
   7  11  Te-Te    4.06760 A  
  14  18  Te-Te    4.06760 A  
   6  18  Te-Te    4.06765 A  
   7  19  Te-Te    4.06765 A  
   6  17  Te-Te    4.22989 A *
  12  19  Te-Te    4.22989 A *
  17  18  Te-Te    4.22989 A *
   7  12  Te-Te    4.22989 A *
  11  12  Te-Te    4.22993 A  
  14  17  Te-Te    4.22993 A *
   6   9  Te-Te    4.28113 A *
  19  20  Te-Te    4.28113 A  
   7   8  Te-Te    4.28113 A  
  18  21  Te-Te    4.28113 A *
   9  14  Te-Te    4.28116 A *
  11  20  Te-Te    4.28116 A  
  14  21  Te-Te    4.28116 A *
   8  11  Te-Te    4.28116 A  
   7  16  Te-Te    4.28118 A  
  13  18  Te-Te    4.28118 A *
   6  13  Te-Te    4.28118 A *
  16  19  Te-Te    4.28118 A  
  10  21  Te-Te    4.28834 A *
   8  15  Te-Te    4.28834 A *
   9  10  Te-Te    4.28834 A *
  15  20  Te-Te    4.28834 A *
  15  16  Te-Te    4.28839 A  
  10  13  Te-Te    4.28839 A *
   2  20  Cu-Te    4.83175 A *
   2   9  Cu-Te    4.83175 A  
   3   8  Cu-Te    4.83175 A  
   3  21  Cu-Te    4.83175 A *
   1  13  Cu-Te    4.83176 A *
   1  16  Cu-Te    4.83176 A  
   1  16  Cu-Te    4.83176 A *
   1  13  Cu-Te    4.83176 A  
   2   9  Cu-Te    4.83179 A *
   2  20  Cu-Te    4.83179 A  
   3   8  Cu-Te    4.83179 A *
   3  21  Cu-Te    4.83179 A  
   4  10  Cu-Te    4.83277 A *
   4  15  Cu-Te    4.83277 A *
   4  10  Cu-Te    4.83277 A *
   4  15  Cu-Te    4.83277 A *
   4  10  Cu-Te    4.83281 A  
   4  15  Cu-Te    4.83281 A  
   5  12  Cu-Te    4.84383 A *
   5  17  Cu-Te    4.84383 A *
   5  12  Cu-Te    4.84383 A *
   5  17  Cu-Te    4.84383 A *
   5  12  Cu-Te    4.84386 A  
   5  17  Cu-Te    4.84386 A  
   3   8  Cu-Te    4.85208 A *
   3  21  Cu-Te    4.85208 A *
   2   9  Cu-Te    4.85208 A *
   2  20  Cu-Te    4.85208 A *
   1  13  Cu-Te    4.85208 A *
   1  16  Cu-Te    4.85208 A *
   8  27  Te-Zr    4.91238 A *
  21  26  Te-Zr    4.91238 A *
   9  24  Te-Zr    4.91238 A *
  20  25  Te-Zr    4.91238 A *
  16  23  Te-Zr    4.91240 A *
  13  22  Te-Zr    4.91240 A *
  10  28  Te-Zr    4.91672 A *
  15  29  Te-Zr    4.91672 A *
  15  29  Te-Zr    4.91672 A *
  10  28  Te-Zr    4.91672 A *
  10  28  Te-Zr    4.91676 A  
  15  29  Te-Zr    4.91676 A  
   6  26  Te-Zr    4.92663 A *
  19  27  Te-Zr    4.92663 A *
   7  25  Te-Zr    4.92663 A *
  18  24  Te-Zr    4.92663 A *
  11  23  Te-Zr    4.92665 A *
  14  22  Te-Zr    4.92665 A *
   6  26  Te-Zr    4.93599 A  
   7  25  Te-Zr    4.93599 A  
  19  27  Te-Zr    4.93599 A *
  18  24  Te-Zr    4.93599 A *
  14  22  Te-Zr    4.93600 A  
  11  23  Te-Zr    4.93600 A *
  14  22  Te-Zr    4.93600 A *
  11  23  Te-Zr    4.93600 A  
   7  25  Te-Zr    4.93603 A *
  18  24  Te-Zr    4.93603 A  
   6  26  Te-Zr    4.93603 A *
  19  27  Te-Zr    4.93603 A  
   8  27  Te-Zr    4.95331 A  
  21  26  Te-Zr    4.95331 A *
  20  25  Te-Zr    4.95331 A *
   9  24  Te-Zr    4.95331 A *
  13  22  Te-Zr    4.95334 A *
  16  23  Te-Zr    4.95334 A  
  13  22  Te-Zr    4.95334 A *
  16  23  Te-Zr    4.95334 A *
   9  24  Te-Zr    4.95335 A *
  20  25  Te-Zr    4.95335 A  
  21  26  Te-Zr    4.95335 A *
   8  27  Te-Zr    4.95335 A *
  12  29  Te-Zr    4.95420 A *
  17  28  Te-Zr    4.95420 A *
  17  28  Te-Zr    4.95420 A *
  12  29  Te-Zr    4.95420 A *
  17  28  Te-Zr    4.95424 A *
  12  29  Te-Zr    4.95424 A  
   3  25  Cu-Zr    5.15505 A *
   3  24  Cu-Zr    5.15505 A *
   2  27  Cu-Zr    5.15505 A *
   2  26  Cu-Zr    5.15505 A *
   1  27  Cu-Zr    5.15505 A *
   1  26  Cu-Zr    5.15505 A *
   1  25  Cu-Zr    5.15505 A  
   1  24  Cu-Zr    5.15505 A *
   3  23  Cu-Zr    5.15506 A *
   3  22  Cu-Zr    5.15506 A *
   2  23  Cu-Zr    5.15506 A  
   2  22  Cu-Zr    5.15506 A *
   4  22  Cu-Zr    5.16773 A *
   4  23  Cu-Zr    5.16773 A  
   4  22  Cu-Zr    5.16773 A  
   4  23  Cu-Zr    5.16773 A *
   4  24  Cu-Zr    5.16774 A  
   4  25  Cu-Zr    5.16774 A *
   4  27  Cu-Zr    5.16774 A  
   4  26  Cu-Zr    5.16774 A *
   4  24  Cu-Zr    5.16774 A *
   4  25  Cu-Zr    5.16774 A  
   4  26  Cu-Zr    5.16774 A  
   4  27  Cu-Zr    5.16774 A *
   5  25  Cu-Zr    5.18410 A *
   5  24  Cu-Zr    5.18410 A *
   5  27  Cu-Zr    5.18410 A  
   5  26  Cu-Zr    5.18410 A *
   5  25  Cu-Zr    5.18410 A  
   5  24  Cu-Zr    5.18410 A *
   5  27  Cu-Zr    5.18410 A *
   5  26  Cu-Zr    5.18410 A *
   5  23  Cu-Zr    5.18411 A  
   5  22  Cu-Zr    5.18411 A *
   5  23  Cu-Zr    5.18411 A *
   5  22  Cu-Zr    5.18411 A *
   1  27  Cu-Zr    5.21299 A  
   1  26  Cu-Zr    5.21299 A *
   1  25  Cu-Zr    5.21299 A *
   1  24  Cu-Zr    5.21299 A *
   2  27  Cu-Zr    5.21299 A *
   2  26  Cu-Zr    5.21299 A *
   3  25  Cu-Zr    5.21299 A *
   3  24  Cu-Zr    5.21299 A *
   3  23  Cu-Zr    5.21300 A  
   3  22  Cu-Zr    5.21300 A *
   2  23  Cu-Zr    5.21300 A *
   2  22  Cu-Zr    5.21300 A *
   2  28  Cu-Zr    5.22020 A *
   2  29  Cu-Zr    5.22020 A *
   3  28  Cu-Zr    5.22020 A *
   3  29  Cu-Zr    5.22020 A  
   1  28  Cu-Zr    5.22020 A *
   1  28  Cu-Zr    5.22020 A *
   1  29  Cu-Zr    5.22020 A *
   1  29  Cu-Zr    5.22020 A  
   2  28  Cu-Zr    5.22020 A *
   2  29  Cu-Zr    5.22020 A  
   3  28  Cu-Zr    5.22020 A *
   3  29  Cu-Zr    5.22020 A *
  11  28  Te-Zr    5.29291 A  
  14  29  Te-Zr    5.29291 A  
  19  28  Te-Zr    5.29293 A  
   6  29  Te-Zr    5.29293 A  
   7  28  Te-Zr    5.29293 A  
  18  29  Te-Zr    5.29293 A  
   7  22  Te-Zr    5.30148 A  
  18  23  Te-Zr    5.30148 A *
  19  22  Te-Zr    5.30148 A *
   6  23  Te-Zr    5.30148 A  
  11  24  Te-Zr    5.30149 A  
  14  25  Te-Zr    5.30149 A *
  11  26  Te-Zr    5.30149 A *
  14  27  Te-Zr    5.30149 A  
   7  26  Te-Zr    5.30151 A  
   6  25  Te-Zr    5.30151 A  
  18  27  Te-Zr    5.30151 A *
  19  24  Te-Zr    5.30151 A *
  10  23  Te-Zr    5.33029 A *
  15  22  Te-Zr    5.33029 A *
  10  27  Te-Zr    5.33032 A *
  15  26  Te-Zr    5.33032 A  
  10  25  Te-Zr    5.33032 A  
  15  24  Te-Zr    5.33032 A *
  17  23  Te-Zr    5.34787 A *
  12  22  Te-Zr    5.34787 A *
  12  26  Te-Zr    5.34788 A *
  17  27  Te-Zr    5.34788 A  
  12  24  Te-Zr    5.34788 A *
  17  25  Te-Zr    5.34788 A *
  13  25  Te-Zr    5.36363 A  
  16  24  Te-Zr    5.36363 A *
  13  27  Te-Zr    5.36363 A *
  16  26  Te-Zr    5.36363 A *
   9  23  Te-Zr    5.36365 A  
  20  22  Te-Zr    5.36365 A *
  21  23  Te-Zr    5.36365 A *
   8  22  Te-Zr    5.36365 A *
   9  27  Te-Zr    5.36366 A  
  20  26  Te-Zr    5.36366 A *
   8  24  Te-Zr    5.36366 A *
  21  25  Te-Zr    5.36366 A *
  13  29  Te-Zr    5.39598 A  
  16  28  Te-Zr    5.39598 A *
   8  28  Te-Zr    5.39600 A *
  21  29  Te-Zr    5.39600 A  
  20  28  Te-Zr    5.39600 A *
   9  29  Te-Zr    5.39600 A  
   7  18  Te-Te    5.45233 A *
   6  19  Te-Te    5.45233 A *
  11  14  Te-Te    5.45238 A *
  11  14  Te-Te    5.45238 A *
   7  18  Te-Te    5.45241 A *
   6  19  Te-Te    5.45241 A *
  13  16  Te-Te    5.47761 A  
   8  21  Te-Te    5.47766 A  
   9  20  Te-Te    5.47766 A  
  10  15  Te-Te    5.48118 A *
  10  15  Te-Te    5.48126 A *
  10  15  Te-Te    5.48126 A *
   9  20  Te-Te    5.51341 A *
   8  21  Te-Te    5.51341 A *
  13  16  Te-Te    5.51342 A *
  13  16  Te-Te    5.51342 A *
   8  21  Te-Te    5.51347 A *
   9  20  Te-Te    5.51347 A *
  12  17  Te-Te    5.52008 A *
  12  17  Te-Te    5.52014 A *
  12  17  Te-Te    5.52014 A *
  11  14  Te-Te    5.57802 A  
   6  19  Te-Te    5.57806 A  
   7  18  Te-Te    5.57806 A  
   4   8  Cu-Te    5.59220 A  
   4  21  Cu-Te    5.59220 A *
   4   9  Cu-Te    5.59220 A *
   4  20  Cu-Te    5.59220 A  
   4  13  Cu-Te    5.59222 A *
   4  16  Cu-Te    5.59222 A  
   1   7  Cu-Te    5.59442 A  
   1  18  Cu-Te    5.59442 A *
   1  19  Cu-Te    5.59442 A *
   1   6  Cu-Te    5.59442 A *
   2  11  Cu-Te    5.59444 A  
   2  14  Cu-Te    5.59444 A *
   3  11  Cu-Te    5.59444 A *
   3  14  Cu-Te    5.59444 A *
   3   7  Cu-Te    5.59444 A  
   3  18  Cu-Te    5.59444 A *
   2  19  Cu-Te    5.59444 A *
   2   6  Cu-Te    5.59444 A *
   1  15  Cu-Te    5.61489 A *
   1  10  Cu-Te    5.61489 A *
   3  15  Cu-Te    5.61491 A  
   3  10  Cu-Te    5.61491 A *
   2  15  Cu-Te    5.61491 A *
   2  10  Cu-Te    5.61491 A *
   5  11  Cu-Te    5.62532 A  
   5  14  Cu-Te    5.62532 A *
   5  19  Cu-Te    5.62532 A  
   5   6  Cu-Te    5.62532 A *
   5   7  Cu-Te    5.62532 A  
   5  18  Cu-Te    5.62532 A *
   9  18  Te-Te    5.82428 A *
   7  20  Te-Te    5.82428 A *
   6  21  Te-Te    5.82428 A *
   8  19  Te-Te    5.82428 A *
  11  16  Te-Te    5.82435 A *
  13  14  Te-Te    5.82435 A *
  11  16  Te-Te    5.82435 A *
  13  14  Te-Te    5.82435 A *
   9  18  Te-Te    5.82435 A *
   7  20  Te-Te    5.82435 A *
   6  21  Te-Te    5.82435 A *
   8  19  Te-Te    5.82435 A *
  10  17  Te-Te    5.83495 A *
  12  15  Te-Te    5.83495 A *
  10  17  Te-Te    5.83501 A *
  12  15  Te-Te    5.83501 A *
  10  17  Te-Te    5.83501 A *
  12  15  Te-Te    5.83501 A *
  11  16  Te-Te    5.86679 A  
  13  14  Te-Te    5.86679 A *
   6  21  Te-Te    5.86679 A *
   8  19  Te-Te    5.86679 A  
   7  20  Te-Te    5.86679 A  
   9  18  Te-Te    5.86679 A *

Nearest neighbors for each atom (up to 4)

 atom   1 species Cu : neighbors at    2.757   2.757   2.757   2.757 A
         d(center): 9.924 A  angles  :   180.0    93.2    86.8    86.8    93.2   180.0
 atom   2 species Cu : neighbors at    2.757   2.757   2.757   2.757 A
         d(center):10.693 A  angles  :   180.0    93.2    86.8    86.8    93.2   180.0
 atom   3 species Cu : neighbors at    2.757   2.757   2.757   2.757 A
         d(center):10.693 A  angles  :   180.0    93.2    86.8    86.8    93.2   180.0
 atom   4 species Cu : neighbors at    2.789   2.789   2.789   2.789 A
         d(center): 5.176 A  angles  :   180.0    86.4    93.6    93.6    86.4   180.0
 atom   5 species Cu : neighbors at    2.739   2.739   2.739   2.739 A
         d(center):10.693 A  angles  :   180.0    92.5    87.5    87.5    92.5   180.0
 atom   6 species Te : neighbors at    2.789   2.912   2.912   2.919 A
         d(center): 2.902 A  angles  :   130.0   130.0    69.1    88.3    86.1    86.1
 atom   7 species Te : neighbors at    2.789   2.912   2.912   2.919 A
         d(center): 5.323 A  angles  :   130.0   130.0    69.1    88.3    86.1    86.1
 atom   8 species Te : neighbors at    2.739   2.757   2.757   2.914 A
         d(center): 8.723 A  angles  :    92.8    92.8   133.0    92.4    71.6   130.7
 atom   9 species Te : neighbors at    2.739   2.757   2.757   2.914 A
         d(center):11.666 A  angles  :    92.8    92.8   133.0    92.4    71.6   130.7
 atom  10 species Te : neighbors at    2.886   2.886   2.886   3.747 A
         d(center): 6.346 A  angles  :    85.1    85.1   105.4    85.1   165.5   105.4
 atom  11 species Te : neighbors at    2.789   2.912   2.912   2.919 A
         d(center): 6.672 A  angles  :   130.0   130.0    69.1    88.3    86.1    86.1
 atom  12 species Te : neighbors at    2.760   2.760   2.760   2.949 A
         d(center):10.366 A  angles  :    92.3    92.3    71.1    92.3   131.9   131.9
 atom  13 species Te : neighbors at    2.739   2.757   2.757   2.914 A
         d(center):12.322 A  angles  :    92.8    92.8   133.0    92.4    71.6   130.7
 atom  14 species Te : neighbors at    2.789   2.912   2.912   2.919 A
         d(center): 4.961 A  angles  :   130.0   130.0    69.1    88.3    86.1    86.1
 atom  15 species Te : neighbors at    2.886   2.886   2.886   3.747 A
         d(center): 7.747 A  angles  :    85.1    85.1   105.4    85.1   165.5   105.4
 atom  16 species Te : neighbors at    2.739   2.757   2.757   2.914 A
         d(center): 9.583 A  angles  :    92.8    92.8   133.0    92.4    71.6   130.7
 atom  17 species Te : neighbors at    2.760   2.760   2.760   2.949 A
         d(center):12.967 A  angles  :    92.3    92.3    71.1    92.3   131.9   131.9
 atom  18 species Te : neighbors at    2.789   2.912   2.912   2.919 A
         d(center): 6.388 A  angles  :   130.0   130.0    69.1    88.3    86.1    86.1
 atom  19 species Te : neighbors at    2.789   2.912   2.912   2.919 A
         d(center): 7.792 A  angles  :   130.0   130.0    69.1    88.3    86.1    86.1
 atom  20 species Te : neighbors at    2.739   2.757   2.757   2.914 A
         d(center):10.372 A  angles  :    92.8    92.8   133.0    92.4    71.6   130.7
 atom  21 species Te : neighbors at    2.739   2.757   2.757   2.914 A
         d(center):12.945 A  angles  :    92.8    92.8   133.0    92.4    71.6   130.7
 atom  22 species Zr : neighbors at    2.886   2.912   2.912   2.914 A
         d(center): 0.045 A  angles  :    86.7    86.7    95.4    83.9   177.4    94.6
 atom  23 species Zr : neighbors at    2.886   2.912   2.912   2.914 A
         d(center): 6.603 A  angles  :    86.7    86.7    95.4    83.9   177.4    94.6
 atom  24 species Zr : neighbors at    2.886   2.912   2.912   2.914 A
         d(center): 4.018 A  angles  :    86.7    86.7    95.3    83.9    94.6   177.4
 atom  25 species Zr : neighbors at    2.886   2.912   2.912   2.914 A
         d(center): 7.691 A  angles  :    86.7    86.7    95.3    83.9    94.6   177.4
 atom  26 species Zr : neighbors at    2.886   2.912   2.912   2.914 A
         d(center): 3.943 A  angles  :    86.7    86.7    95.3    83.9    94.6   177.4
 atom  27 species Zr : neighbors at    2.886   2.912   2.912   2.914 A
         d(center): 7.730 A  angles  :    86.7    86.7    95.3    83.9    94.6   177.4
 atom  28 species Zr : neighbors at    2.919   2.919   2.919   2.949 A
         d(center): 3.981 A  angles  :    88.3    88.3    93.7    88.3   177.2    93.7
 atom  29 species Zr : neighbors at    2.919   2.919   2.919   2.949 A
         d(center): 7.662 A  angles  :    88.3    88.3    93.7    88.3   177.2    93.7
