Distances between atoms, up to dmax=  6.00 A   (* = with lattice translation)
  #1  #2   bond       d
   1   9  Ni-Te    2.70369 A *
   2  16  Ni-Te    2.70386 A  
   2   3  Ni-Te    2.70390 A  
   1  14  Ni-Te    2.70413 A  
   2   8  Ni-Te    2.70541 A  
   2   4  Ni-Te    2.70541 A  
   1   6  Ni-Te    2.70568 A  
   1  10  Ni-Te    2.70568 A *
   1  17  Ni-Te    2.70639 A *
   1  13  Ni-Te    2.70640 A  
   2  11  Ni-Te    2.70664 A  
   2  15  Ni-Te    2.70664 A  
   7  19  Te-Zr    2.86802 A *
  12  20  Te-Zr    2.86803 A *
   7  21  Te-Zr    2.86803 A  
  12  22  Te-Zr    2.86803 A *
  18  21  Te-Zr    2.86805 A *
  18  19  Te-Zr    2.86806 A *
   5  22  Te-Zr    2.86807 A  
   5  20  Te-Zr    2.86807 A  
   7  23  Te-Zr    2.88635 A *
  12  24  Te-Zr    2.88635 A  
   5  26  Te-Zr    2.88636 A  
  18  25  Te-Zr    2.88639 A *
   8  22  Te-Zr    2.89558 A  
   4  20  Te-Zr    2.89558 A  
  11  21  Te-Zr    2.89563 A *
  15  19  Te-Zr    2.89563 A *
   6  19  Te-Zr    2.89568 A *
  10  21  Te-Zr    2.89568 A *
  17  20  Te-Zr    2.89569 A *
  13  22  Te-Zr    2.89569 A *
  11  25  Te-Zr    2.89705 A  
  15  25  Te-Zr    2.89705 A  
  17  24  Te-Zr    2.89708 A *
  13  24  Te-Zr    2.89708 A  
   6  23  Te-Zr    2.89722 A *
  10  23  Te-Zr    2.89722 A *
   8  26  Te-Zr    2.89723 A  
   4  26  Te-Zr    2.89723 A  
  14  23  Te-Zr    2.91185 A *
   4  24  Te-Zr    2.91186 A  
   8  24  Te-Zr    2.91186 A *
  15  23  Te-Zr    2.91187 A *
  11  23  Te-Zr    2.91187 A  
  16  26  Te-Zr    2.91188 A  
   3  25  Te-Zr    2.91192 A  
  10  25  Te-Zr    2.91193 A *
   6  25  Te-Zr    2.91193 A *
  13  26  Te-Zr    2.91193 A  
   9  24  Te-Zr    2.91194 A *
  17  26  Te-Zr    2.91194 A  
   3  21  Te-Zr    2.91847 A  
   3  19  Te-Zr    2.91847 A  
  16  22  Te-Zr    2.91849 A *
  16  20  Te-Zr    2.91850 A *
   9  20  Te-Zr    2.91853 A *
   9  22  Te-Zr    2.91853 A  
  14  19  Te-Zr    2.91857 A *
  14  21  Te-Zr    2.91858 A *
   2  26  Ni-Zr    3.22782 A  
   1  23  Ni-Zr    3.22858 A *
   1  24  Ni-Zr    3.22933 A  
   2  25  Ni-Zr    3.22969 A  
   4   7  Te-Te    3.63750 A *
   7   8  Te-Te    3.63751 A  
  12  15  Te-Te    3.63758 A *
  11  12  Te-Te    3.63759 A  
   5  10  Te-Te    3.63778 A  
   5   6  Te-Te    3.63779 A  
  13  18  Te-Te    3.63780 A  
  17  18  Te-Te    3.63780 A  
   3  12  Te-Te    3.66703 A *
   7  16  Te-Te    3.66714 A *
   5  14  Te-Te    3.66734 A *
   9  18  Te-Te    3.66734 A *
   8  15  Te-Te    3.66820 A  
   4  11  Te-Te    3.66821 A  
  10  17  Te-Te    3.66833 A  
   6  13  Te-Te    3.66833 A  
  11  16  Te-Te    3.69154 A  
  15  16  Te-Te    3.69155 A  
   3   8  Te-Te    3.69169 A  
   3   4  Te-Te    3.69169 A  
  14  17  Te-Te    3.69173 A *
  13  14  Te-Te    3.69174 A  
   6   9  Te-Te    3.69183 A *
   9  10  Te-Te    3.69183 A  
  19  21  Zr-Zr    3.80886 A *
  20  22  Zr-Zr    3.80888 A  
   4   8  Te-Te    3.84436 A *
   6  10  Te-Te    3.84458 A  
  13  17  Te-Te    3.84470 A  
  11  15  Te-Te    3.84476 A *
  22  24  Zr-Zr    3.86196 A *
  20  24  Zr-Zr    3.86196 A *
  19  25  Zr-Zr    3.86202 A *
  21  25  Zr-Zr    3.86202 A *
  20  26  Zr-Zr    3.86218 A  
  22  26  Zr-Zr    3.86218 A  
  21  23  Zr-Zr    3.86222 A *
  19  23  Zr-Zr    3.86222 A  
   4  16  Te-Te    3.86919 A *
   8  16  Te-Te    3.86919 A *
   6  14  Te-Te    3.86932 A *
  10  14  Te-Te    3.86932 A *
   3  11  Te-Te    3.86942 A *
   3  15  Te-Te    3.86942 A *
   9  13  Te-Te    3.86948 A *
   9  17  Te-Te    3.86948 A *
   7  11  Te-Te    3.89210 A *
   7  15  Te-Te    3.89210 A  
   5  17  Te-Te    3.89210 A  
   5  13  Te-Te    3.89210 A  
   6  18  Te-Te    3.89224 A  
  10  18  Te-Te    3.89224 A  
   8  12  Te-Te    3.89226 A *
   4  12  Te-Te    3.89226 A  
  14  18  Te-Te    3.91207 A  
  14  18  Te-Te    3.91207 A *
  12  16  Te-Te    3.91207 A *
  12  16  Te-Te    3.91207 A  
   5   9  Te-Te    3.91207 A  
   5   9  Te-Te    3.91207 A *
   3   7  Te-Te    3.91207 A  
   3   7  Te-Te    3.91207 A *
  23  25  Zr-Zr    3.91278 A *
  23  25  Zr-Zr    3.91279 A  
  24  26  Zr-Zr    3.91279 A  
  24  26  Zr-Zr    3.91279 A *
   4  12  Te-Te    3.93176 A *
   8  12  Te-Te    3.93176 A *
  10  18  Te-Te    3.93178 A *
   6  18  Te-Te    3.93178 A *
   5  13  Te-Te    3.93192 A *
   5  17  Te-Te    3.93192 A *
   7  15  Te-Te    3.93192 A *
   7  11  Te-Te    3.93192 A *
   9  17  Te-Te    3.95445 A  
   9  13  Te-Te    3.95445 A *
   3  15  Te-Te    3.95451 A  
   3  11  Te-Te    3.95451 A  
  10  14  Te-Te    3.95461 A *
   6  14  Te-Te    3.95461 A  
   8  16  Te-Te    3.95474 A  
   4  16  Te-Te    3.95474 A  
  19  23  Zr-Zr    3.96208 A *
  21  23  Zr-Zr    3.96208 A *
  22  26  Zr-Zr    3.96212 A *
  20  26  Zr-Zr    3.96212 A *
  21  25  Zr-Zr    3.96227 A  
  19  25  Zr-Zr    3.96227 A  
  20  24  Zr-Zr    3.96233 A  
  22  24  Zr-Zr    3.96233 A *
  11  15  Te-Te    3.97907 A  
  13  17  Te-Te    3.97912 A *
   6  10  Te-Te    3.97925 A *
   4   8  Te-Te    3.97946 A  
  20  22  Zr-Zr    4.01494 A *
  19  21  Zr-Zr    4.01496 A  
   9  16  Te-Te    4.23687 A *
   3  14  Te-Te    4.23688 A *
   4   9  Te-Te    4.26001 A *
   8   9  Te-Te    4.26002 A  
   3  10  Te-Te    4.26013 A *
   3   6  Te-Te    4.26014 A *
  13  16  Te-Te    4.26028 A  
  14  15  Te-Te    4.26028 A *
  11  14  Te-Te    4.26028 A *
  16  17  Te-Te    4.26028 A  
   7  18  Te-Te    4.28896 A *
   5  12  Te-Te    4.28896 A *
   6   7  Te-Te    4.29066 A *
   7  10  Te-Te    4.29066 A *
   5   8  Te-Te    4.29068 A  
   4   5  Te-Te    4.29068 A  
  11  18  Te-Te    4.29073 A *
  15  18  Te-Te    4.29074 A *
  12  17  Te-Te    4.29081 A *
  12  13  Te-Te    4.29081 A  
   6  11  Te-Te    4.29363 A *
  10  15  Te-Te    4.29363 A *
   8  17  Te-Te    4.29365 A  
   4  13  Te-Te    4.29365 A  
   1   5  Ni-Te    4.73640 A *
   1   5  Ni-Te    4.73640 A  
   2   7  Ni-Te    4.73647 A *
   2   7  Ni-Te    4.73648 A  
   2  12  Ni-Te    4.73651 A *
   2  12  Ni-Te    4.73651 A  
   1  18  Ni-Te    4.73668 A  
   1  18  Ni-Te    4.73669 A *
   2  12  Ni-Te    4.75234 A *
   1  18  Ni-Te    4.75264 A *
   1   5  Ni-Te    4.75395 A *
   2   7  Ni-Te    4.75417 A *
   5  24  Te-Zr    4.84187 A *
  12  26  Te-Zr    4.84191 A *
   7  25  Te-Zr    4.84194 A *
  18  23  Te-Zr    4.84201 A *
  11  19  Te-Zr    4.85184 A *
  15  21  Te-Zr    4.85184 A *
  17  22  Te-Zr    4.85191 A *
  13  20  Te-Zr    4.85191 A *
   6  21  Te-Zr    4.85194 A *
  10  19  Te-Zr    4.85194 A *
   8  20  Te-Zr    4.85198 A  
   4  22  Te-Zr    4.85198 A  
   7  25  Te-Zr    4.86468 A *
   7  25  Te-Zr    4.86468 A  
  18  23  Te-Zr    4.86470 A *
  18  23  Te-Zr    4.86471 A *
  12  26  Te-Zr    4.86474 A *
  12  26  Te-Zr    4.86474 A  
   5  24  Te-Zr    4.86475 A *
   5  24  Te-Zr    4.86475 A  
  16  24  Te-Zr    4.87294 A  
  16  24  Te-Zr    4.87294 A *
   9  26  Te-Zr    4.87297 A *
   9  26  Te-Zr    4.87297 A  
  14  25  Te-Zr    4.87298 A *
  14  25  Te-Zr    4.87298 A *
   3  23  Te-Zr    4.87302 A *
   3  23  Te-Zr    4.87302 A  
  15  21  Te-Zr    4.87775 A  
  11  19  Te-Zr    4.87775 A  
  17  22  Te-Zr    4.87778 A  
  13  20  Te-Zr    4.87778 A  
  10  19  Te-Zr    4.87780 A *
   6  21  Te-Zr    4.87780 A *
   8  20  Te-Zr    4.87781 A *
   4  22  Te-Zr    4.87781 A *
   4  22  Te-Zr    4.88050 A *
   8  20  Te-Zr    4.88050 A *
  10  19  Te-Zr    4.88065 A *
   6  21  Te-Zr    4.88065 A *
  15  21  Te-Zr    4.88070 A *
  11  19  Te-Zr    4.88070 A *
  13  20  Te-Zr    4.88070 A *
  17  22  Te-Zr    4.88071 A *
   3  23  Te-Zr    4.88192 A *
   9  26  Te-Zr    4.88207 A *
  14  25  Te-Zr    4.88214 A *
  16  24  Te-Zr    4.88214 A *
   2  22  Ni-Zr    5.07110 A  
   2  20  Ni-Zr    5.07110 A  
   1  19  Ni-Zr    5.07161 A *
   1  21  Ni-Zr    5.07161 A *
   1  22  Ni-Zr    5.07270 A *
   1  20  Ni-Zr    5.07270 A *
   2  21  Ni-Zr    5.07296 A *
   2  19  Ni-Zr    5.07297 A *
   2  24  Ni-Zr    5.11060 A  
   2  24  Ni-Zr    5.11060 A *
   1  25  Ni-Zr    5.11107 A *
   1  25  Ni-Zr    5.11107 A *
   2  22  Ni-Zr    5.11139 A *
   2  20  Ni-Zr    5.11139 A *
   1  26  Ni-Zr    5.11156 A  
   1  26  Ni-Zr    5.11156 A *
   1  20  Ni-Zr    5.11165 A  
   1  22  Ni-Zr    5.11166 A *
   2  23  Ni-Zr    5.11178 A  
   2  23  Ni-Zr    5.11178 A *
   2  19  Ni-Zr    5.11182 A  
   2  21  Ni-Zr    5.11182 A  
   1  21  Ni-Zr    5.11184 A *
   1  19  Ni-Zr    5.11184 A *
  16  25  Te-Zr    5.19540 A  
   3  26  Te-Zr    5.19547 A  
  14  24  Te-Zr    5.19563 A  
   9  23  Te-Zr    5.19579 A *
  16  21  Te-Zr    5.20191 A *
  16  19  Te-Zr    5.20191 A *
   3  22  Te-Zr    5.20203 A  
   3  20  Te-Zr    5.20203 A  
  14  20  Te-Zr    5.20221 A *
  14  22  Te-Zr    5.20221 A *
   9  19  Te-Zr    5.20236 A *
   9  21  Te-Zr    5.20236 A *
  11  26  Te-Zr    5.20581 A  
  15  26  Te-Zr    5.20581 A  
   8  25  Te-Zr    5.20600 A  
   4  25  Te-Zr    5.20600 A  
  17  23  Te-Zr    5.20609 A *
  13  23  Te-Zr    5.20609 A *
   6  24  Te-Zr    5.20623 A  
  10  24  Te-Zr    5.20623 A *
   8  21  Te-Zr    5.20891 A  
   4  19  Te-Zr    5.20891 A  
  11  22  Te-Zr    5.20893 A *
  15  20  Te-Zr    5.20893 A *
   6  20  Te-Zr    5.20922 A  
  10  22  Te-Zr    5.20922 A  
  17  19  Te-Zr    5.20923 A *
  13  21  Te-Zr    5.20923 A *
  15  24  Te-Zr    5.22315 A *
  11  24  Te-Zr    5.22315 A  
   4  23  Te-Zr    5.22320 A  
   8  23  Te-Zr    5.22321 A *
  13  25  Te-Zr    5.22343 A *
  17  25  Te-Zr    5.22343 A *
  10  26  Te-Zr    5.22350 A  
   6  26  Te-Zr    5.22350 A  
  12  19  Te-Zr    5.23862 A *
  12  21  Te-Zr    5.23862 A *
   7  20  Te-Zr    5.23879 A *
   7  22  Te-Zr    5.23879 A  
  18  22  Te-Zr    5.23896 A *
  18  20  Te-Zr    5.23896 A *
   5  21  Te-Zr    5.23909 A *
   5  19  Te-Zr    5.23909 A *
  12  23  Te-Zr    5.25104 A  
   7  24  Te-Zr    5.25115 A *
  18  26  Te-Zr    5.25140 A  
   5  25  Te-Zr    5.25143 A *
   4  15  Te-Te    5.31379 A *
   8  11  Te-Te    5.31379 A *
  10  13  Te-Te    5.31393 A  
   6  17  Te-Te    5.31394 A  
   7  12  Te-Te    5.34090 A *
   5  18  Te-Te    5.34108 A  
   4  15  Te-Te    5.34218 A *
   8  11  Te-Te    5.34218 A *
  10  13  Te-Te    5.34237 A *
   6  17  Te-Te    5.34237 A *
   3  16  Te-Te    5.35352 A *
   3  16  Te-Te    5.35353 A *
   9  14  Te-Te    5.35371 A *
   9  14  Te-Te    5.35371 A *
   7  12  Te-Te    5.37060 A *
   7  12  Te-Te    5.37060 A *
   5  18  Te-Te    5.37076 A *
   5  18  Te-Te    5.37077 A *
   3  16  Te-Te    5.40776 A  
   9  14  Te-Te    5.40782 A *
   8  11  Te-Te    5.41205 A  
   4  15  Te-Te    5.41205 A  
   6  17  Te-Te    5.41207 A *
  10  13  Te-Te    5.41208 A *
   2  13  Ni-Te    5.54817 A  
   2  17  Ni-Te    5.54817 A  
   1  15  Ni-Te    5.54877 A *
   1  11  Ni-Te    5.54877 A *
   2   5  Ni-Te    5.54881 A  
   1   4  Ni-Te    5.54916 A  
   1   8  Ni-Te    5.54916 A *
   1   7  Ni-Te    5.54945 A *
   2  10  Ni-Te    5.54958 A *
   2   6  Ni-Te    5.54958 A *
   1  12  Ni-Te    5.55069 A  
   2  18  Ni-Te    5.55105 A *
   3  18  Te-Te    5.78572 A *
   3  18  Te-Te    5.78572 A *
   9  12  Te-Te    5.78575 A *
   9  12  Te-Te    5.78576 A *
   5  16  Te-Te    5.78576 A *
   5  16  Te-Te    5.78576 A *
   7  14  Te-Te    5.78579 A *
   7  14  Te-Te    5.78580 A *
   8  13  Te-Te    5.78876 A *
   4  17  Te-Te    5.78876 A *
  10  11  Te-Te    5.78880 A *
   6  15  Te-Te    5.78880 A *
   7  14  Te-Te    5.79714 A *
   5  16  Te-Te    5.79718 A  
   9  12  Te-Te    5.79722 A *
   3  18  Te-Te    5.79724 A *
   4  17  Te-Te    5.80797 A *
   8  13  Te-Te    5.80798 A *
  10  11  Te-Te    5.80802 A *
   6  15  Te-Te    5.80802 A *
   6  15  Te-Te    5.80814 A *
  10  11  Te-Te    5.80814 A *
   8  13  Te-Te    5.80820 A  
   4  17  Te-Te    5.80821 A  

Nearest neighbors for each atom (up to 4)

 atom   1 species Ni : neighbors at    2.704   2.704   2.706   2.706 A
         d(center):10.531 A  angles  :   180.0    86.1    86.1    93.9    93.9    94.7
 atom   2 species Ni : neighbors at    2.704   2.704   2.705   2.705 A
         d(center): 5.092 A  angles  :   180.0    94.0    94.0    86.1    86.1    94.7
 atom   3 species Te : neighbors at    2.704   2.912   2.918   2.918 A
         d(center): 2.883 A  angles  :    70.1   130.8   130.7    85.6    85.6    86.9
 atom   4 species Te : neighbors at    2.705   2.896   2.897   2.912 A
         d(center): 5.209 A  angles  :   129.7    70.3   130.9    83.6    86.0    84.7
 atom   5 species Te : neighbors at    2.868   2.868   2.886   3.638 A
         d(center): 8.636 A  angles  :    83.2    84.3   105.8    84.3   166.9   105.8
 atom   6 species Te : neighbors at    2.706   2.896   2.897   2.912 A
         d(center):11.440 A  angles  :   129.7    70.3   130.9    83.6    86.0    84.7
 atom   7 species Te : neighbors at    2.868   2.868   2.886   3.638 A
         d(center): 6.247 A  angles  :    83.2    84.3   105.8    84.3   166.9   105.8
 atom   8 species Te : neighbors at    2.705   2.896   2.897   2.912 A
         d(center): 6.535 A  angles  :   129.7    70.3   130.9    83.6    86.0    84.7
 atom   9 species Te : neighbors at    2.704   2.912   2.919   2.919 A
         d(center):10.244 A  angles  :    70.1   130.7   130.7    85.6    85.6    86.9
 atom  10 species Te : neighbors at    2.706   2.896   2.897   2.912 A
         d(center):12.079 A  angles  :   129.7    70.3   130.9    83.6    86.0    84.7
 atom  11 species Te : neighbors at    2.707   2.896   2.897   2.912 A
         d(center): 4.878 A  angles  :   129.8    70.3   130.9    83.6    86.0    84.7
 atom  12 species Te : neighbors at    2.868   2.868   2.886   3.638 A
         d(center): 7.595 A  angles  :    83.2    84.3   105.8    84.3   166.9   105.8
 atom  13 species Te : neighbors at    2.706   2.896   2.897   2.912 A
         d(center): 9.487 A  angles  :   129.8    70.3   130.9    83.6    86.0    84.7
 atom  14 species Te : neighbors at    2.704   2.912   2.919   2.919 A
         d(center):12.731 A  angles  :    70.1   130.7   130.7    85.6    85.6    86.9
 atom  15 species Te : neighbors at    2.707   2.896   2.897   2.912 A
         d(center): 6.274 A  angles  :   129.8    70.3   130.9    83.6    86.0    84.7
 atom  16 species Te : neighbors at    2.704   2.912   2.918   2.918 A
         d(center): 7.626 A  angles  :    70.1   130.7   130.7    85.6    85.6    86.9
 atom  17 species Te : neighbors at    2.706   2.896   2.897   2.912 A
         d(center):10.249 A  angles  :   129.8    70.3   130.9    83.6    86.0    84.7
 atom  18 species Te : neighbors at    2.868   2.868   2.886   3.638 A
         d(center):12.708 A  angles  :    83.2    84.3   105.8    84.3   166.9   105.8
 atom  19 species Zr : neighbors at    2.868   2.868   2.896   2.896 A
         d(center): 0.052 A  angles  :    96.8    86.0    96.2    96.2    86.0   176.6
 atom  20 species Zr : neighbors at    2.868   2.868   2.896   2.896 A
         d(center): 6.518 A  angles  :    96.8    86.0    96.2    96.2    86.0   176.6
 atom  21 species Zr : neighbors at    2.868   2.868   2.896   2.896 A
         d(center): 3.963 A  angles  :    96.8    86.0    96.2    96.2    86.0   176.6
 atom  22 species Zr : neighbors at    2.868   2.868   2.896   2.896 A
         d(center): 7.576 A  angles  :    96.8    86.0    96.2    96.2    86.0   176.6
 atom  23 species Zr : neighbors at    2.886   2.897   2.897   2.912 A
         d(center): 3.888 A  angles  :    95.8    95.8   177.8    86.7    85.8    85.8
 atom  24 species Zr : neighbors at    2.886   2.897   2.897   2.912 A
         d(center): 7.641 A  angles  :    95.8    95.8    84.3    86.7   177.9    95.3
 atom  25 species Zr : neighbors at    2.886   2.897   2.897   2.912 A
         d(center): 3.936 A  angles  :    95.8    95.8   177.8    86.7    85.8    85.8
 atom  26 species Zr : neighbors at    2.886   2.897   2.897   2.912 A
         d(center): 7.563 A  angles  :    95.8    95.8   177.8    86.7    85.8    85.8
