Distances between atoms, up to dmax=  6.00 A   (* = with lattice translation)
  #1  #2   bond       d
   2  13  Cr-Te    2.66998 A  
   1  13  Cr-Te    2.66998 A  
   2   6  Cr-Te    2.66998 A  
   1   6  Cr-Te    2.66999 A  
   2  17  Cr-Te    2.67434 A  
   1  10  Cr-Te    2.67435 A *
   2  10  Cr-Te    2.67435 A  
   1  17  Cr-Te    2.67435 A *
   2  18  Cr-Te    2.68156 A  
   1  14  Cr-Te    2.68157 A  
   1   9  Cr-Te    2.68157 A *
   2   5  Cr-Te    2.68157 A  
  11  21  Te-Zr    2.86967 A *
   4  20  Te-Zr    2.86968 A  
   8  22  Te-Zr    2.87008 A  
  15  19  Te-Zr    2.87012 A *
  12  22  Te-Zr    2.87926 A *
  16  22  Te-Zr    2.87926 A *
   3  19  Te-Zr    2.87930 A  
   7  19  Te-Zr    2.87931 A *
   3  21  Te-Zr    2.87934 A  
   7  21  Te-Zr    2.87934 A  
  16  20  Te-Zr    2.87936 A *
  12  20  Te-Zr    2.87936 A *
   5  26  Te-Zr    2.88968 A  
   9  24  Te-Zr    2.88969 A *
  18  25  Te-Zr    2.88969 A *
  14  23  Te-Zr    2.88969 A *
  15  23  Te-Zr    2.89860 A *
   8  24  Te-Zr    2.89861 A *
  15  25  Te-Zr    2.89861 A  
   8  26  Te-Zr    2.89861 A  
   4  24  Te-Zr    2.89961 A  
   4  26  Te-Zr    2.89961 A  
  11  23  Te-Zr    2.89961 A  
  11  25  Te-Zr    2.89962 A  
   9  20  Te-Zr    2.91298 A *
   5  20  Te-Zr    2.91298 A  
  14  21  Te-Zr    2.91299 A *
  18  21  Te-Zr    2.91300 A *
  14  19  Te-Zr    2.91404 A *
   9  22  Te-Zr    2.91405 A  
  18  19  Te-Zr    2.91405 A *
   5  22  Te-Zr    2.91406 A  
  12  24  Te-Zr    2.91698 A  
  16  26  Te-Zr    2.91698 A  
   7  23  Te-Zr    2.91698 A *
   3  25  Te-Zr    2.91699 A  
  17  26  Te-Zr    2.93052 A  
  17  24  Te-Zr    2.93054 A *
  10  25  Te-Zr    2.93055 A *
  10  23  Te-Zr    2.93057 A *
   6  25  Te-Zr    2.93153 A *
  13  26  Te-Zr    2.93154 A  
   6  23  Te-Zr    2.93155 A *
  13  24  Te-Zr    2.93156 A  
  13  22  Te-Zr    2.93494 A *
   6  19  Te-Zr    2.93495 A *
  17  20  Te-Zr    2.94073 A *
  10  21  Te-Zr    2.94074 A *
   2  26  Cr-Zr    3.19889 A  
   2  25  Cr-Zr    3.19890 A *
   1  24  Cr-Zr    3.19891 A  
   1  23  Cr-Zr    3.19892 A *
   9  18  Te-Te    3.54752 A *
   5  14  Te-Te    3.54752 A *
   5  10  Te-Te    3.58241 A  
   9  10  Te-Te    3.58242 A  
  17  18  Te-Te    3.58245 A  
  14  17  Te-Te    3.58246 A *
  13  18  Te-Te    3.58272 A  
  13  14  Te-Te    3.58273 A  
   5   6  Te-Te    3.58273 A  
   6   9  Te-Te    3.58275 A *
  10  17  Te-Te    3.61967 A  
   6  13  Te-Te    3.63192 A  
   8  15  Te-Te    3.72526 A  
   4  11  Te-Te    3.72716 A  
   3   8  Te-Te    3.77679 A  
   7   8  Te-Te    3.77680 A  
  15  16  Te-Te    3.77682 A  
  12  15  Te-Te    3.77682 A *
   3   4  Te-Te    3.77699 A  
  11  16  Te-Te    3.77700 A  
   4   7  Te-Te    3.77700 A *
  11  12  Te-Te    3.77700 A  
   3  12  Te-Te    3.82834 A *
   7  16  Te-Te    3.82834 A *
  19  23  Zr-Zr    3.85885 A *
  22  24  Zr-Zr    3.85885 A *
  19  25  Zr-Zr    3.85886 A *
  22  26  Zr-Zr    3.85886 A  
  20  24  Zr-Zr    3.86030 A  
  20  26  Zr-Zr    3.86031 A  
  21  23  Zr-Zr    3.86032 A *
  21  25  Zr-Zr    3.86033 A *
   9  13  Te-Te    3.87260 A *
   5  13  Te-Te    3.87260 A *
   6  14  Te-Te    3.87262 A *
   6  18  Te-Te    3.87262 A *
  10  14  Te-Te    3.87601 A *
  10  18  Te-Te    3.87601 A *
   9  17  Te-Te    3.87603 A *
   5  17  Te-Te    3.87604 A *
   3  15  Te-Te    3.90175 A  
   7  15  Te-Te    3.90176 A  
   8  16  Te-Te    3.90179 A  
   8  12  Te-Te    3.90180 A *
   4  16  Te-Te    3.90205 A  
   4  12  Te-Te    3.90207 A  
   3  11  Te-Te    3.90208 A  
   7  11  Te-Te    3.90209 A *
   1   2  Cr-Cr    3.91464 A  
   5   9  Te-Te    3.92434 A *
  23  25  Zr-Zr    3.92435 A *
  14  18  Te-Te    3.92441 A  
  24  26  Zr-Zr    3.92443 A *
  12  16  Te-Te    3.92574 A  
   3   7  Te-Te    3.92588 A *
   4   8  Te-Te    3.92622 A  
  11  15  Te-Te    3.92622 A  
  19  21  Zr-Zr    3.92623 A  
  13  17  Te-Te    3.92623 A  
   6  10  Te-Te    3.92623 A  
  20  22  Zr-Zr    3.92623 A *
  20  22  Zr-Zr    3.92624 A  
  19  21  Zr-Zr    3.92624 A *
  11  15  Te-Te    3.92624 A *
   6  10  Te-Te    3.92625 A *
  13  17  Te-Te    3.92625 A *
   4   8  Te-Te    3.92625 A *
   3   7  Te-Te    3.92659 A  
  12  16  Te-Te    3.92672 A *
  24  26  Zr-Zr    3.92804 A  
  14  18  Te-Te    3.92806 A *
  23  25  Zr-Zr    3.92812 A  
   5   9  Te-Te    3.92813 A  
   1   2  Cr-Cr    3.93783 A *
   7  11  Te-Te    3.95088 A *
   3  11  Te-Te    3.95089 A *
   4  12  Te-Te    3.95090 A *
   4  16  Te-Te    3.95091 A *
   8  12  Te-Te    3.95119 A *
   8  16  Te-Te    3.95120 A *
   7  15  Te-Te    3.95123 A *
   3  15  Te-Te    3.95124 A *
   5  17  Te-Te    3.97663 A  
   9  17  Te-Te    3.97663 A  
  10  18  Te-Te    3.97666 A  
  10  14  Te-Te    3.97666 A *
   6  18  Te-Te    3.98011 A  
   6  14  Te-Te    3.98011 A  
   5  13  Te-Te    3.98013 A  
   9  13  Te-Te    3.98014 A *
  21  25  Zr-Zr    3.99334 A  
  21  23  Zr-Zr    3.99335 A *
  20  26  Zr-Zr    3.99336 A *
  20  24  Zr-Zr    3.99336 A *
  22  26  Zr-Zr    3.99478 A *
  19  25  Zr-Zr    3.99478 A  
  22  24  Zr-Zr    3.99479 A *
  19  23  Zr-Zr    3.99479 A  
  13  16  Te-Te    4.24775 A  
  12  13  Te-Te    4.24776 A  
   3   6  Te-Te    4.24779 A *
   6   7  Te-Te    4.24779 A *
  16  17  Te-Te    4.25243 A  
  12  17  Te-Te    4.25244 A *
   3  10  Te-Te    4.25246 A *
   7  10  Te-Te    4.25246 A *
   9  16  Te-Te    4.25617 A *
   5  12  Te-Te    4.25617 A *
   3  14  Te-Te    4.25619 A *
   7  18  Te-Te    4.25619 A *
   6  11  Te-Te    4.30743 A *
   4  13  Te-Te    4.30751 A  
   8  17  Te-Te    4.30823 A  
  10  15  Te-Te    4.30833 A *
  11  14  Te-Te    4.30997 A *
   4   5  Te-Te    4.30998 A  
  11  18  Te-Te    4.30998 A *
   4   9  Te-Te    4.30998 A *
   8   9  Te-Te    4.31160 A  
   5   8  Te-Te    4.31160 A  
  14  15  Te-Te    4.31162 A *
  15  18  Te-Te    4.31162 A *
   2   9  Cr-Te    4.71430 A *
   1   5  Cr-Te    4.71430 A *
   1  18  Cr-Te    4.71431 A *
   2  14  Cr-Te    4.71432 A *
   1   5  Cr-Te    4.74901 A  
   2   9  Cr-Te    4.74902 A *
   2  14  Cr-Te    4.74904 A  
   1  18  Cr-Te    4.74905 A  
   1  18  Cr-Te    4.76013 A *
   2  14  Cr-Te    4.76013 A *
   1   5  Cr-Te    4.76016 A *
   2   9  Cr-Te    4.76016 A  
  16  24  Te-Zr    4.85076 A *
  12  26  Te-Zr    4.85077 A *
   3  23  Te-Zr    4.85078 A *
   7  25  Te-Zr    4.85079 A *
   4  22  Te-Zr    4.86286 A  
  11  19  Te-Zr    4.86286 A *
  11  19  Te-Zr    4.86286 A *
   4  22  Te-Zr    4.86287 A *
   8  20  Te-Zr    4.86370 A  
   8  20  Te-Zr    4.86370 A *
  15  21  Te-Zr    4.86371 A *
  15  21  Te-Zr    4.86372 A *
   9  26  Te-Zr    4.87496 A *
   5  24  Te-Zr    4.87496 A  
  14  25  Te-Zr    4.87497 A *
  18  23  Te-Zr    4.87498 A *
  14  25  Te-Zr    4.87502 A *
   9  26  Te-Zr    4.87503 A  
  18  23  Te-Zr    4.87503 A *
   5  24  Te-Zr    4.87504 A *
   3  23  Te-Zr    4.89061 A *
   7  25  Te-Zr    4.89062 A  
  16  24  Te-Zr    4.89069 A *
  12  26  Te-Zr    4.89070 A *
   8  20  Te-Zr    4.89118 A *
  15  21  Te-Zr    4.89119 A  
  16  24  Te-Zr    4.89175 A  
  12  26  Te-Zr    4.89175 A  
   3  23  Te-Zr    4.89184 A  
   7  25  Te-Zr    4.89185 A *
  11  19  Te-Zr    4.89200 A  
   4  22  Te-Zr    4.89205 A *
  14  25  Te-Zr    4.89631 A *
   9  26  Te-Zr    4.89632 A *
  18  23  Te-Zr    4.89632 A *
   5  24  Te-Zr    4.89633 A *
  17  22  Te-Zr    4.89864 A  
  10  19  Te-Zr    4.89873 A *
  13  20  Te-Zr    4.90165 A *
  13  20  Te-Zr    4.90166 A *
   6  21  Te-Zr    4.90166 A *
   6  21  Te-Zr    4.90168 A *
   6  21  Te-Zr    4.90243 A *
  13  20  Te-Zr    4.90250 A  
  10  19  Te-Zr    4.90572 A *
  17  22  Te-Zr    4.90572 A *
  10  19  Te-Zr    4.90573 A *
  17  22  Te-Zr    4.90573 A *
   1  26  Cr-Zr    5.06061 A  
   2  24  Cr-Zr    5.06062 A  
   1  25  Cr-Zr    5.06065 A *
   2  23  Cr-Zr    5.06066 A *
   1  25  Cr-Zr    5.06817 A *
   2  23  Cr-Zr    5.06819 A *
   1  26  Cr-Zr    5.06820 A *
   2  24  Cr-Zr    5.06821 A *
   2  21  Cr-Zr    5.07500 A *
   1  21  Cr-Zr    5.07501 A *
   1  20  Cr-Zr    5.07501 A  
   2  20  Cr-Zr    5.07502 A  
   1  22  Cr-Zr    5.07911 A *
   2  22  Cr-Zr    5.07912 A  
   2  19  Cr-Zr    5.07913 A *
   1  19  Cr-Zr    5.07913 A *
  10  26  Te-Zr    5.11166 A  
  10  24  Te-Zr    5.11167 A *
  17  25  Te-Zr    5.11168 A *
  17  23  Te-Zr    5.11170 A *
   6  26  Te-Zr    5.11685 A  
  13  25  Te-Zr    5.11686 A *
  13  23  Te-Zr    5.11687 A *
   6  24  Te-Zr    5.11688 A  
   2  22  Cr-Zr    5.12077 A *
   1  22  Cr-Zr    5.12078 A *
   1  19  Cr-Zr    5.12079 A *
   2  19  Cr-Zr    5.12080 A *
   2  20  Cr-Zr    5.12478 A *
   1  20  Cr-Zr    5.12479 A *
   1  21  Cr-Zr    5.12480 A *
   2  21  Cr-Zr    5.12481 A *
  10  22  Te-Zr    5.13762 A  
  17  19  Te-Zr    5.13772 A *
  13  21  Te-Zr    5.13909 A *
   6  20  Te-Zr    5.13914 A  
   5  25  Te-Zr    5.14752 A *
  18  26  Te-Zr    5.14753 A  
   9  23  Te-Zr    5.14755 A *
  14  24  Te-Zr    5.14755 A  
   5  19  Te-Zr    5.16697 A *
  18  22  Te-Zr    5.16698 A *
  14  22  Te-Zr    5.16698 A *
   9  19  Te-Zr    5.16699 A *
  18  20  Te-Zr    5.16750 A *
  14  20  Te-Zr    5.16751 A *
   5  21  Te-Zr    5.16752 A *
   9  21  Te-Zr    5.16752 A *
  10  13  Te-Te    5.26208 A *
   6  17  Te-Te    5.26221 A *
   5  18  Te-Te    5.29149 A *
   9  14  Te-Te    5.29150 A *
   5  18  Te-Te    5.29155 A *
   9  14  Te-Te    5.29155 A *
  15  20  Te-Zr    5.29688 A *
   8  21  Te-Zr    5.29691 A  
   4  19  Te-Zr    5.29749 A  
  11  22  Te-Zr    5.29754 A *
   3  22  Te-Zr    5.31052 A  
   7  22  Te-Zr    5.31052 A  
  12  21  Te-Zr    5.31054 A *
  16  21  Te-Zr    5.31054 A *
  12  19  Te-Zr    5.31055 A *
   7  20  Te-Zr    5.31055 A *
   3  20  Te-Zr    5.31055 A  
  16  19  Te-Zr    5.31055 A *
  15  24  Te-Zr    5.33260 A *
  15  26  Te-Zr    5.33261 A  
   8  23  Te-Zr    5.33262 A *
   8  25  Te-Zr    5.33263 A  
   4  23  Te-Zr    5.33408 A  
  11  24  Te-Zr    5.33409 A  
   4  25  Te-Zr    5.33409 A  
  11  26  Te-Zr    5.33410 A  
   7  24  Te-Zr    5.34140 A *
   3  26  Te-Zr    5.34142 A  
  12  23  Te-Zr    5.34142 A  
  16  25  Te-Zr    5.34144 A  
   6  17  Te-Te    5.34431 A  
  10  13  Te-Te    5.34431 A  
  10  13  Te-Te    5.34432 A *
   6  17  Te-Te    5.34433 A *
   5  18  Te-Te    5.36312 A  
   9  14  Te-Te    5.36313 A *
   4  15  Te-Te    5.41292 A  
   4  15  Te-Te    5.41293 A *
   8  11  Te-Te    5.41295 A  
   8  11  Te-Te    5.41297 A *
   3  16  Te-Te    5.44793 A  
   4  15  Te-Te    5.44794 A *
   7  12  Te-Te    5.44794 A *
   8  11  Te-Te    5.44797 A *
   2  16  Cr-Te    5.48217 A  
   1  12  Cr-Te    5.48217 A  
   1   7  Cr-Te    5.48220 A *
   2   3  Cr-Te    5.48221 A *
   7  12  Te-Te    5.48370 A *
   3  16  Te-Te    5.48370 A *
   7  12  Te-Te    5.48379 A *
   3  16  Te-Te    5.48379 A *
   2  11  Cr-Te    5.52170 A *
   1  11  Cr-Te    5.52170 A *
   2   4  Cr-Te    5.52172 A  
   1   4  Cr-Te    5.52172 A  
   2   8  Cr-Te    5.52636 A  
   1   8  Cr-Te    5.52636 A *
   2  15  Cr-Te    5.52640 A *
   1  15  Cr-Te    5.52640 A *
   7  14  Te-Te    5.79004 A *
   3  18  Te-Te    5.79005 A *
   9  12  Te-Te    5.79006 A *
   5  16  Te-Te    5.79006 A *
   9  12  Te-Te    5.79100 A *
   5  16  Te-Te    5.79102 A *
   7  14  Te-Te    5.79104 A *
   3  18  Te-Te    5.79104 A *
   8  13  Te-Te    5.80482 A *
   6  15  Te-Te    5.80487 A *
   9  12  Te-Te    5.80655 A *
   5  16  Te-Te    5.80655 A  
   7  14  Te-Te    5.80656 A *
   3  18  Te-Te    5.80656 A *
  10  11  Te-Te    5.81021 A *
   4  17  Te-Te    5.81022 A *
   6  15  Te-Te    5.82855 A *
   6  15  Te-Te    5.82857 A *
   8  13  Te-Te    5.82857 A  
   8  13  Te-Te    5.82858 A *
   4  17  Te-Te    5.82869 A  
   4  17  Te-Te    5.82871 A *
  10  11  Te-Te    5.82873 A *
  10  11  Te-Te    5.82874 A *

Nearest neighbors for each atom (up to 4)

 atom   1 species Cr : neighbors at    2.670   2.670   2.674   2.674 A
         d(center):10.551 A  angles  :    85.7   179.7    94.6    94.6   179.7    85.2
 atom   2 species Cr : neighbors at    2.670   2.670   2.674   2.674 A
         d(center):10.551 A  angles  :    85.7    94.6   179.7   179.7    94.6    85.2
 atom   3 species Te : neighbors at    2.879   2.879   2.917   3.777 A
         d(center): 2.859 A  angles  :    86.0    87.1   164.1    87.1   104.7   104.9
 atom   4 species Te : neighbors at    2.870   2.900   2.900   3.727 A
         d(center): 5.273 A  angles  :    84.0    84.0   165.4    85.3   106.5   106.5
 atom   5 species Te : neighbors at    2.682   2.890   2.913   2.914 A
         d(center): 8.704 A  angles  :    70.0   130.2   130.3    83.4    83.3    84.7
 atom   6 species Te : neighbors at    2.670   2.670   2.932   2.932 A
         d(center):11.406 A  angles  :    94.3    69.5   129.2   129.2    69.5    84.1
 atom   7 species Te : neighbors at    2.879   2.879   2.917   3.777 A
         d(center): 6.246 A  angles  :    86.0    87.1   164.1    87.1   104.7   104.9
 atom   8 species Te : neighbors at    2.870   2.899   2.899   3.725 A
         d(center): 6.574 A  angles  :    84.0    84.0   165.4    85.2   106.6   106.6
 atom   9 species Te : neighbors at    2.682   2.890   2.913   2.914 A
         d(center):10.325 A  angles  :    70.0   130.2   130.3    83.4    83.3    84.7
 atom  10 species Te : neighbors at    2.674   2.674   2.931   2.931 A
         d(center):12.060 A  angles  :    94.8   129.4    69.4    69.4   129.4    84.1
 atom  11 species Te : neighbors at    2.870   2.900   2.900   3.727 A
         d(center): 4.856 A  angles  :    84.0    84.0   165.4    85.3   106.5   106.5
 atom  12 species Te : neighbors at    2.879   2.879   2.917   3.777 A
         d(center): 7.669 A  angles  :    86.0    87.1   164.1    87.1   104.7   104.9
 atom  13 species Te : neighbors at    2.670   2.670   2.932   2.932 A
         d(center): 9.566 A  angles  :    94.3    69.5   129.2   129.2    69.5    84.1
 atom  14 species Te : neighbors at    2.682   2.890   2.913   2.914 A
         d(center):12.701 A  angles  :    70.0   130.2   130.3    83.4    83.3    84.7
 atom  15 species Te : neighbors at    2.870   2.899   2.899   3.725 A
         d(center): 6.245 A  angles  :    84.0    84.0   165.4    85.2   106.6   106.6
 atom  16 species Te : neighbors at    2.879   2.879   2.917   3.777 A
         d(center): 7.669 A  angles  :    86.0    87.1   164.1    87.1   104.7   104.9
 atom  17 species Te : neighbors at    2.674   2.674   2.931   2.931 A
         d(center):10.341 A  angles  :    94.8    69.4   129.4   129.4    69.4    84.1
 atom  18 species Te : neighbors at    2.682   2.890   2.913   2.914 A
         d(center):12.701 A  angles  :    70.0   130.2   130.3    83.4    83.3    84.7
 atom  19 species Zr : neighbors at    2.870   2.879   2.879   2.914 A
         d(center): 0.036 A  angles  :    86.8    86.8    96.4    86.0    94.6   176.8
 atom  20 species Zr : neighbors at    2.870   2.879   2.879   2.913 A
         d(center): 6.540 A  angles  :    86.8    86.8    96.4    86.0    94.6   176.8
 atom  21 species Zr : neighbors at    2.870   2.879   2.879   2.913 A
         d(center): 3.926 A  angles  :    86.8    86.8    96.4    86.0    94.6   176.8
 atom  22 species Zr : neighbors at    2.870   2.879   2.879   2.914 A
         d(center): 7.628 A  angles  :    86.8    86.8    96.4    86.0   176.8    94.6
 atom  23 species Zr : neighbors at    2.890   2.899   2.900   2.917 A
         d(center): 3.965 A  angles  :    96.3    96.2   179.3    85.2    84.3    84.3
 atom  24 species Zr : neighbors at    2.890   2.899   2.900   2.917 A
         d(center): 7.657 A  angles  :    96.3    96.2   179.3    85.2    84.3    84.3
 atom  25 species Zr : neighbors at    2.890   2.899   2.900   2.917 A
         d(center): 3.965 A  angles  :    96.3    96.2   179.3    85.2    84.3    84.3
 atom  26 species Zr : neighbors at    2.890   2.899   2.900   2.917 A
         d(center): 7.658 A  angles  :    96.3    96.2   179.3    85.2    84.3    84.3
