Distances between atoms, up to dmax=  6.00 A   (* = with lattice translation)
  #1  #2   bond       d
   3   5  Ti-Te    2.73713 A  
   3  18  Ti-Te    2.73713 A  
   4  19  Ti-Te    2.73713 A  
   4   8  Ti-Te    2.73713 A  
   3  13  Ti-Te    2.77029 A  
   3  10  Ti-Te    2.77029 A  
   4  15  Ti-Te    2.77029 A  
   4  12  Ti-Te    2.77029 A  
   2   9  Ti-Te    2.77681 A *
   2  14  Ti-Te    2.77681 A  
   1  11  Ti-Te    2.77681 A  
   1  16  Ti-Te    2.77681 A *
   1  15  Ti-Te    2.79114 A *
   1  12  Ti-Te    2.79114 A  
   2  13  Ti-Te    2.79114 A  
   2  10  Ti-Te    2.79114 A *
   4   7  Ti-Te    2.81843 A  
   4  20  Ti-Te    2.81843 A  
   3   6  Ti-Te    2.81843 A  
   3  17  Ti-Te    2.81843 A  
   2   6  Ti-Te    2.83360 A  
   2  17  Ti-Te    2.83360 A *
   1   7  Ti-Te    2.83360 A  
   1  20  Ti-Te    2.83360 A *
   8  21  Te-Zr    2.84072 A *
  19  22  Te-Zr    2.84072 A *
   5  21  Te-Zr    2.84072 A  
  18  22  Te-Zr    2.84072 A *
  12  23  Te-Zr    2.87553 A *
  15  24  Te-Zr    2.87553 A *
  10  26  Te-Zr    2.87553 A *
  13  25  Te-Zr    2.87553 A  
  19  26  Te-Zr    2.88752 A *
   8  25  Te-Zr    2.88752 A *
  18  24  Te-Zr    2.88752 A *
   5  23  Te-Zr    2.88752 A  
   9  25  Te-Zr    2.89206 A *
  14  26  Te-Zr    2.89206 A  
  16  23  Te-Zr    2.89206 A *
  11  24  Te-Zr    2.89206 A  
  18  28  Te-Zr    2.89800 A  
   5  27  Te-Zr    2.89800 A  
   8  27  Te-Zr    2.89800 A *
  19  28  Te-Zr    2.89800 A  
  11  22  Te-Zr    2.90717 A *
  16  21  Te-Zr    2.90717 A *
   9  21  Te-Zr    2.90717 A *
  14  22  Te-Zr    2.90717 A *
  10  24  Te-Zr    2.92567 A  
  13  23  Te-Zr    2.92567 A *
  12  25  Te-Zr    2.92567 A *
  15  26  Te-Zr    2.92567 A  
  10  28  Te-Zr    2.95690 A  
  13  27  Te-Zr    2.95690 A  
  12  27  Te-Zr    2.95690 A *
  15  28  Te-Zr    2.95690 A  
  20  23  Te-Zr    2.96090 A *
  17  25  Te-Zr    2.96090 A *
   6  26  Te-Zr    2.96090 A  
   7  24  Te-Zr    2.96090 A  
  11  26  Te-Zr    2.96501 A *
  16  25  Te-Zr    2.96501 A *
   9  23  Te-Zr    2.96501 A  
  14  24  Te-Zr    2.96501 A *
   6  22  Te-Zr    2.96525 A  
  17  21  Te-Zr    2.96525 A *
  20  21  Te-Zr    2.96525 A *
   7  22  Te-Zr    2.96525 A  
  20  27  Te-Zr    3.04780 A *
   7  28  Te-Zr    3.04780 A  
  17  27  Te-Zr    3.04780 A  
   6  28  Te-Zr    3.04780 A  
   1  23  Ti-Zr    3.30810 A *
   1  24  Ti-Zr    3.30810 A  
   2  25  Ti-Zr    3.30810 A  
   2  26  Ti-Zr    3.30810 A  
   4  28  Ti-Zr    3.33841 A  
   3  27  Ti-Zr    3.33841 A  
   3  28  Ti-Zr    3.33841 A  
   4  27  Ti-Zr    3.33841 A *
  22  28  Zr-Zr    3.43978 A *
  21  27  Zr-Zr    3.43978 A  
   5  14  Te-Te    3.57565 A *
   9  18  Te-Te    3.57565 A *
  16  19  Te-Te    3.57565 A *
   8  11  Te-Te    3.57565 A *
  23  27  Zr-Zr    3.66760 A  
  24  28  Zr-Zr    3.66760 A *
  26  28  Zr-Zr    3.66760 A *
  25  27  Zr-Zr    3.66760 A  
  12  19  Te-Te    3.67309 A  
   8  15  Te-Te    3.67309 A  
  13  18  Te-Te    3.67309 A  
   5  10  Te-Te    3.67309 A  
  21  25  Zr-Zr    3.71977 A  
  22  26  Zr-Zr    3.71977 A *
  22  24  Zr-Zr    3.71977 A *
  21  23  Zr-Zr    3.71977 A  
   5   6  Te-Te    3.78587 A  
  17  18  Te-Te    3.78587 A  
   7   8  Te-Te    3.78587 A  
  19  20  Te-Te    3.78587 A  
  15  16  Te-Te    3.79235 A  
  11  12  Te-Te    3.79235 A  
  13  14  Te-Te    3.79235 A  
   9  10  Te-Te    3.79235 A  
   5  13  Te-Te    3.81072 A *
  10  18  Te-Te    3.81072 A *
   8  12  Te-Te    3.81072 A *
  15  19  Te-Te    3.81072 A *
  11  15  Te-Te    3.82806 A *
  12  16  Te-Te    3.82806 A *
   9  13  Te-Te    3.82806 A *
  10  14  Te-Te    3.82806 A *
   8  20  Te-Te    3.86055 A *
   7  19  Te-Te    3.86055 A *
   5  17  Te-Te    3.86055 A *
   6  18  Te-Te    3.86055 A *
   6  14  Te-Te    3.88825 A *
   9  17  Te-Te    3.88825 A *
   7  11  Te-Te    3.88825 A *
  16  20  Te-Te    3.88825 A *
   7  16  Te-Te    3.91304 A *
  11  20  Te-Te    3.91304 A *
   6   9  Te-Te    3.91304 A *
  14  17  Te-Te    3.91304 A *
   7  15  Te-Te    3.92917 A  
  12  20  Te-Te    3.92917 A  
   6  10  Te-Te    3.92917 A  
  13  17  Te-Te    3.92917 A  
   8  16  Te-Te    3.94425 A *
  11  19  Te-Te    3.94425 A *
   5   9  Te-Te    3.94425 A *
  14  18  Te-Te    3.94425 A *
   1   4  Ti-Ti    3.95204 A *
   1   4  Ti-Ti    3.95204 A  
   2   3  Ti-Ti    3.95204 A *
   2   3  Ti-Ti    3.95204 A  
  23  25  Zr-Zr    3.96426 A *
  24  26  Zr-Zr    3.96426 A *
  23  25  Zr-Zr    3.96426 A *
  24  26  Zr-Zr    3.96426 A *
   8  16  Te-Te    3.96665 A  
  11  19  Te-Te    3.96665 A  
  14  18  Te-Te    3.96665 A  
   5   9  Te-Te    3.96665 A  
   6  13  Te-Te    3.97463 A  
  10  17  Te-Te    3.97463 A  
   7  12  Te-Te    3.97463 A  
  15  20  Te-Te    3.97463 A  
   7  15  Te-Te    3.98018 A *
  12  20  Te-Te    3.98018 A *
   6  10  Te-Te    3.98018 A *
  13  17  Te-Te    3.98018 A *
   6  14  Te-Te    4.02095 A  
   9  17  Te-Te    4.02095 A  
   7  11  Te-Te    4.02095 A  
  16  20  Te-Te    4.02095 A  
  17  20  Te-Te    4.02756 A *
   6   7  Te-Te    4.02756 A  
   5  17  Te-Te    4.06670 A  
   6  18  Te-Te    4.06670 A  
   7  19  Te-Te    4.06670 A  
   8  20  Te-Te    4.06670 A  
   9  13  Te-Te    4.07681 A *
  10  14  Te-Te    4.07681 A *
  11  15  Te-Te    4.07681 A *
  12  16  Te-Te    4.07681 A *
   5  13  Te-Te    4.10380 A  
  10  18  Te-Te    4.10380 A  
   8  12  Te-Te    4.10380 A  
  15  19  Te-Te    4.10380 A  
  12  17  Te-Te    4.14028 A *
   6  15  Te-Te    4.14028 A  
   7  10  Te-Te    4.14028 A  
  13  20  Te-Te    4.14028 A *
   9  20  Te-Te    4.14035 A *
   7  14  Te-Te    4.14035 A *
   6  11  Te-Te    4.14035 A *
  16  17  Te-Te    4.14035 A *
  22  26  Zr-Zr    4.18676 A  
  21  25  Zr-Zr    4.18676 A *
  21  23  Zr-Zr    4.18676 A *
  22  24  Zr-Zr    4.18676 A  
  23  27  Zr-Zr    4.24608 A *
  24  28  Zr-Zr    4.24608 A  
  25  27  Zr-Zr    4.24608 A *
  26  28  Zr-Zr    4.24608 A  
   9  12  Te-Te    4.27373 A *
  14  15  Te-Te    4.27373 A  
  10  11  Te-Te    4.27373 A  
  13  16  Te-Te    4.27373 A *
  11  18  Te-Te    4.38144 A *
   5  16  Te-Te    4.38144 A *
   8   9  Te-Te    4.38144 A *
  14  19  Te-Te    4.38144 A *
  21  27  Zr-Zr    4.46429 A *
  22  28  Zr-Zr    4.46429 A  
   8  13  Te-Te    4.48714 A *
  10  19  Te-Te    4.48714 A  
   5  12  Te-Te    4.48714 A *
  15  18  Te-Te    4.48714 A  
   5   8  Te-Te    4.59293 A *
  18  19  Te-Te    4.59293 A  
   2   5  Ti-Te    4.66777 A *
   2  18  Ti-Te    4.66777 A *
   1   8  Ti-Te    4.66777 A *
   1  19  Ti-Te    4.66777 A *
  11  28  Te-Zr    4.69511 A *
  16  27  Te-Zr    4.69511 A *
   9  27  Te-Zr    4.69511 A *
  14  28  Te-Zr    4.69511 A *
   3   9  Ti-Te    4.76209 A *
   3  14  Ti-Te    4.76209 A *
   4  11  Ti-Te    4.76209 A *
   4  16  Ti-Te    4.76209 A *
   2   5  Ti-Te    4.79828 A  
   2  18  Ti-Te    4.79828 A *
   1  19  Ti-Te    4.79828 A *
   1   8  Ti-Te    4.79828 A  
   6  24  Te-Zr    4.80629 A *
  17  23  Te-Zr    4.80629 A  
   7  26  Te-Zr    4.80629 A *
  20  25  Te-Zr    4.80629 A *
   7  26  Te-Zr    4.80700 A *
  20  25  Te-Zr    4.80700 A *
   6  24  Te-Zr    4.80700 A *
  17  23  Te-Zr    4.80700 A *
  10  22  Te-Zr    4.81610 A *
  13  21  Te-Zr    4.81610 A  
  12  21  Te-Zr    4.81610 A *
  15  22  Te-Zr    4.81610 A *
   1  19  Ti-Te    4.81638 A  
   1   8  Ti-Te    4.81638 A *
   2   5  Ti-Te    4.81638 A *
   2  18  Ti-Te    4.81638 A  
   4  11  Ti-Te    4.82988 A *
   4  16  Ti-Te    4.82988 A *
   3   9  Ti-Te    4.82988 A *
   3  14  Ti-Te    4.82988 A *
   3   9  Ti-Te    4.83020 A  
   3  14  Ti-Te    4.83020 A  
   4  11  Ti-Te    4.83020 A  
   4  16  Ti-Te    4.83020 A  
   5  25  Te-Zr    4.85766 A  
  18  26  Te-Zr    4.85766 A *
   8  23  Te-Zr    4.85766 A *
  19  24  Te-Zr    4.85766 A *
  10  22  Te-Zr    4.87935 A *
  13  21  Te-Zr    4.87935 A *
  12  21  Te-Zr    4.87935 A *
  15  22  Te-Zr    4.87935 A *
  18  26  Te-Zr    4.93522 A *
   5  25  Te-Zr    4.93522 A *
   8  23  Te-Zr    4.93522 A *
  19  24  Te-Zr    4.93522 A *
  11  28  Te-Zr    4.93951 A  
  16  27  Te-Zr    4.93951 A *
   9  27  Te-Zr    4.93951 A  
  14  28  Te-Zr    4.93951 A  
   7  26  Te-Zr    4.99306 A  
  17  23  Te-Zr    4.99306 A *
  20  25  Te-Zr    4.99306 A *
   6  24  Te-Zr    4.99306 A  
   3  22  Ti-Zr    5.00238 A *
   4  22  Ti-Zr    5.00238 A *
   3  21  Ti-Zr    5.00238 A  
   4  21  Ti-Zr    5.00238 A *
  12  21  Te-Zr    5.02727 A *
  15  22  Te-Zr    5.02727 A  
  10  22  Te-Zr    5.02727 A  
  13  21  Te-Zr    5.02727 A *
   4  23  Ti-Zr    5.04469 A *
   4  24  Ti-Zr    5.04469 A *
   3  25  Ti-Zr    5.04469 A  
   3  26  Ti-Zr    5.04469 A *
   1  27  Ti-Zr    5.05844 A *
   1  28  Ti-Zr    5.05844 A *
   2  28  Ti-Zr    5.05844 A *
   2  27  Ti-Zr    5.05844 A  
   3  23  Ti-Zr    5.07184 A  
   3  24  Ti-Zr    5.07184 A *
   4  26  Ti-Zr    5.07184 A *
   4  25  Ti-Zr    5.07184 A *
   2  21  Ti-Zr    5.08650 A  
   2  22  Ti-Zr    5.08650 A *
   1  21  Ti-Zr    5.08650 A *
   1  22  Ti-Zr    5.08650 A *
   8  23  Te-Zr    5.09876 A *
  19  24  Te-Zr    5.09876 A  
   5  25  Te-Zr    5.09876 A *
  18  26  Te-Zr    5.09876 A  
   9  27  Te-Zr    5.10852 A *
  14  28  Te-Zr    5.10852 A *
  11  28  Te-Zr    5.10852 A *
  16  27  Te-Zr    5.10852 A *
   1  26  Ti-Zr    5.16924 A *
   1  25  Ti-Zr    5.16924 A *
   2  23  Ti-Zr    5.16924 A *
   2  24  Ti-Zr    5.16924 A *
   2  24  Ti-Zr    5.19158 A *
   2  23  Ti-Zr    5.19158 A *
   1  25  Ti-Zr    5.19158 A *
   1  26  Ti-Zr    5.19158 A *
   8  19  Te-Te    5.21044 A *
   5  18  Te-Te    5.21044 A *
   8  19  Te-Te    5.24374 A *
   5  18  Te-Te    5.24374 A *
   2  22  Ti-Zr    5.25070 A  
   2  21  Ti-Zr    5.25070 A *
   1  21  Ti-Zr    5.25070 A *
   1  22  Ti-Zr    5.25070 A  
   4  23  Ti-Zr    5.26074 A *
   4  24  Ti-Zr    5.26074 A  
   3  25  Ti-Zr    5.26074 A *
   3  26  Ti-Zr    5.26074 A  
  19  21  Te-Zr    5.26401 A *
   8  22  Te-Zr    5.26401 A  
   5  22  Te-Zr    5.26401 A  
  18  21  Te-Zr    5.26401 A *
   8  26  Te-Zr    5.27703 A  
  19  25  Te-Zr    5.27703 A *
  18  23  Te-Zr    5.27703 A *
   5  24  Te-Zr    5.27703 A  
   1  27  Ti-Zr    5.28577 A *
   1  28  Ti-Zr    5.28577 A  
   2  27  Ti-Zr    5.28577 A *
   2  28  Ti-Zr    5.28577 A  
   3  23  Ti-Zr    5.28678 A *
   3  24  Ti-Zr    5.28678 A  
   4  26  Ti-Zr    5.28678 A  
   4  25  Ti-Zr    5.28678 A *
  13  24  Te-Zr    5.30487 A *
  10  23  Te-Zr    5.30487 A  
  12  26  Te-Zr    5.30487 A *
  15  25  Te-Zr    5.30487 A *
  16  26  Te-Zr    5.33069 A  
  11  25  Te-Zr    5.33069 A *
   9  24  Te-Zr    5.33069 A  
  14  23  Te-Zr    5.33069 A *
   3  21  Ti-Zr    5.33091 A *
   4  21  Ti-Zr    5.33091 A *
   3  22  Ti-Zr    5.33091 A  
   4  22  Ti-Zr    5.33091 A  
   9  22  Te-Zr    5.34055 A *
  14  21  Te-Zr    5.34055 A *
  11  21  Te-Zr    5.34055 A *
  16  22  Te-Zr    5.34055 A *
  10  13  Te-Te    5.34131 A *
  12  15  Te-Te    5.34131 A *
   5  28  Te-Zr    5.37358 A  
  18  27  Te-Zr    5.37358 A  
  19  27  Te-Zr    5.37358 A *
   8  28  Te-Zr    5.37358 A  
   7  27  Te-Zr    5.37475 A *
  20  28  Te-Zr    5.37475 A  
   6  27  Te-Zr    5.37475 A  
  17  28  Te-Zr    5.37475 A  
  15  27  Te-Zr    5.37547 A *
  12  28  Te-Zr    5.37547 A  
  10  27  Te-Zr    5.37547 A  
  13  28  Te-Zr    5.37547 A  
   9  26  Te-Zr    5.38001 A *
  14  25  Te-Zr    5.38001 A  
  11  23  Te-Zr    5.38001 A *
  16  24  Te-Zr    5.38001 A *
   6  21  Te-Zr    5.39211 A  
  17  22  Te-Zr    5.39211 A *
   7  21  Te-Zr    5.39211 A *
  20  22  Te-Zr    5.39211 A *
   6  25  Te-Zr    5.40173 A  
  17  26  Te-Zr    5.40173 A *
   7  23  Te-Zr    5.40173 A *
  20  24  Te-Zr    5.40173 A *
  15  23  Te-Zr    5.40365 A *
  12  24  Te-Zr    5.40365 A  
  13  26  Te-Zr    5.40365 A  
  10  25  Te-Zr    5.40365 A *
  11  16  Te-Te    5.43471 A *
   9  14  Te-Te    5.43471 A *
  11  16  Te-Te    5.43529 A *
   9  14  Te-Te    5.43529 A *
   5  18  Te-Te    5.47427 A  
   8  19  Te-Te    5.47427 A  
   3   7  Ti-Te    5.49564 A  
   3  20  Ti-Te    5.49564 A *
   4   6  Ti-Te    5.49564 A  
   4  17  Ti-Te    5.49564 A *
  10  13  Te-Te    5.54057 A  
  12  15  Te-Te    5.54057 A  
   9  14  Te-Te    5.55363 A *
  11  16  Te-Te    5.55363 A *
   1  10  Ti-Te    5.57734 A  
   1  13  Ti-Te    5.57734 A *
   2  12  Ti-Te    5.57734 A *
   2  15  Ti-Te    5.57734 A  
  12  15  Te-Te    5.58228 A *
  10  13  Te-Te    5.58228 A *
   6  17  Te-Te    5.59684 A *
   7  20  Te-Te    5.59684 A *
   2  11  Ti-Te    5.61304 A *
   2  16  Ti-Te    5.61304 A *
   1   9  Ti-Te    5.61304 A *
   1  14  Ti-Te    5.61304 A *
   4  10  Ti-Te    5.62573 A  
   4  13  Ti-Te    5.62573 A *
   3  12  Ti-Te    5.62573 A *
   3  15  Ti-Te    5.62573 A  
   7  20  Te-Te    5.63686 A  
   6  17  Te-Te    5.63686 A  
   6  17  Te-Te    5.66719 A *
   7  20  Te-Te    5.66719 A *
   2   8  Ti-Te    5.75159 A *
   2  19  Ti-Te    5.75159 A *
   1  18  Ti-Te    5.75159 A *
   1   5  Ti-Te    5.75159 A *
   8  17  Te-Te    5.77743 A *
   6  19  Te-Te    5.77743 A *
   5  20  Te-Te    5.77743 A *
   7  18  Te-Te    5.77743 A *
  12  13  Te-Te    5.79144 A *
  10  15  Te-Te    5.79144 A *
  10  15  Te-Te    5.79144 A *
  12  13  Te-Te    5.79144 A *
   9  16  Te-Te    5.79178 A *
  11  14  Te-Te    5.79178 A *
   4  18  Ti-Te    5.80504 A  
   4   5  Ti-Te    5.80504 A *
   3   8  Ti-Te    5.80504 A *
   3  19  Ti-Te    5.80504 A  
   8  17  Te-Te    5.82657 A *
   6  19  Te-Te    5.82657 A *
   5  20  Te-Te    5.82657 A *
   7  18  Te-Te    5.82657 A *
   9  16  Te-Te    5.84819 A *
  11  14  Te-Te    5.84819 A *
  11  14  Te-Te    5.84819 A *
   9  16  Te-Te    5.84819 A *
  10  15  Te-Te    5.86456 A  
  12  13  Te-Te    5.86456 A *
   5  20  Te-Te    5.91717 A *
   7  18  Te-Te    5.91717 A  
   8  17  Te-Te    5.91717 A *
   6  19  Te-Te    5.91717 A  
  17  27  Te-Zr    5.96645 A *
   6  28  Te-Zr    5.96645 A *
   7  28  Te-Zr    5.96645 A *
  20  27  Te-Zr    5.96645 A *

Nearest neighbors for each atom (up to 4)

 atom   1 species Ti : neighbors at    2.777   2.777   2.791   2.791 A
         d(center):10.730 A  angles  :   180.0    94.1    85.9    85.9    94.1   180.0
 atom   2 species Ti : neighbors at    2.777   2.777   2.791   2.791 A
         d(center): 5.165 A  angles  :   180.0    94.1    85.9    85.9    94.1   180.0
 atom   3 species Ti : neighbors at    2.737   2.737   2.770   2.770 A
         d(center): 5.165 A  angles  :   180.0    96.3    83.7    83.7    96.3   180.0
 atom   4 species Ti : neighbors at    2.737   2.737   2.770   2.770 A
         d(center):10.730 A  angles  :   180.0    96.3    83.7    83.7    96.3   180.0
 atom   5 species Te : neighbors at    2.737   2.841   2.888   2.898 A
         d(center): 2.972 A  angles  :   127.5   128.7    72.6    81.0    73.6    78.7
 atom   6 species Te : neighbors at    2.818   2.834   2.961   2.965 A
         d(center): 5.465 A  angles  :    88.7   131.1   134.3    69.6   129.8    89.9
 atom   7 species Te : neighbors at    2.818   2.834   2.961   2.965 A
         d(center): 8.625 A  angles  :    88.7   131.1   134.3    69.6   129.8    89.9
 atom   8 species Te : neighbors at    2.737   2.841   2.888   2.898 A
         d(center):11.547 A  angles  :   127.5   128.7    72.6    81.0    73.6    78.7
 atom   9 species Te : neighbors at    2.777   2.892   2.907   2.965 A
         d(center): 6.295 A  angles  :    71.4   127.0   128.4    79.8    85.2    91.0
 atom  10 species Te : neighbors at    2.770   2.791   2.876   2.926 A
         d(center): 6.619 A  angles  :    90.6   126.6   136.3    71.4   130.5    86.2
 atom  11 species Te : neighbors at    2.777   2.892   2.907   2.965 A
         d(center):10.422 A  angles  :    71.4   127.0   128.4    79.8    85.2    91.0
 atom  12 species Te : neighbors at    2.770   2.791   2.876   2.926 A
         d(center):12.403 A  angles  :    90.6   126.6   136.3    71.4   130.5    86.2
 atom  13 species Te : neighbors at    2.770   2.791   2.876   2.926 A
         d(center): 4.988 A  angles  :    90.6   126.6   136.3    71.4   130.5    86.2
 atom  14 species Te : neighbors at    2.777   2.892   2.907   2.965 A
         d(center): 7.771 A  angles  :    71.4   127.0   128.4    79.8    85.2    91.0
 atom  15 species Te : neighbors at    2.770   2.791   2.876   2.926 A
         d(center): 9.579 A  angles  :    90.6   126.6   136.3    71.4   130.5    86.2
 atom  16 species Te : neighbors at    2.777   2.892   2.907   2.965 A
         d(center):12.973 A  angles  :    71.4   127.0   128.4    79.8    85.2    91.0
 atom  17 species Te : neighbors at    2.818   2.834   2.961   2.965 A
         d(center): 6.274 A  angles  :    88.7   131.1   134.3    69.6   129.8    89.9
 atom  18 species Te : neighbors at    2.737   2.841   2.888   2.898 A
         d(center): 7.714 A  angles  :   127.5   128.7    72.6    81.0    73.6    78.7
 atom  19 species Te : neighbors at    2.737   2.841   2.888   2.898 A
         d(center):10.579 A  angles  :   127.5   128.7    72.6    81.0    73.6    78.7
 atom  20 species Te : neighbors at    2.818   2.834   2.961   2.965 A
         d(center):13.105 A  angles  :    88.7   131.1   134.3    69.6   129.8    89.9
 atom  21 species Zr : neighbors at    2.841   2.841   2.907   2.907 A
         d(center): 0.215 A  angles  :   107.9    86.7    99.3    99.3    86.7   169.9
 atom  22 species Zr : neighbors at    2.841   2.841   2.907   2.907 A
         d(center): 6.654 A  angles  :   107.9    86.7    99.3    99.3    86.7   169.9
 atom  23 species Zr : neighbors at    2.876   2.888   2.892   2.926 A
         d(center): 3.827 A  angles  :   102.3    90.0   173.4    98.6    81.9    94.5
 atom  24 species Zr : neighbors at    2.876   2.888   2.892   2.926 A
         d(center): 7.819 A  angles  :   102.3    90.0   173.4    98.6    81.9    94.5
 atom  25 species Zr : neighbors at    2.876   2.888   2.892   2.926 A
         d(center): 3.827 A  angles  :   102.3    90.0   173.4    98.6    81.9    94.5
 atom  26 species Zr : neighbors at    2.876   2.888   2.892   2.926 A
         d(center): 7.784 A  angles  :   102.3    90.0   173.4    98.6    81.9    94.5
 atom  27 species Zr : neighbors at    2.898   2.898   2.957   2.957 A
         d(center): 3.655 A  angles  :   104.8    89.0   100.1   100.1    89.0   165.2
 atom  28 species Zr : neighbors at    2.898   2.898   2.957   2.957 A
         d(center): 7.892 A  angles  :   104.8    89.0   100.1   100.1    89.0   165.2
